[ T-Cross ]
    title = [t-cross] in region mesh
     mesh =  reg            # mesh type is region-wise
      reg =    1            # number of crossing regions
      non     r-from    r-to       area
      1       108       208        1.000000    
   e-type =    3            # e-mesh is log given by emin, emax and ne
     emin =  1.0000000E-02  # minimum value of e-mesh points
     emax =   150.0000      # maximum value of e-mesh points
#    edel =  2.4039514E-02  # mesh width of e-mesh points
       ne =    400          # number of e-mesh points
#    data = ( e(i), i = 1, ne + 1 )
#           1.00000E-02  1.02433E-02  1.04925E-02  1.07478E-02  1.10093E-02
#           1.12772E-02  1.15516E-02  1.18326E-02  1.21205E-02  1.24154E-02
#           1.27175E-02  1.30269E-02  1.33439E-02  1.36686E-02  1.40011E-02
#           1.43418E-02  1.46907E-02  1.50482E-02  1.54143E-02  1.57894E-02
#           1.61735E-02  1.65670E-02  1.69701E-02  1.73830E-02  1.78060E-02
#           1.82392E-02  1.86830E-02  1.91375E-02  1.96032E-02  2.00801E-02
#           2.05687E-02  2.10692E-02  2.15818E-02  2.21069E-02  2.26448E-02
#           2.31957E-02  2.37601E-02  2.43382E-02  2.49304E-02  2.55369E-02
#           2.61583E-02  2.67947E-02  2.74467E-02  2.81145E-02  2.87985E-02
#           2.94992E-02  3.02169E-02  3.09521E-02  3.17052E-02  3.24766E-02
#           3.32668E-02  3.40762E-02  3.49053E-02  3.57546E-02  3.66246E-02
#           3.75157E-02  3.84284E-02  3.93634E-02  4.03212E-02  4.13022E-02
#           4.23071E-02  4.33365E-02  4.43909E-02  4.54710E-02  4.65773E-02
#           4.77106E-02  4.88714E-02  5.00605E-02  5.12785E-02  5.25262E-02
#           5.38042E-02  5.51133E-02  5.64542E-02  5.78278E-02  5.92348E-02
#           6.06760E-02  6.21523E-02  6.36645E-02  6.52135E-02  6.68002E-02
#           6.84255E-02  7.00904E-02  7.17957E-02  7.35426E-02  7.53319E-02
#           7.71648E-02  7.90423E-02  8.09655E-02  8.29354E-02  8.49533E-02
#           8.70203E-02  8.91376E-02  9.13064E-02  9.35279E-02  9.58035E-02
#           9.81345E-02  1.00522E-01  1.02968E-01  1.05473E-01  1.08040E-01
#           1.10668E-01  1.13361E-01  1.16119E-01  1.18944E-01  1.21838E-01
#           1.24803E-01  1.27839E-01  1.30950E-01  1.34136E-01  1.37399E-01
#           1.40742E-01  1.44167E-01  1.47675E-01  1.51268E-01  1.54948E-01
#           1.58718E-01  1.62580E-01  1.66535E-01  1.70587E-01  1.74738E-01
#           1.78989E-01  1.83344E-01  1.87805E-01  1.92375E-01  1.97055E-01
#           2.01850E-01  2.06761E-01  2.11792E-01  2.16945E-01  2.22223E-01
#           2.27630E-01  2.33169E-01  2.38842E-01  2.44653E-01  2.50605E-01
#           2.56703E-01  2.62949E-01  2.69346E-01  2.75900E-01  2.82613E-01
#           2.89489E-01  2.96532E-01  3.03747E-01  3.11138E-01  3.18708E-01
#           3.26462E-01  3.34405E-01  3.42542E-01  3.50876E-01  3.59413E-01
#           3.68158E-01  3.77116E-01  3.86291E-01  3.95690E-01  4.05317E-01
#           4.15179E-01  4.25281E-01  4.35628E-01  4.46227E-01  4.57084E-01
#           4.68205E-01  4.79597E-01  4.91266E-01  5.03219E-01  5.15463E-01
#           5.28005E-01  5.40851E-01  5.54011E-01  5.67490E-01  5.81298E-01
#           5.95441E-01  6.09929E-01  6.24769E-01  6.39970E-01  6.55541E-01
#           6.71491E-01  6.87828E-01  7.04564E-01  7.21706E-01  7.39266E-01
#           7.57253E-01  7.75678E-01  7.94551E-01  8.13883E-01  8.33685E-01
#           8.53969E-01  8.74747E-01  8.96030E-01  9.17831E-01  9.40163E-01
#           9.63038E-01  9.86469E-01  1.01047E+00  1.03506E+00  1.06024E+00
#           1.08604E+00  1.11246E+00  1.13953E+00  1.16725E+00  1.19565E+00
#           1.22474E+00  1.25454E+00  1.28507E+00  1.31633E+00  1.34836E+00
#           1.38117E+00  1.41477E+00  1.44920E+00  1.48446E+00  1.52057E+00
#           1.55757E+00  1.59547E+00  1.63429E+00  1.67405E+00  1.71478E+00
#           1.75650E+00  1.79924E+00  1.84302E+00  1.88786E+00  1.93379E+00
#           1.98084E+00  2.02904E+00  2.07841E+00  2.12898E+00  2.18078E+00
#           2.23384E+00  2.28819E+00  2.34386E+00  2.40089E+00  2.45930E+00
#           2.51914E+00  2.58043E+00  2.64322E+00  2.70753E+00  2.77341E+00
#           2.84088E+00  2.91001E+00  2.98081E+00  3.05333E+00  3.12762E+00
#           3.20372E+00  3.28167E+00  3.36152E+00  3.44330E+00  3.52708E+00
#           3.61290E+00  3.70080E+00  3.79085E+00  3.88308E+00  3.97756E+00
#           4.07434E+00  4.17347E+00  4.27501E+00  4.37903E+00  4.48557E+00
#           4.59471E+00  4.70650E+00  4.82102E+00  4.93832E+00  5.05847E+00
#           5.18155E+00  5.30762E+00  5.43676E+00  5.56904E+00  5.70453E+00
#           5.84333E+00  5.98550E+00  6.13114E+00  6.28031E+00  6.43312E+00
#           6.58964E+00  6.74997E+00  6.91420E+00  7.08243E+00  7.25475E+00
#           7.43126E+00  7.61207E+00  7.79728E+00  7.98700E+00  8.18133E+00
#           8.38038E+00  8.58428E+00  8.79315E+00  9.00709E+00  9.22624E+00
#           9.45072E+00  9.68067E+00  9.91620E+00  1.01575E+01  1.04046E+01
#           1.06578E+01  1.09171E+01  1.11827E+01  1.14548E+01  1.17335E+01
#           1.20190E+01  1.23114E+01  1.26109E+01  1.29178E+01  1.32321E+01
#           1.35540E+01  1.38838E+01  1.42216E+01  1.45676E+01  1.49221E+01
#           1.52851E+01  1.56570E+01  1.60380E+01  1.64282E+01  1.68279E+01
#           1.72374E+01  1.76568E+01  1.80864E+01  1.85264E+01  1.89772E+01
#           1.94389E+01  1.99119E+01  2.03963E+01  2.08926E+01  2.14009E+01
#           2.19216E+01  2.24550E+01  2.30014E+01  2.35610E+01  2.41343E+01
#           2.47215E+01  2.53230E+01  2.59391E+01  2.65702E+01  2.72167E+01
#           2.78789E+01  2.85572E+01  2.92520E+01  2.99637E+01  3.06928E+01
#           3.14396E+01  3.22045E+01  3.29881E+01  3.37907E+01  3.46128E+01
#           3.54550E+01  3.63177E+01  3.72013E+01  3.81064E+01  3.90336E+01
#           3.99833E+01  4.09561E+01  4.19526E+01  4.29734E+01  4.40189E+01
#           4.50900E+01  4.61870E+01  4.73108E+01  4.84619E+01  4.96410E+01
#           5.08488E+01  5.20860E+01  5.33533E+01  5.46514E+01  5.59812E+01
#           5.73432E+01  5.87384E+01  6.01676E+01  6.16315E+01  6.31311E+01
#           6.46671E+01  6.62405E+01  6.78522E+01  6.95031E+01  7.11941E+01
#           7.29263E+01  7.47007E+01  7.65182E+01  7.83800E+01  8.02870E+01
#           8.22405E+01  8.42414E+01  8.62911E+01  8.83906E+01  9.05412E+01
#           9.27442E+01  9.50007E+01  9.73122E+01  9.96799E+01  1.02105E+02
#           1.04589E+02  1.07134E+02  1.09741E+02  1.12411E+02  1.15146E+02
#           1.17948E+02  1.20817E+02  1.23757E+02  1.26768E+02  1.29852E+02
#           1.33012E+02  1.36248E+02  1.39563E+02  1.42959E+02  1.46437E+02
#           1.50000E+02
     unit =    2            # unit is [1/cm^2/(MeV/n)/source]
     axis =  eng            # axis of output
     file = detector-09.out  # file name of output for the above axis
   output = f-curr          # surface crossing forward current spectrum
     part =  neutron  
# kf/name :  2112     
#    used :        main (  %)        temp (  %)       total (  %)
#  memory :         414 (  0)           0 (  0)         414 (  0)

#------------------------------------------------------------------------------
#newpage:
#   no. =    1   reg = 108 - 208

x: Energy [MeV/n]
y:  F-Curr [1/cm^2/(MeV/n)/source]         
p: xlog ylog afac(0.8) form(0.9)
h: n            x            y(neutron ),hh0l   n 
#  e-lower      e-upper      neutron     r.err 
   1.0000E-02   1.0243E-02   9.9462E-04  0.0909
   1.0243E-02   1.0493E-02   7.3026E-04  0.1048
   1.0493E-02   1.0748E-02   8.6176E-04  0.0953
   1.0748E-02   1.1009E-02   9.3307E-04  0.0905
   1.1009E-02   1.1277E-02   9.0344E-04  0.0909
   1.1277E-02   1.1552E-02   9.4029E-04  0.0880
   1.1552E-02   1.1833E-02   8.6814E-04  0.0905
   1.1833E-02   1.2121E-02   7.1553E-04  0.0985
   1.2121E-02   1.2415E-02   8.2739E-04  0.0905
   1.2415E-02   1.2718E-02   9.6664E-04  0.0828
   1.2718E-02   1.3027E-02   8.0794E-04  0.0894
   1.3027E-02   1.3344E-02   9.4019E-04  0.0819
   1.3344E-02   1.3669E-02   9.7330E-04  0.0796
   1.3669E-02   1.4001E-02   8.2991E-04  0.0851
   1.4001E-02   1.4342E-02   9.7458E-04  0.0776
   1.4342E-02   1.4691E-02   8.9985E-04  0.0798
   1.4691E-02   1.5048E-02   8.1133E-04  0.0830
   1.5048E-02   1.5414E-02   9.1770E-04  0.0772
   1.5414E-02   1.5789E-02   8.8523E-04  0.0776
   1.5789E-02   1.6174E-02   9.1627E-04  0.0754
   1.6174E-02   1.6567E-02   8.4876E-04  0.0774
   1.6567E-02   1.6970E-02   8.8814E-04  0.0747
   1.6970E-02   1.7383E-02   9.3002E-04  0.0722
   1.7383E-02   1.7806E-02   9.7413E-04  0.0697
   1.7806E-02   1.8239E-02   9.8792E-04  0.0684
   1.8239E-02   1.8683E-02   1.0005E-03  0.0671
   1.8683E-02   1.9138E-02   9.8994E-04  0.0667
   1.9138E-02   1.9603E-02   9.5784E-04  0.0670
   1.9603E-02   2.0080E-02   9.4767E-04  0.0665
   2.0080E-02   2.0569E-02   8.8013E-04  0.0682
   2.0569E-02   2.1069E-02   8.9919E-04  0.0667
   2.1069E-02   2.1582E-02   8.7002E-04  0.0670
   2.1582E-02   2.2107E-02   9.3315E-04  0.0639
   2.2107E-02   2.2645E-02   9.5933E-04  0.0623
   2.2645E-02   2.3196E-02   1.1035E-03  0.0574
   2.3196E-02   2.3760E-02   9.3556E-04  0.0615
   2.3760E-02   2.4338E-02   1.0794E-03  0.0566
   2.4338E-02   2.4930E-02   9.7270E-04  0.0589
   2.4930E-02   2.5537E-02   9.8586E-04  0.0578
   2.5537E-02   2.6158E-02   8.9163E-04  0.0601
   2.6158E-02   2.6795E-02   9.6787E-04  0.0570
   2.6795E-02   2.7447E-02   9.9089E-04  0.0556
   2.7447E-02   2.8114E-02   1.0213E-03  0.0542
   2.8114E-02   2.8799E-02   1.0145E-03  0.0537
   2.8799E-02   2.9499E-02   1.0418E-03  0.0523
   2.9499E-02   3.0217E-02   9.4463E-04  0.0543
   3.0217E-02   3.0952E-02   9.8476E-04  0.0526
   3.0952E-02   3.1705E-02   9.5606E-04  0.0527
   3.1705E-02   3.2477E-02   9.6706E-04  0.0518
   3.2477E-02   3.3267E-02   1.0276E-03  0.0496
   3.3267E-02   3.4076E-02   1.0576E-03  0.0483
   3.4076E-02   3.4905E-02   9.6249E-04  0.0501
   3.4905E-02   3.5755E-02   9.5611E-04  0.0496
   3.5755E-02   3.6625E-02   1.0231E-03  0.0474
   3.6625E-02   3.7516E-02   9.4489E-04  0.0487
   3.7516E-02   3.8428E-02   1.0320E-03  0.0461
   3.8428E-02   3.9363E-02   1.0417E-03  0.0453
   3.9363E-02   4.0321E-02   1.0232E-03  0.0452
   4.0321E-02   4.1302E-02   1.0275E-03  0.0445
   4.1302E-02   4.2307E-02   1.0767E-03  0.0430
   4.2307E-02   4.3337E-02   9.9284E-04  0.0442
   4.3337E-02   4.4391E-02   1.0375E-03  0.0428
   4.4391E-02   4.5471E-02   9.9809E-04  0.0431
   4.5471E-02   4.6577E-02   1.0413E-03  0.0417
   4.6577E-02   4.7711E-02   1.1295E-03  0.0395
   4.7711E-02   4.8871E-02   9.8377E-04  0.0418
   4.8871E-02   5.0061E-02   1.0159E-03  0.0407
   5.0061E-02   5.1279E-02   9.8357E-04  0.0409
   5.1279E-02   5.2526E-02   1.0436E-03  0.0392
   5.2526E-02   5.3804E-02   1.0610E-03  0.0384
   5.3804E-02   5.5113E-02   1.0649E-03  0.0379
   5.5113E-02   5.6454E-02   1.0798E-03  0.0372
   5.6454E-02   5.7828E-02   9.8284E-04  0.0385
   5.7828E-02   5.9235E-02   1.0434E-03  0.0369
   5.9235E-02   6.0676E-02   1.0838E-03  0.0358
   6.0676E-02   6.2152E-02   1.0851E-03  0.0353
   6.2152E-02   6.3665E-02   1.0395E-03  0.0357
   6.3665E-02   6.5214E-02   1.0717E-03  0.0347
   6.5214E-02   6.6800E-02   1.0550E-03  0.0346
   6.6800E-02   6.8426E-02   1.1087E-03  0.0333
   6.8426E-02   7.0090E-02   1.0367E-03  0.0340
   7.0090E-02   7.1796E-02   1.0872E-03  0.0328
   7.1796E-02   7.3543E-02   1.0556E-03  0.0329
   7.3543E-02   7.5332E-02   1.0641E-03  0.0324
   7.5332E-02   7.7165E-02   1.0857E-03  0.0317
   7.7165E-02   7.9042E-02   1.0482E-03  0.0319
   7.9042E-02   8.0965E-02   1.1387E-03  0.0302
   8.0965E-02   8.2935E-02   1.0884E-03  0.0305
   8.2935E-02   8.4953E-02   1.1527E-03  0.0293
   8.4953E-02   8.7020E-02   1.0692E-03  0.0301
   8.7020E-02   8.9138E-02   1.1335E-03  0.0289
   8.9138E-02   9.1306E-02   1.0753E-03  0.0293
   9.1306E-02   9.3528E-02   1.1190E-03  0.0284
   9.3528E-02   9.5804E-02   1.1346E-03  0.0278
   9.5804E-02   9.8134E-02   1.0828E-03  0.0281
   9.8134E-02   1.0052E-01   1.1140E-03  0.0274
   1.0052E-01   1.0297E-01   1.1497E-03  0.0267
   1.0297E-01   1.0547E-01   1.1160E-03  0.0267
   1.0547E-01   1.0804E-01   1.1059E-03  0.0265
   1.0804E-01   1.1067E-01   1.1610E-03  0.0256
   1.1067E-01   1.1336E-01   1.1479E-03  0.0254
   1.1336E-01   1.1612E-01   1.0855E-03  0.0258
   1.1612E-01   1.1894E-01   1.1503E-03  0.0248
   1.1894E-01   1.2184E-01   1.1513E-03  0.0245
   1.2184E-01   1.2480E-01   1.1429E-03  0.0243
   1.2480E-01   1.2784E-01   1.2047E-03  0.0234
   1.2784E-01   1.3095E-01   1.1535E-03  0.0236
   1.3095E-01   1.3414E-01   1.2084E-03  0.0228
   1.3414E-01   1.3740E-01   1.1643E-03  0.0229
   1.3740E-01   1.4074E-01   1.1822E-03  0.0225
   1.4074E-01   1.4417E-01   1.1512E-03  0.0225
   1.4417E-01   1.4767E-01   1.1461E-03  0.0223
   1.4767E-01   1.5127E-01   1.2157E-03  0.0214
   1.5127E-01   1.5495E-01   1.1895E-03  0.0214
   1.5495E-01   1.5872E-01   1.2462E-03  0.0206
   1.5872E-01   1.6258E-01   1.2357E-03  0.0205
   1.6258E-01   1.6654E-01   1.2395E-03  0.0202
   1.6654E-01   1.7059E-01   1.2688E-03  0.0197
   1.7059E-01   1.7474E-01   1.2504E-03  0.0196
   1.7474E-01   1.7899E-01   1.2600E-03  0.0193
   1.7899E-01   1.8334E-01   1.2377E-03  0.0193
   1.8334E-01   1.8781E-01   1.2872E-03  0.0187
   1.8781E-01   1.9237E-01   1.3067E-03  0.0183
   1.9237E-01   1.9706E-01   1.2755E-03  0.0183
   1.9706E-01   2.0185E-01   1.3236E-03  0.0178
   2.0185E-01   2.0676E-01   1.3192E-03  0.0176
   2.0676E-01   2.1179E-01   1.3287E-03  0.0173
   2.1179E-01   2.1694E-01   1.3681E-03  0.0168
   2.1694E-01   2.2222E-01   1.3186E-03  0.0170
   2.2222E-01   2.2763E-01   1.3353E-03  0.0166
   2.2763E-01   2.3317E-01   1.3722E-03  0.0162
   2.3317E-01   2.3884E-01   1.3284E-03  0.0163
   2.3884E-01   2.4465E-01   1.3309E-03  0.0161
   2.4465E-01   2.5061E-01   1.3843E-03  0.0156
   2.5061E-01   2.5670E-01   1.3314E-03  0.0157
   2.5670E-01   2.6295E-01   1.3974E-03  0.0151
   2.6295E-01   2.6935E-01   1.3591E-03  0.0152
   2.6935E-01   2.7590E-01   1.4389E-03  0.0146
   2.7590E-01   2.8261E-01   1.3903E-03  0.0146
   2.8261E-01   2.8949E-01   1.3784E-03  0.0145
   2.8949E-01   2.9653E-01   1.3953E-03  0.0143
   2.9653E-01   3.0375E-01   1.4229E-03  0.0140
   3.0375E-01   3.1114E-01   1.4083E-03  0.0139
   3.1114E-01   3.1871E-01   1.4097E-03  0.0137
   3.1871E-01   3.2646E-01   1.3866E-03  0.0136
   3.2646E-01   3.3441E-01   1.4400E-03  0.0132
   3.3441E-01   3.4254E-01   1.4141E-03  0.0132
   3.4254E-01   3.5088E-01   1.4127E-03  0.0130
   3.5088E-01   3.5941E-01   1.4059E-03  0.0129
   3.5941E-01   3.6816E-01   1.4393E-03  0.0126
   3.6816E-01   3.7712E-01   1.4555E-03  0.0124
   3.7712E-01   3.8629E-01   1.4402E-03  0.0123
   3.8629E-01   3.9569E-01   1.4481E-03  0.0121
   3.9569E-01   4.0532E-01   1.4949E-03  0.0118
   4.0532E-01   4.1518E-01   1.4719E-03  0.0117
   4.1518E-01   4.2528E-01   1.4675E-03  0.0116
   4.2528E-01   4.3563E-01   1.4875E-03  0.0114
   4.3563E-01   4.4623E-01   1.4897E-03  0.0113
   4.4623E-01   4.5708E-01   1.4744E-03  0.0112
   4.5708E-01   4.6821E-01   1.4808E-03  0.0110
   4.6821E-01   4.7960E-01   1.4840E-03  0.0109
   4.7960E-01   4.9127E-01   1.4904E-03  0.0107
   4.9127E-01   5.0322E-01   1.5119E-03  0.0105
   5.0322E-01   5.1546E-01   1.4915E-03  0.0105
   5.1546E-01   5.2800E-01   1.4917E-03  0.0103
   5.2800E-01   5.4085E-01   1.5033E-03  0.0102
   5.4085E-01   5.5401E-01   1.5101E-03  0.0100
   5.5401E-01   5.6749E-01   1.5052E-03  0.0099
   5.6749E-01   5.8130E-01   1.5158E-03  0.0098
   5.8130E-01   5.9544E-01   1.4992E-03  0.0097
   5.9544E-01   6.0993E-01   1.4832E-03  0.0096
   6.0993E-01   6.2477E-01   1.4520E-03  0.0096
   6.2477E-01   6.3997E-01   1.4599E-03  0.0095
   6.3997E-01   6.5554E-01   1.4834E-03  0.0093
   6.5554E-01   6.7149E-01   1.4749E-03  0.0092
   6.7149E-01   6.8783E-01   1.4326E-03  0.0092
   6.8783E-01   7.0456E-01   1.4420E-03  0.0091
   7.0456E-01   7.2171E-01   1.4275E-03  0.0090
   7.2171E-01   7.3927E-01   1.4212E-03  0.0090
   7.3927E-01   7.5725E-01   1.4107E-03  0.0089
   7.5725E-01   7.7568E-01   1.4012E-03  0.0088
   7.7568E-01   7.9455E-01   1.3519E-03  0.0089
   7.9455E-01   8.1388E-01   1.3347E-03  0.0088
   8.1388E-01   8.3368E-01   1.3160E-03  0.0088
   8.3368E-01   8.5397E-01   1.2847E-03  0.0088
   8.5397E-01   8.7475E-01   1.2555E-03  0.0088
   8.7475E-01   8.9603E-01   1.2413E-03  0.0087
   8.9603E-01   9.1783E-01   1.2126E-03  0.0087
   9.1783E-01   9.4016E-01   1.1649E-03  0.0088
   9.4016E-01   9.6304E-01   1.1208E-03  0.0088
   9.6304E-01   9.8647E-01   1.0678E-03  0.0089
   9.8647E-01   1.0105E+00   1.0226E-03  0.0090
   1.0105E+00   1.0351E+00   1.0296E-03  0.0089
   1.0351E+00   1.0602E+00   1.0380E-03  0.0087
   1.0602E+00   1.0860E+00   1.0309E-03  0.0087
   1.0860E+00   1.1125E+00   1.0389E-03  0.0085
   1.1125E+00   1.1395E+00   1.0523E-03  0.0084
   1.1395E+00   1.1673E+00   1.0501E-03  0.0083
   1.1673E+00   1.1957E+00   1.0669E-03  0.0081
   1.1957E+00   1.2247E+00   1.0654E-03  0.0080
   1.2247E+00   1.2545E+00   1.0667E-03  0.0079
   1.2545E+00   1.2851E+00   1.0642E-03  0.0078
   1.2851E+00   1.3163E+00   1.0732E-03  0.0077
   1.3163E+00   1.3484E+00   1.0761E-03  0.0076
   1.3484E+00   1.3812E+00   1.0820E-03  0.0075
   1.3812E+00   1.4148E+00   1.0959E-03  0.0074
   1.4148E+00   1.4492E+00   1.0649E-03  0.0074
   1.4492E+00   1.4845E+00   1.0737E-03  0.0073
   1.4845E+00   1.5206E+00   1.0760E-03  0.0072
   1.5206E+00   1.5576E+00   1.0640E-03  0.0071
   1.5576E+00   1.5955E+00   1.0579E-03  0.0071
   1.5955E+00   1.6343E+00   1.0595E-03  0.0070
   1.6343E+00   1.6741E+00   1.0458E-03  0.0069
   1.6741E+00   1.7148E+00   1.0519E-03  0.0068
   1.7148E+00   1.7565E+00   1.0600E-03  0.0067
   1.7565E+00   1.7992E+00   1.0351E-03  0.0067
   1.7992E+00   1.8430E+00   1.0181E-03  0.0067
   1.8430E+00   1.8879E+00   9.9719E-04  0.0067
   1.8879E+00   1.9338E+00   1.0023E-03  0.0066
   1.9338E+00   1.9808E+00   9.9017E-04  0.0066
   1.9808E+00   2.0290E+00   9.8408E-04  0.0065
   2.0290E+00   2.0784E+00   9.7567E-04  0.0064
   2.0784E+00   2.1290E+00   9.6396E-04  0.0064
   2.1290E+00   2.1808E+00   9.4595E-04  0.0064
   2.1808E+00   2.2338E+00   9.2816E-04  0.0064
   2.2338E+00   2.2882E+00   9.0271E-04  0.0064
   2.2882E+00   2.3439E+00   8.9339E-04  0.0063
   2.3439E+00   2.4009E+00   8.8194E-04  0.0063
   2.4009E+00   2.4593E+00   8.6830E-04  0.0063
   2.4593E+00   2.5191E+00   8.5922E-04  0.0062
   2.5191E+00   2.5804E+00   8.2742E-04  0.0063
   2.5804E+00   2.6432E+00   8.1193E-04  0.0063
   2.6432E+00   2.7075E+00   7.9406E-04  0.0063
   2.7075E+00   2.7734E+00   7.7164E-04  0.0063
   2.7734E+00   2.8409E+00   7.6074E-04  0.0062
   2.8409E+00   2.9100E+00   7.3072E-04  0.0063
   2.9100E+00   2.9808E+00   7.1862E-04  0.0063
   2.9808E+00   3.0533E+00   7.0338E-04  0.0063
   3.0533E+00   3.1276E+00   6.8538E-04  0.0063
   3.1276E+00   3.2037E+00   6.6522E-04  0.0063
   3.2037E+00   3.2817E+00   6.4278E-04  0.0063
   3.2817E+00   3.3615E+00   6.2593E-04  0.0063
   3.3615E+00   3.4433E+00   6.0320E-04  0.0064
   3.4433E+00   3.5271E+00   5.8077E-04  0.0064
   3.5271E+00   3.6129E+00   5.6103E-04  0.0064
   3.6129E+00   3.7008E+00   5.4767E-04  0.0064
   3.7008E+00   3.7908E+00   5.3338E-04  0.0065
   3.7908E+00   3.8831E+00   5.1596E-04  0.0065
   3.8831E+00   3.9776E+00   4.9916E-04  0.0065
   3.9776E+00   4.0743E+00   4.8129E-04  0.0066
   4.0743E+00   4.1735E+00   4.6873E-04  0.0066
   4.1735E+00   4.2750E+00   4.4480E-04  0.0067
   4.2750E+00   4.3790E+00   4.3200E-04  0.0067
   4.3790E+00   4.4856E+00   4.2088E-04  0.0067
   4.4856E+00   4.5947E+00   3.9736E-04  0.0068
   4.5947E+00   4.7065E+00   3.9125E-04  0.0068
   4.7065E+00   4.8210E+00   3.7995E-04  0.0068
   4.8210E+00   4.9383E+00   3.6093E-04  0.0069
   4.9383E+00   5.0585E+00   3.4712E-04  0.0069
   5.0585E+00   5.1815E+00   3.4030E-04  0.0069
   5.1815E+00   5.3076E+00   3.2893E-04  0.0069
   5.3076E+00   5.4368E+00   3.1678E-04  0.0070
   5.4368E+00   5.5690E+00   3.1169E-04  0.0070
   5.5690E+00   5.7045E+00   2.9617E-04  0.0071
   5.7045E+00   5.8433E+00   2.8522E-04  0.0071
   5.8433E+00   5.9855E+00   2.7315E-04  0.0072
   5.9855E+00   6.1311E+00   2.6905E-04  0.0071
   6.1311E+00   6.2803E+00   2.5878E-04  0.0072
   6.2803E+00   6.4331E+00   2.5209E-04  0.0072
   6.4331E+00   6.5896E+00   2.4573E-04  0.0072
   6.5896E+00   6.7500E+00   2.3604E-04  0.0073
   6.7500E+00   6.9142E+00   2.3382E-04  0.0072
   6.9142E+00   7.0824E+00   2.2504E-04  0.0073
   7.0824E+00   7.2548E+00   2.1998E-04  0.0073
   7.2548E+00   7.4313E+00   2.1495E-04  0.0073
   7.4313E+00   7.6121E+00   2.1109E-04  0.0072
   7.6121E+00   7.7973E+00   2.0411E-04  0.0073
   7.7973E+00   7.9870E+00   1.9833E-04  0.0073
   7.9870E+00   8.1813E+00   1.9477E-04  0.0073
   8.1813E+00   8.3804E+00   1.9222E-04  0.0072
   8.3804E+00   8.5843E+00   1.8788E-04  0.0072
   8.5843E+00   8.7931E+00   1.8554E-04  0.0072
   8.7931E+00   9.0071E+00   1.8060E-04  0.0072
   9.0071E+00   9.2262E+00   1.7756E-04  0.0072
   9.2262E+00   9.4507E+00   1.7530E-04  0.0071
   9.4507E+00   9.6807E+00   1.7563E-04  0.0070
   9.6807E+00   9.9162E+00   1.7080E-04  0.0071
   9.9162E+00   1.0157E+01   1.7062E-04  0.0070
   1.0157E+01   1.0405E+01   1.6596E-04  0.0070
   1.0405E+01   1.0658E+01   1.6425E-04  0.0069
   1.0658E+01   1.0917E+01   1.6267E-04  0.0069
   1.0917E+01   1.1183E+01   1.6176E-04  0.0068
   1.1183E+01   1.1455E+01   1.6042E-04  0.0068
   1.1455E+01   1.1733E+01   1.5863E-04  0.0067
   1.1733E+01   1.2019E+01   1.5660E-04  0.0067
   1.2019E+01   1.2311E+01   1.5479E-04  0.0066
   1.2311E+01   1.2611E+01   1.5365E-04  0.0066
   1.2611E+01   1.2918E+01   1.5276E-04  0.0065
   1.2918E+01   1.3232E+01   1.5342E-04  0.0064
   1.3232E+01   1.3554E+01   1.4903E-04  0.0065
   1.3554E+01   1.3884E+01   1.5036E-04  0.0064
   1.3884E+01   1.4222E+01   1.4575E-04  0.0064
   1.4222E+01   1.4568E+01   1.4738E-04  0.0063
   1.4568E+01   1.4922E+01   1.4562E-04  0.0062
   1.4922E+01   1.5285E+01   1.4353E-04  0.0062
   1.5285E+01   1.5657E+01   1.4001E-04  0.0062
   1.5657E+01   1.6038E+01   1.4091E-04  0.0061
   1.6038E+01   1.6428E+01   1.4021E-04  0.0060
   1.6428E+01   1.6828E+01   1.3788E-04  0.0060
   1.6828E+01   1.7237E+01   1.3695E-04  0.0060
   1.7237E+01   1.7657E+01   1.3336E-04  0.0060
   1.7657E+01   1.8086E+01   1.3238E-04  0.0059
   1.8086E+01   1.8526E+01   1.2984E-04  0.0059
   1.8526E+01   1.8977E+01   1.2701E-04  0.0059
   1.8977E+01   1.9439E+01   1.2381E-04  0.0059
   1.9439E+01   1.9912E+01   1.2299E-04  0.0059
   1.9912E+01   2.0396E+01   1.2155E-04  0.0058
   2.0396E+01   2.0893E+01   1.1977E-04  0.0058
   2.0893E+01   2.1401E+01   1.1614E-04  0.0058
   2.1401E+01   2.1922E+01   1.1437E-04  0.0058
   2.1922E+01   2.2455E+01   1.0988E-04  0.0058
   2.2455E+01   2.3001E+01   1.0654E-04  0.0059
   2.3001E+01   2.3561E+01   1.0400E-04  0.0059
   2.3561E+01   2.4134E+01   1.0062E-04  0.0059
   2.4134E+01   2.4721E+01   9.7850E-05  0.0059
   2.4721E+01   2.5323E+01   9.3910E-05  0.0060
   2.5323E+01   2.5939E+01   9.0627E-05  0.0060
   2.5939E+01   2.6570E+01   8.6450E-05  0.0061
   2.6570E+01   2.7217E+01   8.3075E-05  0.0061
   2.7217E+01   2.7879E+01   7.9559E-05  0.0062
   2.7879E+01   2.8557E+01   7.5688E-05  0.0062
   2.8557E+01   2.9252E+01   7.1892E-05  0.0063
   2.9252E+01   2.9964E+01   6.8119E-05  0.0064
   2.9964E+01   3.0693E+01   6.4913E-05  0.0065
   3.0693E+01   3.1440E+01   6.0918E-05  0.0066
   3.1440E+01   3.2205E+01   5.7188E-05  0.0068
   3.2205E+01   3.2988E+01   5.4816E-05  0.0068
   3.2988E+01   3.3791E+01   5.0596E-05  0.0070
   3.3791E+01   3.4613E+01   4.8344E-05  0.0071
   3.4613E+01   3.5455E+01   4.4745E-05  0.0073
   3.5455E+01   3.6318E+01   4.1695E-05  0.0075
   3.6318E+01   3.7201E+01   3.8772E-05  0.0076
   3.7201E+01   3.8106E+01   3.6494E-05  0.0078
   3.8106E+01   3.9034E+01   3.4014E-05  0.0080
   3.9034E+01   3.9983E+01   3.1494E-05  0.0082
   3.9983E+01   4.0956E+01   2.9623E-05  0.0083
   4.0956E+01   4.1953E+01   2.6904E-05  0.0086
   4.1953E+01   4.2973E+01   2.5197E-05  0.0088
   4.2973E+01   4.4019E+01   2.3377E-05  0.0090
   4.4019E+01   4.5090E+01   2.1869E-05  0.0092
   4.5090E+01   4.6187E+01   2.0538E-05  0.0094
   4.6187E+01   4.7311E+01   1.8668E-05  0.0098
   4.7311E+01   4.8462E+01   1.7623E-05  0.0099
   4.8462E+01   4.9641E+01   1.6049E-05  0.0103
   4.9641E+01   5.0849E+01   1.4703E-05  0.0106
   5.0849E+01   5.2086E+01   1.3712E-05  0.0109
   5.2086E+01   5.3353E+01   1.2344E-05  0.0113
   5.3353E+01   5.4651E+01   1.1740E-05  0.0115
   5.4651E+01   5.5981E+01   1.0605E-05  0.0119
   5.5981E+01   5.7343E+01   9.6001E-06  0.0124
   5.7343E+01   5.8738E+01   9.0825E-06  0.0126
   5.8738E+01   6.0168E+01   8.2147E-06  0.0131
   6.0168E+01   6.1632E+01   7.6780E-06  0.0133
   6.1632E+01   6.3131E+01   7.0061E-06  0.0138
   6.3131E+01   6.4667E+01   6.6249E-06  0.0140
   6.4667E+01   6.6240E+01   5.9756E-06  0.0146
   6.6240E+01   6.7852E+01   5.4105E-06  0.0151
   6.7852E+01   6.9503E+01   4.9500E-06  0.0156
   6.9503E+01   7.1194E+01   4.6326E-06  0.0160
   7.1194E+01   7.2926E+01   4.1542E-06  0.0167
   7.2926E+01   7.4701E+01   3.7749E-06  0.0173
   7.4701E+01   7.6518E+01   3.3397E-06  0.0182
   7.6518E+01   7.8380E+01   2.9628E-06  0.0190
   7.8380E+01   8.0287E+01   2.4782E-06  0.0206
   8.0287E+01   8.2240E+01   2.1275E-06  0.0219
   8.2240E+01   8.4241E+01   1.6562E-06  0.0246
   8.4241E+01   8.6291E+01   1.4051E-06  0.0264
   8.6291E+01   8.8391E+01   1.0593E-06  0.0300
   8.8391E+01   9.0541E+01   8.1558E-07  0.0338
   9.0541E+01   9.2744E+01   5.4110E-07  0.0410
   9.2744E+01   9.5001E+01   2.5171E-07  0.0593
   9.5001E+01   9.7312E+01   4.4994E-08  0.1387
   9.7312E+01   9.9680E+01   0.0000E+00  0.0000
   9.9680E+01   1.0211E+02   0.0000E+00  0.0000
   1.0211E+02   1.0459E+02   0.0000E+00  0.0000
   1.0459E+02   1.0713E+02   0.0000E+00  0.0000
   1.0713E+02   1.0974E+02   0.0000E+00  0.0000
   1.0974E+02   1.1241E+02   0.0000E+00  0.0000
   1.1241E+02   1.1515E+02   0.0000E+00  0.0000
   1.1515E+02   1.1795E+02   0.0000E+00  0.0000
   1.1795E+02   1.2082E+02   0.0000E+00  0.0000
   1.2082E+02   1.2376E+02   0.0000E+00  0.0000
   1.2376E+02   1.2677E+02   0.0000E+00  0.0000
   1.2677E+02   1.2985E+02   0.0000E+00  0.0000
   1.2985E+02   1.3301E+02   0.0000E+00  0.0000
   1.3301E+02   1.3625E+02   0.0000E+00  0.0000
   1.3625E+02   1.3956E+02   0.0000E+00  0.0000
   1.3956E+02   1.4296E+02   0.0000E+00  0.0000
   1.4296E+02   1.4644E+02   0.0000E+00  0.0000
   1.4644E+02   1.5000E+02   0.0000E+00  0.0000

#   sum over                 5.7467E-05
'no. =    1   reg = 108 - 208'
msuc: {\huge [t-cross] in region mesh}
msdr: {\it plotted by \ANGEL \version}
msdl: {\it calculated by \PHITS  3.26}
wt: s(0.7)
\vspace{-3}
  region surface crossing
  area  &=&   1.0000E+00 [cm^2]
e:
 
# Information for Restart Calculation
# This calculation was newly started
# istdev =  2 # 1:Batch variance, 2:History variance
# resc2  = 5.00000000000000000E+08 # Total source weight or Total source weight / maxcas
# resc3  = 5.00000000000000000E+08 # Total history number or Total batch number
# maxcas =   500000000 # History / Batch, only used for istdev=1
# bitrseed = 1101101111010011011000101101110001100110110010110001010100010001 # bit data of rseed
