[ T-Cross ]
    title = [t-cross] in region mesh
     mesh =  reg            # mesh type is region-wise
      reg =    1            # number of crossing regions
      non     r-from    r-to       area
      1       100       200        1.000000    
   e-type =    3            # e-mesh is log given by emin, emax and ne
     emin =  1.0000000E-02  # minimum value of e-mesh points
     emax =   150.0000      # maximum value of e-mesh points
#    edel =  2.4039514E-02  # mesh width of e-mesh points
       ne =    400          # number of e-mesh points
#    data = ( e(i), i = 1, ne + 1 )
#           1.00000E-02  1.02433E-02  1.04925E-02  1.07478E-02  1.10093E-02
#           1.12772E-02  1.15516E-02  1.18326E-02  1.21205E-02  1.24154E-02
#           1.27175E-02  1.30269E-02  1.33439E-02  1.36686E-02  1.40011E-02
#           1.43418E-02  1.46907E-02  1.50482E-02  1.54143E-02  1.57894E-02
#           1.61735E-02  1.65670E-02  1.69701E-02  1.73830E-02  1.78060E-02
#           1.82392E-02  1.86830E-02  1.91375E-02  1.96032E-02  2.00801E-02
#           2.05687E-02  2.10692E-02  2.15818E-02  2.21069E-02  2.26448E-02
#           2.31957E-02  2.37601E-02  2.43382E-02  2.49304E-02  2.55369E-02
#           2.61583E-02  2.67947E-02  2.74467E-02  2.81145E-02  2.87985E-02
#           2.94992E-02  3.02169E-02  3.09521E-02  3.17052E-02  3.24766E-02
#           3.32668E-02  3.40762E-02  3.49053E-02  3.57546E-02  3.66246E-02
#           3.75157E-02  3.84284E-02  3.93634E-02  4.03212E-02  4.13022E-02
#           4.23071E-02  4.33365E-02  4.43909E-02  4.54710E-02  4.65773E-02
#           4.77106E-02  4.88714E-02  5.00605E-02  5.12785E-02  5.25262E-02
#           5.38042E-02  5.51133E-02  5.64542E-02  5.78278E-02  5.92348E-02
#           6.06760E-02  6.21523E-02  6.36645E-02  6.52135E-02  6.68002E-02
#           6.84255E-02  7.00904E-02  7.17957E-02  7.35426E-02  7.53319E-02
#           7.71648E-02  7.90423E-02  8.09655E-02  8.29354E-02  8.49533E-02
#           8.70203E-02  8.91376E-02  9.13064E-02  9.35279E-02  9.58035E-02
#           9.81345E-02  1.00522E-01  1.02968E-01  1.05473E-01  1.08040E-01
#           1.10668E-01  1.13361E-01  1.16119E-01  1.18944E-01  1.21838E-01
#           1.24803E-01  1.27839E-01  1.30950E-01  1.34136E-01  1.37399E-01
#           1.40742E-01  1.44167E-01  1.47675E-01  1.51268E-01  1.54948E-01
#           1.58718E-01  1.62580E-01  1.66535E-01  1.70587E-01  1.74738E-01
#           1.78989E-01  1.83344E-01  1.87805E-01  1.92375E-01  1.97055E-01
#           2.01850E-01  2.06761E-01  2.11792E-01  2.16945E-01  2.22223E-01
#           2.27630E-01  2.33169E-01  2.38842E-01  2.44653E-01  2.50605E-01
#           2.56703E-01  2.62949E-01  2.69346E-01  2.75900E-01  2.82613E-01
#           2.89489E-01  2.96532E-01  3.03747E-01  3.11138E-01  3.18708E-01
#           3.26462E-01  3.34405E-01  3.42542E-01  3.50876E-01  3.59413E-01
#           3.68158E-01  3.77116E-01  3.86291E-01  3.95690E-01  4.05317E-01
#           4.15179E-01  4.25281E-01  4.35628E-01  4.46227E-01  4.57084E-01
#           4.68205E-01  4.79597E-01  4.91266E-01  5.03219E-01  5.15463E-01
#           5.28005E-01  5.40851E-01  5.54011E-01  5.67490E-01  5.81298E-01
#           5.95441E-01  6.09929E-01  6.24769E-01  6.39970E-01  6.55541E-01
#           6.71491E-01  6.87828E-01  7.04564E-01  7.21706E-01  7.39266E-01
#           7.57253E-01  7.75678E-01  7.94551E-01  8.13883E-01  8.33685E-01
#           8.53969E-01  8.74747E-01  8.96030E-01  9.17831E-01  9.40163E-01
#           9.63038E-01  9.86469E-01  1.01047E+00  1.03506E+00  1.06024E+00
#           1.08604E+00  1.11246E+00  1.13953E+00  1.16725E+00  1.19565E+00
#           1.22474E+00  1.25454E+00  1.28507E+00  1.31633E+00  1.34836E+00
#           1.38117E+00  1.41477E+00  1.44920E+00  1.48446E+00  1.52057E+00
#           1.55757E+00  1.59547E+00  1.63429E+00  1.67405E+00  1.71478E+00
#           1.75650E+00  1.79924E+00  1.84302E+00  1.88786E+00  1.93379E+00
#           1.98084E+00  2.02904E+00  2.07841E+00  2.12898E+00  2.18078E+00
#           2.23384E+00  2.28819E+00  2.34386E+00  2.40089E+00  2.45930E+00
#           2.51914E+00  2.58043E+00  2.64322E+00  2.70753E+00  2.77341E+00
#           2.84088E+00  2.91001E+00  2.98081E+00  3.05333E+00  3.12762E+00
#           3.20372E+00  3.28167E+00  3.36152E+00  3.44330E+00  3.52708E+00
#           3.61290E+00  3.70080E+00  3.79085E+00  3.88308E+00  3.97756E+00
#           4.07434E+00  4.17347E+00  4.27501E+00  4.37903E+00  4.48557E+00
#           4.59471E+00  4.70650E+00  4.82102E+00  4.93832E+00  5.05847E+00
#           5.18155E+00  5.30762E+00  5.43676E+00  5.56904E+00  5.70453E+00
#           5.84333E+00  5.98550E+00  6.13114E+00  6.28031E+00  6.43312E+00
#           6.58964E+00  6.74997E+00  6.91420E+00  7.08243E+00  7.25475E+00
#           7.43126E+00  7.61207E+00  7.79728E+00  7.98700E+00  8.18133E+00
#           8.38038E+00  8.58428E+00  8.79315E+00  9.00709E+00  9.22624E+00
#           9.45072E+00  9.68067E+00  9.91620E+00  1.01575E+01  1.04046E+01
#           1.06578E+01  1.09171E+01  1.11827E+01  1.14548E+01  1.17335E+01
#           1.20190E+01  1.23114E+01  1.26109E+01  1.29178E+01  1.32321E+01
#           1.35540E+01  1.38838E+01  1.42216E+01  1.45676E+01  1.49221E+01
#           1.52851E+01  1.56570E+01  1.60380E+01  1.64282E+01  1.68279E+01
#           1.72374E+01  1.76568E+01  1.80864E+01  1.85264E+01  1.89772E+01
#           1.94389E+01  1.99119E+01  2.03963E+01  2.08926E+01  2.14009E+01
#           2.19216E+01  2.24550E+01  2.30014E+01  2.35610E+01  2.41343E+01
#           2.47215E+01  2.53230E+01  2.59391E+01  2.65702E+01  2.72167E+01
#           2.78789E+01  2.85572E+01  2.92520E+01  2.99637E+01  3.06928E+01
#           3.14396E+01  3.22045E+01  3.29881E+01  3.37907E+01  3.46128E+01
#           3.54550E+01  3.63177E+01  3.72013E+01  3.81064E+01  3.90336E+01
#           3.99833E+01  4.09561E+01  4.19526E+01  4.29734E+01  4.40189E+01
#           4.50900E+01  4.61870E+01  4.73108E+01  4.84619E+01  4.96410E+01
#           5.08488E+01  5.20860E+01  5.33533E+01  5.46514E+01  5.59812E+01
#           5.73432E+01  5.87384E+01  6.01676E+01  6.16315E+01  6.31311E+01
#           6.46671E+01  6.62405E+01  6.78522E+01  6.95031E+01  7.11941E+01
#           7.29263E+01  7.47007E+01  7.65182E+01  7.83800E+01  8.02870E+01
#           8.22405E+01  8.42414E+01  8.62911E+01  8.83906E+01  9.05412E+01
#           9.27442E+01  9.50007E+01  9.73122E+01  9.96799E+01  1.02105E+02
#           1.04589E+02  1.07134E+02  1.09741E+02  1.12411E+02  1.15146E+02
#           1.17948E+02  1.20817E+02  1.23757E+02  1.26768E+02  1.29852E+02
#           1.33012E+02  1.36248E+02  1.39563E+02  1.42959E+02  1.46437E+02
#           1.50000E+02
     unit =    2            # unit is [1/cm^2/(MeV/n)/source]
     axis =  eng            # axis of output
     file = detector-01.out  # file name of output for the above axis
   output = f-curr          # surface crossing forward current spectrum
     part =  neutron  
# kf/name :  2112     
#    used :        main (  %)        temp (  %)       total (  %)
#  memory :         414 (  0)           0 (  0)         414 (  0)

#------------------------------------------------------------------------------
#newpage:
#   no. =    1   reg = 100 - 200

x: Energy [MeV/n]
y:  F-Curr [1/cm^2/(MeV/n)/source]         
p: xlog ylog afac(0.8) form(0.9)
h: n            x            y(neutron ),hh0l   n 
#  e-lower      e-upper      neutron     r.err 
   1.0000E-02   1.0243E-02   4.1100E-05  0.4472
   1.0243E-02   1.0493E-02   3.2099E-05  0.5000
   1.0493E-02   1.0748E-02   4.7005E-05  0.4082
   1.0748E-02   1.1009E-02   3.0592E-05  0.5000
   1.1009E-02   1.1277E-02   2.2399E-05  0.5774
   1.1277E-02   1.1552E-02   3.6445E-05  0.4472
   1.1552E-02   1.1833E-02   4.9812E-05  0.3780
   1.1833E-02   1.2121E-02   2.7788E-05  0.5000
   1.2121E-02   1.2415E-02   4.7473E-05  0.3780
   1.2415E-02   1.2718E-02   3.3104E-05  0.4472
   1.2718E-02   1.3027E-02   4.5245E-05  0.3780
   1.3027E-02   1.3344E-02   3.7860E-05  0.4082
   1.3344E-02   1.3669E-02   3.6961E-05  0.4082
   1.3669E-02   1.4001E-02   4.2097E-05  0.3780
   1.4001E-02   1.4342E-02   4.1097E-05  0.3780
   1.4342E-02   1.4691E-02   5.1584E-05  0.3333
   1.4691E-02   1.5048E-02   4.4763E-05  0.3536
   1.5048E-02   1.5414E-02   5.4625E-05  0.3162
   1.5414E-02   1.5789E-02   5.3327E-05  0.3162
   1.5789E-02   1.6174E-02   5.7267E-05  0.3015
   1.6174E-02   1.6567E-02   1.5247E-05  0.5774
   1.6567E-02   1.6970E-02   3.9693E-05  0.3536
   1.6970E-02   1.7383E-02   5.8126E-05  0.2887
   1.7383E-02   1.7806E-02   4.7288E-05  0.3162
   1.7806E-02   1.8239E-02   3.2315E-05  0.3780
   1.8239E-02   1.8683E-02   1.8027E-05  0.5000
   1.8683E-02   1.9138E-02   4.3997E-05  0.3162
   1.9138E-02   1.9603E-02   2.5771E-05  0.4082
   1.9603E-02   2.0080E-02   3.7739E-05  0.3333
   2.0080E-02   2.0569E-02   4.9123E-05  0.2887
   2.0569E-02   2.1069E-02   6.3942E-05  0.2500
   2.1069E-02   2.1582E-02   5.0719E-05  0.2774
   2.1582E-02   2.2107E-02   5.7132E-05  0.2582
   2.2107E-02   2.2645E-02   5.5775E-05  0.2582
   2.2645E-02   2.3196E-02   6.1710E-05  0.2425
   2.3196E-02   2.3760E-02   6.3788E-05  0.2357
   2.3760E-02   2.4338E-02   3.8056E-05  0.3015
   2.4338E-02   2.4930E-02   3.7152E-05  0.3015
   2.4930E-02   2.5537E-02   4.2864E-05  0.2774
   2.5537E-02   2.6158E-02   4.8283E-05  0.2582
   2.6158E-02   2.6795E-02   7.5418E-05  0.2041
   2.6795E-02   2.7447E-02   2.7610E-05  0.3333
   2.7447E-02   2.8114E-02   2.3959E-05  0.3536
   2.8114E-02   2.8799E-02   4.9704E-05  0.2425
   2.8799E-02   2.9499E-02   3.9961E-05  0.2673
   2.9499E-02   3.0217E-02   5.2944E-05  0.2294
   3.0217E-02   3.0952E-02   6.5288E-05  0.2041
   3.0952E-02   3.1705E-02   5.5770E-05  0.2182
   3.1705E-02   3.2477E-02   5.9631E-05  0.2085
   3.2477E-02   3.3267E-02   5.8214E-05  0.2085
   3.3267E-02   3.4076E-02   3.4593E-05  0.2673
   3.4076E-02   3.4905E-02   5.0657E-05  0.2182
   3.4905E-02   3.5755E-02   4.0034E-05  0.2425
   3.5755E-02   3.6625E-02   4.8279E-05  0.2182
   3.6625E-02   3.7516E-02   3.5910E-05  0.2500
   3.7516E-02   3.8428E-02   3.7249E-05  0.2425
   3.8428E-02   3.9363E-02   4.0642E-05  0.2294
   3.9363E-02   4.0321E-02   4.5941E-05  0.2132
   4.0321E-02   4.1302E-02   4.4850E-05  0.2132
   4.1302E-02   4.2307E-02   5.5726E-05  0.1890
   4.2307E-02   4.3337E-02   3.4973E-05  0.2357
   4.3337E-02   4.4391E-02   3.4142E-05  0.2357
   4.4391E-02   4.5471E-02   5.9256E-05  0.1768
   4.5471E-02   4.6577E-02   5.0617E-05  0.1890
   4.6577E-02   4.7711E-02   4.4120E-05  0.2000
   4.7711E-02   4.8871E-02   6.3747E-05  0.1644
   4.8871E-02   5.0061E-02   5.7187E-05  0.1715
   5.0061E-02   5.1279E-02   5.9113E-05  0.1667
   5.1279E-02   5.2526E-02   4.6488E-05  0.1857
   5.2526E-02   5.3804E-02   5.7903E-05  0.1644
   5.3804E-02   5.5113E-02   5.0416E-05  0.1741
   5.5113E-02   5.6454E-02   7.4574E-05  0.1414
   5.6454E-02   5.7828E-02   4.5138E-05  0.1796
   5.7828E-02   5.9235E-02   4.1223E-05  0.1857
   5.9235E-02   6.0676E-02   4.9957E-05  0.1667
   6.0676E-02   6.2152E-02   3.5223E-05  0.1961
   6.2152E-02   6.3665E-02   4.7612E-05  0.1667
   6.3665E-02   6.5214E-02   5.4228E-05  0.1543
   6.5214E-02   6.6800E-02   5.0419E-05  0.1581
   6.6800E-02   6.8426E-02   4.5530E-05  0.1644
   6.8426E-02   7.0090E-02   4.8052E-05  0.1581
   7.0090E-02   7.1796E-02   4.6911E-05  0.1581
   7.1796E-02   7.3543E-02   5.8391E-05  0.1400
   7.3543E-02   7.5332E-02   4.8062E-05  0.1525
   7.5332E-02   7.7165E-02   4.4738E-05  0.1562
   7.7165E-02   7.9042E-02   5.2198E-05  0.1429
   7.9042E-02   8.0965E-02   5.6158E-05  0.1361
   8.0965E-02   8.2935E-02   4.6702E-05  0.1474
   8.2935E-02   8.4953E-02   6.1450E-05  0.1270
   8.4953E-02   8.7020E-02   5.0315E-05  0.1387
   8.7020E-02   8.9138E-02   6.0455E-05  0.1250
   8.9138E-02   9.1306E-02   4.8875E-05  0.1374
   9.1306E-02   9.3528E-02   6.6620E-05  0.1162
   9.3528E-02   9.5804E-02   5.9764E-05  0.1213
   9.5804E-02   9.8134E-02   5.2339E-05  0.1280
   9.8134E-02   1.0052E-01   5.9472E-05  0.1187
   1.0052E-01   1.0297E-01   6.2965E-05  0.1140
   1.0297E-01   1.0547E-01   5.5083E-05  0.1204
   1.0547E-01   1.0804E-01   5.0658E-05  0.1240
   1.0804E-01   1.1067E-01   5.5541E-05  0.1170
   1.1067E-01   1.1336E-01   5.4222E-05  0.1170
   1.1336E-01   1.1612E-01   5.3659E-05  0.1162
   1.1612E-01   1.1894E-01   5.9463E-05  0.1091
   1.1894E-01   1.2184E-01   7.1182E-05  0.0985
   1.2184E-01   1.2480E-01   6.0720E-05  0.1054
   1.2480E-01   1.2784E-01   5.3350E-05  0.1111
   1.2784E-01   1.3095E-01   5.5298E-05  0.1078
   1.3095E-01   1.3414E-01   5.7123E-05  0.1048
   1.3414E-01   1.3740E-01   4.8412E-05  0.1125
   1.3740E-01   1.4074E-01   5.3245E-05  0.1060
   1.4074E-01   1.4417E-01   5.4901E-05  0.1031
   1.4417E-01   1.4767E-01   6.2719E-05  0.0953
   1.4767E-01   1.5127E-01   6.0116E-05  0.0962
   1.5127E-01   1.5495E-01   5.7058E-05  0.0976
   1.5495E-01   1.5872E-01   6.4721E-05  0.0905
   1.5872E-01   1.6258E-01   5.9559E-05  0.0933
   1.6258E-01   1.6654E-01   6.1178E-05  0.0909
   1.6654E-01   1.7059E-01   6.0218E-05  0.0905
   1.7059E-01   1.7474E-01   7.4207E-05  0.0806
   1.7474E-01   1.7899E-01   5.9273E-05  0.0891
   1.7899E-01   1.8334E-01   5.6028E-05  0.0905
   1.8334E-01   1.8781E-01   5.8284E-05  0.0877
   1.8781E-01   1.9237E-01   6.4778E-05  0.0822
   1.9237E-01   1.9706E-01   6.0248E-05  0.0842
   1.9706E-01   2.0185E-01   6.8829E-05  0.0778
   2.0185E-01   2.0676E-01   5.7420E-05  0.0842
   2.0676E-01   2.1179E-01   6.5995E-05  0.0776
   2.1179E-01   2.1694E-01   5.9770E-05  0.0806
   2.1694E-01   2.2222E-01   7.0475E-05  0.0733
   2.2222E-01   2.2763E-01   6.1033E-05  0.0778
   2.2763E-01   2.3317E-01   6.2112E-05  0.0762
   2.3317E-01   2.3884E-01   6.8745E-05  0.0716
   2.3884E-01   2.4465E-01   5.7475E-05  0.0774
   2.4465E-01   2.5061E-01   7.4589E-05  0.0671
   2.5061E-01   2.5670E-01   6.0681E-05  0.0735
   2.5670E-01   2.6295E-01   6.8526E-05  0.0684
   2.6295E-01   2.6935E-01   6.3460E-05  0.0702
   2.6935E-01   2.7590E-01   6.0121E-05  0.0712
   2.7590E-01   2.8261E-01   5.8991E-05  0.0711
   2.8261E-01   2.8949E-01   7.4460E-05  0.0625
   2.8949E-01   2.9653E-01   6.3605E-05  0.0668
   2.9653E-01   3.0375E-01   6.8747E-05  0.0635
   3.0375E-01   3.1114E-01   7.0903E-05  0.0618
   3.1114E-01   3.1871E-01   6.6312E-05  0.0631
   3.1871E-01   3.2646E-01   6.6543E-05  0.0623
   3.2646E-01   3.3441E-01   6.7984E-05  0.0609
   3.3441E-01   3.4254E-01   7.2268E-05  0.0583
   3.4254E-01   3.5088E-01   7.3431E-05  0.0572
   3.5088E-01   3.5941E-01   7.5436E-05  0.0557
   3.5941E-01   3.6816E-01   7.1128E-05  0.0567
   3.6816E-01   3.7712E-01   7.7253E-05  0.0538
   3.7712E-01   3.8629E-01   7.7162E-05  0.0531
   3.8629E-01   3.9569E-01   6.4902E-05  0.0573
   3.9569E-01   4.0532E-01   7.5409E-05  0.0525
   4.0532E-01   4.1518E-01   7.1590E-05  0.0532
   4.1518E-01   4.2528E-01   6.8504E-05  0.0538
   4.2528E-01   4.3563E-01   7.8087E-05  0.0498
   4.3563E-01   4.4623E-01   6.9251E-05  0.0522
   4.4623E-01   4.5708E-01   6.9264E-05  0.0516
   4.5708E-01   4.6821E-01   7.3733E-05  0.0494
   4.6821E-01   4.7960E-01   6.7768E-05  0.0509
   4.7960E-01   4.9127E-01   7.6785E-05  0.0472
   4.9127E-01   5.0322E-01   7.1280E-05  0.0485
   5.0322E-01   5.1546E-01   7.2854E-05  0.0474
   5.1546E-01   5.2800E-01   7.1442E-05  0.0472
   5.2800E-01   5.4085E-01   7.5661E-05  0.0454
   5.4085E-01   5.5401E-01   7.1584E-05  0.0461
   5.5401E-01   5.6749E-01   8.2050E-05  0.0425
   5.6749E-01   5.8130E-01   7.1990E-05  0.0449
   5.8130E-01   5.9544E-01   7.3532E-05  0.0439
   5.9544E-01   6.0993E-01   7.2062E-05  0.0438
   6.0993E-01   6.2477E-01   7.1833E-05  0.0433
   6.2477E-01   6.3997E-01   7.7363E-05  0.0412
   6.3997E-01   6.5554E-01   7.3213E-05  0.0419
   6.5554E-01   6.7149E-01   7.2728E-05  0.0415
   6.7149E-01   6.8783E-01   7.2225E-05  0.0412
   6.8783E-01   7.0456E-01   7.0629E-05  0.0411
   7.0456E-01   7.2171E-01   6.6034E-05  0.0420
   7.2171E-01   7.3927E-01   7.2325E-05  0.0397
   7.3927E-01   7.5725E-01   6.9050E-05  0.0401
   7.5725E-01   7.7568E-01   6.9798E-05  0.0394
   7.7568E-01   7.9455E-01   6.5173E-05  0.0403
   7.9455E-01   8.1388E-01   6.1349E-05  0.0411
   8.1388E-01   8.3368E-01   6.4538E-05  0.0396
   8.3368E-01   8.5397E-01   6.7737E-05  0.0382
   8.5397E-01   8.7475E-01   5.8524E-05  0.0406
   8.7475E-01   8.9603E-01   5.8450E-05  0.0401
   8.9603E-01   9.1783E-01   6.0180E-05  0.0390
   9.1783E-01   9.4016E-01   5.5437E-05  0.0402
   9.4016E-01   9.6304E-01   5.0011E-05  0.0418
   9.6304E-01   9.8647E-01   5.2323E-05  0.0404
   9.8647E-01   1.0105E+00   5.1163E-05  0.0404
   1.0105E+00   1.0351E+00   4.8728E-05  0.0409
   1.0351E+00   1.0602E+00   5.1144E-05  0.0394
   1.0602E+00   1.0860E+00   5.1557E-05  0.0388
   1.0860E+00   1.1125E+00   4.9273E-05  0.0392
   1.1125E+00   1.1395E+00   4.9211E-05  0.0387
   1.1395E+00   1.1673E+00   4.8259E-05  0.0387
   1.1673E+00   1.1957E+00   5.2817E-05  0.0366
   1.1957E+00   1.2247E+00   4.9018E-05  0.0375
   1.2247E+00   1.2545E+00   5.2284E-05  0.0358
   1.2545E+00   1.2851E+00   4.8159E-05  0.0369
   1.2851E+00   1.3163E+00   4.9573E-05  0.0359
   1.3163E+00   1.3484E+00   5.0457E-05  0.0352
   1.3484E+00   1.3812E+00   5.0660E-05  0.0347
   1.3812E+00   1.4148E+00   4.8505E-05  0.0350
   1.4148E+00   1.4492E+00   4.4970E-05  0.0359
   1.4492E+00   1.4845E+00   4.9631E-05  0.0338
   1.4845E+00   1.5206E+00   4.7511E-05  0.0341
   1.5206E+00   1.5576E+00   4.6923E-05  0.0339
   1.5576E+00   1.5955E+00   4.5386E-05  0.0341
   1.5955E+00   1.6343E+00   4.4772E-05  0.0339
   1.6343E+00   1.6741E+00   4.6374E-05  0.0329
   1.6741E+00   1.7148E+00   4.3947E-05  0.0334
   1.7148E+00   1.7565E+00   4.1753E-05  0.0339
   1.7565E+00   1.7992E+00   4.4902E-05  0.0323
   1.7992E+00   1.8430E+00   4.1757E-05  0.0331
   1.8430E+00   1.8879E+00   3.9338E-05  0.0337
   1.8879E+00   1.9338E+00   4.0276E-05  0.0329
   1.9338E+00   1.9808E+00   3.7449E-05  0.0337
   1.9808E+00   2.0290E+00   4.1664E-05  0.0316
   2.0290E+00   2.0784E+00   3.7271E-05  0.0330
   2.0784E+00   2.1290E+00   3.7908E-05  0.0323
   2.1290E+00   2.1808E+00   3.6796E-05  0.0324
   2.1808E+00   2.2338E+00   3.6487E-05  0.0321
   2.2338E+00   2.2882E+00   3.3486E-05  0.0331
   2.2882E+00   2.3439E+00   3.4235E-05  0.0324
   2.3439E+00   2.4009E+00   3.5561E-05  0.0314
   2.4009E+00   2.4593E+00   3.1122E-05  0.0332
   2.4593E+00   2.5191E+00   3.1218E-05  0.0327
   2.5191E+00   2.5804E+00   3.1978E-05  0.0319
   2.5804E+00   2.6432E+00   2.9912E-05  0.0326
   2.6432E+00   2.7075E+00   2.8517E-05  0.0330
   2.7075E+00   2.7734E+00   2.7961E-05  0.0330
   2.7734E+00   2.8409E+00   2.6616E-05  0.0334
   2.8409E+00   2.9100E+00   2.5535E-05  0.0337
   2.9100E+00   2.9808E+00   2.3502E-05  0.0347
   2.9808E+00   3.0533E+00   2.4764E-05  0.0334
   3.0533E+00   3.1276E+00   2.4768E-05  0.0330
   3.1276E+00   3.2037E+00   2.1131E-05  0.0353
   3.2037E+00   3.2817E+00   2.2476E-05  0.0338
   3.2817E+00   3.3615E+00   2.0464E-05  0.0350
   3.3615E+00   3.4433E+00   2.1886E-05  0.0334
   3.4433E+00   3.5271E+00   1.9241E-05  0.0352
   3.5271E+00   3.6129E+00   1.9728E-05  0.0344
   3.6129E+00   3.7008E+00   1.9749E-05  0.0339
   3.7008E+00   3.7908E+00   1.9357E-05  0.0339
   3.7908E+00   3.8831E+00   1.7521E-05  0.0352
   3.8831E+00   3.9776E+00   1.7433E-05  0.0348
   3.9776E+00   4.0743E+00   1.6378E-05  0.0355
   4.0743E+00   4.1735E+00   1.6967E-05  0.0345
   4.1735E+00   4.2750E+00   1.6407E-05  0.0346
   4.2750E+00   4.3790E+00   1.4190E-05  0.0368
   4.3790E+00   4.4856E+00   1.4285E-05  0.0362
   4.4856E+00   4.5947E+00   1.3625E-05  0.0367
   4.5947E+00   4.7065E+00   1.3650E-05  0.0362
   4.7065E+00   4.8210E+00   1.2715E-05  0.0371
   4.8210E+00   4.9383E+00   1.2890E-05  0.0364
   4.9383E+00   5.0585E+00   1.1793E-05  0.0375
   5.0585E+00   5.1815E+00   1.2496E-05  0.0361
   5.1815E+00   5.3076E+00   1.2398E-05  0.0358
   5.3076E+00   5.4368E+00   1.1298E-05  0.0370
   5.4368E+00   5.5690E+00   1.1687E-05  0.0360
   5.5690E+00   5.7045E+00   1.0745E-05  0.0370
   5.7045E+00   5.8433E+00   1.0476E-05  0.0371
   5.8433E+00   5.9855E+00   1.0480E-05  0.0366
   5.9855E+00   6.1311E+00   9.9703E-06  0.0371
   6.1311E+00   6.2803E+00   9.3514E-06  0.0379
   6.2803E+00   6.4331E+00   9.3322E-06  0.0375
   6.4331E+00   6.5896E+00   9.9283E-06  0.0359
   6.5896E+00   6.7500E+00   9.1685E-06  0.0369
   6.7500E+00   6.9142E+00   8.7376E-06  0.0373
   6.9142E+00   7.0824E+00   8.6906E-06  0.0370
   7.0824E+00   7.2548E+00   9.1399E-06  0.0356
   7.2548E+00   7.4313E+00   8.2826E-06  0.0370
   7.4313E+00   7.6121E+00   9.1091E-06  0.0348
   7.6121E+00   7.7973E+00   8.1206E-06  0.0364
   7.7973E+00   7.9870E+00   7.6589E-06  0.0371
   7.9870E+00   8.1813E+00   8.1099E-06  0.0356
   8.1813E+00   8.3804E+00   7.8922E-06  0.0357
   8.3804E+00   8.5843E+00   7.7292E-06  0.0356
   8.5843E+00   8.7931E+00   7.2536E-06  0.0363
   8.7931E+00   9.0071E+00   7.3851E-06  0.0356
   9.0071E+00   9.2262E+00   7.0363E-06  0.0360
   9.2262E+00   9.4507E+00   7.8536E-06  0.0337
   9.4507E+00   9.6807E+00   7.2235E-06  0.0347
   9.6807E+00   9.9162E+00   7.3788E-06  0.0339
   9.9162E+00   1.0157E+01   7.6885E-06  0.0328
   1.0157E+01   1.0405E+01   7.2995E-06  0.0333
   1.0405E+01   1.0658E+01   7.5646E-06  0.0323
   1.0658E+01   1.0917E+01   7.7860E-06  0.0315
   1.0917E+01   1.1183E+01   7.3338E-06  0.0320
   1.1183E+01   1.1455E+01   7.4830E-06  0.0313
   1.1455E+01   1.1733E+01   6.9321E-06  0.0322
   1.1733E+01   1.2019E+01   7.3559E-06  0.0309
   1.2019E+01   1.2311E+01   7.6975E-06  0.0298
   1.2311E+01   1.2611E+01   7.5047E-06  0.0298
   1.2611E+01   1.2918E+01   7.4698E-06  0.0295
   1.2918E+01   1.3232E+01   8.1196E-06  0.0280
   1.3232E+01   1.3554E+01   8.1753E-06  0.0276
   1.3554E+01   1.3884E+01   8.1266E-06  0.0273
   1.3884E+01   1.4222E+01   8.3362E-06  0.0267
   1.4222E+01   1.4568E+01   8.7162E-06  0.0258
   1.4568E+01   1.4922E+01   8.7744E-06  0.0254
   1.4922E+01   1.5285E+01   9.2104E-06  0.0245
   1.5285E+01   1.5657E+01   9.0293E-06  0.0244
   1.5657E+01   1.6038E+01   9.0826E-06  0.0240
   1.6038E+01   1.6428E+01   9.8509E-06  0.0228
   1.6428E+01   1.6828E+01   1.0242E-05  0.0221
   1.6828E+01   1.7237E+01   1.0282E-05  0.0218
   1.7237E+01   1.7657E+01   1.0744E-05  0.0211
   1.7657E+01   1.8086E+01   1.1248E-05  0.0203
   1.8086E+01   1.8526E+01   1.2185E-05  0.0193
   1.8526E+01   1.8977E+01   1.2787E-05  0.0186
   1.8977E+01   1.9439E+01   1.3242E-05  0.0181
   1.9439E+01   1.9912E+01   1.3747E-05  0.0175
   1.9912E+01   2.0396E+01   1.5217E-05  0.0165
   2.0396E+01   2.0893E+01   1.5448E-05  0.0162
   2.0893E+01   2.1401E+01   1.7268E-05  0.0151
   2.1401E+01   2.1922E+01   1.7803E-05  0.0147
   2.1922E+01   2.2455E+01   1.9604E-05  0.0138
   2.2455E+01   2.3001E+01   2.1741E-05  0.0130
   2.3001E+01   2.3561E+01   2.3147E-05  0.0124
   2.3561E+01   2.4134E+01   2.5148E-05  0.0118
   2.4134E+01   2.4721E+01   2.6536E-05  0.0113
   2.4721E+01   2.5323E+01   2.9713E-05  0.0106
   2.5323E+01   2.5939E+01   3.1523E-05  0.0101
   2.5939E+01   2.6570E+01   3.4456E-05  0.0096
   2.6570E+01   2.7217E+01   3.8186E-05  0.0090
   2.7217E+01   2.7879E+01   4.2277E-05  0.0085
   2.7879E+01   2.8557E+01   4.4336E-05  0.0082
   2.8557E+01   2.9252E+01   4.8516E-05  0.0077
   2.9252E+01   2.9964E+01   5.2616E-05  0.0073
   2.9964E+01   3.0693E+01   5.6897E-05  0.0069
   3.0693E+01   3.1440E+01   6.2203E-05  0.0066
   3.1440E+01   3.2205E+01   6.7126E-05  0.0062
   3.2205E+01   3.2988E+01   7.1601E-05  0.0060
   3.2988E+01   3.3791E+01   7.5659E-05  0.0057
   3.3791E+01   3.4613E+01   7.9297E-05  0.0055
   3.4613E+01   3.5455E+01   8.3630E-05  0.0053
   3.5455E+01   3.6318E+01   8.5945E-05  0.0052
   3.6318E+01   3.7201E+01   8.8634E-05  0.0051
   3.7201E+01   3.8106E+01   8.9885E-05  0.0050
   3.8106E+01   3.9034E+01   9.0069E-05  0.0049
   3.9034E+01   3.9983E+01   9.0505E-05  0.0048
   3.9983E+01   4.0956E+01   8.8711E-05  0.0048
   4.0956E+01   4.1953E+01   8.7404E-05  0.0048
   4.1953E+01   4.2973E+01   8.3688E-05  0.0048
   4.2973E+01   4.4019E+01   7.9103E-05  0.0049
   4.4019E+01   4.5090E+01   7.3868E-05  0.0050
   4.5090E+01   4.6187E+01   6.9527E-05  0.0051
   4.6187E+01   4.7311E+01   6.3333E-05  0.0053
   4.7311E+01   4.8462E+01   5.8022E-05  0.0055
   4.8462E+01   4.9641E+01   5.2400E-05  0.0057
   4.9641E+01   5.0849E+01   4.7216E-05  0.0059
   5.0849E+01   5.2086E+01   4.1688E-05  0.0062
   5.2086E+01   5.3353E+01   3.6667E-05  0.0066
   5.3353E+01   5.4651E+01   3.2145E-05  0.0069
   5.4651E+01   5.5981E+01   2.8141E-05  0.0073
   5.5981E+01   5.7343E+01   2.4257E-05  0.0078
   5.7343E+01   5.8738E+01   2.1210E-05  0.0082
   5.8738E+01   6.0168E+01   1.8138E-05  0.0088
   6.0168E+01   6.1632E+01   1.5881E-05  0.0093
   6.1632E+01   6.3131E+01   1.3667E-05  0.0099
   6.3131E+01   6.4667E+01   1.2084E-05  0.0104
   6.4667E+01   6.6240E+01   1.0445E-05  0.0110
   6.6240E+01   6.7852E+01   9.2599E-06  0.0116
   6.7852E+01   6.9503E+01   7.8224E-06  0.0124
   6.9503E+01   7.1194E+01   7.2369E-06  0.0128
   7.1194E+01   7.2926E+01   6.2741E-06  0.0136
   7.2926E+01   7.4701E+01   5.6494E-06  0.0141
   7.4701E+01   7.6518E+01   4.9463E-06  0.0149
   7.6518E+01   7.8380E+01   4.2616E-06  0.0159
   7.8380E+01   8.0287E+01   3.6612E-06  0.0169
   8.0287E+01   8.2240E+01   3.1954E-06  0.0179
   8.2240E+01   8.4241E+01   2.6617E-06  0.0194
   8.4241E+01   8.6291E+01   2.2004E-06  0.0211
   8.6291E+01   8.8391E+01   1.6499E-06  0.0240
   8.8391E+01   9.0541E+01   1.2787E-06  0.0270
   9.0541E+01   9.2744E+01   9.4782E-07  0.0309
   9.2744E+01   9.5001E+01   5.9117E-07  0.0387
   9.5001E+01   9.7312E+01   2.4660E-07  0.0592
   9.7312E+01   9.9680E+01   1.0136E-08  0.2887
   9.9680E+01   1.0211E+02   0.0000E+00  0.0000
   1.0211E+02   1.0459E+02   0.0000E+00  0.0000
   1.0459E+02   1.0713E+02   0.0000E+00  0.0000
   1.0713E+02   1.0974E+02   0.0000E+00  0.0000
   1.0974E+02   1.1241E+02   0.0000E+00  0.0000
   1.1241E+02   1.1515E+02   0.0000E+00  0.0000
   1.1515E+02   1.1795E+02   0.0000E+00  0.0000
   1.1795E+02   1.2082E+02   0.0000E+00  0.0000
   1.2082E+02   1.2376E+02   0.0000E+00  0.0000
   1.2376E+02   1.2677E+02   0.0000E+00  0.0000
   1.2677E+02   1.2985E+02   0.0000E+00  0.0000
   1.2985E+02   1.3301E+02   0.0000E+00  0.0000
   1.3301E+02   1.3625E+02   0.0000E+00  0.0000
   1.3625E+02   1.3956E+02   0.0000E+00  0.0000
   1.3956E+02   1.4296E+02   0.0000E+00  0.0000
   1.4296E+02   1.4644E+02   0.0000E+00  0.0000
   1.4644E+02   1.5000E+02   0.0000E+00  0.0000

#   sum over                 1.7538E-05
'no. =    1   reg = 100 - 200'
msuc: {\huge [t-cross] in region mesh}
msdr: {\it plotted by \ANGEL \version}
msdl: {\it calculated by \PHITS  3.26}
wt: s(0.7)
\vspace{-3}
  region surface crossing
  area  &=&   1.0000E+00 [cm^2]
e:
 
# Information for Restart Calculation
# This calculation was newly started
# istdev =  2 # 1:Batch variance, 2:History variance
# resc2  = 5.00000000000000000E+08 # Total source weight or Total source weight / maxcas
# resc3  = 5.00000000000000000E+08 # Total history number or Total batch number
# maxcas =   500000000 # History / Batch, only used for istdev=1
# bitrseed = 1101101111010011011000101101110001100110110010110001010100010001 # bit data of rseed
