[ T-Cross ]
    title = [t-cross] in region mesh
     mesh =  reg            # mesh type is region-wise
      reg =    1            # number of crossing regions
      non     r-from    r-to       area
      1       117       217        1.000000    
   e-type =    3            # e-mesh is log given by emin, emax and ne
     emin =  1.0000000E-02  # minimum value of e-mesh points
     emax =   150.0000      # maximum value of e-mesh points
#    edel =  2.4039514E-02  # mesh width of e-mesh points
       ne =    400          # number of e-mesh points
#    data = ( e(i), i = 1, ne + 1 )
#           1.00000E-02  1.02433E-02  1.04925E-02  1.07478E-02  1.10093E-02
#           1.12772E-02  1.15516E-02  1.18326E-02  1.21205E-02  1.24154E-02
#           1.27175E-02  1.30269E-02  1.33439E-02  1.36686E-02  1.40011E-02
#           1.43418E-02  1.46907E-02  1.50482E-02  1.54143E-02  1.57894E-02
#           1.61735E-02  1.65670E-02  1.69701E-02  1.73830E-02  1.78060E-02
#           1.82392E-02  1.86830E-02  1.91375E-02  1.96032E-02  2.00801E-02
#           2.05687E-02  2.10692E-02  2.15818E-02  2.21069E-02  2.26448E-02
#           2.31957E-02  2.37601E-02  2.43382E-02  2.49304E-02  2.55369E-02
#           2.61583E-02  2.67947E-02  2.74467E-02  2.81145E-02  2.87985E-02
#           2.94992E-02  3.02169E-02  3.09521E-02  3.17052E-02  3.24766E-02
#           3.32668E-02  3.40762E-02  3.49053E-02  3.57546E-02  3.66246E-02
#           3.75157E-02  3.84284E-02  3.93634E-02  4.03212E-02  4.13022E-02
#           4.23071E-02  4.33365E-02  4.43909E-02  4.54710E-02  4.65773E-02
#           4.77106E-02  4.88714E-02  5.00605E-02  5.12785E-02  5.25262E-02
#           5.38042E-02  5.51133E-02  5.64542E-02  5.78278E-02  5.92348E-02
#           6.06760E-02  6.21523E-02  6.36645E-02  6.52135E-02  6.68002E-02
#           6.84255E-02  7.00904E-02  7.17957E-02  7.35426E-02  7.53319E-02
#           7.71648E-02  7.90423E-02  8.09655E-02  8.29354E-02  8.49533E-02
#           8.70203E-02  8.91376E-02  9.13064E-02  9.35279E-02  9.58035E-02
#           9.81345E-02  1.00522E-01  1.02968E-01  1.05473E-01  1.08040E-01
#           1.10668E-01  1.13361E-01  1.16119E-01  1.18944E-01  1.21838E-01
#           1.24803E-01  1.27839E-01  1.30950E-01  1.34136E-01  1.37399E-01
#           1.40742E-01  1.44167E-01  1.47675E-01  1.51268E-01  1.54948E-01
#           1.58718E-01  1.62580E-01  1.66535E-01  1.70587E-01  1.74738E-01
#           1.78989E-01  1.83344E-01  1.87805E-01  1.92375E-01  1.97055E-01
#           2.01850E-01  2.06761E-01  2.11792E-01  2.16945E-01  2.22223E-01
#           2.27630E-01  2.33169E-01  2.38842E-01  2.44653E-01  2.50605E-01
#           2.56703E-01  2.62949E-01  2.69346E-01  2.75900E-01  2.82613E-01
#           2.89489E-01  2.96532E-01  3.03747E-01  3.11138E-01  3.18708E-01
#           3.26462E-01  3.34405E-01  3.42542E-01  3.50876E-01  3.59413E-01
#           3.68158E-01  3.77116E-01  3.86291E-01  3.95690E-01  4.05317E-01
#           4.15179E-01  4.25281E-01  4.35628E-01  4.46227E-01  4.57084E-01
#           4.68205E-01  4.79597E-01  4.91266E-01  5.03219E-01  5.15463E-01
#           5.28005E-01  5.40851E-01  5.54011E-01  5.67490E-01  5.81298E-01
#           5.95441E-01  6.09929E-01  6.24769E-01  6.39970E-01  6.55541E-01
#           6.71491E-01  6.87828E-01  7.04564E-01  7.21706E-01  7.39266E-01
#           7.57253E-01  7.75678E-01  7.94551E-01  8.13883E-01  8.33685E-01
#           8.53969E-01  8.74747E-01  8.96030E-01  9.17831E-01  9.40163E-01
#           9.63038E-01  9.86469E-01  1.01047E+00  1.03506E+00  1.06024E+00
#           1.08604E+00  1.11246E+00  1.13953E+00  1.16725E+00  1.19565E+00
#           1.22474E+00  1.25454E+00  1.28507E+00  1.31633E+00  1.34836E+00
#           1.38117E+00  1.41477E+00  1.44920E+00  1.48446E+00  1.52057E+00
#           1.55757E+00  1.59547E+00  1.63429E+00  1.67405E+00  1.71478E+00
#           1.75650E+00  1.79924E+00  1.84302E+00  1.88786E+00  1.93379E+00
#           1.98084E+00  2.02904E+00  2.07841E+00  2.12898E+00  2.18078E+00
#           2.23384E+00  2.28819E+00  2.34386E+00  2.40089E+00  2.45930E+00
#           2.51914E+00  2.58043E+00  2.64322E+00  2.70753E+00  2.77341E+00
#           2.84088E+00  2.91001E+00  2.98081E+00  3.05333E+00  3.12762E+00
#           3.20372E+00  3.28167E+00  3.36152E+00  3.44330E+00  3.52708E+00
#           3.61290E+00  3.70080E+00  3.79085E+00  3.88308E+00  3.97756E+00
#           4.07434E+00  4.17347E+00  4.27501E+00  4.37903E+00  4.48557E+00
#           4.59471E+00  4.70650E+00  4.82102E+00  4.93832E+00  5.05847E+00
#           5.18155E+00  5.30762E+00  5.43676E+00  5.56904E+00  5.70453E+00
#           5.84333E+00  5.98550E+00  6.13114E+00  6.28031E+00  6.43312E+00
#           6.58964E+00  6.74997E+00  6.91420E+00  7.08243E+00  7.25475E+00
#           7.43126E+00  7.61207E+00  7.79728E+00  7.98700E+00  8.18133E+00
#           8.38038E+00  8.58428E+00  8.79315E+00  9.00709E+00  9.22624E+00
#           9.45072E+00  9.68067E+00  9.91620E+00  1.01575E+01  1.04046E+01
#           1.06578E+01  1.09171E+01  1.11827E+01  1.14548E+01  1.17335E+01
#           1.20190E+01  1.23114E+01  1.26109E+01  1.29178E+01  1.32321E+01
#           1.35540E+01  1.38838E+01  1.42216E+01  1.45676E+01  1.49221E+01
#           1.52851E+01  1.56570E+01  1.60380E+01  1.64282E+01  1.68279E+01
#           1.72374E+01  1.76568E+01  1.80864E+01  1.85264E+01  1.89772E+01
#           1.94389E+01  1.99119E+01  2.03963E+01  2.08926E+01  2.14009E+01
#           2.19216E+01  2.24550E+01  2.30014E+01  2.35610E+01  2.41343E+01
#           2.47215E+01  2.53230E+01  2.59391E+01  2.65702E+01  2.72167E+01
#           2.78789E+01  2.85572E+01  2.92520E+01  2.99637E+01  3.06928E+01
#           3.14396E+01  3.22045E+01  3.29881E+01  3.37907E+01  3.46128E+01
#           3.54550E+01  3.63177E+01  3.72013E+01  3.81064E+01  3.90336E+01
#           3.99833E+01  4.09561E+01  4.19526E+01  4.29734E+01  4.40189E+01
#           4.50900E+01  4.61870E+01  4.73108E+01  4.84619E+01  4.96410E+01
#           5.08488E+01  5.20860E+01  5.33533E+01  5.46514E+01  5.59812E+01
#           5.73432E+01  5.87384E+01  6.01676E+01  6.16315E+01  6.31311E+01
#           6.46671E+01  6.62405E+01  6.78522E+01  6.95031E+01  7.11941E+01
#           7.29263E+01  7.47007E+01  7.65182E+01  7.83800E+01  8.02870E+01
#           8.22405E+01  8.42414E+01  8.62911E+01  8.83906E+01  9.05412E+01
#           9.27442E+01  9.50007E+01  9.73122E+01  9.96799E+01  1.02105E+02
#           1.04589E+02  1.07134E+02  1.09741E+02  1.12411E+02  1.15146E+02
#           1.17948E+02  1.20817E+02  1.23757E+02  1.26768E+02  1.29852E+02
#           1.33012E+02  1.36248E+02  1.39563E+02  1.42959E+02  1.46437E+02
#           1.50000E+02
     unit =    2            # unit is [1/cm^2/(MeV/n)/source]
     axis =  eng            # axis of output
     file = detector-18.out  # file name of output for the above axis
   output = f-curr          # surface crossing forward current spectrum
     part =  neutron  
# kf/name :  2112     
#    used :        main (  %)        temp (  %)       total (  %)
#  memory :         414 (  0)           0 (  0)         414 (  0)

#------------------------------------------------------------------------------
#newpage:
#   no. =    1   reg = 117 - 217

x: Energy [MeV/n]
y:  F-Curr [1/cm^2/(MeV/n)/source]         
p: xlog ylog afac(0.8) form(0.9)
h: n            x            y(neutron ),hh0l   n 
#  e-lower      e-upper      neutron     r.err 
   1.0000E-02   1.0243E-02   2.8537E-03  0.0536
   1.0243E-02   1.0493E-02   2.8787E-03  0.0527
   1.0493E-02   1.0748E-02   2.8019E-03  0.0528
   1.0748E-02   1.1009E-02   2.8002E-03  0.0521
   1.1009E-02   1.1277E-02   2.6934E-03  0.0525
   1.1277E-02   1.1552E-02   2.7575E-03  0.0513
   1.1552E-02   1.1833E-02   2.4673E-03  0.0536
   1.1833E-02   1.2121E-02   2.5777E-03  0.0518
   1.2121E-02   1.2415E-02   2.5569E-03  0.0514
   1.2415E-02   1.2718E-02   2.2051E-03  0.0547
   1.2718E-02   1.3027E-02   2.2504E-03  0.0535
   1.3027E-02   1.3344E-02   2.3493E-03  0.0518
   1.3344E-02   1.3669E-02   2.1351E-03  0.0535
   1.3669E-02   1.4001E-02   2.2618E-03  0.0515
   1.4001E-02   1.4342E-02   2.0569E-03  0.0533
   1.4342E-02   1.4691E-02   2.1265E-03  0.0518
   1.4691E-02   1.5048E-02   2.1188E-03  0.0513
   1.5048E-02   1.5414E-02   2.1906E-03  0.0498
   1.5414E-02   1.5789E-02   1.9828E-03  0.0517
   1.5789E-02   1.6174E-02   1.9676E-03  0.0513
   1.6174E-02   1.6567E-02   1.8372E-03  0.0525
   1.6567E-02   1.6970E-02   1.9079E-03  0.0508
   1.6970E-02   1.7383E-02   1.9937E-03  0.0492
   1.7383E-02   1.7806E-02   1.8667E-03  0.0502
   1.7806E-02   1.8239E-02   1.9980E-03  0.0480
   1.8239E-02   1.8683E-02   1.8033E-03  0.0499
   1.8683E-02   1.9138E-02   1.7059E-03  0.0507
   1.9138E-02   1.9603E-02   1.7436E-03  0.0495
   1.9603E-02   2.0080E-02   1.6219E-03  0.0507
   2.0080E-02   2.0569E-02   1.6453E-03  0.0498
   2.0569E-02   2.1069E-02   1.4573E-03  0.0522
   2.1069E-02   2.1582E-02   1.4895E-03  0.0510
   2.1582E-02   2.2107E-02   1.4841E-03  0.0505
   2.2107E-02   2.2645E-02   1.3606E-03  0.0522
   2.2645E-02   2.3196E-02   1.3901E-03  0.0510
   2.3196E-02   2.3760E-02   1.5952E-03  0.0470
   2.3760E-02   2.4338E-02   1.4016E-03  0.0496
   2.4338E-02   2.4930E-02   1.3814E-03  0.0493
   2.4930E-02   2.5537E-02   1.2371E-03  0.0515
   2.5537E-02   2.6158E-02   1.3606E-03  0.0485
   2.6158E-02   2.6795E-02   1.3610E-03  0.0480
   2.6795E-02   2.7447E-02   1.3394E-03  0.0477
   2.7447E-02   2.8114E-02   1.3316E-03  0.0473
   2.8114E-02   2.8799E-02   1.2648E-03  0.0479
   2.8799E-02   2.9499E-02   1.1731E-03  0.0492
   2.9499E-02   3.0217E-02   1.2376E-03  0.0473
   3.0217E-02   3.0952E-02   1.1913E-03  0.0477
   3.0952E-02   3.1705E-02   1.1480E-03  0.0480
   3.1705E-02   3.2477E-02   1.2120E-03  0.0461
   3.2477E-02   3.3267E-02   1.0648E-03  0.0486
   3.3267E-02   3.4076E-02   1.0222E-03  0.0490
   3.4076E-02   3.4905E-02   1.0299E-03  0.0483
   3.4905E-02   3.5755E-02   1.0473E-03  0.0473
   3.5755E-02   3.6625E-02   1.0760E-03  0.0461
   3.6625E-02   3.7516E-02   9.5558E-04  0.0484
   3.7516E-02   3.8428E-02   9.3464E-04  0.0483
   3.8428E-02   3.9363E-02   9.4349E-04  0.0475
   3.9363E-02   4.0321E-02   9.9213E-04  0.0457
   4.0321E-02   4.1302E-02   8.5655E-04  0.0487
   4.1302E-02   4.2307E-02   9.1845E-04  0.0464
   4.2307E-02   4.3337E-02   8.4957E-04  0.0477
   4.3337E-02   4.4391E-02   8.5850E-04  0.0469
   4.4391E-02   4.5471E-02   7.8056E-04  0.0485
   4.5471E-02   4.6577E-02   7.4942E-04  0.0490
   4.6577E-02   4.7711E-02   7.9034E-04  0.0472
   4.7711E-02   4.8871E-02   8.2501E-04  0.0456
   4.8871E-02   5.0061E-02   7.9578E-04  0.0459
   5.0061E-02   5.1279E-02   7.2478E-04  0.0475
   5.1279E-02   5.2526E-02   7.0918E-04  0.0474
   5.2526E-02   5.3804E-02   6.9744E-04  0.0473
   5.3804E-02   5.5113E-02   6.7918E-04  0.0473
   5.5113E-02   5.6454E-02   7.0095E-04  0.0460
   5.6454E-02   5.7828E-02   6.9106E-04  0.0458
   5.7828E-02   5.9235E-02   6.2266E-04  0.0477
   5.9235E-02   6.0676E-02   6.2641E-04  0.0470
   6.0676E-02   6.2152E-02   6.1086E-04  0.0469
   6.2152E-02   6.3665E-02   5.6429E-04  0.0483
   6.3665E-02   6.5214E-02   6.0571E-04  0.0460
   6.5214E-02   6.6800E-02   6.0691E-04  0.0455
   6.6800E-02   6.8426E-02   5.8884E-04  0.0456
   6.8426E-02   7.0090E-02   5.3076E-04  0.0475
   7.0090E-02   7.1796E-02   5.7980E-04  0.0448
   7.1796E-02   7.3543E-02   5.8494E-04  0.0442
   7.3543E-02   7.5332E-02   5.5834E-04  0.0446
   7.5332E-02   7.7165E-02   5.4544E-04  0.0446
   7.7165E-02   7.9042E-02   5.1766E-04  0.0453
   7.9042E-02   8.0965E-02   5.3795E-04  0.0438
   8.0965E-02   8.2935E-02   4.7899E-04  0.0459
   8.2935E-02   8.4953E-02   4.6555E-04  0.0461
   8.4953E-02   8.7020E-02   4.5247E-04  0.0462
   8.7020E-02   8.9138E-02   4.7401E-04  0.0446
   8.9138E-02   9.1306E-02   4.7840E-04  0.0438
   9.1306E-02   9.3528E-02   4.2816E-04  0.0458
   9.3528E-02   9.5804E-02   4.0618E-04  0.0464
   9.5804E-02   9.8134E-02   4.2125E-04  0.0451
   9.8134E-02   1.0052E-01   4.1029E-04  0.0451
   1.0052E-01   1.0297E-01   4.0435E-04  0.0448
   1.0297E-01   1.0547E-01   4.0228E-04  0.0446
   1.0547E-01   1.0804E-01   3.9020E-04  0.0446
   1.0804E-01   1.1067E-01   3.5819E-04  0.0460
   1.1067E-01   1.1336E-01   3.9451E-04  0.0433
   1.1336E-01   1.1612E-01   3.6438E-04  0.0445
   1.1612E-01   1.1894E-01   3.4414E-04  0.0453
   1.1894E-01   1.2184E-01   3.4622E-04  0.0446
   1.2184E-01   1.2480E-01   2.9640E-04  0.0476
   1.2480E-01   1.2784E-01   3.0518E-04  0.0464
   1.2784E-01   1.3095E-01   3.1132E-04  0.0454
   1.3095E-01   1.3414E-01   3.0993E-04  0.0448
   1.3414E-01   1.3740E-01   3.0847E-04  0.0444
   1.3740E-01   1.4074E-01   2.7683E-04  0.0464
   1.4074E-01   1.4417E-01   2.8095E-04  0.0455
   1.4417E-01   1.4767E-01   2.7632E-04  0.0453
   1.4767E-01   1.5127E-01   2.7028E-04  0.0453
   1.5127E-01   1.5495E-01   2.6832E-04  0.0449
   1.5495E-01   1.5872E-01   2.4242E-04  0.0467
   1.5872E-01   1.6258E-01   2.5470E-04  0.0450
   1.6258E-01   1.6654E-01   2.4931E-04  0.0449
   1.6654E-01   1.7059E-01   2.4286E-04  0.0449
   1.7059E-01   1.7474E-01   2.3495E-04  0.0452
   1.7474E-01   1.7899E-01   2.2678E-04  0.0454
   1.7899E-01   1.8334E-01   2.2864E-04  0.0447
   1.8334E-01   1.8781E-01   2.0687E-04  0.0464
   1.8781E-01   1.9237E-01   2.1623E-04  0.0449
   1.9237E-01   1.9706E-01   2.1663E-04  0.0443
   1.9706E-01   2.0185E-01   2.1200E-04  0.0443
   2.0185E-01   2.0676E-01   2.0806E-04  0.0441
   2.0676E-01   2.1179E-01   2.0048E-04  0.0444
   2.1179E-01   2.1694E-01   2.2448E-04  0.0414
   2.1694E-01   2.2222E-01   2.3385E-04  0.0401
   2.2222E-01   2.2763E-01   2.4084E-04  0.0390
   2.2763E-01   2.3317E-01   2.4778E-04  0.0380
   2.3317E-01   2.3884E-01   2.5834E-04  0.0368
   2.3884E-01   2.4465E-01   2.5557E-04  0.0366
   2.4465E-01   2.5061E-01   2.6738E-04  0.0354
   2.5061E-01   2.5670E-01   2.6392E-04  0.0352
   2.5670E-01   2.6295E-01   2.6745E-04  0.0345
   2.6295E-01   2.6935E-01   2.8450E-04  0.0331
   2.6935E-01   2.7590E-01   3.0049E-04  0.0318
   2.7590E-01   2.8261E-01   2.9868E-04  0.0315
   2.8261E-01   2.8949E-01   3.0233E-04  0.0309
   2.8949E-01   2.9653E-01   3.1059E-04  0.0301
   2.9653E-01   3.0375E-01   3.0609E-04  0.0300
   3.0375E-01   3.1114E-01   3.2569E-04  0.0288
   3.1114E-01   3.1871E-01   3.4748E-04  0.0275
   3.1871E-01   3.2646E-01   3.4515E-04  0.0273
   3.2646E-01   3.3441E-01   3.7019E-04  0.0260
   3.3441E-01   3.4254E-01   3.5374E-04  0.0263
   3.4254E-01   3.5088E-01   3.6414E-04  0.0256
   3.5088E-01   3.5941E-01   3.6719E-04  0.0252
   3.5941E-01   3.6816E-01   3.6365E-04  0.0250
   3.6816E-01   3.7712E-01   3.8636E-04  0.0240
   3.7712E-01   3.8629E-01   3.9715E-04  0.0233
   3.8629E-01   3.9569E-01   4.1395E-04  0.0226
   3.9569E-01   4.0532E-01   4.0746E-04  0.0225
   4.0532E-01   4.1518E-01   4.2357E-04  0.0218
   4.1518E-01   4.2528E-01   4.2386E-04  0.0216
   4.2528E-01   4.3563E-01   4.2563E-04  0.0212
   4.3563E-01   4.4623E-01   4.2332E-04  0.0210
   4.4623E-01   4.5708E-01   4.4062E-04  0.0204
   4.5708E-01   4.6821E-01   4.5069E-04  0.0199
   4.6821E-01   4.7960E-01   4.5884E-04  0.0195
   4.7960E-01   4.9127E-01   4.4932E-04  0.0195
   4.9127E-01   5.0322E-01   4.6302E-04  0.0189
   5.0322E-01   5.1546E-01   4.7271E-04  0.0185
   5.1546E-01   5.2800E-01   4.7761E-04  0.0182
   5.2800E-01   5.4085E-01   4.7809E-04  0.0180
   5.4085E-01   5.5401E-01   4.8352E-04  0.0177
   5.5401E-01   5.6749E-01   4.9042E-04  0.0173
   5.6749E-01   5.8130E-01   4.9975E-04  0.0170
   5.8130E-01   5.9544E-01   4.9151E-04  0.0169
   5.9544E-01   6.0993E-01   5.0468E-04  0.0165
   6.0993E-01   6.2477E-01   4.9795E-04  0.0164
   6.2477E-01   6.3997E-01   5.1082E-04  0.0160
   6.3997E-01   6.5554E-01   5.0510E-04  0.0159
   6.5554E-01   6.7149E-01   5.1682E-04  0.0155
   6.7149E-01   6.8783E-01   5.1984E-04  0.0153
   6.8783E-01   7.0456E-01   5.1680E-04  0.0151
   7.0456E-01   7.2171E-01   5.2197E-04  0.0149
   7.2171E-01   7.3927E-01   5.1715E-04  0.0148
   7.3927E-01   7.5725E-01   5.1323E-04  0.0147
   7.5725E-01   7.7568E-01   5.1645E-04  0.0144
   7.7568E-01   7.9455E-01   5.3069E-04  0.0141
   7.9455E-01   8.1388E-01   5.2929E-04  0.0139
   8.1388E-01   8.3368E-01   5.3793E-04  0.0136
   8.3368E-01   8.5397E-01   5.3506E-04  0.0135
   8.5397E-01   8.7475E-01   5.2279E-04  0.0135
   8.7475E-01   8.9603E-01   5.2381E-04  0.0133
   8.9603E-01   9.1783E-01   5.3303E-04  0.0131
   9.1783E-01   9.4016E-01   5.3046E-04  0.0129
   9.4016E-01   9.6304E-01   5.2410E-04  0.0129
   9.6304E-01   9.8647E-01   5.3056E-04  0.0126
   9.8647E-01   1.0105E+00   5.2713E-04  0.0125
   1.0105E+00   1.0351E+00   5.2045E-04  0.0124
   1.0351E+00   1.0602E+00   5.0652E-04  0.0125
   1.0602E+00   1.0860E+00   5.0358E-04  0.0123
   1.0860E+00   1.1125E+00   4.9724E-04  0.0123
   1.1125E+00   1.1395E+00   4.8797E-04  0.0122
   1.1395E+00   1.1673E+00   4.8328E-04  0.0122
   1.1673E+00   1.1957E+00   4.8865E-04  0.0119
   1.1957E+00   1.2247E+00   4.8890E-04  0.0118
   1.2247E+00   1.2545E+00   4.6490E-04  0.0120
   1.2545E+00   1.2851E+00   4.5669E-04  0.0119
   1.2851E+00   1.3163E+00   4.5147E-04  0.0118
   1.3163E+00   1.3484E+00   4.4661E-04  0.0118
   1.3484E+00   1.3812E+00   4.4320E-04  0.0117
   1.3812E+00   1.4148E+00   4.3390E-04  0.0117
   1.4148E+00   1.4492E+00   4.3367E-04  0.0115
   1.4492E+00   1.4845E+00   4.1597E-04  0.0116
   1.4845E+00   1.5206E+00   4.1236E-04  0.0115
   1.5206E+00   1.5576E+00   3.9988E-04  0.0116
   1.5576E+00   1.5955E+00   3.9530E-04  0.0115
   1.5955E+00   1.6343E+00   3.8001E-04  0.0116
   1.6343E+00   1.6741E+00   3.8587E-04  0.0114
   1.6741E+00   1.7148E+00   3.6117E-04  0.0116
   1.7148E+00   1.7565E+00   3.4894E-04  0.0117
   1.7565E+00   1.7992E+00   3.4769E-04  0.0115
   1.7992E+00   1.8430E+00   3.4373E-04  0.0115
   1.8430E+00   1.8879E+00   3.3644E-04  0.0114
   1.8879E+00   1.9338E+00   3.1439E-04  0.0117
   1.9338E+00   1.9808E+00   3.1575E-04  0.0115
   1.9808E+00   2.0290E+00   3.0541E-04  0.0116
   2.0290E+00   2.0784E+00   3.0315E-04  0.0115
   2.0784E+00   2.1290E+00   2.9084E-04  0.0116
   2.1290E+00   2.1808E+00   2.8570E-04  0.0116
   2.1808E+00   2.2338E+00   2.7472E-04  0.0116
   2.2338E+00   2.2882E+00   2.6703E-04  0.0117
   2.2882E+00   2.3439E+00   2.5458E-04  0.0118
   2.3439E+00   2.4009E+00   2.4958E-04  0.0118
   2.4009E+00   2.4593E+00   2.4327E-04  0.0118
   2.4593E+00   2.5191E+00   2.3906E-04  0.0117
   2.5191E+00   2.5804E+00   2.2703E-04  0.0119
   2.5804E+00   2.6432E+00   2.2184E-04  0.0119
   2.6432E+00   2.7075E+00   2.1771E-04  0.0119
   2.7075E+00   2.7734E+00   2.0693E-04  0.0120
   2.7734E+00   2.8409E+00   1.9996E-04  0.0121
   2.8409E+00   2.9100E+00   1.9811E-04  0.0120
   2.9100E+00   2.9808E+00   1.8738E-04  0.0122
   2.9808E+00   3.0533E+00   1.8574E-04  0.0121
   3.0533E+00   3.1276E+00   1.7723E-04  0.0122
   3.1276E+00   3.2037E+00   1.7143E-04  0.0123
   3.2037E+00   3.2817E+00   1.6533E-04  0.0124
   3.2817E+00   3.3615E+00   1.6015E-04  0.0124
   3.3615E+00   3.4433E+00   1.5703E-04  0.0124
   3.4433E+00   3.5271E+00   1.5052E-04  0.0125
   3.5271E+00   3.6129E+00   1.5147E-04  0.0123
   3.6129E+00   3.7008E+00   1.4671E-04  0.0124
   3.7008E+00   3.7908E+00   1.4051E-04  0.0125
   3.7908E+00   3.8831E+00   1.3542E-04  0.0126
   3.8831E+00   3.9776E+00   1.3636E-04  0.0124
   3.9776E+00   4.0743E+00   1.3115E-04  0.0125
   4.0743E+00   4.1735E+00   1.2846E-04  0.0125
   4.1735E+00   4.2750E+00   1.2695E-04  0.0124
   4.2750E+00   4.3790E+00   1.1854E-04  0.0127
   4.3790E+00   4.4856E+00   1.2101E-04  0.0124
   4.4856E+00   4.5947E+00   1.1660E-04  0.0125
   4.5947E+00   4.7065E+00   1.1909E-04  0.0122
   4.7065E+00   4.8210E+00   1.1855E-04  0.0121
   4.8210E+00   4.9383E+00   1.1586E-04  0.0121
   4.9383E+00   5.0585E+00   1.1518E-04  0.0120
   5.0585E+00   5.1815E+00   1.1279E-04  0.0119
   5.1815E+00   5.3076E+00   1.1120E-04  0.0119
   5.3076E+00   5.4368E+00   1.0933E-04  0.0118
   5.4368E+00   5.5690E+00   1.0600E-04  0.0119
   5.5690E+00   5.7045E+00   1.0162E-04  0.0120
   5.7045E+00   5.8433E+00   9.9708E-05  0.0120
   5.8433E+00   5.9855E+00   9.8047E-05  0.0119
   5.9855E+00   6.1311E+00   9.4132E-05  0.0120
   6.1311E+00   6.2803E+00   9.0811E-05  0.0121
   6.2803E+00   6.4331E+00   8.9921E-05  0.0120
   6.4331E+00   6.5896E+00   8.5490E-05  0.0122
   6.5896E+00   6.7500E+00   8.2006E-05  0.0123
   6.7500E+00   6.9142E+00   8.0605E-05  0.0123
   6.9142E+00   7.0824E+00   7.7289E-05  0.0124
   7.0824E+00   7.2548E+00   7.6689E-05  0.0123
   7.2548E+00   7.4313E+00   7.0941E-05  0.0126
   7.4313E+00   7.6121E+00   7.0420E-05  0.0125
   7.6121E+00   7.7973E+00   6.7733E-05  0.0126
   7.7973E+00   7.9870E+00   6.5544E-05  0.0127
   7.9870E+00   8.1813E+00   6.0717E-05  0.0130
   8.1813E+00   8.3804E+00   5.9258E-05  0.0130
   8.3804E+00   8.5843E+00   5.8996E-05  0.0129
   8.5843E+00   8.7931E+00   5.5720E-05  0.0131
   8.7931E+00   9.0071E+00   5.3653E-05  0.0132
   9.0071E+00   9.2262E+00   5.1461E-05  0.0133
   9.2262E+00   9.4507E+00   4.8745E-05  0.0135
   9.4507E+00   9.6807E+00   4.6723E-05  0.0136
   9.6807E+00   9.9162E+00   4.3786E-05  0.0139
   9.9162E+00   1.0157E+01   4.1513E-05  0.0141
   1.0157E+01   1.0405E+01   4.0455E-05  0.0141
   1.0405E+01   1.0658E+01   3.8725E-05  0.0143
   1.0658E+01   1.0917E+01   3.6090E-05  0.0146
   1.0917E+01   1.1183E+01   3.4167E-05  0.0148
   1.1183E+01   1.1455E+01   3.2728E-05  0.0150
   1.1455E+01   1.1733E+01   3.1229E-05  0.0151
   1.1733E+01   1.2019E+01   2.9488E-05  0.0154
   1.2019E+01   1.2311E+01   2.7898E-05  0.0157
   1.2311E+01   1.2611E+01   2.6251E-05  0.0159
   1.2611E+01   1.2918E+01   2.4370E-05  0.0163
   1.2918E+01   1.3232E+01   2.2701E-05  0.0167
   1.3232E+01   1.3554E+01   2.2421E-05  0.0166
   1.3554E+01   1.3884E+01   2.0983E-05  0.0170
   1.3884E+01   1.4222E+01   1.9299E-05  0.0175
   1.4222E+01   1.4568E+01   1.7987E-05  0.0179
   1.4568E+01   1.4922E+01   1.6656E-05  0.0184
   1.4922E+01   1.5285E+01   1.5178E-05  0.0191
   1.5285E+01   1.5657E+01   1.4258E-05  0.0194
   1.5657E+01   1.6038E+01   1.3898E-05  0.0194
   1.6038E+01   1.6428E+01   1.2738E-05  0.0201
   1.6428E+01   1.6828E+01   1.1915E-05  0.0205
   1.6828E+01   1.7237E+01   1.0873E-05  0.0212
   1.7237E+01   1.7657E+01   9.5960E-06  0.0223
   1.7657E+01   1.8086E+01   9.0502E-06  0.0227
   1.8086E+01   1.8526E+01   8.7307E-06  0.0228
   1.8526E+01   1.8977E+01   7.7380E-06  0.0239
   1.8977E+01   1.9439E+01   6.9564E-06  0.0250
   1.9439E+01   1.9912E+01   6.7151E-06  0.0251
   1.9912E+01   2.0396E+01   5.9859E-06  0.0263
   2.0396E+01   2.0893E+01   5.2150E-06  0.0278
   2.0893E+01   2.1401E+01   4.7803E-06  0.0287
   2.1401E+01   2.1922E+01   4.1214E-06  0.0305
   2.1922E+01   2.2455E+01   3.7497E-06  0.0316
   2.2455E+01   2.3001E+01   3.1811E-06  0.0339
   2.3001E+01   2.3561E+01   2.8340E-06  0.0355
   2.3561E+01   2.4134E+01   2.3550E-06  0.0385
   2.4134E+01   2.4721E+01   2.0504E-06  0.0408
   2.4721E+01   2.5323E+01   1.6260E-06  0.0452
   2.5323E+01   2.5939E+01   1.3731E-06  0.0486
   2.5939E+01   2.6570E+01   1.1979E-06  0.0514
   2.6570E+01   2.7217E+01   9.4667E-07  0.0572
   2.7217E+01   2.7879E+01   7.9734E-07  0.0615
   2.7879E+01   2.8557E+01   7.2238E-07  0.0639
   2.8557E+01   2.9252E+01   5.5554E-07  0.0720
   2.9252E+01   2.9964E+01   4.1870E-07  0.0819
   2.9964E+01   3.0693E+01   3.7309E-07  0.0857
   3.0693E+01   3.1440E+01   2.8924E-07  0.0962
   3.1440E+01   3.2205E+01   2.4054E-07  0.1043
   3.2205E+01   3.2988E+01   1.6591E-07  0.1240
   3.2988E+01   3.3791E+01   1.4702E-07  0.1302
   3.3791E+01   3.4613E+01   1.2650E-07  0.1387
   3.4613E+01   3.5455E+01   6.4121E-08  0.1925
   3.5455E+01   3.6318E+01   5.3324E-08  0.2085
   3.6318E+01   3.7201E+01   4.7531E-08  0.2182
   3.7201E+01   3.8106E+01   3.9773E-08  0.2357
   3.8106E+01   3.9034E+01   2.8043E-08  0.2774
   3.9034E+01   3.9983E+01   1.0529E-08  0.4472
   3.9983E+01   4.0956E+01   6.1676E-09  0.5774
   4.0956E+01   4.1953E+01   8.0281E-09  0.5000
   4.1953E+01   4.2973E+01   7.8374E-09  0.5000
   4.2973E+01   4.4019E+01   5.7385E-09  0.5774
   4.4019E+01   4.5090E+01   0.0000E+00  0.0000
   4.5090E+01   4.6187E+01   0.0000E+00  0.0000
   4.6187E+01   4.7311E+01   0.0000E+00  0.0000
   4.7311E+01   4.8462E+01   1.7375E-09  1.0000
   4.8462E+01   4.9641E+01   0.0000E+00  0.0000
   4.9641E+01   5.0849E+01   0.0000E+00  0.0000
   5.0849E+01   5.2086E+01   0.0000E+00  0.0000
   5.2086E+01   5.3353E+01   0.0000E+00  0.0000
   5.3353E+01   5.4651E+01   0.0000E+00  0.0000
   5.4651E+01   5.5981E+01   0.0000E+00  0.0000
   5.5981E+01   5.7343E+01   0.0000E+00  0.0000
   5.7343E+01   5.8738E+01   0.0000E+00  0.0000
   5.8738E+01   6.0168E+01   0.0000E+00  0.0000
   6.0168E+01   6.1632E+01   0.0000E+00  0.0000
   6.1632E+01   6.3131E+01   0.0000E+00  0.0000
   6.3131E+01   6.4667E+01   0.0000E+00  0.0000
   6.4667E+01   6.6240E+01   0.0000E+00  0.0000
   6.6240E+01   6.7852E+01   0.0000E+00  0.0000
   6.7852E+01   6.9503E+01   0.0000E+00  0.0000
   6.9503E+01   7.1194E+01   0.0000E+00  0.0000
   7.1194E+01   7.2926E+01   0.0000E+00  0.0000
   7.2926E+01   7.4701E+01   0.0000E+00  0.0000
   7.4701E+01   7.6518E+01   0.0000E+00  0.0000
   7.6518E+01   7.8380E+01   0.0000E+00  0.0000
   7.8380E+01   8.0287E+01   0.0000E+00  0.0000
   8.0287E+01   8.2240E+01   0.0000E+00  0.0000
   8.2240E+01   8.4241E+01   0.0000E+00  0.0000
   8.4241E+01   8.6291E+01   0.0000E+00  0.0000
   8.6291E+01   8.8391E+01   0.0000E+00  0.0000
   8.8391E+01   9.0541E+01   0.0000E+00  0.0000
   9.0541E+01   9.2744E+01   0.0000E+00  0.0000
   9.2744E+01   9.5001E+01   0.0000E+00  0.0000
   9.5001E+01   9.7312E+01   0.0000E+00  0.0000
   9.7312E+01   9.9680E+01   0.0000E+00  0.0000
   9.9680E+01   1.0211E+02   0.0000E+00  0.0000
   1.0211E+02   1.0459E+02   0.0000E+00  0.0000
   1.0459E+02   1.0713E+02   0.0000E+00  0.0000
   1.0713E+02   1.0974E+02   0.0000E+00  0.0000
   1.0974E+02   1.1241E+02   0.0000E+00  0.0000
   1.1241E+02   1.1515E+02   0.0000E+00  0.0000
   1.1515E+02   1.1795E+02   0.0000E+00  0.0000
   1.1795E+02   1.2082E+02   0.0000E+00  0.0000
   1.2082E+02   1.2376E+02   0.0000E+00  0.0000
   1.2376E+02   1.2677E+02   0.0000E+00  0.0000
   1.2677E+02   1.2985E+02   0.0000E+00  0.0000
   1.2985E+02   1.3301E+02   0.0000E+00  0.0000
   1.3301E+02   1.3625E+02   0.0000E+00  0.0000
   1.3625E+02   1.3956E+02   0.0000E+00  0.0000
   1.3956E+02   1.4296E+02   0.0000E+00  0.0000
   1.4296E+02   1.4644E+02   0.0000E+00  0.0000
   1.4644E+02   1.5000E+02   0.0000E+00  0.0000

#   sum over                 1.3176E-05
'no. =    1   reg = 117 - 217'
msuc: {\huge [t-cross] in region mesh}
msdr: {\it plotted by \ANGEL \version}
msdl: {\it calculated by \PHITS  3.26}
wt: s(0.7)
\vspace{-3}
  region surface crossing
  area  &=&   1.0000E+00 [cm^2]
e:
 
# Information for Restart Calculation
# This calculation was newly started
# istdev =  2 # 1:Batch variance, 2:History variance
# resc2  = 5.00000000000000000E+08 # Total source weight or Total source weight / maxcas
# resc3  = 5.00000000000000000E+08 # Total history number or Total batch number
# maxcas =   500000000 # History / Batch, only used for istdev=1
# bitrseed = 1101101111010011011000101101110001100110110010110001010100010001 # bit data of rseed
