[ T-Cross ]
    title = [t-cross] in region mesh
     mesh =  reg            # mesh type is region-wise
      reg =    1            # number of crossing regions
      non     r-from    r-to       area
      1       100       200        1.000000    
   e-type =    3            # e-mesh is log given by emin, emax and ne
     emin =  1.0000000E-02  # minimum value of e-mesh points
     emax =   150.0000      # maximum value of e-mesh points
#    edel =  2.4039514E-02  # mesh width of e-mesh points
       ne =    400          # number of e-mesh points
#    data = ( e(i), i = 1, ne + 1 )
#           1.00000E-02  1.02433E-02  1.04925E-02  1.07478E-02  1.10093E-02
#           1.12772E-02  1.15516E-02  1.18326E-02  1.21205E-02  1.24154E-02
#           1.27175E-02  1.30269E-02  1.33439E-02  1.36686E-02  1.40011E-02
#           1.43418E-02  1.46907E-02  1.50482E-02  1.54143E-02  1.57894E-02
#           1.61735E-02  1.65670E-02  1.69701E-02  1.73830E-02  1.78060E-02
#           1.82392E-02  1.86830E-02  1.91375E-02  1.96032E-02  2.00801E-02
#           2.05687E-02  2.10692E-02  2.15818E-02  2.21069E-02  2.26448E-02
#           2.31957E-02  2.37601E-02  2.43382E-02  2.49304E-02  2.55369E-02
#           2.61583E-02  2.67947E-02  2.74467E-02  2.81145E-02  2.87985E-02
#           2.94992E-02  3.02169E-02  3.09521E-02  3.17052E-02  3.24766E-02
#           3.32668E-02  3.40762E-02  3.49053E-02  3.57546E-02  3.66246E-02
#           3.75157E-02  3.84284E-02  3.93634E-02  4.03212E-02  4.13022E-02
#           4.23071E-02  4.33365E-02  4.43909E-02  4.54710E-02  4.65773E-02
#           4.77106E-02  4.88714E-02  5.00605E-02  5.12785E-02  5.25262E-02
#           5.38042E-02  5.51133E-02  5.64542E-02  5.78278E-02  5.92348E-02
#           6.06760E-02  6.21523E-02  6.36645E-02  6.52135E-02  6.68002E-02
#           6.84255E-02  7.00904E-02  7.17957E-02  7.35426E-02  7.53319E-02
#           7.71648E-02  7.90423E-02  8.09655E-02  8.29354E-02  8.49533E-02
#           8.70203E-02  8.91376E-02  9.13064E-02  9.35279E-02  9.58035E-02
#           9.81345E-02  1.00522E-01  1.02968E-01  1.05473E-01  1.08040E-01
#           1.10668E-01  1.13361E-01  1.16119E-01  1.18944E-01  1.21838E-01
#           1.24803E-01  1.27839E-01  1.30950E-01  1.34136E-01  1.37399E-01
#           1.40742E-01  1.44167E-01  1.47675E-01  1.51268E-01  1.54948E-01
#           1.58718E-01  1.62580E-01  1.66535E-01  1.70587E-01  1.74738E-01
#           1.78989E-01  1.83344E-01  1.87805E-01  1.92375E-01  1.97055E-01
#           2.01850E-01  2.06761E-01  2.11792E-01  2.16945E-01  2.22223E-01
#           2.27630E-01  2.33169E-01  2.38842E-01  2.44653E-01  2.50605E-01
#           2.56703E-01  2.62949E-01  2.69346E-01  2.75900E-01  2.82613E-01
#           2.89489E-01  2.96532E-01  3.03747E-01  3.11138E-01  3.18708E-01
#           3.26462E-01  3.34405E-01  3.42542E-01  3.50876E-01  3.59413E-01
#           3.68158E-01  3.77116E-01  3.86291E-01  3.95690E-01  4.05317E-01
#           4.15179E-01  4.25281E-01  4.35628E-01  4.46227E-01  4.57084E-01
#           4.68205E-01  4.79597E-01  4.91266E-01  5.03219E-01  5.15463E-01
#           5.28005E-01  5.40851E-01  5.54011E-01  5.67490E-01  5.81298E-01
#           5.95441E-01  6.09929E-01  6.24769E-01  6.39970E-01  6.55541E-01
#           6.71491E-01  6.87828E-01  7.04564E-01  7.21706E-01  7.39266E-01
#           7.57253E-01  7.75678E-01  7.94551E-01  8.13883E-01  8.33685E-01
#           8.53969E-01  8.74747E-01  8.96030E-01  9.17831E-01  9.40163E-01
#           9.63038E-01  9.86469E-01  1.01047E+00  1.03506E+00  1.06024E+00
#           1.08604E+00  1.11246E+00  1.13953E+00  1.16725E+00  1.19565E+00
#           1.22474E+00  1.25454E+00  1.28507E+00  1.31633E+00  1.34836E+00
#           1.38117E+00  1.41477E+00  1.44920E+00  1.48446E+00  1.52057E+00
#           1.55757E+00  1.59547E+00  1.63429E+00  1.67405E+00  1.71478E+00
#           1.75650E+00  1.79924E+00  1.84302E+00  1.88786E+00  1.93379E+00
#           1.98084E+00  2.02904E+00  2.07841E+00  2.12898E+00  2.18078E+00
#           2.23384E+00  2.28819E+00  2.34386E+00  2.40089E+00  2.45930E+00
#           2.51914E+00  2.58043E+00  2.64322E+00  2.70753E+00  2.77341E+00
#           2.84088E+00  2.91001E+00  2.98081E+00  3.05333E+00  3.12762E+00
#           3.20372E+00  3.28167E+00  3.36152E+00  3.44330E+00  3.52708E+00
#           3.61290E+00  3.70080E+00  3.79085E+00  3.88308E+00  3.97756E+00
#           4.07434E+00  4.17347E+00  4.27501E+00  4.37903E+00  4.48557E+00
#           4.59471E+00  4.70650E+00  4.82102E+00  4.93832E+00  5.05847E+00
#           5.18155E+00  5.30762E+00  5.43676E+00  5.56904E+00  5.70453E+00
#           5.84333E+00  5.98550E+00  6.13114E+00  6.28031E+00  6.43312E+00
#           6.58964E+00  6.74997E+00  6.91420E+00  7.08243E+00  7.25475E+00
#           7.43126E+00  7.61207E+00  7.79728E+00  7.98700E+00  8.18133E+00
#           8.38038E+00  8.58428E+00  8.79315E+00  9.00709E+00  9.22624E+00
#           9.45072E+00  9.68067E+00  9.91620E+00  1.01575E+01  1.04046E+01
#           1.06578E+01  1.09171E+01  1.11827E+01  1.14548E+01  1.17335E+01
#           1.20190E+01  1.23114E+01  1.26109E+01  1.29178E+01  1.32321E+01
#           1.35540E+01  1.38838E+01  1.42216E+01  1.45676E+01  1.49221E+01
#           1.52851E+01  1.56570E+01  1.60380E+01  1.64282E+01  1.68279E+01
#           1.72374E+01  1.76568E+01  1.80864E+01  1.85264E+01  1.89772E+01
#           1.94389E+01  1.99119E+01  2.03963E+01  2.08926E+01  2.14009E+01
#           2.19216E+01  2.24550E+01  2.30014E+01  2.35610E+01  2.41343E+01
#           2.47215E+01  2.53230E+01  2.59391E+01  2.65702E+01  2.72167E+01
#           2.78789E+01  2.85572E+01  2.92520E+01  2.99637E+01  3.06928E+01
#           3.14396E+01  3.22045E+01  3.29881E+01  3.37907E+01  3.46128E+01
#           3.54550E+01  3.63177E+01  3.72013E+01  3.81064E+01  3.90336E+01
#           3.99833E+01  4.09561E+01  4.19526E+01  4.29734E+01  4.40189E+01
#           4.50900E+01  4.61870E+01  4.73108E+01  4.84619E+01  4.96410E+01
#           5.08488E+01  5.20860E+01  5.33533E+01  5.46514E+01  5.59812E+01
#           5.73432E+01  5.87384E+01  6.01676E+01  6.16315E+01  6.31311E+01
#           6.46671E+01  6.62405E+01  6.78522E+01  6.95031E+01  7.11941E+01
#           7.29263E+01  7.47007E+01  7.65182E+01  7.83800E+01  8.02870E+01
#           8.22405E+01  8.42414E+01  8.62911E+01  8.83906E+01  9.05412E+01
#           9.27442E+01  9.50007E+01  9.73122E+01  9.96799E+01  1.02105E+02
#           1.04589E+02  1.07134E+02  1.09741E+02  1.12411E+02  1.15146E+02
#           1.17948E+02  1.20817E+02  1.23757E+02  1.26768E+02  1.29852E+02
#           1.33012E+02  1.36248E+02  1.39563E+02  1.42959E+02  1.46437E+02
#           1.50000E+02
     unit =    2            # unit is [1/cm^2/(MeV/n)/source]
     axis =  eng            # axis of output
     file = detector-01.out  # file name of output for the above axis
   output = f-curr          # surface crossing forward current spectrum
     part =  neutron  
# kf/name :  2112     
#    used :        main (  %)        temp (  %)       total (  %)
#  memory :         414 (  0)           0 (  0)         414 (  0)

#------------------------------------------------------------------------------
#newpage:
#   no. =    1   reg = 100 - 200

x: Energy [MeV/n]
y:  F-Curr [1/cm^2/(MeV/n)/source]         
p: xlog ylog afac(0.8) form(0.9)
h: n            x            y(neutron ),hh0l   n 
#  e-lower      e-upper      neutron     r.err 
   1.0000E-02   1.0243E-02   1.8240E-04  0.0668
   1.0243E-02   1.0493E-02   1.8708E-04  0.0651
   1.0493E-02   1.0748E-02   1.8421E-04  0.0648
   1.0748E-02   1.1009E-02   1.8850E-04  0.0634
   1.1009E-02   1.1277E-02   1.8366E-04  0.0632
   1.1277E-02   1.1552E-02   1.5994E-04  0.0670
   1.1552E-02   1.1833E-02   1.6608E-04  0.0651
   1.1833E-02   1.2121E-02   1.7162E-04  0.0634
   1.2121E-02   1.2415E-02   1.6091E-04  0.0645
   1.2415E-02   1.2718E-02   1.7314E-04  0.0616
   1.2718E-02   1.3027E-02   1.5522E-04  0.0642
   1.3027E-02   1.3344E-02   1.6443E-04  0.0616
   1.3344E-02   1.3669E-02   1.4885E-04  0.0641
   1.3669E-02   1.4001E-02   1.3857E-04  0.0652
   1.4001E-02   1.4342E-02   1.4506E-04  0.0633
   1.4342E-02   1.4691E-02   1.3919E-04  0.0638
   1.4691E-02   1.5048E-02   1.3581E-04  0.0638
   1.5048E-02   1.5414E-02   1.2885E-04  0.0648
   1.5414E-02   1.5789E-02   1.4236E-04  0.0609
   1.5789E-02   1.6174E-02   1.3589E-04  0.0615
   1.6174E-02   1.6567E-02   1.2395E-04  0.0635
   1.6567E-02   1.6970E-02   1.1500E-04  0.0654
   1.6970E-02   1.7383E-02   1.2005E-04  0.0630
   1.7383E-02   1.7806E-02   1.1978E-04  0.0626
   1.7806E-02   1.8239E-02   1.3121E-04  0.0589
   1.8239E-02   1.8683E-02   1.1986E-04  0.0608
   1.8683E-02   1.9138E-02   1.0466E-04  0.0644
   1.9138E-02   1.9603E-02   1.0266E-04  0.0644
   1.9603E-02   2.0080E-02   8.4405E-05  0.0698
   2.0080E-02   2.0569E-02   9.5511E-05  0.0648
   2.0569E-02   2.1069E-02   1.0622E-04  0.0610
   2.1069E-02   2.1582E-02   1.0439E-04  0.0609
   2.1582E-02   2.2107E-02   1.0223E-04  0.0606
   2.2107E-02   2.2645E-02   9.4986E-05  0.0622
   2.2645E-02   2.3196E-02   8.8201E-05  0.0638
   2.3196E-02   2.3760E-02   8.8001E-05  0.0630
   2.3760E-02   2.4338E-02   9.4137E-05  0.0603
   2.4338E-02   2.4930E-02   9.4324E-05  0.0594
   2.4930E-02   2.5537E-02   1.0193E-04  0.0566
   2.5537E-02   2.6158E-02   8.6725E-05  0.0604
   2.6158E-02   2.6795E-02   7.3954E-05  0.0646
   2.6795E-02   2.7447E-02   8.7210E-05  0.0589
   2.7447E-02   2.8114E-02   7.7389E-05  0.0618
   2.8114E-02   2.8799E-02   8.1938E-05  0.0593
   2.8799E-02   2.9499E-02   7.7971E-05  0.0601
   2.9499E-02   3.0217E-02   7.6516E-05  0.0600
   3.0217E-02   3.0952E-02   7.7598E-05  0.0588
   3.0952E-02   3.1705E-02   7.1748E-05  0.0604
   3.1705E-02   3.2477E-02   7.1038E-05  0.0601
   3.2477E-02   3.3267E-02   7.4005E-05  0.0580
   3.3267E-02   3.4076E-02   6.7841E-05  0.0600
   3.4076E-02   3.4905E-02   6.7415E-05  0.0594
   3.4905E-02   3.5755E-02   6.9167E-05  0.0580
   3.5755E-02   3.6625E-02   5.9779E-05  0.0616
   3.6625E-02   3.7516E-02   6.1661E-05  0.0599
   3.7516E-02   3.8428E-02   5.9858E-05  0.0601
   3.8428E-02   3.9363E-02   5.9282E-05  0.0597
   3.9363E-02   4.0321E-02   5.3623E-05  0.0622
   4.0321E-02   4.1302E-02   5.8905E-05  0.0584
   4.1302E-02   4.2307E-02   5.1369E-05  0.0618
   4.2307E-02   4.3337E-02   5.2735E-05  0.0603
   4.3337E-02   4.4391E-02   5.1837E-05  0.0600
   4.4391E-02   4.5471E-02   5.2890E-05  0.0590
   4.5471E-02   4.6577E-02   5.0178E-05  0.0595
   4.6577E-02   4.7711E-02   4.7103E-05  0.0608
   4.7711E-02   4.8871E-02   5.1015E-05  0.0577
   4.8871E-02   5.0061E-02   4.8192E-05  0.0586
   5.0061E-02   5.1279E-02   4.9201E-05  0.0574
   5.1279E-02   5.2526E-02   5.0717E-05  0.0558
   5.2526E-02   5.3804E-02   5.1355E-05  0.0550
   5.3804E-02   5.5113E-02   3.8806E-05  0.0620
   5.5113E-02   5.6454E-02   4.6749E-05  0.0561
   5.6454E-02   5.7828E-02   4.5183E-05  0.0564
   5.7828E-02   5.9235E-02   4.4624E-05  0.0561
   5.9235E-02   6.0676E-02   4.1641E-05  0.0574
   6.0676E-02   6.2152E-02   4.2906E-05  0.0559
   6.2152E-02   6.3665E-02   4.3467E-05  0.0548
   6.3665E-02   6.5214E-02   3.3917E-05  0.0614
   6.5214E-02   6.6800E-02   3.8084E-05  0.0572
   6.6800E-02   6.8426E-02   3.4018E-05  0.0597
   6.8426E-02   7.0090E-02   3.5729E-05  0.0576
   7.0090E-02   7.1796E-02   3.4356E-05  0.0580
   7.1796E-02   7.3543E-02   3.5812E-05  0.0561
   7.3543E-02   7.5332E-02   3.4345E-05  0.0566
   7.5332E-02   7.7165E-02   3.2878E-05  0.0573
   7.7165E-02   7.9042E-02   3.2652E-05  0.0568
   7.9042E-02   8.0965E-02   3.0690E-05  0.0579
   8.0965E-02   8.2935E-02   3.1063E-05  0.0568
   8.2935E-02   8.4953E-02   3.3781E-05  0.0539
   8.4953E-02   8.7020E-02   2.6644E-05  0.0598
   8.7020E-02   8.9138E-02   3.1548E-05  0.0543
   8.9138E-02   9.1306E-02   2.8541E-05  0.0565
   9.1306E-02   9.3528E-02   2.7055E-05  0.0572
   9.3528E-02   9.5804E-02   2.9110E-05  0.0546
   9.5804E-02   9.8134E-02   2.6010E-05  0.0571
   9.8134E-02   1.0052E-01   2.6431E-05  0.0559
   1.0052E-01   1.0297E-01   2.7303E-05  0.0544
   1.0297E-01   1.0547E-01   2.6642E-05  0.0545
   1.0547E-01   1.0804E-01   2.7230E-05  0.0532
   1.0804E-01   1.1067E-01   2.3520E-05  0.0565
   1.1067E-01   1.1336E-01   2.4343E-05  0.0549
   1.1336E-01   1.1612E-01   2.4180E-05  0.0544
   1.1612E-01   1.1894E-01   2.2854E-05  0.0554
   1.1894E-01   1.2184E-01   2.3169E-05  0.0541
   1.2184E-01   1.2480E-01   2.3198E-05  0.0536
   1.2480E-01   1.2784E-01   2.3043E-05  0.0531
   1.2784E-01   1.3095E-01   2.1666E-05  0.0542
   1.3095E-01   1.3414E-01   2.1465E-05  0.0538
   1.3414E-01   1.3740E-01   1.8807E-05  0.0567
   1.3740E-01   1.4074E-01   1.8955E-05  0.0558
   1.4074E-01   1.4417E-01   1.9231E-05  0.0548
   1.4417E-01   1.4767E-01   1.9902E-05  0.0532
   1.4767E-01   1.5127E-01   2.0539E-05  0.0517
   1.5127E-01   1.5495E-01   1.9486E-05  0.0524
   1.5495E-01   1.5872E-01   1.8723E-05  0.0529
   1.5872E-01   1.6258E-01   1.7598E-05  0.0540
   1.6258E-01   1.6654E-01   1.6632E-05  0.0548
   1.6654E-01   1.7059E-01   1.7355E-05  0.0529
   1.7059E-01   1.7474E-01   1.7711E-05  0.0519
   1.7474E-01   1.7899E-01   1.7484E-05  0.0516
   1.7899E-01   1.8334E-01   1.6074E-05  0.0530
   1.8334E-01   1.8781E-01   1.6147E-05  0.0524
   1.8781E-01   1.9237E-01   1.5959E-05  0.0521
   1.9237E-01   1.9706E-01   1.3330E-05  0.0563
   1.9706E-01   2.0185E-01   1.4395E-05  0.0534
   2.0185E-01   2.0676E-01   1.5594E-05  0.0507
   2.0676E-01   2.1179E-01   1.4110E-05  0.0526
   2.1179E-01   2.1694E-01   1.5575E-05  0.0495
   2.1694E-01   2.2222E-01   1.7089E-05  0.0467
   2.2222E-01   2.2763E-01   1.6249E-05  0.0474
   2.2763E-01   2.3317E-01   1.7567E-05  0.0450
   2.3317E-01   2.3884E-01   1.8824E-05  0.0430
   2.3884E-01   2.4465E-01   1.8139E-05  0.0432
   2.4465E-01   2.5061E-01   1.9498E-05  0.0412
   2.5061E-01   2.5670E-01   1.9551E-05  0.0408
   2.5670E-01   2.6295E-01   1.9706E-05  0.0401
   2.6295E-01   2.6935E-01   2.0360E-05  0.0389
   2.6935E-01   2.7590E-01   2.1714E-05  0.0373
   2.7590E-01   2.8261E-01   2.3403E-05  0.0354
   2.8261E-01   2.8949E-01   2.4178E-05  0.0344
   2.8949E-01   2.9653E-01   2.4648E-05  0.0337
   2.9653E-01   3.0375E-01   2.5236E-05  0.0329
   3.0375E-01   3.1114E-01   2.6365E-05  0.0318
   3.1114E-01   3.1871E-01   2.5475E-05  0.0320
   3.1871E-01   3.2646E-01   2.6950E-05  0.0308
   3.2646E-01   3.3441E-01   2.7446E-05  0.0301
   3.3441E-01   3.4254E-01   2.8375E-05  0.0293
   3.4254E-01   3.5088E-01   2.8990E-05  0.0286
   3.5088E-01   3.5941E-01   3.0605E-05  0.0275
   3.5941E-01   3.6816E-01   3.1183E-05  0.0269
   3.6816E-01   3.7712E-01   3.1844E-05  0.0263
   3.7712E-01   3.8629E-01   3.2723E-05  0.0256
   3.8629E-01   3.9569E-01   3.4710E-05  0.0246
   3.9569E-01   4.0532E-01   3.3717E-05  0.0246
   4.0532E-01   4.1518E-01   3.4564E-05  0.0241
   4.1518E-01   4.2528E-01   3.4608E-05  0.0238
   4.2528E-01   4.3563E-01   3.5722E-05  0.0231
   4.3563E-01   4.4623E-01   3.7385E-05  0.0223
   4.4623E-01   4.5708E-01   3.8166E-05  0.0218
   4.5708E-01   4.6821E-01   4.0153E-05  0.0210
   4.6821E-01   4.7960E-01   3.9155E-05  0.0210
   4.7960E-01   4.9127E-01   4.0449E-05  0.0204
   4.9127E-01   5.0322E-01   4.2003E-05  0.0198
   5.0322E-01   5.1546E-01   4.0906E-05  0.0198
   5.1546E-01   5.2800E-01   4.3339E-05  0.0190
   5.2800E-01   5.4085E-01   4.4244E-05  0.0186
   5.4085E-01   5.5401E-01   4.3472E-05  0.0186
   5.5401E-01   5.6749E-01   4.4889E-05  0.0181
   5.6749E-01   5.8130E-01   4.4556E-05  0.0179
   5.8130E-01   5.9544E-01   4.4954E-05  0.0176
   5.9544E-01   6.0993E-01   4.6149E-05  0.0172
   6.0993E-01   6.2477E-01   4.7259E-05  0.0168
   6.2477E-01   6.3997E-01   4.6863E-05  0.0166
   6.3997E-01   6.5554E-01   4.8232E-05  0.0162
   6.5554E-01   6.7149E-01   4.8729E-05  0.0159
   6.7149E-01   6.8783E-01   4.9230E-05  0.0157
   6.8783E-01   7.0456E-01   4.9117E-05  0.0155
   7.0456E-01   7.2171E-01   4.9702E-05  0.0152
   7.2171E-01   7.3927E-01   4.9665E-05  0.0150
   7.3927E-01   7.5725E-01   4.9276E-05  0.0149
   7.5725E-01   7.7568E-01   4.9860E-05  0.0146
   7.7568E-01   7.9455E-01   4.9959E-05  0.0144
   7.9455E-01   8.1388E-01   5.2476E-05  0.0139
   8.1388E-01   8.3368E-01   5.1767E-05  0.0139
   8.3368E-01   8.5397E-01   5.1382E-05  0.0137
   8.5397E-01   8.7475E-01   5.2901E-05  0.0134
   8.7475E-01   8.9603E-01   5.2839E-05  0.0132
   8.9603E-01   9.1783E-01   5.2313E-05  0.0131
   9.1783E-01   9.4016E-01   5.3016E-05  0.0129
   9.4016E-01   9.6304E-01   5.3156E-05  0.0127
   9.6304E-01   9.8647E-01   5.2708E-05  0.0126
   9.8647E-01   1.0105E+00   5.3288E-05  0.0124
   1.0105E+00   1.0351E+00   5.2517E-05  0.0123
   1.0351E+00   1.0602E+00   5.2226E-05  0.0122
   1.0602E+00   1.0860E+00   5.2810E-05  0.0120
   1.0860E+00   1.1125E+00   5.1275E-05  0.0121
   1.1125E+00   1.1395E+00   5.3567E-05  0.0117
   1.1395E+00   1.1673E+00   5.2971E-05  0.0116
   1.1673E+00   1.1957E+00   5.2848E-05  0.0114
   1.1957E+00   1.2247E+00   5.2986E-05  0.0113
   1.2247E+00   1.2545E+00   5.2145E-05  0.0113
   1.2545E+00   1.2851E+00   5.1521E-05  0.0112
   1.2851E+00   1.3163E+00   5.2354E-05  0.0110
   1.3163E+00   1.3484E+00   5.0814E-05  0.0110
   1.3484E+00   1.3812E+00   5.1010E-05  0.0108
   1.3812E+00   1.4148E+00   5.1767E-05  0.0106
   1.4148E+00   1.4492E+00   5.1676E-05  0.0105
   1.4492E+00   1.4845E+00   5.1138E-05  0.0104
   1.4845E+00   1.5206E+00   5.1969E-05  0.0102
   1.5206E+00   1.5576E+00   5.0740E-05  0.0102
   1.5576E+00   1.5955E+00   5.0961E-05  0.0101
   1.5955E+00   1.6343E+00   5.0048E-05  0.0101
   1.6343E+00   1.6741E+00   4.9403E-05  0.0100
   1.6741E+00   1.7148E+00   4.9275E-05  0.0099
   1.7148E+00   1.7565E+00   4.8857E-05  0.0098
   1.7565E+00   1.7992E+00   4.8058E-05  0.0098
   1.7992E+00   1.8430E+00   4.8197E-05  0.0097
   1.8430E+00   1.8879E+00   4.8057E-05  0.0096
   1.8879E+00   1.9338E+00   4.8026E-05  0.0094
   1.9338E+00   1.9808E+00   4.7390E-05  0.0094
   1.9808E+00   2.0290E+00   4.7691E-05  0.0092
   2.0290E+00   2.0784E+00   4.6795E-05  0.0092
   2.0784E+00   2.1290E+00   4.6095E-05  0.0092
   2.1290E+00   2.1808E+00   4.6036E-05  0.0091
   2.1808E+00   2.2338E+00   4.5541E-05  0.0090
   2.2338E+00   2.2882E+00   4.5095E-05  0.0090
   2.2882E+00   2.3439E+00   4.4161E-05  0.0089
   2.3439E+00   2.4009E+00   4.3803E-05  0.0089
   2.4009E+00   2.4593E+00   4.4444E-05  0.0087
   2.4593E+00   2.5191E+00   4.4125E-05  0.0086
   2.5191E+00   2.5804E+00   4.3497E-05  0.0086
   2.5804E+00   2.6432E+00   4.3045E-05  0.0085
   2.6432E+00   2.7075E+00   4.2021E-05  0.0085
   2.7075E+00   2.7734E+00   4.1707E-05  0.0085
   2.7734E+00   2.8409E+00   4.1108E-05  0.0084
   2.8409E+00   2.9100E+00   4.0445E-05  0.0084
   2.9100E+00   2.9808E+00   4.0816E-05  0.0083
   2.9808E+00   3.0533E+00   4.0153E-05  0.0082
   3.0533E+00   3.1276E+00   3.9601E-05  0.0082
   3.1276E+00   3.2037E+00   3.8441E-05  0.0082
   3.2037E+00   3.2817E+00   3.8679E-05  0.0081
   3.2817E+00   3.3615E+00   3.7632E-05  0.0081
   3.3615E+00   3.4433E+00   3.7387E-05  0.0080
   3.4433E+00   3.5271E+00   3.6954E-05  0.0080
   3.5271E+00   3.6129E+00   3.6142E-05  0.0080
   3.6129E+00   3.7008E+00   3.6452E-05  0.0078
   3.7008E+00   3.7908E+00   3.5377E-05  0.0079
   3.7908E+00   3.8831E+00   3.4862E-05  0.0078
   3.8831E+00   3.9776E+00   3.4184E-05  0.0078
   3.9776E+00   4.0743E+00   3.3720E-05  0.0078
   4.0743E+00   4.1735E+00   3.3056E-05  0.0078
   4.1735E+00   4.2750E+00   3.2365E-05  0.0078
   4.2750E+00   4.3790E+00   3.1278E-05  0.0078
   4.3790E+00   4.4856E+00   3.0990E-05  0.0077
   4.4856E+00   4.5947E+00   3.0818E-05  0.0077
   4.5947E+00   4.7065E+00   3.0472E-05  0.0076
   4.7065E+00   4.8210E+00   2.9103E-05  0.0077
   4.8210E+00   4.9383E+00   2.9470E-05  0.0076
   4.9383E+00   5.0585E+00   2.8593E-05  0.0076
   5.0585E+00   5.1815E+00   2.8949E-05  0.0075
   5.1815E+00   5.3076E+00   2.8420E-05  0.0074
   5.3076E+00   5.4368E+00   2.7674E-05  0.0074
   5.4368E+00   5.5690E+00   2.7163E-05  0.0074
   5.5690E+00   5.7045E+00   2.6460E-05  0.0074
   5.7045E+00   5.8433E+00   2.5817E-05  0.0074
   5.8433E+00   5.9855E+00   2.5598E-05  0.0074
   5.9855E+00   6.1311E+00   2.4997E-05  0.0074
   6.1311E+00   6.2803E+00   2.4165E-05  0.0074
   6.2803E+00   6.4331E+00   2.3638E-05  0.0074
   6.4331E+00   6.5896E+00   2.3011E-05  0.0074
   6.5896E+00   6.7500E+00   2.2391E-05  0.0074
   6.7500E+00   6.9142E+00   2.1986E-05  0.0074
   6.9142E+00   7.0824E+00   2.1279E-05  0.0074
   7.0824E+00   7.2548E+00   2.1162E-05  0.0074
   7.2548E+00   7.4313E+00   2.0720E-05  0.0074
   7.4313E+00   7.6121E+00   1.9782E-05  0.0075
   7.6121E+00   7.7973E+00   1.9519E-05  0.0074
   7.7973E+00   7.9870E+00   1.9179E-05  0.0074
   7.9870E+00   8.1813E+00   1.8740E-05  0.0074
   8.1813E+00   8.3804E+00   1.8220E-05  0.0074
   8.3804E+00   8.5843E+00   1.7903E-05  0.0074
   8.5843E+00   8.7931E+00   1.7671E-05  0.0073
   8.7931E+00   9.0071E+00   1.7047E-05  0.0074
   9.0071E+00   9.2262E+00   1.6797E-05  0.0074
   9.2262E+00   9.4507E+00   1.6446E-05  0.0073
   9.4507E+00   9.6807E+00   1.6216E-05  0.0073
   9.6807E+00   9.9162E+00   1.6007E-05  0.0073
   9.9162E+00   1.0157E+01   1.5618E-05  0.0073
   1.0157E+01   1.0405E+01   1.5227E-05  0.0073
   1.0405E+01   1.0658E+01   1.4987E-05  0.0072
   1.0658E+01   1.0917E+01   1.4743E-05  0.0072
   1.0917E+01   1.1183E+01   1.4470E-05  0.0072
   1.1183E+01   1.1455E+01   1.4216E-05  0.0072
   1.1455E+01   1.1733E+01   1.3978E-05  0.0072
   1.1733E+01   1.2019E+01   1.3756E-05  0.0071
   1.2019E+01   1.2311E+01   1.3443E-05  0.0071
   1.2311E+01   1.2611E+01   1.3338E-05  0.0071
   1.2611E+01   1.2918E+01   1.3026E-05  0.0071
   1.2918E+01   1.3232E+01   1.2986E-05  0.0070
   1.3232E+01   1.3554E+01   1.2874E-05  0.0069
   1.3554E+01   1.3884E+01   1.2654E-05  0.0069
   1.3884E+01   1.4222E+01   1.2422E-05  0.0069
   1.4222E+01   1.4568E+01   1.2279E-05  0.0069
   1.4568E+01   1.4922E+01   1.2136E-05  0.0068
   1.4922E+01   1.5285E+01   1.1834E-05  0.0068
   1.5285E+01   1.5657E+01   1.1793E-05  0.0068
   1.5657E+01   1.6038E+01   1.1700E-05  0.0067
   1.6038E+01   1.6428E+01   1.1536E-05  0.0067
   1.6428E+01   1.6828E+01   1.1564E-05  0.0066
   1.6828E+01   1.7237E+01   1.1527E-05  0.0065
   1.7237E+01   1.7657E+01   1.1426E-05  0.0065
   1.7657E+01   1.8086E+01   1.1325E-05  0.0064
   1.8086E+01   1.8526E+01   1.1193E-05  0.0064
   1.8526E+01   1.8977E+01   1.1212E-05  0.0063
   1.8977E+01   1.9439E+01   1.1369E-05  0.0062
   1.9439E+01   1.9912E+01   1.1494E-05  0.0061
   1.9912E+01   2.0396E+01   1.1683E-05  0.0059
   2.0396E+01   2.0893E+01   1.1673E-05  0.0059
   2.0893E+01   2.1401E+01   1.1702E-05  0.0058
   2.1401E+01   2.1922E+01   1.1708E-05  0.0057
   2.1922E+01   2.2455E+01   1.1822E-05  0.0056
   2.2455E+01   2.3001E+01   1.1662E-05  0.0056
   2.3001E+01   2.3561E+01   1.1928E-05  0.0055
   2.3561E+01   2.4134E+01   1.1981E-05  0.0054
   2.4134E+01   2.4721E+01   1.2031E-05  0.0053
   2.4721E+01   2.5323E+01   1.2190E-05  0.0052
   2.5323E+01   2.5939E+01   1.2365E-05  0.0051
   2.5939E+01   2.6570E+01   1.2600E-05  0.0050
   2.6570E+01   2.7217E+01   1.2695E-05  0.0049
   2.7217E+01   2.7879E+01   1.3031E-05  0.0048
   2.7879E+01   2.8557E+01   1.3424E-05  0.0047
   2.8557E+01   2.9252E+01   1.3693E-05  0.0046
   2.9252E+01   2.9964E+01   1.4121E-05  0.0045
   2.9964E+01   3.0693E+01   1.4743E-05  0.0043
   3.0693E+01   3.1440E+01   1.5109E-05  0.0042
   3.1440E+01   3.2205E+01   1.5697E-05  0.0041
   3.2205E+01   3.2988E+01   1.6485E-05  0.0039
   3.2988E+01   3.3791E+01   1.7312E-05  0.0038
   3.3791E+01   3.4613E+01   1.8358E-05  0.0036
   3.4613E+01   3.5455E+01   1.9692E-05  0.0035
   3.5455E+01   3.6318E+01   2.0948E-05  0.0033
   3.6318E+01   3.7201E+01   2.2443E-05  0.0032
   3.7201E+01   3.8106E+01   2.4186E-05  0.0030
   3.8106E+01   3.9034E+01   2.6301E-05  0.0029
   3.9034E+01   3.9983E+01   2.8920E-05  0.0027
   3.9983E+01   4.0956E+01   3.1720E-05  0.0025
   4.0956E+01   4.1953E+01   3.5129E-05  0.0024
   4.1953E+01   4.2973E+01   3.9112E-05  0.0022
   4.2973E+01   4.4019E+01   4.3662E-05  0.0021
   4.4019E+01   4.5090E+01   4.9138E-05  0.0019
   4.5090E+01   4.6187E+01   5.5538E-05  0.0018
   4.6187E+01   4.7311E+01   6.2889E-05  0.0017
   4.7311E+01   4.8462E+01   7.1401E-05  0.0016
   4.8462E+01   4.9641E+01   8.1483E-05  0.0014
   4.9641E+01   5.0849E+01   9.2917E-05  0.0013
   5.0849E+01   5.2086E+01   1.0637E-04  0.0012
   5.2086E+01   5.3353E+01   1.2163E-04  0.0011
   5.3353E+01   5.4651E+01   1.3832E-04  0.0011
   5.4651E+01   5.5981E+01   1.5737E-04  0.0010
   5.5981E+01   5.7343E+01   1.7831E-04  0.0009
   5.7343E+01   5.8738E+01   2.0018E-04  0.0008
   5.8738E+01   6.0168E+01   2.2325E-04  0.0008
   6.0168E+01   6.1632E+01   2.4710E-04  0.0007
   6.1632E+01   6.3131E+01   2.7027E-04  0.0007
   6.3131E+01   6.4667E+01   2.9212E-04  0.0007
   6.4667E+01   6.6240E+01   3.1141E-04  0.0006
   6.6240E+01   6.7852E+01   3.2680E-04  0.0006
   6.7852E+01   6.9503E+01   3.3768E-04  0.0006
   6.9503E+01   7.1194E+01   3.4270E-04  0.0006
   7.1194E+01   7.2926E+01   3.4188E-04  0.0006
   7.2926E+01   7.4701E+01   3.3423E-04  0.0006
   7.4701E+01   7.6518E+01   3.2082E-04  0.0006
   7.6518E+01   7.8380E+01   3.0267E-04  0.0006
   7.8380E+01   8.0287E+01   2.7956E-04  0.0006
   8.0287E+01   8.2240E+01   2.5417E-04  0.0006
   8.2240E+01   8.4241E+01   2.2701E-04  0.0007
   8.4241E+01   8.6291E+01   1.9946E-04  0.0007
   8.6291E+01   8.8391E+01   1.7320E-04  0.0007
   8.8391E+01   9.0541E+01   1.4871E-04  0.0008
   9.0541E+01   9.2744E+01   1.2664E-04  0.0008
   9.2744E+01   9.5001E+01   1.0709E-04  0.0009
   9.5001E+01   9.7312E+01   9.0000E-05  0.0010
   9.7312E+01   9.9680E+01   7.5396E-05  0.0011
   9.9680E+01   1.0211E+02   6.3070E-05  0.0011
   1.0211E+02   1.0459E+02   5.2538E-05  0.0012
   1.0459E+02   1.0713E+02   4.3653E-05  0.0013
   1.0713E+02   1.0974E+02   3.6226E-05  0.0015
   1.0974E+02   1.1241E+02   2.9895E-05  0.0016
   1.1241E+02   1.1515E+02   2.4751E-05  0.0017
   1.1515E+02   1.1795E+02   2.0228E-05  0.0019
   1.1795E+02   1.2082E+02   1.6507E-05  0.0021
   1.2082E+02   1.2376E+02   1.3301E-05  0.0023
   1.2376E+02   1.2677E+02   1.1352E-05  0.0024
   1.2677E+02   1.2985E+02   1.0065E-05  0.0025
   1.2985E+02   1.3301E+02   8.4088E-06  0.0027
   1.3301E+02   1.3625E+02   6.6689E-06  0.0030
   1.3625E+02   1.3956E+02   5.2960E-06  0.0034
   1.3956E+02   1.4296E+02   4.1678E-06  0.0038
   1.4296E+02   1.4644E+02   3.3212E-06  0.0042
   1.4644E+02   1.5000E+02   2.6683E-06  0.0046

#   sum over                 8.6889E-05
'no. =    1   reg = 100 - 200'
msuc: {\huge [t-cross] in region mesh}
msdr: {\it plotted by \ANGEL \version}
msdl: {\it calculated by \PHITS  3.28}
wt: s(0.7)
\vspace{-3}
  region surface crossing
  area  &=&   1.0000E+00 [cm^2]
e:
 
# Information for Restart Calculation
# This calculation was newly started
# istdev =  2 # 1:Batch variance, 2:History variance
# resc2  = 5.00000000000000000E+09 # Total source weight or Total source weight / maxcas
# resc3  = 5.00000000000000000E+09 # Total history number or Total batch number
# maxcas =   500000000 # History / Batch, only used for istdev=1
# bitrseed = 0110100000100010111000001110001111001110100100011111101000111001 # bit data of rseed
