[ T-Cross ]
    title = [t-cross] in region mesh
     mesh =  reg            # mesh type is region-wise
      reg =    1            # number of crossing regions
      non     r-from    r-to       area
      1       114       214        1.000000    
   e-type =    3            # e-mesh is log given by emin, emax and ne
     emin =  1.0000000E-02  # minimum value of e-mesh points
     emax =   150.0000      # maximum value of e-mesh points
#    edel =  2.4039514E-02  # mesh width of e-mesh points
       ne =    400          # number of e-mesh points
#    data = ( e(i), i = 1, ne + 1 )
#           1.00000E-02  1.02433E-02  1.04925E-02  1.07478E-02  1.10093E-02
#           1.12772E-02  1.15516E-02  1.18326E-02  1.21205E-02  1.24154E-02
#           1.27175E-02  1.30269E-02  1.33439E-02  1.36686E-02  1.40011E-02
#           1.43418E-02  1.46907E-02  1.50482E-02  1.54143E-02  1.57894E-02
#           1.61735E-02  1.65670E-02  1.69701E-02  1.73830E-02  1.78060E-02
#           1.82392E-02  1.86830E-02  1.91375E-02  1.96032E-02  2.00801E-02
#           2.05687E-02  2.10692E-02  2.15818E-02  2.21069E-02  2.26448E-02
#           2.31957E-02  2.37601E-02  2.43382E-02  2.49304E-02  2.55369E-02
#           2.61583E-02  2.67947E-02  2.74467E-02  2.81145E-02  2.87985E-02
#           2.94992E-02  3.02169E-02  3.09521E-02  3.17052E-02  3.24766E-02
#           3.32668E-02  3.40762E-02  3.49053E-02  3.57546E-02  3.66246E-02
#           3.75157E-02  3.84284E-02  3.93634E-02  4.03212E-02  4.13022E-02
#           4.23071E-02  4.33365E-02  4.43909E-02  4.54710E-02  4.65773E-02
#           4.77106E-02  4.88714E-02  5.00605E-02  5.12785E-02  5.25262E-02
#           5.38042E-02  5.51133E-02  5.64542E-02  5.78278E-02  5.92348E-02
#           6.06760E-02  6.21523E-02  6.36645E-02  6.52135E-02  6.68002E-02
#           6.84255E-02  7.00904E-02  7.17957E-02  7.35426E-02  7.53319E-02
#           7.71648E-02  7.90423E-02  8.09655E-02  8.29354E-02  8.49533E-02
#           8.70203E-02  8.91376E-02  9.13064E-02  9.35279E-02  9.58035E-02
#           9.81345E-02  1.00522E-01  1.02968E-01  1.05473E-01  1.08040E-01
#           1.10668E-01  1.13361E-01  1.16119E-01  1.18944E-01  1.21838E-01
#           1.24803E-01  1.27839E-01  1.30950E-01  1.34136E-01  1.37399E-01
#           1.40742E-01  1.44167E-01  1.47675E-01  1.51268E-01  1.54948E-01
#           1.58718E-01  1.62580E-01  1.66535E-01  1.70587E-01  1.74738E-01
#           1.78989E-01  1.83344E-01  1.87805E-01  1.92375E-01  1.97055E-01
#           2.01850E-01  2.06761E-01  2.11792E-01  2.16945E-01  2.22223E-01
#           2.27630E-01  2.33169E-01  2.38842E-01  2.44653E-01  2.50605E-01
#           2.56703E-01  2.62949E-01  2.69346E-01  2.75900E-01  2.82613E-01
#           2.89489E-01  2.96532E-01  3.03747E-01  3.11138E-01  3.18708E-01
#           3.26462E-01  3.34405E-01  3.42542E-01  3.50876E-01  3.59413E-01
#           3.68158E-01  3.77116E-01  3.86291E-01  3.95690E-01  4.05317E-01
#           4.15179E-01  4.25281E-01  4.35628E-01  4.46227E-01  4.57084E-01
#           4.68205E-01  4.79597E-01  4.91266E-01  5.03219E-01  5.15463E-01
#           5.28005E-01  5.40851E-01  5.54011E-01  5.67490E-01  5.81298E-01
#           5.95441E-01  6.09929E-01  6.24769E-01  6.39970E-01  6.55541E-01
#           6.71491E-01  6.87828E-01  7.04564E-01  7.21706E-01  7.39266E-01
#           7.57253E-01  7.75678E-01  7.94551E-01  8.13883E-01  8.33685E-01
#           8.53969E-01  8.74747E-01  8.96030E-01  9.17831E-01  9.40163E-01
#           9.63038E-01  9.86469E-01  1.01047E+00  1.03506E+00  1.06024E+00
#           1.08604E+00  1.11246E+00  1.13953E+00  1.16725E+00  1.19565E+00
#           1.22474E+00  1.25454E+00  1.28507E+00  1.31633E+00  1.34836E+00
#           1.38117E+00  1.41477E+00  1.44920E+00  1.48446E+00  1.52057E+00
#           1.55757E+00  1.59547E+00  1.63429E+00  1.67405E+00  1.71478E+00
#           1.75650E+00  1.79924E+00  1.84302E+00  1.88786E+00  1.93379E+00
#           1.98084E+00  2.02904E+00  2.07841E+00  2.12898E+00  2.18078E+00
#           2.23384E+00  2.28819E+00  2.34386E+00  2.40089E+00  2.45930E+00
#           2.51914E+00  2.58043E+00  2.64322E+00  2.70753E+00  2.77341E+00
#           2.84088E+00  2.91001E+00  2.98081E+00  3.05333E+00  3.12762E+00
#           3.20372E+00  3.28167E+00  3.36152E+00  3.44330E+00  3.52708E+00
#           3.61290E+00  3.70080E+00  3.79085E+00  3.88308E+00  3.97756E+00
#           4.07434E+00  4.17347E+00  4.27501E+00  4.37903E+00  4.48557E+00
#           4.59471E+00  4.70650E+00  4.82102E+00  4.93832E+00  5.05847E+00
#           5.18155E+00  5.30762E+00  5.43676E+00  5.56904E+00  5.70453E+00
#           5.84333E+00  5.98550E+00  6.13114E+00  6.28031E+00  6.43312E+00
#           6.58964E+00  6.74997E+00  6.91420E+00  7.08243E+00  7.25475E+00
#           7.43126E+00  7.61207E+00  7.79728E+00  7.98700E+00  8.18133E+00
#           8.38038E+00  8.58428E+00  8.79315E+00  9.00709E+00  9.22624E+00
#           9.45072E+00  9.68067E+00  9.91620E+00  1.01575E+01  1.04046E+01
#           1.06578E+01  1.09171E+01  1.11827E+01  1.14548E+01  1.17335E+01
#           1.20190E+01  1.23114E+01  1.26109E+01  1.29178E+01  1.32321E+01
#           1.35540E+01  1.38838E+01  1.42216E+01  1.45676E+01  1.49221E+01
#           1.52851E+01  1.56570E+01  1.60380E+01  1.64282E+01  1.68279E+01
#           1.72374E+01  1.76568E+01  1.80864E+01  1.85264E+01  1.89772E+01
#           1.94389E+01  1.99119E+01  2.03963E+01  2.08926E+01  2.14009E+01
#           2.19216E+01  2.24550E+01  2.30014E+01  2.35610E+01  2.41343E+01
#           2.47215E+01  2.53230E+01  2.59391E+01  2.65702E+01  2.72167E+01
#           2.78789E+01  2.85572E+01  2.92520E+01  2.99637E+01  3.06928E+01
#           3.14396E+01  3.22045E+01  3.29881E+01  3.37907E+01  3.46128E+01
#           3.54550E+01  3.63177E+01  3.72013E+01  3.81064E+01  3.90336E+01
#           3.99833E+01  4.09561E+01  4.19526E+01  4.29734E+01  4.40189E+01
#           4.50900E+01  4.61870E+01  4.73108E+01  4.84619E+01  4.96410E+01
#           5.08488E+01  5.20860E+01  5.33533E+01  5.46514E+01  5.59812E+01
#           5.73432E+01  5.87384E+01  6.01676E+01  6.16315E+01  6.31311E+01
#           6.46671E+01  6.62405E+01  6.78522E+01  6.95031E+01  7.11941E+01
#           7.29263E+01  7.47007E+01  7.65182E+01  7.83800E+01  8.02870E+01
#           8.22405E+01  8.42414E+01  8.62911E+01  8.83906E+01  9.05412E+01
#           9.27442E+01  9.50007E+01  9.73122E+01  9.96799E+01  1.02105E+02
#           1.04589E+02  1.07134E+02  1.09741E+02  1.12411E+02  1.15146E+02
#           1.17948E+02  1.20817E+02  1.23757E+02  1.26768E+02  1.29852E+02
#           1.33012E+02  1.36248E+02  1.39563E+02  1.42959E+02  1.46437E+02
#           1.50000E+02
     unit =    2            # unit is [1/cm^2/(MeV/n)/source]
     axis =  eng            # axis of output
     file = detector-15.out  # file name of output for the above axis
   output = f-curr          # surface crossing forward current spectrum
     part =  neutron  
# kf/name :  2112     
#    used :        main (  %)        temp (  %)       total (  %)
#  memory :         414 (  0)           0 (  0)         414 (  0)

#------------------------------------------------------------------------------
#newpage:
#   no. =    1   reg = 114 - 214

x: Energy [MeV/n]
y:  F-Curr [1/cm^2/(MeV/n)/source]         
p: xlog ylog afac(0.8) form(0.9)
h: n            x            y(neutron ),hh0l   n 
#  e-lower      e-upper      neutron     r.err 
   1.0000E-02   1.0243E-02   1.1015E-03  0.0864
   1.0243E-02   1.0493E-02   9.6297E-04  0.0913
   1.0493E-02   1.0748E-02   9.3227E-04  0.0917
   1.0748E-02   1.1009E-02   8.0305E-04  0.0976
   1.1009E-02   1.1277E-02   8.8850E-04  0.0917
   1.1277E-02   1.1552E-02   9.2571E-04  0.0887
   1.1552E-02   1.1833E-02   9.0372E-04  0.0887
   1.1833E-02   1.2121E-02   9.7257E-04  0.0845
   1.2121E-02   1.2415E-02   8.8843E-04  0.0874
   1.2415E-02   1.2718E-02   9.2029E-04  0.0848
   1.2718E-02   1.3027E-02   8.7258E-04  0.0861
   1.3027E-02   1.3344E-02   9.5912E-04  0.0811
   1.3344E-02   1.3669E-02   9.6098E-04  0.0801
   1.3669E-02   1.4001E-02   9.9829E-04  0.0776
   1.4001E-02   1.4342E-02   9.3349E-04  0.0793
   1.4342E-02   1.4691E-02   9.7723E-04  0.0765
   1.4691E-02   1.5048E-02   9.2883E-04  0.0776
   1.5048E-02   1.5414E-02   9.8871E-04  0.0743
   1.5414E-02   1.5789E-02   1.0505E-03  0.0712
   1.5789E-02   1.6174E-02   1.0204E-03  0.0714
   1.6174E-02   1.6567E-02   1.0216E-03  0.0705
   1.6567E-02   1.6970E-02   1.1015E-03  0.0671
   1.6970E-02   1.7383E-02   9.3002E-04  0.0722
   1.7383E-02   1.7806E-02   1.0214E-03  0.0680
   1.7806E-02   1.8239E-02   9.6484E-04  0.0692
   1.8239E-02   1.8683E-02   9.4643E-04  0.0690
   1.8683E-02   1.9138E-02   1.0559E-03  0.0645
   1.9138E-02   1.9603E-02   9.9650E-04  0.0657
   1.9603E-02   2.0080E-02   1.0483E-03  0.0632
   2.0080E-02   2.0569E-02   1.0357E-03  0.0629
   2.0569E-02   2.1069E-02   9.1917E-04  0.0659
   2.1069E-02   2.1582E-02   9.8317E-04  0.0630
   2.1582E-02   2.2107E-02   1.0131E-03  0.0613
   2.2107E-02   2.2645E-02   1.0895E-03  0.0584
   2.2645E-02   2.3196E-02   9.0024E-04  0.0635
   2.3196E-02   2.3760E-02   1.0135E-03  0.0591
   2.3760E-02   2.4338E-02   1.0102E-03  0.0585
   2.4338E-02   2.4930E-02   1.0267E-03  0.0574
   2.4930E-02   2.5537E-02   1.0188E-03  0.0569
   2.5537E-02   2.6158E-02   1.0172E-03  0.0563
   2.6158E-02   2.6795E-02   9.6787E-04  0.0570
   2.6795E-02   2.7447E-02   9.7862E-04  0.0560
   2.7447E-02   2.8114E-02   9.9132E-04  0.0550
   2.8114E-02   2.8799E-02   9.1953E-04  0.0564
   2.8799E-02   2.9499E-02   1.0704E-03  0.0516
   2.9499E-02   3.0217E-02   9.6971E-04  0.0536
   3.0217E-02   3.0952E-02   9.8204E-04  0.0526
   3.0952E-02   3.1705E-02   9.8527E-04  0.0519
   3.1705E-02   3.2477E-02   9.8780E-04  0.0512
   3.2477E-02   3.3267E-02   9.1371E-04  0.0526
   3.3267E-02   3.4076E-02   1.0576E-03  0.0483
   3.4076E-02   3.4905E-02   9.7214E-04  0.0498
   3.4905E-02   3.5755E-02   9.7259E-04  0.0492
   3.5755E-02   3.6625E-02   1.0621E-03  0.0465
   3.6625E-02   3.7516E-02   9.3592E-04  0.0490
   3.7516E-02   3.8428E-02   1.0189E-03  0.0464
   3.8428E-02   3.9363E-02   9.6257E-04  0.0471
   3.9363E-02   4.0321E-02   1.0462E-03  0.0447
   4.0321E-02   4.1302E-02   9.8262E-04  0.0455
   4.1302E-02   4.2307E-02   9.2346E-04  0.0464
   4.2307E-02   4.3337E-02   9.7924E-04  0.0445
   4.3337E-02   4.4391E-02   8.6873E-04  0.0467
   4.4391E-02   4.5471E-02   1.0185E-03  0.0426
   4.5471E-02   4.6577E-02   9.6715E-04  0.0432
   4.6577E-02   4.7711E-02   9.7241E-04  0.0426
   4.7711E-02   4.8871E-02   9.8291E-04  0.0419
   4.8871E-02   5.0061E-02   1.0310E-03  0.0404
   5.0061E-02   5.1279E-02   9.3103E-04  0.0420
   5.1279E-02   5.2526E-02   9.3296E-04  0.0415
   5.2526E-02   5.3804E-02   9.8904E-04  0.0398
   5.3804E-02   5.5113E-02   9.2124E-04  0.0407
   5.5113E-02   5.6454E-02   9.8736E-04  0.0389
   5.6454E-02   5.7828E-02   9.5226E-04  0.0391
   5.7828E-02   5.9235E-02   9.4812E-04  0.0387
   5.9235E-02   6.0676E-02   9.9915E-04  0.0373
   6.0676E-02   6.2152E-02   9.6187E-04  0.0375
   6.2152E-02   6.3665E-02   9.5092E-04  0.0373
   6.3665E-02   6.5214E-02   8.8444E-04  0.0382
   6.5214E-02   6.6800E-02   9.0124E-04  0.0374
   6.6800E-02   6.8426E-02   9.4998E-04  0.0360
   6.8426E-02   7.0090E-02   9.0819E-04  0.0364
   7.0090E-02   7.1796E-02   9.6402E-04  0.0349
   7.1796E-02   7.3543E-02   9.9150E-04  0.0340
   7.3543E-02   7.5332E-02   9.1150E-04  0.0350
   7.5332E-02   7.7165E-02   9.4168E-04  0.0340
   7.7165E-02   7.9042E-02   9.0174E-04  0.0344
   7.9042E-02   8.0965E-02   8.9124E-04  0.0342
   8.0965E-02   8.2935E-02   9.6043E-04  0.0325
   8.2935E-02   8.4953E-02   9.2176E-04  0.0328
   8.4953E-02   8.7020E-02   9.4002E-04  0.0321
   8.7020E-02   8.9138E-02   9.6445E-04  0.0313
   8.9138E-02   9.1306E-02   9.1019E-04  0.0318
   9.1306E-02   9.3528E-02   8.5076E-04  0.0325
   9.3528E-02   9.5804E-02   9.1140E-04  0.0311
   9.5804E-02   9.8134E-02   9.3351E-04  0.0303
   9.8134E-02   1.0052E-01   9.1385E-04  0.0303
   1.0052E-01   1.0297E-01   8.8479E-04  0.0304
   1.0297E-01   1.0547E-01   8.7615E-04  0.0302
   1.0547E-01   1.0804E-01   8.8066E-04  0.0297
   1.0804E-01   1.1067E-01   8.9550E-04  0.0291
   1.1067E-01   1.1336E-01   8.5492E-04  0.0295
   1.1336E-01   1.1612E-01   8.3606E-04  0.0294
   1.1612E-01   1.1894E-01   8.6010E-04  0.0287
   1.1894E-01   1.2184E-01   8.4312E-04  0.0286
   1.2184E-01   1.2480E-01   8.8044E-04  0.0277
   1.2480E-01   1.2784E-01   8.3318E-04  0.0281
   1.2784E-01   1.3095E-01   8.6869E-04  0.0272
   1.3095E-01   1.3414E-01   8.1667E-04  0.0277
   1.3414E-01   1.3740E-01   8.4752E-04  0.0269
   1.3740E-01   1.4074E-01   8.6807E-04  0.0263
   1.4074E-01   1.4417E-01   8.5505E-04  0.0261
   1.4417E-01   1.4767E-01   8.3474E-04  0.0261
   1.4767E-01   1.5127E-01   8.3495E-04  0.0258
   1.5127E-01   1.5495E-01   8.2598E-04  0.0256
   1.5495E-01   1.5872E-01   8.3422E-04  0.0252
   1.5872E-01   1.6258E-01   8.4211E-04  0.0248
   1.6258E-01   1.6654E-01   8.4056E-04  0.0245
   1.6654E-01   1.7059E-01   8.2676E-04  0.0244
   1.7059E-01   1.7474E-01   8.1484E-04  0.0243
   1.7474E-01   1.7899E-01   7.9619E-04  0.0243
   1.7899E-01   1.8334E-01   8.1011E-04  0.0238
   1.8334E-01   1.8781E-01   7.9490E-04  0.0237
   1.8781E-01   1.9237E-01   8.0797E-04  0.0233
   1.9237E-01   1.9706E-01   8.1057E-04  0.0230
   1.9706E-01   2.0185E-01   8.2469E-04  0.0225
   2.0185E-01   2.0676E-01   7.6296E-04  0.0231
   2.0676E-01   2.1179E-01   7.7544E-04  0.0226
   2.1179E-01   2.1694E-01   7.9972E-04  0.0220
   2.1694E-01   2.2222E-01   7.9361E-04  0.0218
   2.2222E-01   2.2763E-01   7.6865E-04  0.0219
   2.2763E-01   2.3317E-01   7.7134E-04  0.0216
   2.3317E-01   2.3884E-01   7.5549E-04  0.0216
   2.3884E-01   2.4465E-01   7.5131E-04  0.0214
   2.4465E-01   2.5061E-01   7.1297E-04  0.0217
   2.5061E-01   2.5670E-01   7.3326E-04  0.0211
   2.5670E-01   2.6295E-01   7.1888E-04  0.0211
   2.6295E-01   2.6935E-01   6.9274E-04  0.0212
   2.6935E-01   2.7590E-01   7.4282E-04  0.0203
   2.7590E-01   2.8261E-01   7.2026E-04  0.0203
   2.8261E-01   2.8949E-01   6.8730E-04  0.0206
   2.8949E-01   2.9653E-01   7.1357E-04  0.0199
   2.9653E-01   3.0375E-01   6.9357E-04  0.0200
   3.0375E-01   3.1114E-01   6.9766E-04  0.0197
   3.1114E-01   3.1871E-01   7.0117E-04  0.0194
   3.1871E-01   3.2646E-01   6.7974E-04  0.0195
   3.2646E-01   3.3441E-01   6.7455E-04  0.0193
   3.3441E-01   3.4254E-01   6.8950E-04  0.0189
   3.4254E-01   3.5088E-01   6.8968E-04  0.0187
   3.5088E-01   3.5941E-01   6.6229E-04  0.0188
   3.5941E-01   3.6816E-01   6.5136E-04  0.0187
   3.6816E-01   3.7712E-01   6.4392E-04  0.0186
   3.7712E-01   3.8629E-01   6.4421E-04  0.0184
   3.8629E-01   3.9569E-01   6.1040E-04  0.0187
   3.9569E-01   4.0532E-01   6.2800E-04  0.0182
   4.0532E-01   4.1518E-01   5.9412E-04  0.0185
   4.1518E-01   4.2528E-01   6.1099E-04  0.0180
   4.2528E-01   4.3563E-01   5.9976E-04  0.0180
   4.3563E-01   4.4623E-01   5.9863E-04  0.0178
   4.4623E-01   4.5708E-01   5.9095E-04  0.0177
   4.5708E-01   4.6821E-01   5.7763E-04  0.0176
   4.6821E-01   4.7960E-01   5.6137E-04  0.0177
   4.7960E-01   4.9127E-01   5.5189E-04  0.0176
   4.9127E-01   5.0322E-01   5.3970E-04  0.0176
   5.0322E-01   5.1546E-01   5.5236E-04  0.0172
   5.1546E-01   5.2800E-01   5.4411E-04  0.0171
   5.2800E-01   5.4085E-01   5.3150E-04  0.0171
   5.4085E-01   5.5401E-01   5.1272E-04  0.0172
   5.5401E-01   5.6749E-01   5.2828E-04  0.0168
   5.6749E-01   5.8130E-01   4.9727E-04  0.0171
   5.8130E-01   5.9544E-01   5.0207E-04  0.0168
   5.9544E-01   6.0993E-01   4.9001E-04  0.0168
   6.0993E-01   6.2477E-01   4.8524E-04  0.0167
   6.2477E-01   6.3997E-01   4.6076E-04  0.0169
   6.3997E-01   6.5554E-01   4.5501E-04  0.0168
   6.5554E-01   6.7149E-01   4.5242E-04  0.0166
   6.7149E-01   6.8783E-01   4.2325E-04  0.0170
   6.8783E-01   7.0456E-01   4.2443E-04  0.0168
   7.0456E-01   7.2171E-01   4.0875E-04  0.0169
   7.2171E-01   7.3927E-01   4.1123E-04  0.0166
   7.3927E-01   7.5725E-01   3.9862E-04  0.0167
   7.5725E-01   7.7568E-01   3.7678E-04  0.0170
   7.7568E-01   7.9455E-01   3.7059E-04  0.0169
   7.9455E-01   8.1388E-01   3.7197E-04  0.0167
   8.1388E-01   8.3368E-01   3.5874E-04  0.0168
   8.3368E-01   8.5397E-01   3.4579E-04  0.0169
   8.5397E-01   8.7475E-01   3.4474E-04  0.0167
   8.7475E-01   8.9603E-01   3.3801E-04  0.0167
   8.9603E-01   9.1783E-01   3.1457E-04  0.0171
   9.1783E-01   9.4016E-01   3.0173E-04  0.0172
   9.4016E-01   9.6304E-01   2.8700E-04  0.0175
   9.6304E-01   9.8647E-01   2.8090E-04  0.0174
   9.8647E-01   1.0105E+00   2.7457E-04  0.0174
   1.0105E+00   1.0351E+00   2.7541E-04  0.0172
   1.0351E+00   1.0602E+00   2.7927E-04  0.0169
   1.0602E+00   1.0860E+00   2.8376E-04  0.0165
   1.0860E+00   1.1125E+00   2.8992E-04  0.0162
   1.1125E+00   1.1395E+00   3.0742E-04  0.0155
   1.1395E+00   1.1673E+00   2.9651E-04  0.0156
   1.1673E+00   1.1957E+00   3.1676E-04  0.0149
   1.1957E+00   1.2247E+00   3.2938E-04  0.0145
   1.2247E+00   1.2545E+00   3.3300E-04  0.0142
   1.2545E+00   1.2851E+00   3.3105E-04  0.0141
   1.2851E+00   1.3163E+00   3.3566E-04  0.0138
   1.3163E+00   1.3484E+00   3.4002E-04  0.0136
   1.3484E+00   1.3812E+00   3.5154E-04  0.0132
   1.3812E+00   1.4148E+00   3.5840E-04  0.0129
   1.4148E+00   1.4492E+00   3.6000E-04  0.0127
   1.4492E+00   1.4845E+00   3.5536E-04  0.0126
   1.4845E+00   1.5206E+00   3.6599E-04  0.0123
   1.5206E+00   1.5576E+00   3.6644E-04  0.0122
   1.5576E+00   1.5955E+00   3.7322E-04  0.0119
   1.5955E+00   1.6343E+00   3.8453E-04  0.0116
   1.6343E+00   1.6741E+00   3.8065E-04  0.0115
   1.6741E+00   1.7148E+00   3.9520E-04  0.0111
   1.7148E+00   1.7565E+00   3.9049E-04  0.0111
   1.7565E+00   1.7992E+00   3.8388E-04  0.0110
   1.7992E+00   1.8430E+00   3.8915E-04  0.0108
   1.8430E+00   1.8879E+00   4.0495E-04  0.0105
   1.8879E+00   1.9338E+00   4.0324E-04  0.0104
   1.9338E+00   1.9808E+00   4.0922E-04  0.0102
   1.9808E+00   2.0290E+00   4.2027E-04  0.0099
   2.0290E+00   2.0784E+00   4.1065E-04  0.0099
   2.0784E+00   2.1290E+00   4.1697E-04  0.0097
   2.1290E+00   2.1808E+00   4.1695E-04  0.0096
   2.1808E+00   2.2338E+00   4.2363E-04  0.0094
   2.2338E+00   2.2882E+00   4.2237E-04  0.0093
   2.2882E+00   2.3439E+00   4.2291E-04  0.0092
   2.3439E+00   2.4009E+00   4.3461E-04  0.0090
   2.4009E+00   2.4593E+00   4.4375E-04  0.0088
   2.4593E+00   2.5191E+00   4.3879E-04  0.0087
   2.5191E+00   2.5804E+00   4.3971E-04  0.0086
   2.5804E+00   2.6432E+00   4.3216E-04  0.0086
   2.6432E+00   2.7075E+00   4.3417E-04  0.0085
   2.7075E+00   2.7734E+00   4.3882E-04  0.0083
   2.7734E+00   2.8409E+00   4.4082E-04  0.0082
   2.8409E+00   2.9100E+00   4.4383E-04  0.0081
   2.9100E+00   2.9808E+00   4.4864E-04  0.0079
   2.9808E+00   3.0533E+00   4.4742E-04  0.0079
   3.0533E+00   3.1276E+00   4.4473E-04  0.0078
   3.1276E+00   3.2037E+00   4.3572E-04  0.0078
   3.2037E+00   3.2817E+00   4.3640E-04  0.0077
   3.2817E+00   3.3615E+00   4.3653E-04  0.0076
   3.3615E+00   3.4433E+00   4.3059E-04  0.0075
   3.4433E+00   3.5271E+00   4.3311E-04  0.0074
   3.5271E+00   3.6129E+00   4.3351E-04  0.0073
   3.6129E+00   3.7008E+00   4.3155E-04  0.0073
   3.7008E+00   3.7908E+00   4.2606E-04  0.0072
   3.7908E+00   3.8831E+00   4.2082E-04  0.0072
   3.8831E+00   3.9776E+00   4.2146E-04  0.0071
   3.9776E+00   4.0743E+00   4.2104E-04  0.0070
   4.0743E+00   4.1735E+00   4.0200E-04  0.0071
   4.1735E+00   4.2750E+00   4.0232E-04  0.0070
   4.2750E+00   4.3790E+00   3.9325E-04  0.0070
   4.3790E+00   4.4856E+00   3.8598E-04  0.0070
   4.4856E+00   4.5947E+00   3.7837E-04  0.0070
   4.5947E+00   4.7065E+00   3.7351E-04  0.0069
   4.7065E+00   4.8210E+00   3.6881E-04  0.0069
   4.8210E+00   4.9383E+00   3.6435E-04  0.0068
   4.9383E+00   5.0585E+00   3.6228E-04  0.0068
   5.0585E+00   5.1815E+00   3.5017E-04  0.0068
   5.1815E+00   5.3076E+00   3.3785E-04  0.0069
   5.3076E+00   5.4368E+00   3.3344E-04  0.0068
   5.4368E+00   5.5690E+00   3.1966E-04  0.0069
   5.5690E+00   5.7045E+00   3.1243E-04  0.0069
   5.7045E+00   5.8433E+00   3.0542E-04  0.0069
   5.8433E+00   5.9855E+00   2.9633E-04  0.0069
   5.9855E+00   6.1311E+00   2.8777E-04  0.0069
   6.1311E+00   6.2803E+00   2.7739E-04  0.0070
   6.2803E+00   6.4331E+00   2.6726E-04  0.0070
   6.4331E+00   6.5896E+00   2.5826E-04  0.0070
   6.5896E+00   6.7500E+00   2.4787E-04  0.0071
   6.7500E+00   6.9142E+00   2.3726E-04  0.0072
   6.9142E+00   7.0824E+00   2.3213E-04  0.0072
   7.0824E+00   7.2548E+00   2.2062E-04  0.0073
   7.2548E+00   7.4313E+00   2.1495E-04  0.0073
   7.4313E+00   7.6121E+00   2.0477E-04  0.0074
   7.6121E+00   7.7973E+00   1.9930E-04  0.0074
   7.7973E+00   7.9870E+00   1.8788E-04  0.0075
   7.9870E+00   8.1813E+00   1.7922E-04  0.0076
   8.1813E+00   8.3804E+00   1.7382E-04  0.0076
   8.3804E+00   8.5843E+00   1.6792E-04  0.0076
   8.5843E+00   8.7931E+00   1.5858E-04  0.0078
   8.7931E+00   9.0071E+00   1.5354E-04  0.0078
   9.0071E+00   9.2262E+00   1.4500E-04  0.0079
   9.2262E+00   9.4507E+00   1.4005E-04  0.0080
   9.4507E+00   9.6807E+00   1.3463E-04  0.0080
   9.6807E+00   9.9162E+00   1.2878E-04  0.0081
   9.9162E+00   1.0157E+01   1.2258E-04  0.0082
   1.0157E+01   1.0405E+01   1.1620E-04  0.0083
   1.0405E+01   1.0658E+01   1.1004E-04  0.0085
   1.0658E+01   1.0917E+01   1.0780E-04  0.0085
   1.0917E+01   1.1183E+01   1.0186E-04  0.0086
   1.1183E+01   1.1455E+01   9.6378E-05  0.0087
   1.1455E+01   1.1733E+01   9.3056E-05  0.0088
   1.1733E+01   1.2019E+01   9.0229E-05  0.0088
   1.2019E+01   1.2311E+01   8.6225E-05  0.0089
   1.2311E+01   1.2611E+01   8.2057E-05  0.0090
   1.2611E+01   1.2918E+01   7.8306E-05  0.0091
   1.2918E+01   1.3232E+01   7.5409E-05  0.0092
   1.3232E+01   1.3554E+01   7.2708E-05  0.0092
   1.3554E+01   1.3884E+01   6.8433E-05  0.0094
   1.3884E+01   1.4222E+01   6.6308E-05  0.0094
   1.4222E+01   1.4568E+01   6.3068E-05  0.0096
   1.4568E+01   1.4922E+01   6.2701E-05  0.0095
   1.4922E+01   1.5285E+01   6.0595E-05  0.0095
   1.5285E+01   1.5657E+01   5.6935E-05  0.0097
   1.5657E+01   1.6038E+01   5.6777E-05  0.0096
   1.6038E+01   1.6428E+01   5.3168E-05  0.0098
   1.6428E+01   1.6828E+01   5.1975E-05  0.0098
   1.6828E+01   1.7237E+01   4.9766E-05  0.0099
   1.7237E+01   1.7657E+01   4.8009E-05  0.0100
   1.7657E+01   1.8086E+01   4.6268E-05  0.0100
   1.8086E+01   1.8526E+01   4.4767E-05  0.0101
   1.8526E+01   1.8977E+01   4.2466E-05  0.0102
   1.8977E+01   1.9439E+01   4.2250E-05  0.0101
   1.9439E+01   1.9912E+01   4.0794E-05  0.0102
   1.9912E+01   2.0396E+01   3.9185E-05  0.0103
   2.0396E+01   2.0893E+01   3.8440E-05  0.0102
   2.0893E+01   2.1401E+01   3.6807E-05  0.0103
   2.1401E+01   2.1922E+01   3.6128E-05  0.0103
   2.1922E+01   2.2455E+01   3.4798E-05  0.0104
   2.2455E+01   2.3001E+01   3.3664E-05  0.0104
   2.3001E+01   2.3561E+01   3.3504E-05  0.0103
   2.3561E+01   2.4134E+01   3.0970E-05  0.0106
   2.4134E+01   2.4721E+01   3.0351E-05  0.0106
   2.4721E+01   2.5323E+01   2.9673E-05  0.0106
   2.5323E+01   2.5939E+01   2.8812E-05  0.0106
   2.5939E+01   2.6570E+01   2.7225E-05  0.0108
   2.6570E+01   2.7217E+01   2.7070E-05  0.0107
   2.7217E+01   2.7879E+01   2.4745E-05  0.0110
   2.7879E+01   2.8557E+01   2.4484E-05  0.0110
   2.8557E+01   2.9252E+01   2.3120E-05  0.0112
   2.9252E+01   2.9964E+01   2.2562E-05  0.0112
   2.9964E+01   3.0693E+01   2.1554E-05  0.0113
   3.0693E+01   3.1440E+01   2.0657E-05  0.0114
   3.1440E+01   3.2205E+01   1.9254E-05  0.0117
   3.2205E+01   3.2988E+01   1.8378E-05  0.0118
   3.2988E+01   3.3791E+01   1.7418E-05  0.0120
   3.3791E+01   3.4613E+01   1.6308E-05  0.0122
   3.4613E+01   3.5455E+01   1.5615E-05  0.0123
   3.5455E+01   3.6318E+01   1.4629E-05  0.0126
   3.6318E+01   3.7201E+01   1.3942E-05  0.0127
   3.7201E+01   3.8106E+01   1.3154E-05  0.0130
   3.8106E+01   3.9034E+01   1.2511E-05  0.0131
   3.9034E+01   3.9983E+01   1.1321E-05  0.0136
   3.9983E+01   4.0956E+01   1.0703E-05  0.0139
   4.0956E+01   4.1953E+01   1.0045E-05  0.0141
   4.1953E+01   4.2973E+01   9.0758E-06  0.0147
   4.2973E+01   4.4019E+01   8.5733E-06  0.0149
   4.4019E+01   4.5090E+01   7.9158E-06  0.0154
   4.5090E+01   4.6187E+01   7.3249E-06  0.0158
   4.6187E+01   4.7311E+01   6.7452E-06  0.0162
   4.7311E+01   4.8462E+01   6.2496E-06  0.0167
   4.8462E+01   4.9641E+01   5.7060E-06  0.0172
   4.9641E+01   5.0849E+01   5.1581E-06  0.0179
   5.0849E+01   5.2086E+01   4.7656E-06  0.0184
   5.2086E+01   5.3353E+01   4.2374E-06  0.0193
   5.3353E+01   5.4651E+01   3.7854E-06  0.0202
   5.4651E+01   5.5981E+01   3.5978E-06  0.0204
   5.5981E+01   5.7343E+01   3.1687E-06  0.0215
   5.7343E+01   5.8738E+01   2.7035E-06  0.0230
   5.8738E+01   6.0168E+01   2.5246E-06  0.0235
   6.0168E+01   6.1632E+01   2.3048E-06  0.0243
   6.1632E+01   6.3131E+01   1.8979E-06  0.0265
   6.3131E+01   6.4667E+01   1.7669E-06  0.0271
   6.4667E+01   6.6240E+01   1.5279E-06  0.0288
   6.6240E+01   6.7852E+01   1.3551E-06  0.0303
   6.7852E+01   6.9503E+01   1.1921E-06  0.0319
   6.9503E+01   7.1194E+01   1.0325E-06  0.0338
   7.1194E+01   7.2926E+01   9.1444E-07  0.0355
   7.2926E+01   7.4701E+01   7.7211E-07  0.0382
   7.4701E+01   7.6518E+01   6.9545E-07  0.0398
   7.6518E+01   7.8380E+01   5.3606E-07  0.0448
   7.8380E+01   8.0287E+01   4.6774E-07  0.0474
   8.0287E+01   8.2240E+01   3.8291E-07  0.0517
   8.2240E+01   8.4241E+01   3.7082E-07  0.0519
   8.4241E+01   8.6291E+01   2.7419E-07  0.0597
   8.6291E+01   8.8391E+01   2.5530E-07  0.0611
   8.8391E+01   9.0541E+01   2.1947E-07  0.0651
   9.0541E+01   9.2744E+01   1.7885E-07  0.0712
   9.2744E+01   9.5001E+01   1.4624E-07  0.0778
   9.5001E+01   9.7312E+01   1.0556E-07  0.0905
   9.7312E+01   9.9680E+01   9.7141E-08  0.0933
   9.9680E+01   1.0211E+02   8.9886E-08  0.0958
   1.0211E+02   1.0459E+02   6.6820E-08  0.1098
   1.0459E+02   1.0713E+02   5.9731E-08  0.1147
   1.0713E+02   1.0974E+02   4.3734E-08  0.1325
   1.0974E+02   1.1241E+02   3.2958E-08  0.1508
   1.1241E+02   1.1515E+02   2.7787E-08  0.1622
   1.1515E+02   1.1795E+02   1.9275E-08  0.1925
   1.1795E+02   1.2082E+02   8.3631E-09  0.2887
   1.2082E+02   1.2376E+02   5.4430E-09  0.3536
   1.2376E+02   1.2677E+02   3.9852E-09  0.4082
   1.2677E+02   1.2985E+02   1.9453E-09  0.5774
   1.2985E+02   1.3301E+02   6.3303E-10  1.0000
   1.3301E+02   1.3625E+02   6.1799E-10  1.0000
   1.3625E+02   1.3956E+02   1.2066E-09  0.7071
   1.3956E+02   1.4296E+02   5.8898E-10  1.0000
   1.4296E+02   1.4644E+02   0.0000E+00  0.0000
   1.4644E+02   1.5000E+02   0.0000E+00  0.0000

#   sum over                 3.0250E-05
'no. =    1   reg = 114 - 214'
msuc: {\huge [t-cross] in region mesh}
msdr: {\it plotted by \ANGEL \version}
msdl: {\it calculated by \PHITS  3.26}
wt: s(0.7)
\vspace{-3}
  region surface crossing
  area  &=&   1.0000E+00 [cm^2]
e:
 
# Information for Restart Calculation
# This calculation was newly started
# istdev =  2 # 1:Batch variance, 2:History variance
# resc2  = 5.00000000000000000E+08 # Total source weight or Total source weight / maxcas
# resc3  = 5.00000000000000000E+08 # Total history number or Total batch number
# maxcas =   500000000 # History / Batch, only used for istdev=1
# bitrseed = 1101101111010011011000101101110001100110110010110001010100010001 # bit data of rseed
