[ T-Cross ]
    title = [t-cross] in region mesh
     mesh =  reg            # mesh type is region-wise
      reg =    1            # number of crossing regions
      non     r-from    r-to       area
      1       113       213        1.000000    
   e-type =    3            # e-mesh is log given by emin, emax and ne
     emin =  1.0000000E-02  # minimum value of e-mesh points
     emax =   150.0000      # maximum value of e-mesh points
#    edel =  2.4039514E-02  # mesh width of e-mesh points
       ne =    400          # number of e-mesh points
#    data = ( e(i), i = 1, ne + 1 )
#           1.00000E-02  1.02433E-02  1.04925E-02  1.07478E-02  1.10093E-02
#           1.12772E-02  1.15516E-02  1.18326E-02  1.21205E-02  1.24154E-02
#           1.27175E-02  1.30269E-02  1.33439E-02  1.36686E-02  1.40011E-02
#           1.43418E-02  1.46907E-02  1.50482E-02  1.54143E-02  1.57894E-02
#           1.61735E-02  1.65670E-02  1.69701E-02  1.73830E-02  1.78060E-02
#           1.82392E-02  1.86830E-02  1.91375E-02  1.96032E-02  2.00801E-02
#           2.05687E-02  2.10692E-02  2.15818E-02  2.21069E-02  2.26448E-02
#           2.31957E-02  2.37601E-02  2.43382E-02  2.49304E-02  2.55369E-02
#           2.61583E-02  2.67947E-02  2.74467E-02  2.81145E-02  2.87985E-02
#           2.94992E-02  3.02169E-02  3.09521E-02  3.17052E-02  3.24766E-02
#           3.32668E-02  3.40762E-02  3.49053E-02  3.57546E-02  3.66246E-02
#           3.75157E-02  3.84284E-02  3.93634E-02  4.03212E-02  4.13022E-02
#           4.23071E-02  4.33365E-02  4.43909E-02  4.54710E-02  4.65773E-02
#           4.77106E-02  4.88714E-02  5.00605E-02  5.12785E-02  5.25262E-02
#           5.38042E-02  5.51133E-02  5.64542E-02  5.78278E-02  5.92348E-02
#           6.06760E-02  6.21523E-02  6.36645E-02  6.52135E-02  6.68002E-02
#           6.84255E-02  7.00904E-02  7.17957E-02  7.35426E-02  7.53319E-02
#           7.71648E-02  7.90423E-02  8.09655E-02  8.29354E-02  8.49533E-02
#           8.70203E-02  8.91376E-02  9.13064E-02  9.35279E-02  9.58035E-02
#           9.81345E-02  1.00522E-01  1.02968E-01  1.05473E-01  1.08040E-01
#           1.10668E-01  1.13361E-01  1.16119E-01  1.18944E-01  1.21838E-01
#           1.24803E-01  1.27839E-01  1.30950E-01  1.34136E-01  1.37399E-01
#           1.40742E-01  1.44167E-01  1.47675E-01  1.51268E-01  1.54948E-01
#           1.58718E-01  1.62580E-01  1.66535E-01  1.70587E-01  1.74738E-01
#           1.78989E-01  1.83344E-01  1.87805E-01  1.92375E-01  1.97055E-01
#           2.01850E-01  2.06761E-01  2.11792E-01  2.16945E-01  2.22223E-01
#           2.27630E-01  2.33169E-01  2.38842E-01  2.44653E-01  2.50605E-01
#           2.56703E-01  2.62949E-01  2.69346E-01  2.75900E-01  2.82613E-01
#           2.89489E-01  2.96532E-01  3.03747E-01  3.11138E-01  3.18708E-01
#           3.26462E-01  3.34405E-01  3.42542E-01  3.50876E-01  3.59413E-01
#           3.68158E-01  3.77116E-01  3.86291E-01  3.95690E-01  4.05317E-01
#           4.15179E-01  4.25281E-01  4.35628E-01  4.46227E-01  4.57084E-01
#           4.68205E-01  4.79597E-01  4.91266E-01  5.03219E-01  5.15463E-01
#           5.28005E-01  5.40851E-01  5.54011E-01  5.67490E-01  5.81298E-01
#           5.95441E-01  6.09929E-01  6.24769E-01  6.39970E-01  6.55541E-01
#           6.71491E-01  6.87828E-01  7.04564E-01  7.21706E-01  7.39266E-01
#           7.57253E-01  7.75678E-01  7.94551E-01  8.13883E-01  8.33685E-01
#           8.53969E-01  8.74747E-01  8.96030E-01  9.17831E-01  9.40163E-01
#           9.63038E-01  9.86469E-01  1.01047E+00  1.03506E+00  1.06024E+00
#           1.08604E+00  1.11246E+00  1.13953E+00  1.16725E+00  1.19565E+00
#           1.22474E+00  1.25454E+00  1.28507E+00  1.31633E+00  1.34836E+00
#           1.38117E+00  1.41477E+00  1.44920E+00  1.48446E+00  1.52057E+00
#           1.55757E+00  1.59547E+00  1.63429E+00  1.67405E+00  1.71478E+00
#           1.75650E+00  1.79924E+00  1.84302E+00  1.88786E+00  1.93379E+00
#           1.98084E+00  2.02904E+00  2.07841E+00  2.12898E+00  2.18078E+00
#           2.23384E+00  2.28819E+00  2.34386E+00  2.40089E+00  2.45930E+00
#           2.51914E+00  2.58043E+00  2.64322E+00  2.70753E+00  2.77341E+00
#           2.84088E+00  2.91001E+00  2.98081E+00  3.05333E+00  3.12762E+00
#           3.20372E+00  3.28167E+00  3.36152E+00  3.44330E+00  3.52708E+00
#           3.61290E+00  3.70080E+00  3.79085E+00  3.88308E+00  3.97756E+00
#           4.07434E+00  4.17347E+00  4.27501E+00  4.37903E+00  4.48557E+00
#           4.59471E+00  4.70650E+00  4.82102E+00  4.93832E+00  5.05847E+00
#           5.18155E+00  5.30762E+00  5.43676E+00  5.56904E+00  5.70453E+00
#           5.84333E+00  5.98550E+00  6.13114E+00  6.28031E+00  6.43312E+00
#           6.58964E+00  6.74997E+00  6.91420E+00  7.08243E+00  7.25475E+00
#           7.43126E+00  7.61207E+00  7.79728E+00  7.98700E+00  8.18133E+00
#           8.38038E+00  8.58428E+00  8.79315E+00  9.00709E+00  9.22624E+00
#           9.45072E+00  9.68067E+00  9.91620E+00  1.01575E+01  1.04046E+01
#           1.06578E+01  1.09171E+01  1.11827E+01  1.14548E+01  1.17335E+01
#           1.20190E+01  1.23114E+01  1.26109E+01  1.29178E+01  1.32321E+01
#           1.35540E+01  1.38838E+01  1.42216E+01  1.45676E+01  1.49221E+01
#           1.52851E+01  1.56570E+01  1.60380E+01  1.64282E+01  1.68279E+01
#           1.72374E+01  1.76568E+01  1.80864E+01  1.85264E+01  1.89772E+01
#           1.94389E+01  1.99119E+01  2.03963E+01  2.08926E+01  2.14009E+01
#           2.19216E+01  2.24550E+01  2.30014E+01  2.35610E+01  2.41343E+01
#           2.47215E+01  2.53230E+01  2.59391E+01  2.65702E+01  2.72167E+01
#           2.78789E+01  2.85572E+01  2.92520E+01  2.99637E+01  3.06928E+01
#           3.14396E+01  3.22045E+01  3.29881E+01  3.37907E+01  3.46128E+01
#           3.54550E+01  3.63177E+01  3.72013E+01  3.81064E+01  3.90336E+01
#           3.99833E+01  4.09561E+01  4.19526E+01  4.29734E+01  4.40189E+01
#           4.50900E+01  4.61870E+01  4.73108E+01  4.84619E+01  4.96410E+01
#           5.08488E+01  5.20860E+01  5.33533E+01  5.46514E+01  5.59812E+01
#           5.73432E+01  5.87384E+01  6.01676E+01  6.16315E+01  6.31311E+01
#           6.46671E+01  6.62405E+01  6.78522E+01  6.95031E+01  7.11941E+01
#           7.29263E+01  7.47007E+01  7.65182E+01  7.83800E+01  8.02870E+01
#           8.22405E+01  8.42414E+01  8.62911E+01  8.83906E+01  9.05412E+01
#           9.27442E+01  9.50007E+01  9.73122E+01  9.96799E+01  1.02105E+02
#           1.04589E+02  1.07134E+02  1.09741E+02  1.12411E+02  1.15146E+02
#           1.17948E+02  1.20817E+02  1.23757E+02  1.26768E+02  1.29852E+02
#           1.33012E+02  1.36248E+02  1.39563E+02  1.42959E+02  1.46437E+02
#           1.50000E+02
     unit =    2            # unit is [1/cm^2/(MeV/n)/source]
     axis =  eng            # axis of output
     file = detector-14.out  # file name of output for the above axis
   output = f-curr          # surface crossing forward current spectrum
     part =  neutron  
# kf/name :  2112     
#    used :        main (  %)        temp (  %)       total (  %)
#  memory :         414 (  0)           0 (  0)         414 (  0)

#------------------------------------------------------------------------------
#newpage:
#   no. =    1   reg = 113 - 213

x: Energy [MeV/n]
y:  F-Curr [1/cm^2/(MeV/n)/source]         
p: xlog ylog afac(0.8) form(0.9)
h: n            x            y(neutron ),hh0l   n 
#  e-lower      e-upper      neutron     r.err 
   1.0000E-02   1.0243E-02   8.7778E-03  0.0305
   1.0243E-02   1.0493E-02   8.5472E-03  0.0306
   1.0493E-02   1.0748E-02   7.9770E-03  0.0312
   1.0748E-02   1.1009E-02   8.2428E-03  0.0304
   1.1009E-02   1.1277E-02   7.6152E-03  0.0312
   1.1277E-02   1.1552E-02   7.3859E-03  0.0313
   1.1552E-02   1.1833E-02   7.4231E-03  0.0309
   1.1833E-02   1.2121E-02   7.3038E-03  0.0307
   1.2121E-02   1.2415E-02   6.6105E-03  0.0319
   1.2415E-02   1.2718E-02   6.8519E-03  0.0310
   1.2718E-02   1.3027E-02   6.7244E-03  0.0309
   1.3027E-02   1.3344E-02   6.1944E-03  0.0318
   1.3344E-02   1.3669E-02   6.0565E-03  0.0318
   1.3669E-02   1.4001E-02   6.3831E-03  0.0306
   1.4001E-02   1.4342E-02   5.6949E-03  0.0320
   1.4342E-02   1.4691E-02   5.6392E-03  0.0318
   1.4691E-02   1.5048E-02   5.4622E-03  0.0319
   1.5048E-02   1.5414E-02   5.5821E-03  0.0312
   1.5414E-02   1.5789E-02   5.6194E-03  0.0307
   1.5789E-02   1.6174E-02   4.9693E-03  0.0323
   1.6174E-02   1.6567E-02   5.1872E-03  0.0312
   1.6567E-02   1.6970E-02   4.9963E-03  0.0314
   1.6970E-02   1.7383E-02   4.9608E-03  0.0311
   1.7383E-02   1.7806E-02   4.7880E-03  0.0313
   1.7806E-02   1.8239E-02   4.6560E-03  0.0314
   1.8239E-02   1.8683E-02   4.4441E-03  0.0317
   1.8683E-02   1.9138E-02   4.3974E-03  0.0315
   1.9138E-02   1.9603E-02   4.1549E-03  0.0321
   1.9603E-02   2.0080E-02   3.9903E-03  0.0323
   2.0080E-02   2.0569E-02   3.8688E-03  0.0324
   2.0569E-02   2.1069E-02   3.8476E-03  0.0321
   2.1069E-02   2.1582E-02   3.8504E-03  0.0317
   2.1582E-02   2.2107E-02   3.4919E-03  0.0329
   2.2107E-02   2.2645E-02   3.8045E-03  0.0311
   2.2645E-02   2.3196E-02   3.5904E-03  0.0317
   2.3196E-02   2.3760E-02   3.5173E-03  0.0317
   2.3760E-02   2.4338E-02   3.2280E-03  0.0326
   2.4338E-02   2.4930E-02   3.3388E-03  0.0317
   2.4930E-02   2.5537E-02   3.1910E-03  0.0320
   2.5537E-02   2.6158E-02   2.9622E-03  0.0328
   2.6158E-02   2.6795E-02   3.0691E-03  0.0319
   2.6795E-02   2.7447E-02   3.1178E-03  0.0313
   2.7447E-02   2.8114E-02   2.8697E-03  0.0322
   2.8114E-02   2.8799E-02   2.6968E-03  0.0328
   2.8799E-02   2.9499E-02   2.7114E-03  0.0323
   2.9499E-02   3.0217E-02   2.6792E-03  0.0322
   3.0217E-02   3.0952E-02   2.4455E-03  0.0333
   3.0952E-02   3.1705E-02   2.5443E-03  0.0322
   3.1705E-02   3.2477E-02   2.3868E-03  0.0328
   3.2477E-02   3.3267E-02   2.2156E-03  0.0337
   3.3267E-02   3.4076E-02   2.3463E-03  0.0323
   3.4076E-02   3.4905E-02   2.1346E-03  0.0335
   3.4905E-02   3.5755E-02   2.1417E-03  0.0330
   3.5755E-02   3.6625E-02   2.1549E-03  0.0326
   3.6625E-02   3.7516E-02   2.0089E-03  0.0333
   3.7516E-02   3.8428E-02   1.9982E-03  0.0330
   3.8428E-02   3.9363E-02   1.9226E-03  0.0332
   3.9363E-02   4.0321E-02   1.9945E-03  0.0322
   4.0321E-02   4.1302E-02   1.8841E-03  0.0327
   4.1302E-02   4.2307E-02   1.8476E-03  0.0327
   4.2307E-02   4.3337E-02   1.8396E-03  0.0324
   4.3337E-02   4.4391E-02   1.6783E-03  0.0335
   4.4391E-02   4.5471E-02   1.7102E-03  0.0327
   4.5471E-02   4.6577E-02   1.6644E-03  0.0328
   4.6577E-02   4.7711E-02   1.5604E-03  0.0335
   4.7711E-02   4.8871E-02   1.5438E-03  0.0333
   4.8871E-02   5.0061E-02   1.5497E-03  0.0328
   5.0061E-02   5.1279E-02   1.5327E-03  0.0326
   5.1279E-02   5.2526E-02   1.3426E-03  0.0344
   5.2526E-02   5.3804E-02   1.3852E-03  0.0335
   5.3804E-02   5.5113E-02   1.3623E-03  0.0333
   5.5113E-02   5.6454E-02   1.3160E-03  0.0336
   5.6454E-02   5.7828E-02   1.2677E-03  0.0338
   5.7828E-02   5.9235E-02   1.2615E-03  0.0334
   5.9235E-02   6.0676E-02   1.2341E-03  0.0333
   6.0676E-02   6.2152E-02   1.1773E-03  0.0338
   6.2152E-02   6.3665E-02   1.2231E-03  0.0327
   6.3665E-02   6.5214E-02   1.1563E-03  0.0333
   6.5214E-02   6.6800E-02   1.1060E-03  0.0336
   6.6800E-02   6.8426E-02   1.0716E-03  0.0337
   6.8426E-02   7.0090E-02   1.0342E-03  0.0339
   7.0090E-02   7.1796E-02   1.0314E-03  0.0336
   7.1796E-02   7.3543E-02   1.0198E-03  0.0334
   7.3543E-02   7.5332E-02   9.8751E-04  0.0335
   7.5332E-02   7.7165E-02   9.6612E-04  0.0335
   7.7165E-02   7.9042E-02   9.5153E-04  0.0333
   7.9042E-02   8.0965E-02   8.8785E-04  0.0341
   8.0965E-02   8.2935E-02   8.7970E-04  0.0339
   8.2935E-02   8.4953E-02   9.2676E-04  0.0325
   8.4953E-02   8.7020E-02   8.6251E-04  0.0334
   8.7020E-02   8.9138E-02   8.5537E-04  0.0331
   8.9138E-02   9.1306E-02   8.3809E-04  0.0330
   9.1306E-02   9.3528E-02   7.7955E-04  0.0338
   9.3528E-02   9.5804E-02   7.9349E-04  0.0331
   9.5804E-02   9.8134E-02   7.4274E-04  0.0339
   9.8134E-02   1.0052E-01   7.7852E-04  0.0326
   1.0052E-01   1.0297E-01   7.3681E-04  0.0332
   1.0297E-01   1.0547E-01   6.9675E-04  0.0337
   1.0547E-01   1.0804E-01   7.1771E-04  0.0328
   1.0804E-01   1.1067E-01   6.9257E-04  0.0330
   1.1067E-01   1.1336E-01   6.2998E-04  0.0342
   1.1336E-01   1.1612E-01   6.9392E-04  0.0322
   1.1612E-01   1.1894E-01   6.6958E-04  0.0324
   1.1894E-01   1.2184E-01   6.6194E-04  0.0322
   1.2184E-01   1.2480E-01   5.9716E-04  0.0335
   1.2480E-01   1.2784E-01   6.0259E-04  0.0329
   1.2784E-01   1.3095E-01   5.9803E-04  0.0326
   1.3095E-01   1.3414E-01   5.8410E-04  0.0326
   1.3414E-01   1.3740E-01   5.5107E-04  0.0332
   1.3740E-01   1.4074E-01   5.4518E-04  0.0330
   1.4074E-01   1.4417E-01   5.3810E-04  0.0328
   1.4417E-01   1.4767E-01   5.5120E-04  0.0321
   1.4767E-01   1.5127E-01   5.5979E-04  0.0314
   1.5127E-01   1.5495E-01   5.2847E-04  0.0319
   1.5495E-01   1.5872E-01   5.2695E-04  0.0316
   1.5872E-01   1.6258E-01   4.9585E-04  0.0322
   1.6258E-01   1.6654E-01   4.8716E-04  0.0321
   1.6654E-01   1.7059E-01   4.9950E-04  0.0313
   1.7059E-01   1.7474E-01   4.6273E-04  0.0321
   1.7474E-01   1.7899E-01   4.7299E-04  0.0314
   1.7899E-01   1.8334E-01   4.5037E-04  0.0318
   1.8334E-01   1.8781E-01   4.6027E-04  0.0311
   1.8781E-01   1.9237E-01   4.4053E-04  0.0314
   1.9237E-01   1.9706E-01   4.6920E-04  0.0301
   1.9706E-01   2.0185E-01   4.8478E-04  0.0292
   2.0185E-01   2.0676E-01   4.5152E-04  0.0299
   2.0676E-01   2.1179E-01   4.7486E-04  0.0288
   2.1179E-01   2.1694E-01   5.0801E-04  0.0275
   2.1694E-01   2.2222E-01   5.1948E-04  0.0269
   2.2222E-01   2.2763E-01   5.3558E-04  0.0262
   2.2763E-01   2.3317E-01   5.6026E-04  0.0253
   2.3317E-01   2.3884E-01   6.0439E-04  0.0240
   2.3884E-01   2.4465E-01   6.0946E-04  0.0237
   2.4465E-01   2.5061E-01   6.5171E-04  0.0226
   2.5061E-01   2.5670E-01   6.8404E-04  0.0218
   2.5670E-01   2.6295E-01   6.7531E-04  0.0217
   2.6295E-01   2.6935E-01   7.0705E-04  0.0210
   2.6935E-01   2.7590E-01   7.3901E-04  0.0202
   2.7590E-01   2.8261E-01   7.8698E-04  0.0194
   2.8261E-01   2.8949E-01   8.1172E-04  0.0188
   2.8949E-01   2.9653E-01   8.2645E-04  0.0185
   2.9653E-01   3.0375E-01   8.7957E-04  0.0177
   3.0375E-01   3.1114E-01   9.0770E-04  0.0172
   3.1114E-01   3.1871E-01   9.5507E-04  0.0166
   3.1871E-01   3.2646E-01   9.7252E-04  0.0162
   3.2646E-01   3.3441E-01   1.0312E-03  0.0156
   3.3441E-01   3.4254E-01   1.0410E-03  0.0153
   3.4254E-01   3.5088E-01   1.0897E-03  0.0148
   3.5088E-01   3.5941E-01   1.1207E-03  0.0144
   3.5941E-01   3.6816E-01   1.1558E-03  0.0140
   3.6816E-01   3.7712E-01   1.1876E-03  0.0137
   3.7712E-01   3.8629E-01   1.2259E-03  0.0133
   3.8629E-01   3.9569E-01   1.2551E-03  0.0130
   3.9569E-01   4.0532E-01   1.2751E-03  0.0127
   4.0532E-01   4.1518E-01   1.3591E-03  0.0122
   4.1518E-01   4.2528E-01   1.3801E-03  0.0119
   4.2528E-01   4.3563E-01   1.4208E-03  0.0116
   4.3563E-01   4.4623E-01   1.4662E-03  0.0113
   4.4623E-01   4.5708E-01   1.4888E-03  0.0111
   4.5708E-01   4.6821E-01   1.5222E-03  0.0108
   4.6821E-01   4.7960E-01   1.5550E-03  0.0106
   4.7960E-01   4.9127E-01   1.6033E-03  0.0103
   4.9127E-01   5.0322E-01   1.6146E-03  0.0101
   5.0322E-01   5.1546E-01   1.6368E-03  0.0100
   5.1546E-01   5.2800E-01   1.6777E-03  0.0097
   5.2800E-01   5.4085E-01   1.6972E-03  0.0095
   5.4085E-01   5.5401E-01   1.7229E-03  0.0094
   5.5401E-01   5.6749E-01   1.7642E-03  0.0091
   5.6749E-01   5.8130E-01   1.7767E-03  0.0090
   5.8130E-01   5.9544E-01   1.8033E-03  0.0088
   5.9544E-01   6.0993E-01   1.7895E-03  0.0087
   6.0993E-01   6.2477E-01   1.8167E-03  0.0086
   6.2477E-01   6.3997E-01   1.8395E-03  0.0084
   6.3997E-01   6.5554E-01   1.8655E-03  0.0083
   6.5554E-01   6.7149E-01   1.8923E-03  0.0081
   6.7149E-01   6.8783E-01   1.8885E-03  0.0080
   6.8783E-01   7.0456E-01   1.9102E-03  0.0079
   7.0456E-01   7.2171E-01   1.9112E-03  0.0078
   7.2171E-01   7.3927E-01   1.8767E-03  0.0078
   7.3927E-01   7.5725E-01   1.9026E-03  0.0076
   7.5725E-01   7.7568E-01   1.9080E-03  0.0075
   7.7568E-01   7.9455E-01   1.9026E-03  0.0074
   7.9455E-01   8.1388E-01   1.9073E-03  0.0073
   8.1388E-01   8.3368E-01   1.8885E-03  0.0073
   8.3368E-01   8.5397E-01   1.9058E-03  0.0072
   8.5397E-01   8.7475E-01   1.8714E-03  0.0071
   8.7475E-01   8.9603E-01   1.8608E-03  0.0071
   8.9603E-01   9.1783E-01   1.8700E-03  0.0070
   9.1783E-01   9.4016E-01   1.8476E-03  0.0069
   9.4016E-01   9.6304E-01   1.8717E-03  0.0068
   9.6304E-01   9.8647E-01   1.8388E-03  0.0068
   9.8647E-01   1.0105E+00   1.8299E-03  0.0067
   1.0105E+00   1.0351E+00   1.8041E-03  0.0067
   1.0351E+00   1.0602E+00   1.7736E-03  0.0067
   1.0602E+00   1.0860E+00   1.7616E-03  0.0066
   1.0860E+00   1.1125E+00   1.7313E-03  0.0066
   1.1125E+00   1.1395E+00   1.6764E-03  0.0066
   1.1395E+00   1.1673E+00   1.6741E-03  0.0065
   1.1673E+00   1.1957E+00   1.6647E-03  0.0065
   1.1957E+00   1.2247E+00   1.6583E-03  0.0064
   1.2247E+00   1.2545E+00   1.6294E-03  0.0064
   1.2545E+00   1.2851E+00   1.5908E-03  0.0064
   1.2851E+00   1.3163E+00   1.5644E-03  0.0064
   1.3163E+00   1.3484E+00   1.5568E-03  0.0063
   1.3484E+00   1.3812E+00   1.5196E-03  0.0063
   1.3812E+00   1.4148E+00   1.5236E-03  0.0062
   1.4148E+00   1.4492E+00   1.4918E-03  0.0062
   1.4492E+00   1.4845E+00   1.4743E-03  0.0062
   1.4845E+00   1.5206E+00   1.4533E-03  0.0061
   1.5206E+00   1.5576E+00   1.4216E-03  0.0061
   1.5576E+00   1.5955E+00   1.3880E-03  0.0061
   1.5955E+00   1.6343E+00   1.3479E-03  0.0061
   1.6343E+00   1.6741E+00   1.3198E-03  0.0061
   1.6741E+00   1.7148E+00   1.3138E-03  0.0061
   1.7148E+00   1.7565E+00   1.2916E-03  0.0061
   1.7565E+00   1.7992E+00   1.2395E-03  0.0061
   1.7992E+00   1.8430E+00   1.2385E-03  0.0060
   1.8430E+00   1.8879E+00   1.2108E-03  0.0060
   1.8879E+00   1.9338E+00   1.1830E-03  0.0060
   1.9338E+00   1.9808E+00   1.1662E-03  0.0060
   1.9808E+00   2.0290E+00   1.1489E-03  0.0060
   2.0290E+00   2.0784E+00   1.1192E-03  0.0060
   2.0784E+00   2.1290E+00   1.0962E-03  0.0060
   2.1290E+00   2.1808E+00   1.0619E-03  0.0060
   2.1808E+00   2.2338E+00   1.0393E-03  0.0060
   2.2338E+00   2.2882E+00   1.0193E-03  0.0060
   2.2882E+00   2.3439E+00   9.9323E-04  0.0060
   2.3439E+00   2.4009E+00   9.6877E-04  0.0060
   2.4009E+00   2.4593E+00   9.4987E-04  0.0060
   2.4593E+00   2.5191E+00   9.3613E-04  0.0059
   2.5191E+00   2.5804E+00   9.1958E-04  0.0059
   2.5804E+00   2.6432E+00   9.0328E-04  0.0059
   2.6432E+00   2.7075E+00   8.7700E-04  0.0059
   2.7075E+00   2.7734E+00   8.6193E-04  0.0059
   2.7734E+00   2.8409E+00   8.4159E-04  0.0059
   2.8409E+00   2.9100E+00   8.2219E-04  0.0059
   2.9100E+00   2.9808E+00   8.0632E-04  0.0059
   2.9808E+00   3.0533E+00   7.9800E-04  0.0058
   3.0533E+00   3.1276E+00   7.8508E-04  0.0058
   3.1276E+00   3.2037E+00   7.6658E-04  0.0058
   3.2037E+00   3.2817E+00   7.5036E-04  0.0058
   3.2817E+00   3.3615E+00   7.3472E-04  0.0058
   3.3615E+00   3.4433E+00   7.2823E-04  0.0057
   3.4433E+00   3.5271E+00   7.1645E-04  0.0057
   3.5271E+00   3.6129E+00   6.9141E-04  0.0058
   3.6129E+00   3.7008E+00   6.8957E-04  0.0057
   3.7008E+00   3.7908E+00   6.6832E-04  0.0057
   3.7908E+00   3.8831E+00   6.6507E-04  0.0057
   3.8831E+00   3.9776E+00   6.4495E-04  0.0057
   3.9776E+00   4.0743E+00   6.4142E-04  0.0056
   4.0743E+00   4.1735E+00   6.3044E-04  0.0056
   4.1735E+00   4.2750E+00   6.2135E-04  0.0056
   4.2750E+00   4.3790E+00   6.1559E-04  0.0055
   4.3790E+00   4.4856E+00   6.0042E-04  0.0055
   4.4856E+00   4.5947E+00   5.9558E-04  0.0055
   4.5947E+00   4.7065E+00   5.9057E-04  0.0055
   4.7065E+00   4.8210E+00   5.8836E-04  0.0054
   4.8210E+00   4.9383E+00   5.8382E-04  0.0054
   4.9383E+00   5.0585E+00   5.6539E-04  0.0054
   5.0585E+00   5.1815E+00   5.6112E-04  0.0053
   5.1815E+00   5.3076E+00   5.5409E-04  0.0053
   5.3076E+00   5.4368E+00   5.4222E-04  0.0053
   5.4368E+00   5.5690E+00   5.3926E-04  0.0053
   5.5690E+00   5.7045E+00   5.3104E-04  0.0052
   5.7045E+00   5.8433E+00   5.1445E-04  0.0053
   5.8433E+00   5.9855E+00   5.1279E-04  0.0052
   5.9855E+00   6.1311E+00   5.0735E-04  0.0052
   6.1311E+00   6.2803E+00   4.9583E-04  0.0052
   6.2803E+00   6.4331E+00   4.9291E-04  0.0051
   6.4331E+00   6.5896E+00   4.8102E-04  0.0051
   6.5896E+00   6.7500E+00   4.7857E-04  0.0051
   6.7500E+00   6.9142E+00   4.7675E-04  0.0050
   6.9142E+00   7.0824E+00   4.6559E-04  0.0050
   7.0824E+00   7.2548E+00   4.6606E-04  0.0050
   7.2548E+00   7.4313E+00   4.5566E-04  0.0050
   7.4313E+00   7.6121E+00   4.5435E-04  0.0049
   7.6121E+00   7.7973E+00   4.4271E-04  0.0049
   7.7973E+00   7.9870E+00   4.3469E-04  0.0049
   7.9870E+00   8.1813E+00   4.2771E-04  0.0049
   8.1813E+00   8.3804E+00   4.2514E-04  0.0048
   8.3804E+00   8.5843E+00   4.1524E-04  0.0048
   8.5843E+00   8.7931E+00   4.0754E-04  0.0048
   8.7931E+00   9.0071E+00   3.9828E-04  0.0048
   9.0071E+00   9.2262E+00   3.9387E-04  0.0048
   9.2262E+00   9.4507E+00   3.8896E-04  0.0048
   9.4507E+00   9.6807E+00   3.7668E-04  0.0048
   9.6807E+00   9.9162E+00   3.7269E-04  0.0048
   9.9162E+00   1.0157E+01   3.6828E-04  0.0047
   1.0157E+01   1.0405E+01   3.5996E-04  0.0047
   1.0405E+01   1.0658E+01   3.5872E-04  0.0047
   1.0658E+01   1.0917E+01   3.5936E-04  0.0046
   1.0917E+01   1.1183E+01   3.4900E-04  0.0046
   1.1183E+01   1.1455E+01   3.4705E-04  0.0046
   1.1455E+01   1.1733E+01   3.3741E-04  0.0046
   1.1733E+01   1.2019E+01   3.2951E-04  0.0046
   1.2019E+01   1.2311E+01   3.1710E-04  0.0046
   1.2311E+01   1.2611E+01   3.1094E-04  0.0046
   1.2611E+01   1.2918E+01   3.0098E-04  0.0046
   1.2918E+01   1.3232E+01   2.9516E-04  0.0046
   1.3232E+01   1.3554E+01   2.8988E-04  0.0046
   1.3554E+01   1.3884E+01   2.7950E-04  0.0047
   1.3884E+01   1.4222E+01   2.7302E-04  0.0047
   1.4222E+01   1.4568E+01   2.6222E-04  0.0047
   1.4568E+01   1.4922E+01   2.5483E-04  0.0047
   1.4922E+01   1.5285E+01   2.4711E-04  0.0047
   1.5285E+01   1.5657E+01   2.3585E-04  0.0048
   1.5657E+01   1.6038E+01   2.3031E-04  0.0048
   1.6038E+01   1.6428E+01   2.2038E-04  0.0048
   1.6428E+01   1.6828E+01   2.1504E-04  0.0048
   1.6828E+01   1.7237E+01   2.0719E-04  0.0049
   1.7237E+01   1.7657E+01   2.0168E-04  0.0049
   1.7657E+01   1.8086E+01   1.9249E-04  0.0049
   1.8086E+01   1.8526E+01   1.8596E-04  0.0049
   1.8526E+01   1.8977E+01   1.8131E-04  0.0049
   1.8977E+01   1.9439E+01   1.7681E-04  0.0050
   1.9439E+01   1.9912E+01   1.7245E-04  0.0050
   1.9912E+01   2.0396E+01   1.6794E-04  0.0050
   2.0396E+01   2.0893E+01   1.6240E-04  0.0050
   2.0893E+01   2.1401E+01   1.5393E-04  0.0051
   2.1401E+01   2.1922E+01   1.4769E-04  0.0051
   2.1922E+01   2.2455E+01   1.4063E-04  0.0052
   2.2455E+01   2.3001E+01   1.3456E-04  0.0052
   2.3001E+01   2.3561E+01   1.2857E-04  0.0053
   2.3561E+01   2.4134E+01   1.2195E-04  0.0053
   2.4134E+01   2.4721E+01   1.1645E-04  0.0054
   2.4721E+01   2.5323E+01   1.1038E-04  0.0055
   2.5323E+01   2.5939E+01   1.0440E-04  0.0056
   2.5939E+01   2.6570E+01   9.9804E-05  0.0056
   2.6570E+01   2.7217E+01   9.2957E-05  0.0058
   2.7217E+01   2.7879E+01   8.9157E-05  0.0058
   2.7879E+01   2.8557E+01   8.3805E-05  0.0059
   2.8557E+01   2.9252E+01   7.8751E-05  0.0060
   2.9252E+01   2.9964E+01   7.2882E-05  0.0062
   2.9964E+01   3.0693E+01   6.8419E-05  0.0063
   3.0693E+01   3.1440E+01   6.5695E-05  0.0064
   3.1440E+01   3.2205E+01   6.1544E-05  0.0065
   3.2205E+01   3.2988E+01   5.7137E-05  0.0067
   3.2988E+01   3.3791E+01   5.3021E-05  0.0069
   3.3791E+01   3.4613E+01   4.9635E-05  0.0070
   3.4613E+01   3.5455E+01   4.6649E-05  0.0071
   3.5455E+01   3.6318E+01   4.3098E-05  0.0073
   3.6318E+01   3.7201E+01   3.9437E-05  0.0076
   3.7201E+01   3.8106E+01   3.6708E-05  0.0078
   3.8106E+01   3.9034E+01   3.3977E-05  0.0080
   3.9034E+01   3.9983E+01   3.1694E-05  0.0082
   3.9983E+01   4.0956E+01   2.8926E-05  0.0084
   4.0956E+01   4.1953E+01   2.6539E-05  0.0087
   4.1953E+01   4.2973E+01   2.4860E-05  0.0089
   4.2973E+01   4.4019E+01   2.2489E-05  0.0092
   4.4019E+01   4.5090E+01   2.0481E-05  0.0095
   4.5090E+01   4.6187E+01   1.8507E-05  0.0099
   4.6187E+01   4.7311E+01   1.6989E-05  0.0102
   4.7311E+01   4.8462E+01   1.5469E-05  0.0106
   4.8462E+01   4.9641E+01   1.4246E-05  0.0109
   4.9641E+01   5.0849E+01   1.2176E-05  0.0117
   5.0849E+01   5.2086E+01   1.1061E-05  0.0121
   5.2086E+01   5.3353E+01   9.9661E-06  0.0126
   5.3353E+01   5.4651E+01   8.8527E-06  0.0132
   5.4651E+01   5.5981E+01   7.9175E-06  0.0138
   5.5981E+01   5.7343E+01   6.8881E-06  0.0146
   5.7343E+01   5.8738E+01   6.1124E-06  0.0153
   5.8738E+01   6.0168E+01   5.1653E-06  0.0165
   6.0168E+01   6.1632E+01   4.5521E-06  0.0173
   6.1632E+01   6.3131E+01   4.0226E-06  0.0182
   6.3131E+01   6.4667E+01   3.2825E-06  0.0199
   6.4667E+01   6.6240E+01   2.8740E-06  0.0210
   6.6240E+01   6.7852E+01   2.4037E-06  0.0227
   6.7852E+01   6.9503E+01   1.9735E-06  0.0248
   6.9503E+01   7.1194E+01   1.6274E-06  0.0270
   7.1194E+01   7.2926E+01   1.3959E-06  0.0288
   7.2926E+01   7.4701E+01   1.1339E-06  0.0315
   7.4701E+01   7.6518E+01   9.6285E-07  0.0338
   7.6518E+01   7.8380E+01   7.3587E-07  0.0382
   7.8380E+01   8.0287E+01   5.6737E-07  0.0430
   8.0287E+01   8.2240E+01   4.7506E-07  0.0464
   8.2240E+01   8.4241E+01   3.7282E-07  0.0518
   8.4241E+01   8.6291E+01   3.0639E-07  0.0564
   8.6291E+01   8.8391E+01   2.2767E-07  0.0647
   8.8391E+01   9.0541E+01   1.6646E-07  0.0747
   9.0541E+01   9.2744E+01   1.2983E-07  0.0836
   9.2744E+01   9.5001E+01   1.0193E-07  0.0933
   9.5001E+01   9.7312E+01   5.8838E-08  0.1213
   9.7312E+01   9.9680E+01   4.4770E-08  0.1374
   9.9680E+01   1.0211E+02   3.2161E-08  0.1601
   1.0211E+02   1.0459E+02   2.0126E-08  0.2000
   1.0459E+02   1.0713E+02   1.6505E-08  0.2182
   1.0713E+02   1.0974E+02   6.9054E-09  0.3333
   1.0974E+02   1.1241E+02   5.2433E-09  0.3780
   1.1241E+02   1.1515E+02   7.3125E-10  1.0000
   1.1515E+02   1.1795E+02   2.8555E-09  0.5000
   1.1795E+02   1.2082E+02   1.3938E-09  0.7071
   1.2082E+02   1.2376E+02   1.3607E-09  0.7071
   1.2376E+02   1.2677E+02   6.6421E-10  1.0000
   1.2677E+02   1.2985E+02   0.0000E+00  0.0000
   1.2985E+02   1.3301E+02   0.0000E+00  0.0000
   1.3301E+02   1.3625E+02   0.0000E+00  0.0000
   1.3625E+02   1.3956E+02   0.0000E+00  0.0000
   1.3956E+02   1.4296E+02   0.0000E+00  0.0000
   1.4296E+02   1.4644E+02   0.0000E+00  0.0000
   1.4644E+02   1.5000E+02   0.0000E+00  0.0000

#   sum over                 7.9859E-05
'no. =    1   reg = 113 - 213'
msuc: {\huge [t-cross] in region mesh}
msdr: {\it plotted by \ANGEL \version}
msdl: {\it calculated by \PHITS  3.26}
wt: s(0.7)
\vspace{-3}
  region surface crossing
  area  &=&   1.0000E+00 [cm^2]
e:
 
# Information for Restart Calculation
# This calculation was newly started
# istdev =  2 # 1:Batch variance, 2:History variance
# resc2  = 5.00000000000000000E+08 # Total source weight or Total source weight / maxcas
# resc3  = 5.00000000000000000E+08 # Total history number or Total batch number
# maxcas =   500000000 # History / Batch, only used for istdev=1
# bitrseed = 1101101111010011011000101101110001100110110010110001010100010001 # bit data of rseed
