[ T-Cross ]
    title = [t-cross] in region mesh
     mesh =  reg            # mesh type is region-wise
      reg =    1            # number of crossing regions
      non     r-from    r-to       area
      1       109       209        1.000000    
   e-type =    3            # e-mesh is log given by emin, emax and ne
     emin =  1.0000000E-02  # minimum value of e-mesh points
     emax =   150.0000      # maximum value of e-mesh points
#    edel =  2.4039514E-02  # mesh width of e-mesh points
       ne =    400          # number of e-mesh points
#    data = ( e(i), i = 1, ne + 1 )
#           1.00000E-02  1.02433E-02  1.04925E-02  1.07478E-02  1.10093E-02
#           1.12772E-02  1.15516E-02  1.18326E-02  1.21205E-02  1.24154E-02
#           1.27175E-02  1.30269E-02  1.33439E-02  1.36686E-02  1.40011E-02
#           1.43418E-02  1.46907E-02  1.50482E-02  1.54143E-02  1.57894E-02
#           1.61735E-02  1.65670E-02  1.69701E-02  1.73830E-02  1.78060E-02
#           1.82392E-02  1.86830E-02  1.91375E-02  1.96032E-02  2.00801E-02
#           2.05687E-02  2.10692E-02  2.15818E-02  2.21069E-02  2.26448E-02
#           2.31957E-02  2.37601E-02  2.43382E-02  2.49304E-02  2.55369E-02
#           2.61583E-02  2.67947E-02  2.74467E-02  2.81145E-02  2.87985E-02
#           2.94992E-02  3.02169E-02  3.09521E-02  3.17052E-02  3.24766E-02
#           3.32668E-02  3.40762E-02  3.49053E-02  3.57546E-02  3.66246E-02
#           3.75157E-02  3.84284E-02  3.93634E-02  4.03212E-02  4.13022E-02
#           4.23071E-02  4.33365E-02  4.43909E-02  4.54710E-02  4.65773E-02
#           4.77106E-02  4.88714E-02  5.00605E-02  5.12785E-02  5.25262E-02
#           5.38042E-02  5.51133E-02  5.64542E-02  5.78278E-02  5.92348E-02
#           6.06760E-02  6.21523E-02  6.36645E-02  6.52135E-02  6.68002E-02
#           6.84255E-02  7.00904E-02  7.17957E-02  7.35426E-02  7.53319E-02
#           7.71648E-02  7.90423E-02  8.09655E-02  8.29354E-02  8.49533E-02
#           8.70203E-02  8.91376E-02  9.13064E-02  9.35279E-02  9.58035E-02
#           9.81345E-02  1.00522E-01  1.02968E-01  1.05473E-01  1.08040E-01
#           1.10668E-01  1.13361E-01  1.16119E-01  1.18944E-01  1.21838E-01
#           1.24803E-01  1.27839E-01  1.30950E-01  1.34136E-01  1.37399E-01
#           1.40742E-01  1.44167E-01  1.47675E-01  1.51268E-01  1.54948E-01
#           1.58718E-01  1.62580E-01  1.66535E-01  1.70587E-01  1.74738E-01
#           1.78989E-01  1.83344E-01  1.87805E-01  1.92375E-01  1.97055E-01
#           2.01850E-01  2.06761E-01  2.11792E-01  2.16945E-01  2.22223E-01
#           2.27630E-01  2.33169E-01  2.38842E-01  2.44653E-01  2.50605E-01
#           2.56703E-01  2.62949E-01  2.69346E-01  2.75900E-01  2.82613E-01
#           2.89489E-01  2.96532E-01  3.03747E-01  3.11138E-01  3.18708E-01
#           3.26462E-01  3.34405E-01  3.42542E-01  3.50876E-01  3.59413E-01
#           3.68158E-01  3.77116E-01  3.86291E-01  3.95690E-01  4.05317E-01
#           4.15179E-01  4.25281E-01  4.35628E-01  4.46227E-01  4.57084E-01
#           4.68205E-01  4.79597E-01  4.91266E-01  5.03219E-01  5.15463E-01
#           5.28005E-01  5.40851E-01  5.54011E-01  5.67490E-01  5.81298E-01
#           5.95441E-01  6.09929E-01  6.24769E-01  6.39970E-01  6.55541E-01
#           6.71491E-01  6.87828E-01  7.04564E-01  7.21706E-01  7.39266E-01
#           7.57253E-01  7.75678E-01  7.94551E-01  8.13883E-01  8.33685E-01
#           8.53969E-01  8.74747E-01  8.96030E-01  9.17831E-01  9.40163E-01
#           9.63038E-01  9.86469E-01  1.01047E+00  1.03506E+00  1.06024E+00
#           1.08604E+00  1.11246E+00  1.13953E+00  1.16725E+00  1.19565E+00
#           1.22474E+00  1.25454E+00  1.28507E+00  1.31633E+00  1.34836E+00
#           1.38117E+00  1.41477E+00  1.44920E+00  1.48446E+00  1.52057E+00
#           1.55757E+00  1.59547E+00  1.63429E+00  1.67405E+00  1.71478E+00
#           1.75650E+00  1.79924E+00  1.84302E+00  1.88786E+00  1.93379E+00
#           1.98084E+00  2.02904E+00  2.07841E+00  2.12898E+00  2.18078E+00
#           2.23384E+00  2.28819E+00  2.34386E+00  2.40089E+00  2.45930E+00
#           2.51914E+00  2.58043E+00  2.64322E+00  2.70753E+00  2.77341E+00
#           2.84088E+00  2.91001E+00  2.98081E+00  3.05333E+00  3.12762E+00
#           3.20372E+00  3.28167E+00  3.36152E+00  3.44330E+00  3.52708E+00
#           3.61290E+00  3.70080E+00  3.79085E+00  3.88308E+00  3.97756E+00
#           4.07434E+00  4.17347E+00  4.27501E+00  4.37903E+00  4.48557E+00
#           4.59471E+00  4.70650E+00  4.82102E+00  4.93832E+00  5.05847E+00
#           5.18155E+00  5.30762E+00  5.43676E+00  5.56904E+00  5.70453E+00
#           5.84333E+00  5.98550E+00  6.13114E+00  6.28031E+00  6.43312E+00
#           6.58964E+00  6.74997E+00  6.91420E+00  7.08243E+00  7.25475E+00
#           7.43126E+00  7.61207E+00  7.79728E+00  7.98700E+00  8.18133E+00
#           8.38038E+00  8.58428E+00  8.79315E+00  9.00709E+00  9.22624E+00
#           9.45072E+00  9.68067E+00  9.91620E+00  1.01575E+01  1.04046E+01
#           1.06578E+01  1.09171E+01  1.11827E+01  1.14548E+01  1.17335E+01
#           1.20190E+01  1.23114E+01  1.26109E+01  1.29178E+01  1.32321E+01
#           1.35540E+01  1.38838E+01  1.42216E+01  1.45676E+01  1.49221E+01
#           1.52851E+01  1.56570E+01  1.60380E+01  1.64282E+01  1.68279E+01
#           1.72374E+01  1.76568E+01  1.80864E+01  1.85264E+01  1.89772E+01
#           1.94389E+01  1.99119E+01  2.03963E+01  2.08926E+01  2.14009E+01
#           2.19216E+01  2.24550E+01  2.30014E+01  2.35610E+01  2.41343E+01
#           2.47215E+01  2.53230E+01  2.59391E+01  2.65702E+01  2.72167E+01
#           2.78789E+01  2.85572E+01  2.92520E+01  2.99637E+01  3.06928E+01
#           3.14396E+01  3.22045E+01  3.29881E+01  3.37907E+01  3.46128E+01
#           3.54550E+01  3.63177E+01  3.72013E+01  3.81064E+01  3.90336E+01
#           3.99833E+01  4.09561E+01  4.19526E+01  4.29734E+01  4.40189E+01
#           4.50900E+01  4.61870E+01  4.73108E+01  4.84619E+01  4.96410E+01
#           5.08488E+01  5.20860E+01  5.33533E+01  5.46514E+01  5.59812E+01
#           5.73432E+01  5.87384E+01  6.01676E+01  6.16315E+01  6.31311E+01
#           6.46671E+01  6.62405E+01  6.78522E+01  6.95031E+01  7.11941E+01
#           7.29263E+01  7.47007E+01  7.65182E+01  7.83800E+01  8.02870E+01
#           8.22405E+01  8.42414E+01  8.62911E+01  8.83906E+01  9.05412E+01
#           9.27442E+01  9.50007E+01  9.73122E+01  9.96799E+01  1.02105E+02
#           1.04589E+02  1.07134E+02  1.09741E+02  1.12411E+02  1.15146E+02
#           1.17948E+02  1.20817E+02  1.23757E+02  1.26768E+02  1.29852E+02
#           1.33012E+02  1.36248E+02  1.39563E+02  1.42959E+02  1.46437E+02
#           1.50000E+02
     unit =    2            # unit is [1/cm^2/(MeV/n)/source]
     axis =  eng            # axis of output
     file = detector-10.out  # file name of output for the above axis
   output = f-curr          # surface crossing forward current spectrum
     part =  neutron  
# kf/name :  2112     
#    used :        main (  %)        temp (  %)       total (  %)
#  memory :         414 (  0)           0 (  0)         414 (  0)

#------------------------------------------------------------------------------
#newpage:
#   no. =    1   reg = 109 - 209

x: Energy [MeV/n]
y:  F-Curr [1/cm^2/(MeV/n)/source]         
p: xlog ylog afac(0.8) form(0.9)
h: n            x            y(neutron ),hh0l   n 
#  e-lower      e-upper      neutron     r.err 
   1.0000E-02   1.0243E-02   5.9155E-03  0.0372
   1.0243E-02   1.0493E-02   5.7728E-03  0.0372
   1.0493E-02   1.0748E-02   5.6660E-03  0.0371
   1.0748E-02   1.1009E-02   5.4025E-03  0.0375
   1.1009E-02   1.1277E-02   5.8033E-03  0.0358
   1.1277E-02   1.1552E-02   5.1730E-03  0.0374
   1.1552E-02   1.1833E-02   5.4979E-03  0.0359
   1.1833E-02   1.2121E-02   5.2251E-03  0.0364
   1.2121E-02   1.2415E-02   4.9390E-03  0.0370
   1.2415E-02   1.2718E-02   4.8572E-03  0.0368
   1.2718E-02   1.3027E-02   4.6595E-03  0.0371
   1.3027E-02   1.3344E-02   4.6799E-03  0.0367
   1.3344E-02   1.3669E-02   4.3225E-03  0.0376
   1.3669E-02   1.4001E-02   4.7484E-03  0.0355
   1.4001E-02   1.4342E-02   4.4442E-03  0.0363
   1.4342E-02   1.4691E-02   4.2188E-03  0.0368
   1.4691E-02   1.5048E-02   3.9505E-03  0.0375
   1.5048E-02   1.5414E-02   4.0601E-03  0.0366
   1.5414E-02   1.5789E-02   4.0909E-03  0.0360
   1.5789E-02   1.6174E-02   3.6793E-03  0.0375
   1.6174E-02   1.6567E-02   3.8010E-03  0.0365
   1.6567E-02   1.6970E-02   3.6088E-03  0.0370
   1.6970E-02   1.7383E-02   3.5408E-03  0.0369
   1.7383E-02   1.7806E-02   3.5321E-03  0.0365
   1.7806E-02   1.8239E-02   3.4580E-03  0.0364
   1.8239E-02   1.8683E-02   3.4576E-03  0.0360
   1.8683E-02   1.9138E-02   3.3705E-03  0.0360
   1.9138E-02   1.9603E-02   3.2921E-03  0.0360
   1.9603E-02   2.0080E-02   2.9971E-03  0.0373
   2.0080E-02   2.0569E-02   3.0866E-03  0.0363
   2.0569E-02   2.1069E-02   2.9608E-03  0.0366
   2.1069E-02   2.1582E-02   2.8930E-03  0.0366
   2.1582E-02   2.2107E-02   2.6914E-03  0.0375
   2.2107E-02   2.2645E-02   2.7678E-03  0.0366
   2.2645E-02   2.3196E-02   2.8383E-03  0.0356
   2.3196E-02   2.3760E-02   2.8352E-03  0.0352
   2.3760E-02   2.4338E-02   2.6405E-03  0.0361
   2.4338E-02   2.4930E-02   2.5378E-03  0.0363
   2.4930E-02   2.5537E-02   2.4853E-03  0.0363
   2.5537E-02   2.6158E-02   2.4069E-03  0.0364
   2.6158E-02   2.6795E-02   2.3427E-03  0.0365
   2.6795E-02   2.7447E-02   2.3270E-03  0.0362
   2.7447E-02   2.8114E-02   2.1185E-03  0.0375
   2.8114E-02   2.8799E-02   2.2095E-03  0.0363
   2.8799E-02   2.9499E-02   2.1175E-03  0.0366
   2.9499E-02   3.0217E-02   2.0016E-03  0.0372
   3.0217E-02   3.0952E-02   2.0058E-03  0.0367
   3.0952E-02   3.1705E-02   1.9743E-03  0.0365
   3.1705E-02   3.2477E-02   1.9939E-03  0.0359
   3.2477E-02   3.3267E-02   1.9154E-03  0.0362
   3.3267E-02   3.4076E-02   1.8164E-03  0.0368
   3.4076E-02   3.4905E-02   1.8517E-03  0.0360
   3.4905E-02   3.5755E-02   1.7843E-03  0.0362
   3.5755E-02   3.6625E-02   1.7493E-03  0.0361
   3.6625E-02   3.7516E-02   1.7000E-03  0.0362
   3.7516E-02   3.8428E-02   1.6169E-03  0.0367
   3.8428E-02   3.9363E-02   1.5805E-03  0.0367
   3.9363E-02   4.0321E-02   1.5935E-03  0.0361
   4.0321E-02   4.1302E-02   1.5817E-03  0.0358
   4.1302E-02   4.2307E-02   1.5437E-03  0.0357
   4.2307E-02   4.3337E-02   1.4781E-03  0.0362
   4.3337E-02   4.4391E-02   1.4647E-03  0.0359
   4.4391E-02   4.5471E-02   1.3729E-03  0.0366
   4.5471E-02   4.6577E-02   1.5206E-03  0.0344
   4.6577E-02   4.7711E-02   1.4064E-03  0.0353
   4.7711E-02   4.8871E-02   1.3160E-03  0.0361
   4.8871E-02   5.0061E-02   1.1983E-03  0.0374
   5.0061E-02   5.1279E-02   1.1889E-03  0.0370
   5.1279E-02   5.2526E-02   1.2006E-03  0.0364
   5.2526E-02   5.3804E-02   1.2094E-03  0.0359
   5.3804E-02   5.5113E-02   1.0977E-03  0.0372
   5.5113E-02   5.6454E-02   1.1953E-03  0.0352
   5.6454E-02   5.7828E-02   1.1787E-03  0.0351
   5.7828E-02   5.9235E-02   1.1579E-03  0.0350
   5.9235E-02   6.0676E-02   1.0527E-03  0.0362
   6.0676E-02   6.2152E-02   1.0161E-03  0.0364
   6.2152E-02   6.3665E-02   1.1087E-03  0.0344
   6.3665E-02   6.5214E-02   1.0196E-03  0.0354
   6.5214E-02   6.6800E-02   1.0154E-03  0.0351
   6.6800E-02   6.8426E-02   9.6052E-04  0.0357
   6.8426E-02   7.0090E-02   1.0004E-03  0.0345
   7.0090E-02   7.1796E-02   9.2751E-04  0.0354
   7.1796E-02   7.3543E-02   9.2015E-04  0.0351
   7.3543E-02   7.5332E-02   8.8174E-04  0.0355
   7.5332E-02   7.7165E-02   9.1461E-04  0.0345
   7.7165E-02   7.9042E-02   9.1131E-04  0.0341
   7.9042E-02   8.0965E-02   8.4435E-04  0.0349
   8.0965E-02   8.2935E-02   8.5433E-04  0.0344
   8.2935E-02   8.4953E-02   7.7417E-04  0.0357
   8.4953E-02   8.7020E-02   7.9037E-04  0.0349
   8.7020E-02   8.9138E-02   8.1180E-04  0.0340
   8.9138E-02   9.1306E-02   7.8037E-04  0.0342
   9.1306E-02   9.3528E-02   7.2515E-04  0.0351
   9.3528E-02   9.5804E-02   7.4584E-04  0.0342
   9.5804E-02   9.8134E-02   7.9529E-04  0.0327
   9.8134E-02   1.0052E-01   6.5524E-04  0.0356
   1.0052E-01   1.0297E-01   6.7675E-04  0.0346
   1.0297E-01   1.0547E-01   6.5290E-04  0.0349
   1.0547E-01   1.0804E-01   6.6039E-04  0.0342
   1.0804E-01   1.1067E-01   6.4914E-04  0.0341
   1.1067E-01   1.1336E-01   6.1403E-04  0.0347
   1.1336E-01   1.1612E-01   6.5131E-04  0.0333
   1.1612E-01   1.1894E-01   5.9763E-04  0.0343
   1.1894E-01   1.2184E-01   5.7407E-04  0.0346
   1.2184E-01   1.2480E-01   6.0204E-04  0.0334
   1.2480E-01   1.2784E-01   5.7114E-04  0.0339
   1.2784E-01   1.3095E-01   5.5291E-04  0.0340
   1.3095E-01   1.3414E-01   5.5432E-04  0.0335
   1.3414E-01   1.3740E-01   5.3075E-04  0.0339
   1.3740E-01   1.4074E-01   5.1427E-04  0.0340
   1.4074E-01   1.4417E-01   5.0614E-04  0.0339
   1.4417E-01   1.4767E-01   5.1022E-04  0.0333
   1.4767E-01   1.5127E-01   4.6944E-04  0.0343
   1.5127E-01   1.5495E-01   4.9800E-04  0.0329
   1.5495E-01   1.5872E-01   4.7164E-04  0.0334
   1.5872E-01   1.6258E-01   4.6081E-04  0.0334
   1.6258E-01   1.6654E-01   4.7335E-04  0.0326
   1.6654E-01   1.7059E-01   4.6163E-04  0.0326
   1.7059E-01   1.7474E-01   4.3284E-04  0.0333
   1.7474E-01   1.7899E-01   4.2077E-04  0.0333
   1.7899E-01   1.8334E-01   4.3247E-04  0.0325
   1.8334E-01   1.8781E-01   4.2141E-04  0.0325
   1.8781E-01   1.9237E-01   4.0473E-04  0.0328
   1.9237E-01   1.9706E-01   4.2424E-04  0.0316
   1.9706E-01   2.0185E-01   4.1005E-04  0.0318
   2.0185E-01   2.0676E-01   4.1206E-04  0.0313
   2.0676E-01   2.1179E-01   4.3013E-04  0.0303
   2.1179E-01   2.1694E-01   4.2547E-04  0.0301
   2.1694E-01   2.2222E-01   4.7421E-04  0.0282
   2.2222E-01   2.2763E-01   4.9734E-04  0.0272
   2.2763E-01   2.3317E-01   4.8333E-04  0.0273
   2.3317E-01   2.3884E-01   5.2324E-04  0.0259
   2.3884E-01   2.4465E-01   5.2921E-04  0.0254
   2.4465E-01   2.5061E-01   5.5782E-04  0.0245
   2.5061E-01   2.5670E-01   5.6906E-04  0.0239
   2.5670E-01   2.6295E-01   5.7935E-04  0.0234
   2.6295E-01   2.6935E-01   6.2005E-04  0.0224
   2.6935E-01   2.7590E-01   6.5821E-04  0.0215
   2.7590E-01   2.8261E-01   6.4210E-04  0.0215
   2.8261E-01   2.8949E-01   6.5774E-04  0.0210
   2.8949E-01   2.9653E-01   6.8443E-04  0.0203
   2.9653E-01   3.0375E-01   7.2575E-04  0.0195
   3.0375E-01   3.1114E-01   7.2223E-04  0.0193
   3.1114E-01   3.1871E-01   7.4534E-04  0.0188
   3.1871E-01   3.2646E-01   7.8255E-04  0.0181
   3.2646E-01   3.3441E-01   8.2158E-04  0.0174
   3.3441E-01   3.4254E-01   8.1813E-04  0.0173
   3.4254E-01   3.5088E-01   8.3870E-04  0.0169
   3.5088E-01   3.5941E-01   8.5815E-04  0.0165
   3.5941E-01   3.6816E-01   9.1607E-04  0.0158
   3.6816E-01   3.7712E-01   9.0250E-04  0.0157
   3.7712E-01   3.8629E-01   9.4182E-04  0.0152
   3.8629E-01   3.9569E-01   9.7310E-04  0.0147
   3.9569E-01   4.0532E-01   1.0052E-03  0.0143
   4.0532E-01   4.1518E-01   9.8126E-04  0.0143
   4.1518E-01   4.2528E-01   1.0205E-03  0.0139
   4.2528E-01   4.3563E-01   1.0597E-03  0.0135
   4.3563E-01   4.4623E-01   1.1020E-03  0.0130
   4.4623E-01   4.5708E-01   1.1291E-03  0.0127
   4.5708E-01   4.6821E-01   1.1356E-03  0.0126
   4.6821E-01   4.7960E-01   1.1523E-03  0.0123
   4.7960E-01   4.9127E-01   1.1839E-03  0.0120
   4.9127E-01   5.0322E-01   1.2258E-03  0.0116
   5.0322E-01   5.1546E-01   1.2453E-03  0.0114
   5.1546E-01   5.2800E-01   1.2805E-03  0.0111
   5.2800E-01   5.4085E-01   1.2842E-03  0.0110
   5.4085E-01   5.5401E-01   1.3038E-03  0.0108
   5.5401E-01   5.6749E-01   1.3305E-03  0.0105
   5.6749E-01   5.8130E-01   1.3753E-03  0.0102
   5.8130E-01   5.9544E-01   1.3836E-03  0.0101
   5.9544E-01   6.0993E-01   1.4061E-03  0.0099
   6.0993E-01   6.2477E-01   1.4440E-03  0.0096
   6.2477E-01   6.3997E-01   1.4373E-03  0.0095
   6.3997E-01   6.5554E-01   1.4583E-03  0.0094
   6.5554E-01   6.7149E-01   1.4913E-03  0.0091
   6.7149E-01   6.8783E-01   1.5168E-03  0.0090
   6.8783E-01   7.0456E-01   1.5419E-03  0.0088
   7.0456E-01   7.2171E-01   1.5440E-03  0.0087
   7.2171E-01   7.3927E-01   1.5534E-03  0.0085
   7.3927E-01   7.5725E-01   1.5894E-03  0.0083
   7.5725E-01   7.7568E-01   1.5863E-03  0.0082
   7.7568E-01   7.9455E-01   1.6307E-03  0.0080
   7.9455E-01   8.1388E-01   1.6348E-03  0.0079
   8.1388E-01   8.3368E-01   1.6573E-03  0.0078
   8.3368E-01   8.5397E-01   1.6714E-03  0.0077
   8.5397E-01   8.7475E-01   1.6857E-03  0.0075
   8.7475E-01   8.9603E-01   1.6794E-03  0.0075
   8.9603E-01   9.1783E-01   1.7294E-03  0.0073
   9.1783E-01   9.4016E-01   1.7323E-03  0.0072
   9.4016E-01   9.6304E-01   1.7539E-03  0.0070
   9.6304E-01   9.8647E-01   1.7529E-03  0.0070
   9.8647E-01   1.0105E+00   1.7831E-03  0.0068
   1.0105E+00   1.0351E+00   1.7446E-03  0.0068
   1.0351E+00   1.0602E+00   1.7589E-03  0.0067
   1.0602E+00   1.0860E+00   1.7448E-03  0.0066
   1.0860E+00   1.1125E+00   1.7603E-03  0.0065
   1.1125E+00   1.1395E+00   1.7561E-03  0.0065
   1.1395E+00   1.1673E+00   1.7496E-03  0.0064
   1.1673E+00   1.1957E+00   1.7410E-03  0.0063
   1.1957E+00   1.2247E+00   1.7665E-03  0.0062
   1.2247E+00   1.2545E+00   1.7490E-03  0.0062
   1.2545E+00   1.2851E+00   1.7474E-03  0.0061
   1.2851E+00   1.3163E+00   1.7261E-03  0.0061
   1.3163E+00   1.3484E+00   1.7182E-03  0.0060
   1.3484E+00   1.3812E+00   1.7075E-03  0.0060
   1.3812E+00   1.4148E+00   1.7240E-03  0.0059
   1.4148E+00   1.4492E+00   1.7066E-03  0.0058
   1.4492E+00   1.4845E+00   1.6937E-03  0.0058
   1.4845E+00   1.5206E+00   1.7097E-03  0.0057
   1.5206E+00   1.5576E+00   1.6620E-03  0.0057
   1.5576E+00   1.5955E+00   1.6565E-03  0.0056
   1.5955E+00   1.6343E+00   1.6228E-03  0.0056
   1.6343E+00   1.6741E+00   1.6157E-03  0.0056
   1.6741E+00   1.7148E+00   1.5758E-03  0.0056
   1.7148E+00   1.7565E+00   1.5752E-03  0.0055
   1.7565E+00   1.7992E+00   1.5642E-03  0.0054
   1.7992E+00   1.8430E+00   1.5398E-03  0.0054
   1.8430E+00   1.8879E+00   1.5322E-03  0.0054
   1.8879E+00   1.9338E+00   1.5113E-03  0.0053
   1.9338E+00   1.9808E+00   1.4983E-03  0.0053
   1.9808E+00   2.0290E+00   1.4489E-03  0.0053
   2.0290E+00   2.0784E+00   1.4387E-03  0.0053
   2.0784E+00   2.1290E+00   1.4329E-03  0.0052
   2.1290E+00   2.1808E+00   1.4139E-03  0.0052
   2.1808E+00   2.2338E+00   1.3787E-03  0.0052
   2.2338E+00   2.2882E+00   1.3462E-03  0.0052
   2.2882E+00   2.3439E+00   1.3388E-03  0.0052
   2.3439E+00   2.4009E+00   1.3008E-03  0.0052
   2.4009E+00   2.4593E+00   1.2974E-03  0.0051
   2.4593E+00   2.5191E+00   1.2793E-03  0.0051
   2.5191E+00   2.5804E+00   1.2533E-03  0.0051
   2.5804E+00   2.6432E+00   1.2333E-03  0.0051
   2.6432E+00   2.7075E+00   1.2198E-03  0.0050
   2.7075E+00   2.7734E+00   1.1913E-03  0.0050
   2.7734E+00   2.8409E+00   1.1694E-03  0.0050
   2.8409E+00   2.9100E+00   1.1527E-03  0.0050
   2.9100E+00   2.9808E+00   1.1275E-03  0.0050
   2.9808E+00   3.0533E+00   1.1005E-03  0.0050
   3.0533E+00   3.1276E+00   1.0986E-03  0.0049
   3.1276E+00   3.2037E+00   1.0738E-03  0.0049
   3.2037E+00   3.2817E+00   1.0607E-03  0.0049
   3.2817E+00   3.3615E+00   1.0342E-03  0.0049
   3.3615E+00   3.4433E+00   1.0259E-03  0.0049
   3.4433E+00   3.5271E+00   1.0069E-03  0.0048
   3.5271E+00   3.6129E+00   9.8372E-04  0.0048
   3.6129E+00   3.7008E+00   9.7478E-04  0.0048
   3.7008E+00   3.7908E+00   9.4995E-04  0.0048
   3.7908E+00   3.8831E+00   9.3843E-04  0.0048
   3.8831E+00   3.9776E+00   9.2471E-04  0.0048
   3.9776E+00   4.0743E+00   9.1373E-04  0.0047
   4.0743E+00   4.1735E+00   9.0121E-04  0.0047
   4.1735E+00   4.2750E+00   8.9147E-04  0.0047
   4.2750E+00   4.3790E+00   8.7202E-04  0.0047
   4.3790E+00   4.4856E+00   8.6213E-04  0.0046
   4.4856E+00   4.5947E+00   8.5489E-04  0.0046
   4.5947E+00   4.7065E+00   8.5458E-04  0.0046
   4.7065E+00   4.8210E+00   8.5337E-04  0.0045
   4.8210E+00   4.9383E+00   8.5334E-04  0.0044
   4.9383E+00   5.0585E+00   8.4083E-04  0.0044
   5.0585E+00   5.1815E+00   8.3042E-04  0.0044
   5.1815E+00   5.3076E+00   8.2661E-04  0.0044
   5.3076E+00   5.4368E+00   8.2193E-04  0.0043
   5.4368E+00   5.5690E+00   8.0900E-04  0.0043
   5.5690E+00   5.7045E+00   7.9605E-04  0.0043
   5.7045E+00   5.8433E+00   7.9278E-04  0.0042
   5.8433E+00   5.9855E+00   7.7964E-04  0.0042
   5.9855E+00   6.1311E+00   7.6714E-04  0.0042
   6.1311E+00   6.2803E+00   7.5094E-04  0.0042
   6.2803E+00   6.4331E+00   7.5386E-04  0.0041
   6.4331E+00   6.5896E+00   7.4742E-04  0.0041
   6.5896E+00   6.7500E+00   7.3220E-04  0.0041
   6.7500E+00   6.9142E+00   7.2411E-04  0.0041
   6.9142E+00   7.0824E+00   7.1415E-04  0.0041
   7.0824E+00   7.2548E+00   7.2438E-04  0.0040
   7.2548E+00   7.4313E+00   7.2176E-04  0.0040
   7.4313E+00   7.6121E+00   7.1990E-04  0.0039
   7.6121E+00   7.7973E+00   7.1134E-04  0.0039
   7.7973E+00   7.9870E+00   7.0380E-04  0.0039
   7.9870E+00   8.1813E+00   6.9250E-04  0.0038
   8.1813E+00   8.3804E+00   6.8344E-04  0.0038
   8.3804E+00   8.5843E+00   6.7705E-04  0.0038
   8.5843E+00   8.7931E+00   6.6937E-04  0.0038
   8.7931E+00   9.0071E+00   6.6369E-04  0.0037
   9.0071E+00   9.2262E+00   6.5465E-04  0.0037
   9.2262E+00   9.4507E+00   6.5292E-04  0.0037
   9.4507E+00   9.6807E+00   6.4074E-04  0.0037
   9.6807E+00   9.9162E+00   6.3987E-04  0.0036
   9.9162E+00   1.0157E+01   6.3396E-04  0.0036
   1.0157E+01   1.0405E+01   6.2593E-04  0.0036
   1.0405E+01   1.0658E+01   6.2364E-04  0.0036
   1.0658E+01   1.0917E+01   6.2224E-04  0.0035
   1.0917E+01   1.1183E+01   6.1904E-04  0.0035
   1.1183E+01   1.1455E+01   6.1218E-04  0.0035
   1.1455E+01   1.1733E+01   6.0735E-04  0.0034
   1.1733E+01   1.2019E+01   5.9384E-04  0.0034
   1.2019E+01   1.2311E+01   5.8927E-04  0.0034
   1.2311E+01   1.2611E+01   5.8823E-04  0.0034
   1.2611E+01   1.2918E+01   5.8193E-04  0.0033
   1.2918E+01   1.3232E+01   5.7556E-04  0.0033
   1.3232E+01   1.3554E+01   5.6449E-04  0.0033
   1.3554E+01   1.3884E+01   5.6559E-04  0.0033
   1.3884E+01   1.4222E+01   5.5433E-04  0.0033
   1.4222E+01   1.4568E+01   5.4987E-04  0.0032
   1.4568E+01   1.4922E+01   5.4409E-04  0.0032
   1.4922E+01   1.5285E+01   5.3789E-04  0.0032
   1.5285E+01   1.5657E+01   5.3103E-04  0.0032
   1.5657E+01   1.6038E+01   5.2542E-04  0.0032
   1.6038E+01   1.6428E+01   5.1909E-04  0.0031
   1.6428E+01   1.6828E+01   5.1333E-04  0.0031
   1.6828E+01   1.7237E+01   5.0954E-04  0.0031
   1.7237E+01   1.7657E+01   5.0257E-04  0.0031
   1.7657E+01   1.8086E+01   4.9707E-04  0.0031
   1.8086E+01   1.8526E+01   4.9125E-04  0.0030
   1.8526E+01   1.8977E+01   4.8695E-04  0.0030
   1.8977E+01   1.9439E+01   4.8694E-04  0.0030
   1.9439E+01   1.9912E+01   4.9095E-04  0.0029
   1.9912E+01   2.0396E+01   4.9248E-04  0.0029
   2.0396E+01   2.0893E+01   4.8989E-04  0.0029
   2.0893E+01   2.1401E+01   4.8315E-04  0.0029
   2.1401E+01   2.1922E+01   4.7424E-04  0.0028
   2.1922E+01   2.2455E+01   4.6924E-04  0.0028
   2.2455E+01   2.3001E+01   4.6212E-04  0.0028
   2.3001E+01   2.3561E+01   4.5585E-04  0.0028
   2.3561E+01   2.4134E+01   4.4990E-04  0.0028
   2.4134E+01   2.4721E+01   4.4329E-04  0.0028
   2.4721E+01   2.5323E+01   4.3531E-04  0.0028
   2.5323E+01   2.5939E+01   4.2975E-04  0.0027
   2.5939E+01   2.6570E+01   4.2125E-04  0.0027
   2.6570E+01   2.7217E+01   4.1334E-04  0.0027
   2.7217E+01   2.7879E+01   4.0635E-04  0.0027
   2.7879E+01   2.8557E+01   3.9835E-04  0.0027
   2.8557E+01   2.9252E+01   3.9013E-04  0.0027
   2.9252E+01   2.9964E+01   3.8286E-04  0.0027
   2.9964E+01   3.0693E+01   3.7386E-04  0.0027
   3.0693E+01   3.1440E+01   3.6622E-04  0.0027
   3.1440E+01   3.2205E+01   3.5819E-04  0.0027
   3.2205E+01   3.2988E+01   3.4942E-04  0.0027
   3.2988E+01   3.3791E+01   3.4156E-04  0.0027
   3.3791E+01   3.4613E+01   3.3151E-04  0.0027
   3.4613E+01   3.5455E+01   3.2232E-04  0.0027
   3.5455E+01   3.6318E+01   3.1301E-04  0.0027
   3.6318E+01   3.7201E+01   3.0381E-04  0.0027
   3.7201E+01   3.8106E+01   2.9473E-04  0.0027
   3.8106E+01   3.9034E+01   2.8452E-04  0.0028
   3.9034E+01   3.9983E+01   2.7474E-04  0.0028
   3.9983E+01   4.0956E+01   2.6308E-04  0.0028
   4.0956E+01   4.1953E+01   2.5507E-04  0.0028
   4.1953E+01   4.2973E+01   2.4358E-04  0.0028
   4.2973E+01   4.4019E+01   2.3331E-04  0.0029
   4.4019E+01   4.5090E+01   2.2376E-04  0.0029
   4.5090E+01   4.6187E+01   2.1443E-04  0.0029
   4.6187E+01   4.7311E+01   2.0271E-04  0.0030
   4.7311E+01   4.8462E+01   1.9384E-04  0.0030
   4.8462E+01   4.9641E+01   1.8250E-04  0.0030
   4.9641E+01   5.0849E+01   1.7328E-04  0.0031
   5.0849E+01   5.2086E+01   1.6316E-04  0.0031
   5.2086E+01   5.3353E+01   1.5358E-04  0.0032
   5.3353E+01   5.4651E+01   1.4364E-04  0.0033
   5.4651E+01   5.5981E+01   1.3429E-04  0.0033
   5.5981E+01   5.7343E+01   1.2467E-04  0.0034
   5.7343E+01   5.8738E+01   1.1614E-04  0.0035
   5.8738E+01   6.0168E+01   1.0758E-04  0.0036
   6.0168E+01   6.1632E+01   9.9467E-05  0.0037
   6.1632E+01   6.3131E+01   9.0115E-05  0.0038
   6.3131E+01   6.4667E+01   8.3953E-05  0.0039
   6.4667E+01   6.6240E+01   7.6298E-05  0.0041
   6.6240E+01   6.7852E+01   6.9632E-05  0.0042
   6.7852E+01   6.9503E+01   6.3031E-05  0.0044
   6.9503E+01   7.1194E+01   5.7217E-05  0.0045
   7.1194E+01   7.2926E+01   5.1882E-05  0.0047
   7.2926E+01   7.4701E+01   4.6540E-05  0.0049
   7.4701E+01   7.6518E+01   4.2181E-05  0.0051
   7.6518E+01   7.8380E+01   3.7691E-05  0.0053
   7.8380E+01   8.0287E+01   3.3780E-05  0.0056
   8.0287E+01   8.2240E+01   3.0160E-05  0.0058
   8.2240E+01   8.4241E+01   2.7192E-05  0.0061
   8.4241E+01   8.6291E+01   2.4223E-05  0.0063
   8.6291E+01   8.8391E+01   2.1309E-05  0.0067
   8.8391E+01   9.0541E+01   1.9162E-05  0.0070
   9.0541E+01   9.2744E+01   1.6825E-05  0.0073
   9.2744E+01   9.5001E+01   1.4813E-05  0.0077
   9.5001E+01   9.7312E+01   1.3149E-05  0.0081
   9.7312E+01   9.9680E+01   1.1450E-05  0.0086
   9.9680E+01   1.0211E+02   9.8908E-06  0.0091
   1.0211E+02   1.0459E+02   8.6688E-06  0.0096
   1.0459E+02   1.0713E+02   7.3579E-06  0.0103
   1.0713E+02   1.0974E+02   6.3484E-06  0.0110
   1.0974E+02   1.1241E+02   5.4126E-06  0.0118
   1.1241E+02   1.1515E+02   4.5776E-06  0.0126
   1.1515E+02   1.1795E+02   3.8464E-06  0.0136
   1.1795E+02   1.2082E+02   3.1842E-06  0.0148
   1.2082E+02   1.2376E+02   2.4970E-06  0.0165
   1.2376E+02   1.2677E+02   1.9289E-06  0.0186
   1.2677E+02   1.2985E+02   1.5238E-06  0.0206
   1.2985E+02   1.3301E+02   1.1515E-06  0.0234
   1.3301E+02   1.3625E+02   7.9412E-07  0.0279
   1.3625E+02   1.3956E+02   5.8461E-07  0.0321
   1.3956E+02   1.4296E+02   4.0228E-07  0.0383
   1.4296E+02   1.4644E+02   2.7427E-07  0.0458
   1.4644E+02   1.5000E+02   2.0096E-07  0.0529

#   sum over                 1.8692E-04
'no. =    1   reg = 109 - 209'
msuc: {\huge [t-cross] in region mesh}
msdr: {\it plotted by \ANGEL \version}
msdl: {\it calculated by \PHITS  3.26}
wt: s(0.7)
\vspace{-3}
  region surface crossing
  area  &=&   1.0000E+00 [cm^2]
e:
 
# Information for Restart Calculation
# This calculation was newly started
# istdev =  2 # 1:Batch variance, 2:History variance
# resc2  = 5.00000000000000000E+08 # Total source weight or Total source weight / maxcas
# resc3  = 5.00000000000000000E+08 # Total history number or Total batch number
# maxcas =   500000000 # History / Batch, only used for istdev=1
# bitrseed = 1101101111010011011000101101110001100110110010110001010100010001 # bit data of rseed
