[ T-Cross ]
    title = [t-cross] in region mesh
     mesh =  reg            # mesh type is region-wise
      reg =    1            # number of crossing regions
      non     r-from    r-to       area
      1       112       212        1.000000    
   e-type =    3            # e-mesh is log given by emin, emax and ne
     emin =  1.0000000E-02  # minimum value of e-mesh points
     emax =   150.0000      # maximum value of e-mesh points
#    edel =  2.4039514E-02  # mesh width of e-mesh points
       ne =    400          # number of e-mesh points
#    data = ( e(i), i = 1, ne + 1 )
#           1.00000E-02  1.02433E-02  1.04925E-02  1.07478E-02  1.10093E-02
#           1.12772E-02  1.15516E-02  1.18326E-02  1.21205E-02  1.24154E-02
#           1.27175E-02  1.30269E-02  1.33439E-02  1.36686E-02  1.40011E-02
#           1.43418E-02  1.46907E-02  1.50482E-02  1.54143E-02  1.57894E-02
#           1.61735E-02  1.65670E-02  1.69701E-02  1.73830E-02  1.78060E-02
#           1.82392E-02  1.86830E-02  1.91375E-02  1.96032E-02  2.00801E-02
#           2.05687E-02  2.10692E-02  2.15818E-02  2.21069E-02  2.26448E-02
#           2.31957E-02  2.37601E-02  2.43382E-02  2.49304E-02  2.55369E-02
#           2.61583E-02  2.67947E-02  2.74467E-02  2.81145E-02  2.87985E-02
#           2.94992E-02  3.02169E-02  3.09521E-02  3.17052E-02  3.24766E-02
#           3.32668E-02  3.40762E-02  3.49053E-02  3.57546E-02  3.66246E-02
#           3.75157E-02  3.84284E-02  3.93634E-02  4.03212E-02  4.13022E-02
#           4.23071E-02  4.33365E-02  4.43909E-02  4.54710E-02  4.65773E-02
#           4.77106E-02  4.88714E-02  5.00605E-02  5.12785E-02  5.25262E-02
#           5.38042E-02  5.51133E-02  5.64542E-02  5.78278E-02  5.92348E-02
#           6.06760E-02  6.21523E-02  6.36645E-02  6.52135E-02  6.68002E-02
#           6.84255E-02  7.00904E-02  7.17957E-02  7.35426E-02  7.53319E-02
#           7.71648E-02  7.90423E-02  8.09655E-02  8.29354E-02  8.49533E-02
#           8.70203E-02  8.91376E-02  9.13064E-02  9.35279E-02  9.58035E-02
#           9.81345E-02  1.00522E-01  1.02968E-01  1.05473E-01  1.08040E-01
#           1.10668E-01  1.13361E-01  1.16119E-01  1.18944E-01  1.21838E-01
#           1.24803E-01  1.27839E-01  1.30950E-01  1.34136E-01  1.37399E-01
#           1.40742E-01  1.44167E-01  1.47675E-01  1.51268E-01  1.54948E-01
#           1.58718E-01  1.62580E-01  1.66535E-01  1.70587E-01  1.74738E-01
#           1.78989E-01  1.83344E-01  1.87805E-01  1.92375E-01  1.97055E-01
#           2.01850E-01  2.06761E-01  2.11792E-01  2.16945E-01  2.22223E-01
#           2.27630E-01  2.33169E-01  2.38842E-01  2.44653E-01  2.50605E-01
#           2.56703E-01  2.62949E-01  2.69346E-01  2.75900E-01  2.82613E-01
#           2.89489E-01  2.96532E-01  3.03747E-01  3.11138E-01  3.18708E-01
#           3.26462E-01  3.34405E-01  3.42542E-01  3.50876E-01  3.59413E-01
#           3.68158E-01  3.77116E-01  3.86291E-01  3.95690E-01  4.05317E-01
#           4.15179E-01  4.25281E-01  4.35628E-01  4.46227E-01  4.57084E-01
#           4.68205E-01  4.79597E-01  4.91266E-01  5.03219E-01  5.15463E-01
#           5.28005E-01  5.40851E-01  5.54011E-01  5.67490E-01  5.81298E-01
#           5.95441E-01  6.09929E-01  6.24769E-01  6.39970E-01  6.55541E-01
#           6.71491E-01  6.87828E-01  7.04564E-01  7.21706E-01  7.39266E-01
#           7.57253E-01  7.75678E-01  7.94551E-01  8.13883E-01  8.33685E-01
#           8.53969E-01  8.74747E-01  8.96030E-01  9.17831E-01  9.40163E-01
#           9.63038E-01  9.86469E-01  1.01047E+00  1.03506E+00  1.06024E+00
#           1.08604E+00  1.11246E+00  1.13953E+00  1.16725E+00  1.19565E+00
#           1.22474E+00  1.25454E+00  1.28507E+00  1.31633E+00  1.34836E+00
#           1.38117E+00  1.41477E+00  1.44920E+00  1.48446E+00  1.52057E+00
#           1.55757E+00  1.59547E+00  1.63429E+00  1.67405E+00  1.71478E+00
#           1.75650E+00  1.79924E+00  1.84302E+00  1.88786E+00  1.93379E+00
#           1.98084E+00  2.02904E+00  2.07841E+00  2.12898E+00  2.18078E+00
#           2.23384E+00  2.28819E+00  2.34386E+00  2.40089E+00  2.45930E+00
#           2.51914E+00  2.58043E+00  2.64322E+00  2.70753E+00  2.77341E+00
#           2.84088E+00  2.91001E+00  2.98081E+00  3.05333E+00  3.12762E+00
#           3.20372E+00  3.28167E+00  3.36152E+00  3.44330E+00  3.52708E+00
#           3.61290E+00  3.70080E+00  3.79085E+00  3.88308E+00  3.97756E+00
#           4.07434E+00  4.17347E+00  4.27501E+00  4.37903E+00  4.48557E+00
#           4.59471E+00  4.70650E+00  4.82102E+00  4.93832E+00  5.05847E+00
#           5.18155E+00  5.30762E+00  5.43676E+00  5.56904E+00  5.70453E+00
#           5.84333E+00  5.98550E+00  6.13114E+00  6.28031E+00  6.43312E+00
#           6.58964E+00  6.74997E+00  6.91420E+00  7.08243E+00  7.25475E+00
#           7.43126E+00  7.61207E+00  7.79728E+00  7.98700E+00  8.18133E+00
#           8.38038E+00  8.58428E+00  8.79315E+00  9.00709E+00  9.22624E+00
#           9.45072E+00  9.68067E+00  9.91620E+00  1.01575E+01  1.04046E+01
#           1.06578E+01  1.09171E+01  1.11827E+01  1.14548E+01  1.17335E+01
#           1.20190E+01  1.23114E+01  1.26109E+01  1.29178E+01  1.32321E+01
#           1.35540E+01  1.38838E+01  1.42216E+01  1.45676E+01  1.49221E+01
#           1.52851E+01  1.56570E+01  1.60380E+01  1.64282E+01  1.68279E+01
#           1.72374E+01  1.76568E+01  1.80864E+01  1.85264E+01  1.89772E+01
#           1.94389E+01  1.99119E+01  2.03963E+01  2.08926E+01  2.14009E+01
#           2.19216E+01  2.24550E+01  2.30014E+01  2.35610E+01  2.41343E+01
#           2.47215E+01  2.53230E+01  2.59391E+01  2.65702E+01  2.72167E+01
#           2.78789E+01  2.85572E+01  2.92520E+01  2.99637E+01  3.06928E+01
#           3.14396E+01  3.22045E+01  3.29881E+01  3.37907E+01  3.46128E+01
#           3.54550E+01  3.63177E+01  3.72013E+01  3.81064E+01  3.90336E+01
#           3.99833E+01  4.09561E+01  4.19526E+01  4.29734E+01  4.40189E+01
#           4.50900E+01  4.61870E+01  4.73108E+01  4.84619E+01  4.96410E+01
#           5.08488E+01  5.20860E+01  5.33533E+01  5.46514E+01  5.59812E+01
#           5.73432E+01  5.87384E+01  6.01676E+01  6.16315E+01  6.31311E+01
#           6.46671E+01  6.62405E+01  6.78522E+01  6.95031E+01  7.11941E+01
#           7.29263E+01  7.47007E+01  7.65182E+01  7.83800E+01  8.02870E+01
#           8.22405E+01  8.42414E+01  8.62911E+01  8.83906E+01  9.05412E+01
#           9.27442E+01  9.50007E+01  9.73122E+01  9.96799E+01  1.02105E+02
#           1.04589E+02  1.07134E+02  1.09741E+02  1.12411E+02  1.15146E+02
#           1.17948E+02  1.20817E+02  1.23757E+02  1.26768E+02  1.29852E+02
#           1.33012E+02  1.36248E+02  1.39563E+02  1.42959E+02  1.46437E+02
#           1.50000E+02
     unit =    2            # unit is [1/cm^2/(MeV/n)/source]
     axis =  eng            # axis of output
     file = detector-13.out  # file name of output for the above axis
   output = f-curr          # surface crossing forward current spectrum
     part =  neutron  
# kf/name :  2112     
#    used :        main (  %)        temp (  %)       total (  %)
#  memory :         414 (  0)           0 (  0)         414 (  0)

#------------------------------------------------------------------------------
#newpage:
#   no. =    1   reg = 112 - 212

x: Energy [MeV/n]
y:  F-Curr [1/cm^2/(MeV/n)/source]         
p: xlog ylog afac(0.8) form(0.9)
h: n            x            y(neutron ),hh0l   n 
#  e-lower      e-upper      neutron     r.err 
   1.0000E-02   1.0243E-02   8.4238E-03  0.0311
   1.0243E-02   1.0493E-02   8.2172E-03  0.0312
   1.0493E-02   1.0748E-02   7.5674E-03  0.0321
   1.0748E-02   1.1009E-02   7.4587E-03  0.0319
   1.1009E-02   1.1277E-02   7.5981E-03  0.0313
   1.1277E-02   1.1552E-02   7.3660E-03  0.0314
   1.1552E-02   1.1833E-02   7.5636E-03  0.0306
   1.1833E-02   1.2121E-02   6.5528E-03  0.0325
   1.2121E-02   1.2415E-02   6.9249E-03  0.0312
   1.2415E-02   1.2718E-02   6.6906E-03  0.0314
   1.2718E-02   1.3027E-02   6.1719E-03  0.0323
   1.3027E-02   1.3344E-02   6.2942E-03  0.0316
   1.3344E-02   1.3669E-02   6.4479E-03  0.0308
   1.3669E-02   1.4001E-02   5.8403E-03  0.0320
   1.4001E-02   1.4342E-02   5.8746E-03  0.0315
   1.4342E-02   1.4691E-02   5.6298E-03  0.0318
   1.4691E-02   1.5048E-02   5.6736E-03  0.0313
   1.5048E-02   1.5414E-02   5.3115E-03  0.0319
   1.5414E-02   1.5789E-02   4.9121E-03  0.0328
   1.5789E-02   1.6174E-02   4.8268E-03  0.0328
   1.6174E-02   1.6567E-02   4.8937E-03  0.0321
   1.6567E-02   1.6970E-02   4.7695E-03  0.0322
   1.6970E-02   1.7383E-02   4.6743E-03  0.0321
   1.7383E-02   1.7806E-02   4.6027E-03  0.0319
   1.7806E-02   1.8239E-02   4.2957E-03  0.0327
   1.8239E-02   1.8683E-02   4.1944E-03  0.0326
   1.8683E-02   1.9138E-02   4.1134E-03  0.0326
   1.9138E-02   1.9603E-02   3.8479E-03  0.0333
   1.9603E-02   2.0080E-02   3.7534E-03  0.0333
   2.0080E-02   2.0569E-02   3.9917E-03  0.0319
   2.0569E-02   2.1069E-02   3.7971E-03  0.0323
   2.1069E-02   2.1582E-02   3.5912E-03  0.0328
   2.1582E-02   2.2107E-02   3.7285E-03  0.0319
   2.2107E-02   2.2645E-02   3.4951E-03  0.0325
   2.2645E-02   2.3196E-02   3.4519E-03  0.0323
   2.3196E-02   2.3760E-02   3.3441E-03  0.0324
   2.3760E-02   2.4338E-02   3.0303E-03  0.0337
   2.4338E-02   2.4930E-02   3.1539E-03  0.0326
   2.4930E-02   2.5537E-02   3.1107E-03  0.0325
   2.5537E-02   2.6158E-02   2.8964E-03  0.0332
   2.6158E-02   2.6795E-02   2.8494E-03  0.0331
   2.6795E-02   2.7447E-02   2.8221E-03  0.0328
   2.7447E-02   2.8114E-02   2.5628E-03  0.0340
   2.8114E-02   2.8799E-02   2.6787E-03  0.0329
   2.8799E-02   2.9499E-02   2.5705E-03  0.0332
   2.9499E-02   3.0217E-02   2.3884E-03  0.0340
   3.0217E-02   3.0952E-02   2.4441E-03  0.0332
   3.0952E-02   3.1705E-02   2.4096E-03  0.0331
   3.1705E-02   3.2477E-02   2.3665E-03  0.0330
   3.2477E-02   3.3267E-02   2.2170E-03  0.0337
   3.3267E-02   3.4076E-02   2.2327E-03  0.0332
   3.4076E-02   3.4905E-02   2.1881E-03  0.0331
   3.4905E-02   3.5755E-02   2.1397E-03  0.0331
   3.5755E-02   3.6625E-02   2.0444E-03  0.0334
   3.6625E-02   3.7516E-02   2.0324E-03  0.0331
   3.7516E-02   3.8428E-02   1.8256E-03  0.0345
   3.8428E-02   3.9363E-02   1.9444E-03  0.0330
   3.9363E-02   4.0321E-02   1.7864E-03  0.0341
   4.0321E-02   4.1302E-02   1.7649E-03  0.0338
   4.1302E-02   4.2307E-02   1.7488E-03  0.0336
   4.2307E-02   4.3337E-02   1.7052E-03  0.0336
   4.3337E-02   4.4391E-02   1.6996E-03  0.0333
   4.4391E-02   4.5471E-02   1.6617E-03  0.0332
   4.5471E-02   4.6577E-02   1.5856E-03  0.0336
   4.6577E-02   4.7711E-02   1.5211E-03  0.0339
   4.7711E-02   4.8871E-02   1.4645E-03  0.0341
   4.8871E-02   5.0061E-02   1.5462E-03  0.0328
   5.0061E-02   5.1279E-02   1.4083E-03  0.0340
   5.1279E-02   5.2526E-02   1.4191E-03  0.0334
   5.2526E-02   5.3804E-02   1.3467E-03  0.0339
   5.3804E-02   5.5113E-02   1.3469E-03  0.0336
   5.5113E-02   5.6454E-02   1.3587E-03  0.0330
   5.6454E-02   5.7828E-02   1.2576E-03  0.0339
   5.7828E-02   5.9235E-02   1.1954E-03  0.0344
   5.9235E-02   6.0676E-02   1.1887E-03  0.0340
   6.0676E-02   6.2152E-02   1.1918E-03  0.0336
   6.2152E-02   6.3665E-02   1.1450E-03  0.0339
   6.3665E-02   6.5214E-02   1.0892E-03  0.0343
   6.5214E-02   6.6800E-02   1.0850E-03  0.0340
   6.6800E-02   6.8426E-02   1.0586E-03  0.0340
   6.8426E-02   7.0090E-02   1.0484E-03  0.0337
   7.0090E-02   7.1796E-02   1.0657E-03  0.0331
   7.1796E-02   7.3543E-02   9.8879E-04  0.0339
   7.3543E-02   7.5332E-02   1.0625E-03  0.0323
   7.5332E-02   7.7165E-02   9.2290E-04  0.0343
   7.7165E-02   7.9042E-02   8.8600E-04  0.0346
   7.9042E-02   8.0965E-02   9.5964E-04  0.0328
   8.0965E-02   8.2935E-02   8.7144E-04  0.0340
   8.2935E-02   8.4953E-02   8.5633E-04  0.0339
   8.4953E-02   8.7020E-02   8.3974E-04  0.0338
   8.7020E-02   8.9138E-02   8.3166E-04  0.0336
   8.9138E-02   9.1306E-02   8.3693E-04  0.0331
   9.1306E-02   9.3528E-02   7.6449E-04  0.0342
   9.3528E-02   9.5804E-02   7.4204E-04  0.0343
   9.5804E-02   9.8134E-02   7.4102E-04  0.0339
   9.8134E-02   1.0052E-01   7.4784E-04  0.0333
   1.0052E-01   1.0297E-01   7.1452E-04  0.0337
   1.0297E-01   1.0547E-01   6.8656E-04  0.0340
   1.0547E-01   1.0804E-01   6.8392E-04  0.0336
   1.0804E-01   1.1067E-01   6.4774E-04  0.0341
   1.1067E-01   1.1336E-01   6.5066E-04  0.0336
   1.1336E-01   1.1612E-01   6.7241E-04  0.0327
   1.1612E-01   1.1894E-01   6.0327E-04  0.0341
   1.1894E-01   1.2184E-01   6.0766E-04  0.0336
   1.2184E-01   1.2480E-01   6.0003E-04  0.0334
   1.2480E-01   1.2784E-01   5.8394E-04  0.0335
   1.2784E-01   1.3095E-01   5.8376E-04  0.0330
   1.3095E-01   1.3414E-01   5.7228E-04  0.0329
   1.3414E-01   1.3740E-01   5.2827E-04  0.0339
   1.3740E-01   1.4074E-01   5.5721E-04  0.0326
   1.4074E-01   1.4417E-01   5.4547E-04  0.0326
   1.4417E-01   1.4767E-01   5.3907E-04  0.0324
   1.4767E-01   1.5127E-01   5.3600E-04  0.0321
   1.5127E-01   1.5495E-01   4.8367E-04  0.0334
   1.5495E-01   1.5872E-01   5.1456E-04  0.0320
   1.5872E-01   1.6258E-01   4.7658E-04  0.0328
   1.6258E-01   1.6654E-01   4.3906E-04  0.0338
   1.6654E-01   1.7059E-01   4.6925E-04  0.0323
   1.7059E-01   1.7474E-01   4.8934E-04  0.0312
   1.7474E-01   1.7899E-01   4.6169E-04  0.0318
   1.7899E-01   1.8334E-01   4.7683E-04  0.0309
   1.8334E-01   1.8781E-01   4.5367E-04  0.0313
   1.8781E-01   1.9237E-01   4.6883E-04  0.0304
   1.9237E-01   1.9706E-01   4.4379E-04  0.0309
   1.9706E-01   2.0185E-01   4.2798E-04  0.0311
   2.0185E-01   2.0676E-01   4.3203E-04  0.0306
   2.0676E-01   2.1179E-01   4.5280E-04  0.0295
   2.1179E-01   2.1694E-01   4.7521E-04  0.0285
   2.1694E-01   2.2222E-01   5.2122E-04  0.0268
   2.2222E-01   2.2763E-01   5.3906E-04  0.0261
   2.2763E-01   2.3317E-01   5.4886E-04  0.0256
   2.3317E-01   2.3884E-01   5.6820E-04  0.0248
   2.3884E-01   2.4465E-01   6.0364E-04  0.0238
   2.4465E-01   2.5061E-01   6.4115E-04  0.0228
   2.5061E-01   2.5670E-01   6.5611E-04  0.0223
   2.5670E-01   2.6295E-01   6.8530E-04  0.0215
   2.6295E-01   2.6935E-01   6.9072E-04  0.0212
   2.6935E-01   2.7590E-01   7.4495E-04  0.0202
   2.7590E-01   2.8261E-01   7.4474E-04  0.0199
   2.8261E-01   2.8949E-01   8.0471E-04  0.0189
   2.8949E-01   2.9653E-01   8.0469E-04  0.0187
   2.9653E-01   3.0375E-01   8.5516E-04  0.0179
   3.0375E-01   3.1114E-01   8.9942E-04  0.0173
   3.1114E-01   3.1871E-01   9.0005E-04  0.0171
   3.1871E-01   3.2646E-01   9.4150E-04  0.0165
   3.2646E-01   3.3441E-01   9.8276E-04  0.0159
   3.3441E-01   3.4254E-01   1.0121E-03  0.0155
   3.4254E-01   3.5088E-01   1.0340E-03  0.0152
   3.5088E-01   3.5941E-01   1.0811E-03  0.0147
   3.5941E-01   3.6816E-01   1.1012E-03  0.0144
   3.6816E-01   3.7712E-01   1.1519E-03  0.0139
   3.7712E-01   3.8629E-01   1.1837E-03  0.0135
   3.8629E-01   3.9569E-01   1.2217E-03  0.0132
   3.9569E-01   4.0532E-01   1.2633E-03  0.0128
   4.0532E-01   4.1518E-01   1.3066E-03  0.0124
   4.1518E-01   4.2528E-01   1.3354E-03  0.0121
   4.2528E-01   4.3563E-01   1.3705E-03  0.0118
   4.3563E-01   4.4623E-01   1.4514E-03  0.0114
   4.4623E-01   4.5708E-01   1.4562E-03  0.0112
   4.5708E-01   4.6821E-01   1.5023E-03  0.0109
   4.6821E-01   4.7960E-01   1.5276E-03  0.0107
   4.7960E-01   4.9127E-01   1.5551E-03  0.0105
   4.9127E-01   5.0322E-01   1.5574E-03  0.0103
   5.0322E-01   5.1546E-01   1.6414E-03  0.0099
   5.1546E-01   5.2800E-01   1.6658E-03  0.0098
   5.2800E-01   5.4085E-01   1.6673E-03  0.0096
   5.4085E-01   5.5401E-01   1.7310E-03  0.0093
   5.5401E-01   5.6749E-01   1.7498E-03  0.0092
   5.6749E-01   5.8130E-01   1.7888E-03  0.0090
   5.8130E-01   5.9544E-01   1.8113E-03  0.0088
   5.9544E-01   6.0993E-01   1.8008E-03  0.0087
   6.0993E-01   6.2477E-01   1.8291E-03  0.0086
   6.2477E-01   6.3997E-01   1.8642E-03  0.0084
   6.3997E-01   6.5554E-01   1.8890E-03  0.0082
   6.5554E-01   6.7149E-01   1.8992E-03  0.0081
   6.7149E-01   6.8783E-01   1.9174E-03  0.0080
   6.8783E-01   7.0456E-01   1.9230E-03  0.0079
   7.0456E-01   7.2171E-01   1.9144E-03  0.0078
   7.2171E-01   7.3927E-01   1.9640E-03  0.0076
   7.3927E-01   7.5725E-01   1.9742E-03  0.0075
   7.5725E-01   7.7568E-01   1.9599E-03  0.0074
   7.7568E-01   7.9455E-01   1.9606E-03  0.0073
   7.9455E-01   8.1388E-01   1.9566E-03  0.0072
   8.1388E-01   8.3368E-01   1.9503E-03  0.0072
   8.3368E-01   8.5397E-01   1.9736E-03  0.0070
   8.5397E-01   8.7475E-01   1.9673E-03  0.0070
   8.7475E-01   8.9603E-01   1.9896E-03  0.0068
   8.9603E-01   9.1783E-01   1.9406E-03  0.0068
   9.1783E-01   9.4016E-01   1.9521E-03  0.0067
   9.4016E-01   9.6304E-01   1.9528E-03  0.0067
   9.6304E-01   9.8647E-01   1.9594E-03  0.0066
   9.8647E-01   1.0105E+00   1.9516E-03  0.0065
   1.0105E+00   1.0351E+00   1.9209E-03  0.0065
   1.0351E+00   1.0602E+00   1.8964E-03  0.0064
   1.0602E+00   1.0860E+00   1.8780E-03  0.0064
   1.0860E+00   1.1125E+00   1.8662E-03  0.0063
   1.1125E+00   1.1395E+00   1.8377E-03  0.0063
   1.1395E+00   1.1673E+00   1.8166E-03  0.0063
   1.1673E+00   1.1957E+00   1.8058E-03  0.0062
   1.1957E+00   1.2247E+00   1.7919E-03  0.0062
   1.2247E+00   1.2545E+00   1.7625E-03  0.0061
   1.2545E+00   1.2851E+00   1.7557E-03  0.0061
   1.2851E+00   1.3163E+00   1.7278E-03  0.0061
   1.3163E+00   1.3484E+00   1.6923E-03  0.0060
   1.3484E+00   1.3812E+00   1.6654E-03  0.0060
   1.3812E+00   1.4148E+00   1.6669E-03  0.0059
   1.4148E+00   1.4492E+00   1.6552E-03  0.0059
   1.4492E+00   1.4845E+00   1.6229E-03  0.0059
   1.4845E+00   1.5206E+00   1.6046E-03  0.0058
   1.5206E+00   1.5576E+00   1.5638E-03  0.0058
   1.5576E+00   1.5955E+00   1.5355E-03  0.0058
   1.5955E+00   1.6343E+00   1.5185E-03  0.0058
   1.6343E+00   1.6741E+00   1.4754E-03  0.0058
   1.6741E+00   1.7148E+00   1.4604E-03  0.0058
   1.7148E+00   1.7565E+00   1.4048E-03  0.0058
   1.7565E+00   1.7992E+00   1.4103E-03  0.0057
   1.7992E+00   1.8430E+00   1.3814E-03  0.0057
   1.8430E+00   1.8879E+00   1.3671E-03  0.0057
   1.8879E+00   1.9338E+00   1.3413E-03  0.0057
   1.9338E+00   1.9808E+00   1.3044E-03  0.0057
   1.9808E+00   2.0290E+00   1.2929E-03  0.0056
   2.0290E+00   2.0784E+00   1.2694E-03  0.0056
   2.0784E+00   2.1290E+00   1.2418E-03  0.0056
   2.1290E+00   2.1808E+00   1.2251E-03  0.0056
   2.1808E+00   2.2338E+00   1.1876E-03  0.0056
   2.2338E+00   2.2882E+00   1.1629E-03  0.0056
   2.2882E+00   2.3439E+00   1.1327E-03  0.0056
   2.3439E+00   2.4009E+00   1.1214E-03  0.0056
   2.4009E+00   2.4593E+00   1.1017E-03  0.0055
   2.4593E+00   2.5191E+00   1.0768E-03  0.0055
   2.5191E+00   2.5804E+00   1.0495E-03  0.0055
   2.5804E+00   2.6432E+00   1.0420E-03  0.0055
   2.6432E+00   2.7075E+00   1.0073E-03  0.0055
   2.7075E+00   2.7734E+00   9.9570E-04  0.0055
   2.7734E+00   2.8409E+00   9.6849E-04  0.0055
   2.8409E+00   2.9100E+00   9.4632E-04  0.0055
   2.9100E+00   2.9808E+00   9.2683E-04  0.0055
   2.9808E+00   3.0533E+00   9.1617E-04  0.0054
   3.0533E+00   3.1276E+00   8.9937E-04  0.0054
   3.1276E+00   3.2037E+00   8.8972E-04  0.0054
   3.2037E+00   3.2817E+00   8.6577E-04  0.0054
   3.2817E+00   3.3615E+00   8.5064E-04  0.0054
   3.3615E+00   3.4433E+00   8.3417E-04  0.0054
   3.4433E+00   3.5271E+00   8.2897E-04  0.0053
   3.5271E+00   3.6129E+00   8.1025E-04  0.0053
   3.6129E+00   3.7008E+00   8.0452E-04  0.0053
   3.7008E+00   3.7908E+00   7.7573E-04  0.0053
   3.7908E+00   3.8831E+00   7.6739E-04  0.0053
   3.8831E+00   3.9776E+00   7.5960E-04  0.0052
   3.9776E+00   4.0743E+00   7.3674E-04  0.0053
   4.0743E+00   4.1735E+00   7.3272E-04  0.0052
   4.1735E+00   4.2750E+00   7.1387E-04  0.0052
   4.2750E+00   4.3790E+00   7.0525E-04  0.0052
   4.3790E+00   4.4856E+00   7.0021E-04  0.0051
   4.4856E+00   4.5947E+00   6.9262E-04  0.0051
   4.5947E+00   4.7065E+00   6.8820E-04  0.0051
   4.7065E+00   4.8210E+00   6.8420E-04  0.0050
   4.8210E+00   4.9383E+00   6.8127E-04  0.0050
   4.9383E+00   5.0585E+00   6.6653E-04  0.0050
   5.0585E+00   5.1815E+00   6.6070E-04  0.0049
   5.1815E+00   5.3076E+00   6.5744E-04  0.0049
   5.3076E+00   5.4368E+00   6.5033E-04  0.0048
   5.4368E+00   5.5690E+00   6.4043E-04  0.0048
   5.5690E+00   5.7045E+00   6.3615E-04  0.0048
   5.7045E+00   5.8433E+00   6.1503E-04  0.0048
   5.8433E+00   5.9855E+00   6.0823E-04  0.0048
   5.9855E+00   6.1311E+00   6.0438E-04  0.0047
   6.1311E+00   6.2803E+00   5.9281E-04  0.0047
   6.2803E+00   6.4331E+00   5.8098E-04  0.0047
   6.4331E+00   6.5896E+00   5.7306E-04  0.0047
   6.5896E+00   6.7500E+00   5.6832E-04  0.0047
   6.7500E+00   6.9142E+00   5.5994E-04  0.0046
   6.9142E+00   7.0824E+00   5.5282E-04  0.0046
   7.0824E+00   7.2548E+00   5.5809E-04  0.0045
   7.2548E+00   7.4313E+00   5.5471E-04  0.0045
   7.4313E+00   7.6121E+00   5.4452E-04  0.0045
   7.6121E+00   7.7973E+00   5.3412E-04  0.0045
   7.7973E+00   7.9870E+00   5.3466E-04  0.0044
   7.9870E+00   8.1813E+00   5.2138E-04  0.0044
   8.1813E+00   8.3804E+00   5.1410E-04  0.0044
   8.3804E+00   8.5843E+00   5.1061E-04  0.0044
   8.5843E+00   8.7931E+00   4.9816E-04  0.0044
   8.7931E+00   9.0071E+00   4.9300E-04  0.0043
   9.0071E+00   9.2262E+00   4.8072E-04  0.0043
   9.2262E+00   9.4507E+00   4.7553E-04  0.0043
   9.4507E+00   9.6807E+00   4.7000E-04  0.0043
   9.6807E+00   9.9162E+00   4.6140E-04  0.0043
   9.9162E+00   1.0157E+01   4.5013E-04  0.0043
   1.0157E+01   1.0405E+01   4.4752E-04  0.0042
   1.0405E+01   1.0658E+01   4.4836E-04  0.0042
   1.0658E+01   1.0917E+01   4.4023E-04  0.0042
   1.0917E+01   1.1183E+01   4.3540E-04  0.0042
   1.1183E+01   1.1455E+01   4.3048E-04  0.0041
   1.1455E+01   1.1733E+01   4.2182E-04  0.0041
   1.1733E+01   1.2019E+01   4.1353E-04  0.0041
   1.2019E+01   1.2311E+01   3.9906E-04  0.0041
   1.2311E+01   1.2611E+01   3.9328E-04  0.0041
   1.2611E+01   1.2918E+01   3.8016E-04  0.0041
   1.2918E+01   1.3232E+01   3.7279E-04  0.0041
   1.3232E+01   1.3554E+01   3.6223E-04  0.0041
   1.3554E+01   1.3884E+01   3.5529E-04  0.0041
   1.3884E+01   1.4222E+01   3.4803E-04  0.0041
   1.4222E+01   1.4568E+01   3.4230E-04  0.0041
   1.4568E+01   1.4922E+01   3.3084E-04  0.0041
   1.4922E+01   1.5285E+01   3.2090E-04  0.0041
   1.5285E+01   1.5657E+01   3.1328E-04  0.0041
   1.5657E+01   1.6038E+01   3.0635E-04  0.0041
   1.6038E+01   1.6428E+01   2.9463E-04  0.0042
   1.6428E+01   1.6828E+01   2.8666E-04  0.0042
   1.6828E+01   1.7237E+01   2.7826E-04  0.0042
   1.7237E+01   1.7657E+01   2.6989E-04  0.0042
   1.7657E+01   1.8086E+01   2.6148E-04  0.0042
   1.8086E+01   1.8526E+01   2.5361E-04  0.0042
   1.8526E+01   1.8977E+01   2.4642E-04  0.0042
   1.8977E+01   1.9439E+01   2.4428E-04  0.0042
   1.9439E+01   1.9912E+01   2.3791E-04  0.0042
   1.9912E+01   2.0396E+01   2.3274E-04  0.0042
   2.0396E+01   2.0893E+01   2.2492E-04  0.0042
   2.0893E+01   2.1401E+01   2.1816E-04  0.0042
   2.1401E+01   2.1922E+01   2.1024E-04  0.0043
   2.1922E+01   2.2455E+01   2.0300E-04  0.0043
   2.2455E+01   2.3001E+01   1.9406E-04  0.0043
   2.3001E+01   2.3561E+01   1.8456E-04  0.0044
   2.3561E+01   2.4134E+01   1.7986E-04  0.0044
   2.4134E+01   2.4721E+01   1.7127E-04  0.0045
   2.4721E+01   2.5323E+01   1.6387E-04  0.0045
   2.5323E+01   2.5939E+01   1.5660E-04  0.0046
   2.5939E+01   2.6570E+01   1.5111E-04  0.0046
   2.6570E+01   2.7217E+01   1.4229E-04  0.0047
   2.7217E+01   2.7879E+01   1.3600E-04  0.0047
   2.7879E+01   2.8557E+01   1.2957E-04  0.0048
   2.8557E+01   2.9252E+01   1.2418E-04  0.0048
   2.9252E+01   2.9964E+01   1.1615E-04  0.0049
   2.9964E+01   3.0693E+01   1.1070E-04  0.0050
   3.0693E+01   3.1440E+01   1.0561E-04  0.0050
   3.1440E+01   3.2205E+01   9.9363E-05  0.0051
   3.2205E+01   3.2988E+01   9.3728E-05  0.0052
   3.2988E+01   3.3791E+01   8.8676E-05  0.0053
   3.3791E+01   3.4613E+01   8.2739E-05  0.0054
   3.4613E+01   3.5455E+01   7.7810E-05  0.0055
   3.5455E+01   3.6318E+01   7.3400E-05  0.0056
   3.6318E+01   3.7201E+01   6.9155E-05  0.0057
   3.7201E+01   3.8106E+01   6.5442E-05  0.0058
   3.8106E+01   3.9034E+01   6.0035E-05  0.0060
   3.9034E+01   3.9983E+01   5.6848E-05  0.0061
   3.9983E+01   4.0956E+01   5.2700E-05  0.0062
   4.0956E+01   4.1953E+01   4.8482E-05  0.0064
   4.1953E+01   4.2973E+01   4.5124E-05  0.0066
   4.2973E+01   4.4019E+01   4.1766E-05  0.0068
   4.4019E+01   4.5090E+01   3.9226E-05  0.0069
   4.5090E+01   4.6187E+01   3.5722E-05  0.0071
   4.6187E+01   4.7311E+01   3.2868E-05  0.0074
   4.7311E+01   4.8462E+01   3.0074E-05  0.0076
   4.8462E+01   4.9641E+01   2.7817E-05  0.0078
   4.9641E+01   5.0849E+01   2.5062E-05  0.0081
   5.0849E+01   5.2086E+01   2.2915E-05  0.0084
   5.2086E+01   5.3353E+01   2.0242E-05  0.0088
   5.3353E+01   5.4651E+01   1.8900E-05  0.0090
   5.4651E+01   5.5981E+01   1.6807E-05  0.0095
   5.5981E+01   5.7343E+01   1.4883E-05  0.0099
   5.7343E+01   5.8738E+01   1.3373E-05  0.0104
   5.8738E+01   6.0168E+01   1.1639E-05  0.0110
   6.0168E+01   6.1632E+01   1.0697E-05  0.0113
   6.1632E+01   6.3131E+01   9.1695E-06  0.0121
   6.3131E+01   6.4667E+01   7.9569E-06  0.0128
   6.4667E+01   6.6240E+01   6.9772E-06  0.0135
   6.6240E+01   6.7852E+01   6.2146E-06  0.0141
   6.7852E+01   6.9503E+01   5.1875E-06  0.0153
   6.9503E+01   7.1194E+01   4.5096E-06  0.0162
   7.1194E+01   7.2926E+01   3.8921E-06  0.0172
   7.2926E+01   7.4701E+01   3.1256E-06  0.0190
   7.4701E+01   7.6518E+01   2.7268E-06  0.0201
   7.6518E+01   7.8380E+01   2.2764E-06  0.0217
   7.8380E+01   8.0287E+01   1.8961E-06  0.0235
   8.0287E+01   8.2240E+01   1.6422E-06  0.0250
   8.2240E+01   8.4241E+01   1.3573E-06  0.0271
   8.4241E+01   8.6291E+01   1.0324E-06  0.0307
   8.6291E+01   8.8391E+01   8.8877E-07  0.0327
   8.8391E+01   9.0541E+01   7.2165E-07  0.0359
   9.0541E+01   9.2744E+01   6.1009E-07  0.0386
   9.2744E+01   9.5001E+01   4.4759E-07  0.0445
   9.5001E+01   9.7312E+01   3.5735E-07  0.0492
   9.7312E+01   9.9680E+01   2.8213E-07  0.0547
   9.9680E+01   1.0211E+02   1.8637E-07  0.0665
   1.0211E+02   1.0459E+02   1.4572E-07  0.0743
   1.0459E+02   1.0713E+02   1.0139E-07  0.0880
   1.0713E+02   1.0974E+02   7.5959E-08  0.1005
   1.0974E+02   1.1241E+02   4.7939E-08  0.1250
   1.1241E+02   1.1515E+02   3.1444E-08  0.1525
   1.1515E+02   1.1795E+02   1.2136E-08  0.2425
   1.1795E+02   1.2082E+02   9.0600E-09  0.2774
   1.2082E+02   1.2376E+02   9.5252E-09  0.2673
   1.2376E+02   1.2677E+02   9.2989E-09  0.2673
   1.2677E+02   1.2985E+02   6.4843E-10  1.0000
   1.2985E+02   1.3301E+02   1.2661E-09  0.7071
   1.3301E+02   1.3625E+02   1.8540E-09  0.5774
   1.3625E+02   1.3956E+02   0.0000E+00  0.0000
   1.3956E+02   1.4296E+02   0.0000E+00  0.0000
   1.4296E+02   1.4644E+02   0.0000E+00  0.0000
   1.4644E+02   1.5000E+02   0.0000E+00  0.0000

#   sum over                 9.9443E-05
'no. =    1   reg = 112 - 212'
msuc: {\huge [t-cross] in region mesh}
msdr: {\it plotted by \ANGEL \version}
msdl: {\it calculated by \PHITS  3.26}
wt: s(0.7)
\vspace{-3}
  region surface crossing
  area  &=&   1.0000E+00 [cm^2]
e:
 
# Information for Restart Calculation
# This calculation was newly started
# istdev =  2 # 1:Batch variance, 2:History variance
# resc2  = 5.00000000000000000E+08 # Total source weight or Total source weight / maxcas
# resc3  = 5.00000000000000000E+08 # Total history number or Total batch number
# maxcas =   500000000 # History / Batch, only used for istdev=1
# bitrseed = 1101101111010011011000101101110001100110110010110001010100010001 # bit data of rseed
