[ T-Cross ]
    title = [t-cross] in region mesh
     mesh =  reg            # mesh type is region-wise
      reg =    1            # number of crossing regions
      non     r-from    r-to       area
      1       104       204        1.000000    
   e-type =    3            # e-mesh is log given by emin, emax and ne
     emin =  1.0000000E-02  # minimum value of e-mesh points
     emax =   150.0000      # maximum value of e-mesh points
#    edel =  2.4039514E-02  # mesh width of e-mesh points
       ne =    400          # number of e-mesh points
#    data = ( e(i), i = 1, ne + 1 )
#           1.00000E-02  1.02433E-02  1.04925E-02  1.07478E-02  1.10093E-02
#           1.12772E-02  1.15516E-02  1.18326E-02  1.21205E-02  1.24154E-02
#           1.27175E-02  1.30269E-02  1.33439E-02  1.36686E-02  1.40011E-02
#           1.43418E-02  1.46907E-02  1.50482E-02  1.54143E-02  1.57894E-02
#           1.61735E-02  1.65670E-02  1.69701E-02  1.73830E-02  1.78060E-02
#           1.82392E-02  1.86830E-02  1.91375E-02  1.96032E-02  2.00801E-02
#           2.05687E-02  2.10692E-02  2.15818E-02  2.21069E-02  2.26448E-02
#           2.31957E-02  2.37601E-02  2.43382E-02  2.49304E-02  2.55369E-02
#           2.61583E-02  2.67947E-02  2.74467E-02  2.81145E-02  2.87985E-02
#           2.94992E-02  3.02169E-02  3.09521E-02  3.17052E-02  3.24766E-02
#           3.32668E-02  3.40762E-02  3.49053E-02  3.57546E-02  3.66246E-02
#           3.75157E-02  3.84284E-02  3.93634E-02  4.03212E-02  4.13022E-02
#           4.23071E-02  4.33365E-02  4.43909E-02  4.54710E-02  4.65773E-02
#           4.77106E-02  4.88714E-02  5.00605E-02  5.12785E-02  5.25262E-02
#           5.38042E-02  5.51133E-02  5.64542E-02  5.78278E-02  5.92348E-02
#           6.06760E-02  6.21523E-02  6.36645E-02  6.52135E-02  6.68002E-02
#           6.84255E-02  7.00904E-02  7.17957E-02  7.35426E-02  7.53319E-02
#           7.71648E-02  7.90423E-02  8.09655E-02  8.29354E-02  8.49533E-02
#           8.70203E-02  8.91376E-02  9.13064E-02  9.35279E-02  9.58035E-02
#           9.81345E-02  1.00522E-01  1.02968E-01  1.05473E-01  1.08040E-01
#           1.10668E-01  1.13361E-01  1.16119E-01  1.18944E-01  1.21838E-01
#           1.24803E-01  1.27839E-01  1.30950E-01  1.34136E-01  1.37399E-01
#           1.40742E-01  1.44167E-01  1.47675E-01  1.51268E-01  1.54948E-01
#           1.58718E-01  1.62580E-01  1.66535E-01  1.70587E-01  1.74738E-01
#           1.78989E-01  1.83344E-01  1.87805E-01  1.92375E-01  1.97055E-01
#           2.01850E-01  2.06761E-01  2.11792E-01  2.16945E-01  2.22223E-01
#           2.27630E-01  2.33169E-01  2.38842E-01  2.44653E-01  2.50605E-01
#           2.56703E-01  2.62949E-01  2.69346E-01  2.75900E-01  2.82613E-01
#           2.89489E-01  2.96532E-01  3.03747E-01  3.11138E-01  3.18708E-01
#           3.26462E-01  3.34405E-01  3.42542E-01  3.50876E-01  3.59413E-01
#           3.68158E-01  3.77116E-01  3.86291E-01  3.95690E-01  4.05317E-01
#           4.15179E-01  4.25281E-01  4.35628E-01  4.46227E-01  4.57084E-01
#           4.68205E-01  4.79597E-01  4.91266E-01  5.03219E-01  5.15463E-01
#           5.28005E-01  5.40851E-01  5.54011E-01  5.67490E-01  5.81298E-01
#           5.95441E-01  6.09929E-01  6.24769E-01  6.39970E-01  6.55541E-01
#           6.71491E-01  6.87828E-01  7.04564E-01  7.21706E-01  7.39266E-01
#           7.57253E-01  7.75678E-01  7.94551E-01  8.13883E-01  8.33685E-01
#           8.53969E-01  8.74747E-01  8.96030E-01  9.17831E-01  9.40163E-01
#           9.63038E-01  9.86469E-01  1.01047E+00  1.03506E+00  1.06024E+00
#           1.08604E+00  1.11246E+00  1.13953E+00  1.16725E+00  1.19565E+00
#           1.22474E+00  1.25454E+00  1.28507E+00  1.31633E+00  1.34836E+00
#           1.38117E+00  1.41477E+00  1.44920E+00  1.48446E+00  1.52057E+00
#           1.55757E+00  1.59547E+00  1.63429E+00  1.67405E+00  1.71478E+00
#           1.75650E+00  1.79924E+00  1.84302E+00  1.88786E+00  1.93379E+00
#           1.98084E+00  2.02904E+00  2.07841E+00  2.12898E+00  2.18078E+00
#           2.23384E+00  2.28819E+00  2.34386E+00  2.40089E+00  2.45930E+00
#           2.51914E+00  2.58043E+00  2.64322E+00  2.70753E+00  2.77341E+00
#           2.84088E+00  2.91001E+00  2.98081E+00  3.05333E+00  3.12762E+00
#           3.20372E+00  3.28167E+00  3.36152E+00  3.44330E+00  3.52708E+00
#           3.61290E+00  3.70080E+00  3.79085E+00  3.88308E+00  3.97756E+00
#           4.07434E+00  4.17347E+00  4.27501E+00  4.37903E+00  4.48557E+00
#           4.59471E+00  4.70650E+00  4.82102E+00  4.93832E+00  5.05847E+00
#           5.18155E+00  5.30762E+00  5.43676E+00  5.56904E+00  5.70453E+00
#           5.84333E+00  5.98550E+00  6.13114E+00  6.28031E+00  6.43312E+00
#           6.58964E+00  6.74997E+00  6.91420E+00  7.08243E+00  7.25475E+00
#           7.43126E+00  7.61207E+00  7.79728E+00  7.98700E+00  8.18133E+00
#           8.38038E+00  8.58428E+00  8.79315E+00  9.00709E+00  9.22624E+00
#           9.45072E+00  9.68067E+00  9.91620E+00  1.01575E+01  1.04046E+01
#           1.06578E+01  1.09171E+01  1.11827E+01  1.14548E+01  1.17335E+01
#           1.20190E+01  1.23114E+01  1.26109E+01  1.29178E+01  1.32321E+01
#           1.35540E+01  1.38838E+01  1.42216E+01  1.45676E+01  1.49221E+01
#           1.52851E+01  1.56570E+01  1.60380E+01  1.64282E+01  1.68279E+01
#           1.72374E+01  1.76568E+01  1.80864E+01  1.85264E+01  1.89772E+01
#           1.94389E+01  1.99119E+01  2.03963E+01  2.08926E+01  2.14009E+01
#           2.19216E+01  2.24550E+01  2.30014E+01  2.35610E+01  2.41343E+01
#           2.47215E+01  2.53230E+01  2.59391E+01  2.65702E+01  2.72167E+01
#           2.78789E+01  2.85572E+01  2.92520E+01  2.99637E+01  3.06928E+01
#           3.14396E+01  3.22045E+01  3.29881E+01  3.37907E+01  3.46128E+01
#           3.54550E+01  3.63177E+01  3.72013E+01  3.81064E+01  3.90336E+01
#           3.99833E+01  4.09561E+01  4.19526E+01  4.29734E+01  4.40189E+01
#           4.50900E+01  4.61870E+01  4.73108E+01  4.84619E+01  4.96410E+01
#           5.08488E+01  5.20860E+01  5.33533E+01  5.46514E+01  5.59812E+01
#           5.73432E+01  5.87384E+01  6.01676E+01  6.16315E+01  6.31311E+01
#           6.46671E+01  6.62405E+01  6.78522E+01  6.95031E+01  7.11941E+01
#           7.29263E+01  7.47007E+01  7.65182E+01  7.83800E+01  8.02870E+01
#           8.22405E+01  8.42414E+01  8.62911E+01  8.83906E+01  9.05412E+01
#           9.27442E+01  9.50007E+01  9.73122E+01  9.96799E+01  1.02105E+02
#           1.04589E+02  1.07134E+02  1.09741E+02  1.12411E+02  1.15146E+02
#           1.17948E+02  1.20817E+02  1.23757E+02  1.26768E+02  1.29852E+02
#           1.33012E+02  1.36248E+02  1.39563E+02  1.42959E+02  1.46437E+02
#           1.50000E+02
     unit =    2            # unit is [1/cm^2/(MeV/n)/source]
     axis =  eng            # axis of output
     file = detector-05.out  # file name of output for the above axis
   output = f-curr          # surface crossing forward current spectrum
     part =  neutron  
# kf/name :  2112     
#    used :        main (  %)        temp (  %)       total (  %)
#  memory :         414 (  0)           0 (  0)         414 (  0)

#------------------------------------------------------------------------------
#newpage:
#   no. =    1   reg = 104 - 204

x: Energy [MeV/n]
y:  F-Curr [1/cm^2/(MeV/n)/source]         
p: xlog ylog afac(0.8) form(0.9)
h: n            x            y(neutron ),hh0l   n 
#  e-lower      e-upper      neutron     r.err 
   1.0000E-02   1.0243E-02   4.8098E-04  0.1303
   1.0243E-02   1.0493E-02   5.4789E-04  0.1208
   1.0493E-02   1.0748E-02   5.2881E-04  0.1215
   1.0748E-02   1.1009E-02   4.3868E-04  0.1317
   1.1009E-02   1.1277E-02   4.2559E-04  0.1325
   1.1277E-02   1.1552E-02   4.6801E-04  0.1246
   1.1552E-02   1.1833E-02   4.3407E-04  0.1280
   1.1833E-02   1.2121E-02   3.5891E-04  0.1386
   1.2121E-02   1.2415E-02   4.2281E-04  0.1264
   1.2415E-02   1.2718E-02   4.1491E-04  0.1259
   1.2718E-02   1.3027E-02   4.2336E-04  0.1232
   1.3027E-02   1.3344E-02   4.2277E-04  0.1222
   1.3344E-02   1.3669E-02   4.4353E-04  0.1179
   1.3669E-02   1.4001E-02   4.2193E-04  0.1193
   1.4001E-02   1.4342E-02   4.1563E-04  0.1184
   1.4342E-02   1.4691E-02   3.7174E-04  0.1236
   1.4691E-02   1.5048E-02   4.3816E-04  0.1128
   1.5048E-02   1.5414E-02   4.4519E-04  0.1106
   1.5414E-02   1.5789E-02   3.6349E-04  0.1210
   1.5789E-02   1.6174E-02   4.0696E-04  0.1130
   1.6174E-02   1.6567E-02   3.4392E-04  0.1212
   1.6567E-02   1.6970E-02   3.7709E-04  0.1147
   1.6970E-02   1.7383E-02   3.4485E-04  0.1184
   1.7383E-02   1.7806E-02   3.3101E-04  0.1191
   1.7806E-02   1.8239E-02   3.2546E-04  0.1189
   1.8239E-02   1.8683E-02   3.3125E-04  0.1164
   1.8683E-02   1.9138E-02   3.1745E-04  0.1176
   1.9138E-02   1.9603E-02   3.7962E-04  0.1062
   1.9603E-02   2.0080E-02   2.6498E-04  0.1256
   2.0080E-02   2.0569E-02   2.6269E-04  0.1247
   2.0569E-02   2.1069E-02   2.7225E-04  0.1211
   2.1069E-02   2.1582E-02   2.3269E-04  0.1284
   2.1582E-02   2.2107E-02   2.5319E-04  0.1223
   2.2107E-02   2.2645E-02   2.6259E-04  0.1186
   2.2645E-02   2.3196E-02   3.1457E-04  0.1072
   2.3196E-02   2.3760E-02   2.8224E-04  0.1118
   2.3760E-02   2.4338E-02   2.8428E-04  0.1102
   2.4338E-02   2.4930E-02   2.3804E-04  0.1188
   2.4930E-02   2.5537E-02   2.6099E-04  0.1123
   2.5537E-02   2.6158E-02   2.4993E-04  0.1132
   2.6158E-02   2.6795E-02   2.4037E-04  0.1140
   2.6795E-02   2.7447E-02   2.2028E-04  0.1176
   2.7447E-02   2.8114E-02   2.2820E-04  0.1144
   2.8114E-02   2.8799E-02   1.7040E-04  0.1307
   2.8799E-02   2.9499E-02   2.3120E-04  0.1111
   2.9499E-02   3.0217E-02   2.3964E-04  0.1078
   3.0217E-02   3.0952E-02   2.0583E-04  0.1143
   3.0952E-02   3.1705E-02   2.0014E-04  0.1150
   3.1705E-02   3.2477E-02   2.0521E-04  0.1123
   3.2477E-02   3.3267E-02   1.7591E-04  0.1197
   3.3267E-02   3.4076E-02   2.2493E-04  0.1044
   3.4076E-02   3.4905E-02   1.8853E-04  0.1130
   3.4905E-02   3.5755E-02   1.9109E-04  0.1105
   3.5755E-02   3.6625E-02   1.7359E-04  0.1148
   3.6625E-02   3.7516E-02   1.9040E-04  0.1081
   3.7516E-02   3.8428E-02   1.7748E-04  0.1111
   3.8428E-02   3.9363E-02   1.8075E-04  0.1086
   3.9363E-02   4.0321E-02   1.7196E-04  0.1100
   4.0321E-02   4.1302E-02   1.7775E-04  0.1070
   4.1302E-02   4.2307E-02   1.7675E-04  0.1058
   4.2307E-02   4.3337E-02   1.3369E-04  0.1201
   4.3337E-02   4.4391E-02   1.8494E-04  0.1006
   4.4391E-02   4.5471E-02   1.5400E-04  0.1096
   4.5471E-02   4.6577E-02   1.6780E-04  0.1035
   4.6577E-02   4.7711E-02   1.5592E-04  0.1062
   4.7711E-02   4.8871E-02   1.5218E-04  0.1062
   4.8871E-02   5.0061E-02   1.4906E-04  0.1059
   5.0061E-02   5.1279E-02   1.6477E-04  0.0997
   5.1279E-02   5.2526E-02   1.5126E-04  0.1028
   5.2526E-02   5.3804E-02   1.2351E-04  0.1121
   5.3804E-02   5.5113E-02   1.3316E-04  0.1070
   5.5113E-02   5.6454E-02   1.3563E-04  0.1045
   5.6454E-02   5.7828E-02   1.3760E-04  0.1027
   5.7828E-02   5.9235E-02   1.3065E-04  0.1039
   5.9235E-02   6.0676E-02   1.1750E-04  0.1083
   6.0676E-02   6.2152E-02   1.2371E-04  0.1045
   6.2152E-02   6.3665E-02   1.0026E-04  0.1143
   6.3665E-02   6.5214E-02   1.1860E-04  0.1035
   6.5214E-02   6.6800E-02   1.0011E-04  0.1119
   6.6800E-02   6.8426E-02   1.0686E-04  0.1067
   6.8426E-02   7.0090E-02   1.3925E-04  0.0926
   7.0090E-02   7.1796E-02   9.9261E-05  0.1077
   7.1796E-02   7.3543E-02   1.1980E-04  0.0976
   7.3543E-02   7.5332E-02   1.0954E-04  0.1010
   7.5332E-02   7.7165E-02   1.0673E-04  0.1008
   7.7165E-02   7.9042E-02   9.7540E-05  0.1040
   7.9042E-02   8.0965E-02   9.3076E-05  0.1056
   8.0965E-02   8.2935E-02   9.2554E-05  0.1047
   8.2935E-02   8.4953E-02   1.0146E-04  0.0987
   8.4953E-02   8.7020E-02   8.6442E-05  0.1056
   8.7020E-02   8.9138E-02   9.0775E-05  0.1016
   8.9138E-02   9.1306E-02   8.8356E-05  0.1018
   9.1306E-02   9.3528E-02   9.4812E-05  0.0973
   9.3528E-02   9.5804E-02   9.2585E-05  0.0971
   9.5804E-02   9.8134E-02   8.7775E-05  0.0985
   9.8134E-02   1.0052E-01   7.1842E-05  0.1076
   1.0052E-01   1.0297E-01   8.0023E-05  0.1008
   1.0297E-01   1.0547E-01   7.6416E-05  0.1019
   1.0547E-01   1.0804E-01   7.0141E-05  0.1054
   1.0804E-01   1.1067E-01   7.4085E-05  0.1012
   1.1067E-01   1.1336E-01   6.0305E-05  0.1109
   1.1336E-01   1.1612E-01   7.3352E-05  0.0991
   1.1612E-01   1.1894E-01   8.3762E-05  0.0918
   1.1894E-01   1.2184E-01   7.3173E-05  0.0969
   1.2184E-01   1.2480E-01   6.5684E-05  0.1012
   1.2480E-01   1.2784E-01   6.5317E-05  0.1001
   1.2784E-01   1.3095E-01   6.9419E-05  0.0960
   1.3095E-01   1.3414E-01   5.5752E-05  0.1058
   1.3414E-01   1.3740E-01   6.2310E-05  0.0989
   1.3740E-01   1.4074E-01   7.3109E-05  0.0904
   1.4074E-01   1.4417E-01   5.9451E-05  0.0988
   1.4417E-01   1.4767E-01   5.9013E-05  0.0982
   1.4767E-01   1.5127E-01   5.6346E-05  0.0990
   1.5127E-01   1.5495E-01   5.1532E-05  0.1024
   1.5495E-01   1.5872E-01   5.4642E-05  0.0985
   1.5872E-01   1.6258E-01   4.9897E-05  0.1017
   1.6258E-01   1.6654E-01   4.9224E-05  0.1012
   1.6654E-01   1.7059E-01   4.9583E-05  0.0996
   1.7059E-01   1.7474E-01   4.9317E-05  0.0987
   1.7474E-01   1.7899E-01   4.1936E-05  0.1054
   1.7899E-01   1.8334E-01   5.0971E-05  0.0946
   1.8334E-01   1.8781E-01   4.2666E-05  0.1024
   1.8781E-01   1.9237E-01   3.8387E-05  0.1065
   1.9237E-01   1.9706E-01   4.0308E-05  0.1028
   1.9706E-01   2.0185E-01   4.0949E-05  0.1006
   2.0185E-01   2.0676E-01   4.6137E-05  0.0938
   2.0676E-01   2.1179E-01   4.3068E-05  0.0954
   2.1179E-01   2.1694E-01   4.6894E-05  0.0908
   2.1694E-01   2.2222E-01   4.8800E-05  0.0878
   2.2222E-01   2.2763E-01   4.6985E-05  0.0885
   2.2763E-01   2.3317E-01   5.3445E-05  0.0821
   2.3317E-01   2.3884E-01   4.9412E-05  0.0844
   2.3884E-01   2.4465E-01   5.0872E-05  0.0821
   2.4465E-01   2.5061E-01   5.4112E-05  0.0786
   2.5061E-01   2.5670E-01   5.4613E-05  0.0774
   2.5670E-01   2.6295E-01   5.9195E-05  0.0733
   2.6295E-01   2.6935E-01   6.3918E-05  0.0698
   2.6935E-01   2.7590E-01   6.7534E-05  0.0671
   2.7590E-01   2.8261E-01   6.7453E-05  0.0663
   2.8261E-01   2.8949E-01   6.2739E-05  0.0680
   2.8949E-01   2.9653E-01   5.7683E-05  0.0700
   2.9653E-01   3.0375E-01   6.1013E-05  0.0673
   3.0375E-01   3.1114E-01   6.9017E-05  0.0625
   3.1114E-01   3.1871E-01   7.4531E-05  0.0594
   3.1871E-01   3.2646E-01   6.5300E-05  0.0627
   3.2646E-01   3.3441E-01   7.5860E-05  0.0575
   3.3441E-01   3.4254E-01   7.9271E-05  0.0555
   3.4254E-01   3.5088E-01   7.2862E-05  0.0573
   3.5088E-01   3.5941E-01   8.2567E-05  0.0531
   3.5941E-01   3.6816E-01   7.8174E-05  0.0540
   3.6816E-01   3.7712E-01   8.6063E-05  0.0508
   3.7712E-01   3.8629E-01   8.3954E-05  0.0508
   3.8629E-01   3.9569E-01   8.3948E-05  0.0502
   3.9569E-01   4.0532E-01   9.0904E-05  0.0476
   4.0532E-01   4.1518E-01   8.5488E-05  0.0486
   4.1518E-01   4.2528E-01   8.9828E-05  0.0469
   4.2528E-01   4.3563E-01   8.9908E-05  0.0463
   4.3563E-01   4.4623E-01   9.9516E-05  0.0434
   4.4623E-01   4.5708E-01   9.4075E-05  0.0441
   4.5708E-01   4.6821E-01   9.6562E-05  0.0431
   4.6821E-01   4.7960E-01   9.6462E-05  0.0426
   4.7960E-01   4.9127E-01   9.8832E-05  0.0415
   4.9127E-01   5.0322E-01   9.7874E-05  0.0413
   5.0322E-01   5.1546E-01   9.5923E-05  0.0412
   5.1546E-01   5.2800E-01   1.0260E-04  0.0393
   5.2800E-01   5.4085E-01   1.0480E-04  0.0384
   5.4085E-01   5.5401E-01   1.1931E-04  0.0356
   5.5401E-01   5.6749E-01   1.0755E-04  0.0370
   5.6749E-01   5.8130E-01   1.1369E-04  0.0356
   5.8130E-01   5.9544E-01   1.1750E-04  0.0346
   5.9544E-01   6.0993E-01   1.1937E-04  0.0339
   6.0993E-01   6.2477E-01   1.2454E-04  0.0328
   6.2477E-01   6.3997E-01   1.2234E-04  0.0327
   6.3997E-01   6.5554E-01   1.2336E-04  0.0322
   6.5554E-01   6.7149E-01   1.2389E-04  0.0318
   6.7149E-01   6.8783E-01   1.3007E-04  0.0306
   6.8783E-01   7.0456E-01   1.2484E-04  0.0309
   7.0456E-01   7.2171E-01   1.2554E-04  0.0304
   7.2171E-01   7.3927E-01   1.2961E-04  0.0296
   7.3927E-01   7.5725E-01   1.3710E-04  0.0284
   7.5725E-01   7.7568E-01   1.4512E-04  0.0273
   7.7568E-01   7.9455E-01   1.3803E-04  0.0276
   7.9455E-01   8.1388E-01   1.4473E-04  0.0267
   8.1388E-01   8.3368E-01   1.4273E-04  0.0265
   8.3368E-01   8.5397E-01   1.5083E-04  0.0255
   8.5397E-01   8.7475E-01   1.5114E-04  0.0252
   8.7475E-01   8.9603E-01   1.5038E-04  0.0249
   8.9603E-01   9.1783E-01   1.5054E-04  0.0246
   9.1783E-01   9.4016E-01   1.5897E-04  0.0237
   9.4016E-01   9.6304E-01   1.5288E-04  0.0238
   9.6304E-01   9.8647E-01   1.5813E-04  0.0232
   9.8647E-01   1.0105E+00   1.5851E-04  0.0229
   1.0105E+00   1.0351E+00   1.5596E-04  0.0228
   1.0351E+00   1.0602E+00   1.6474E-04  0.0219
   1.0602E+00   1.0860E+00   1.5574E-04  0.0222
   1.0860E+00   1.1125E+00   1.5783E-04  0.0218
   1.1125E+00   1.1395E+00   1.6500E-04  0.0211
   1.1395E+00   1.1673E+00   1.5900E-04  0.0212
   1.1673E+00   1.1957E+00   1.6289E-04  0.0207
   1.1957E+00   1.2247E+00   1.6712E-04  0.0202
   1.2247E+00   1.2545E+00   1.6574E-04  0.0200
   1.2545E+00   1.2851E+00   1.6498E-04  0.0199
   1.2851E+00   1.3163E+00   1.6308E-04  0.0197
   1.3163E+00   1.3484E+00   1.6392E-04  0.0195
   1.3484E+00   1.3812E+00   1.6723E-04  0.0190
   1.3812E+00   1.4148E+00   1.6769E-04  0.0188
   1.4148E+00   1.4492E+00   1.6741E-04  0.0186
   1.4492E+00   1.4845E+00   1.6893E-04  0.0183
   1.4845E+00   1.5206E+00   1.6408E-04  0.0183
   1.5206E+00   1.5576E+00   1.6169E-04  0.0182
   1.5576E+00   1.5955E+00   1.6275E-04  0.0179
   1.5955E+00   1.6343E+00   1.6428E-04  0.0176
   1.6343E+00   1.6741E+00   1.6409E-04  0.0174
   1.6741E+00   1.7148E+00   1.6479E-04  0.0172
   1.7148E+00   1.7565E+00   1.5448E-04  0.0176
   1.7565E+00   1.7992E+00   1.5872E-04  0.0171
   1.7992E+00   1.8430E+00   1.5661E-04  0.0170
   1.8430E+00   1.8879E+00   1.5951E-04  0.0167
   1.8879E+00   1.9338E+00   1.5574E-04  0.0167
   1.9338E+00   1.9808E+00   1.5372E-04  0.0165
   1.9808E+00   2.0290E+00   1.5294E-04  0.0164
   2.0290E+00   2.0784E+00   1.5123E-04  0.0163
   2.0784E+00   2.1290E+00   1.4922E-04  0.0162
   2.1290E+00   2.1808E+00   1.4982E-04  0.0160
   2.1808E+00   2.2338E+00   1.4458E-04  0.0161
   2.2338E+00   2.2882E+00   1.4617E-04  0.0158
   2.2882E+00   2.3439E+00   1.4319E-04  0.0158
   2.3439E+00   2.4009E+00   1.4515E-04  0.0155
   2.4009E+00   2.4593E+00   1.3794E-04  0.0157
   2.4593E+00   2.5191E+00   1.3502E-04  0.0157
   2.5191E+00   2.5804E+00   1.3695E-04  0.0154
   2.5804E+00   2.6432E+00   1.3497E-04  0.0153
   2.6432E+00   2.7075E+00   1.3118E-04  0.0153
   2.7075E+00   2.7734E+00   1.2869E-04  0.0153
   2.7734E+00   2.8409E+00   1.2421E-04  0.0154
   2.8409E+00   2.9100E+00   1.2373E-04  0.0152
   2.9100E+00   2.9808E+00   1.2105E-04  0.0152
   2.9808E+00   3.0533E+00   1.2199E-04  0.0150
   3.0533E+00   3.1276E+00   1.2075E-04  0.0149
   3.1276E+00   3.2037E+00   1.1300E-04  0.0152
   3.2037E+00   3.2817E+00   1.1559E-04  0.0148
   3.2817E+00   3.3615E+00   1.1135E-04  0.0149
   3.3615E+00   3.4433E+00   1.1055E-04  0.0148
   3.4433E+00   3.5271E+00   1.0756E-04  0.0148
   3.5271E+00   3.6129E+00   1.0651E-04  0.0147
   3.6129E+00   3.7008E+00   1.0260E-04  0.0148
   3.7008E+00   3.7908E+00   1.0367E-04  0.0145
   3.7908E+00   3.8831E+00   9.9584E-05  0.0147
   3.8831E+00   3.9776E+00   9.7807E-05  0.0146
   3.9776E+00   4.0743E+00   9.7666E-05  0.0145
   4.0743E+00   4.1735E+00   9.7585E-05  0.0143
   4.1735E+00   4.2750E+00   9.5499E-05  0.0143
   4.2750E+00   4.3790E+00   9.3573E-05  0.0143
   4.3790E+00   4.4856E+00   9.2121E-05  0.0142
   4.4856E+00   4.5947E+00   9.2561E-05  0.0140
   4.5947E+00   4.7065E+00   8.8573E-05  0.0141
   4.7065E+00   4.8210E+00   8.5857E-05  0.0142
   4.8210E+00   4.9383E+00   8.6038E-05  0.0140
   4.9383E+00   5.0585E+00   8.6893E-05  0.0138
   5.0585E+00   5.1815E+00   8.4700E-05  0.0138
   5.1815E+00   5.3076E+00   8.1348E-05  0.0139
   5.3076E+00   5.4368E+00   7.9684E-05  0.0139
   5.4368E+00   5.5690E+00   8.0136E-05  0.0137
   5.5690E+00   5.7045E+00   7.7056E-05  0.0138
   5.7045E+00   5.8433E+00   7.6207E-05  0.0137
   5.8433E+00   5.9855E+00   7.5385E-05  0.0136
   5.9855E+00   6.1311E+00   7.5751E-05  0.0134
   6.1311E+00   6.2803E+00   7.3096E-05  0.0135
   6.2803E+00   6.4331E+00   7.3497E-05  0.0133
   6.4331E+00   6.5896E+00   7.2304E-05  0.0132
   6.5896E+00   6.7500E+00   6.9796E-05  0.0133
   6.7500E+00   6.9142E+00   7.0313E-05  0.0131
   6.9142E+00   7.0824E+00   6.7730E-05  0.0132
   7.0824E+00   7.2548E+00   6.7713E-05  0.0130
   7.2548E+00   7.4313E+00   6.6235E-05  0.0130
   7.4313E+00   7.6121E+00   6.5036E-05  0.0130
   7.6121E+00   7.7973E+00   6.4800E-05  0.0129
   7.7973E+00   7.9870E+00   6.0815E-05  0.0131
   7.9870E+00   8.1813E+00   6.2045E-05  0.0128
   8.1813E+00   8.3804E+00   6.0577E-05  0.0128
   8.3804E+00   8.5843E+00   6.0186E-05  0.0127
   8.5843E+00   8.7931E+00   5.8184E-05  0.0128
   8.7931E+00   9.0071E+00   5.7965E-05  0.0127
   9.0071E+00   9.2262E+00   5.8226E-05  0.0125
   9.2262E+00   9.4507E+00   5.7017E-05  0.0125
   9.4507E+00   9.6807E+00   5.5394E-05  0.0125
   9.6807E+00   9.9162E+00   5.5032E-05  0.0124
   9.9162E+00   1.0157E+01   5.5008E-05  0.0123
   1.0157E+01   1.0405E+01   5.4330E-05  0.0122
   1.0405E+01   1.0658E+01   5.3589E-05  0.0121
   1.0658E+01   1.0917E+01   5.2111E-05  0.0121
   1.0917E+01   1.1183E+01   5.1794E-05  0.0120
   1.1183E+01   1.1455E+01   5.0564E-05  0.0120
   1.1455E+01   1.1733E+01   5.0824E-05  0.0119
   1.1733E+01   1.2019E+01   4.9792E-05  0.0118
   1.2019E+01   1.2311E+01   4.9173E-05  0.0118
   1.2311E+01   1.2611E+01   4.8059E-05  0.0118
   1.2611E+01   1.2918E+01   4.7650E-05  0.0117
   1.2918E+01   1.3232E+01   4.7353E-05  0.0116
   1.3232E+01   1.3554E+01   4.6551E-05  0.0115
   1.3554E+01   1.3884E+01   4.6656E-05  0.0114
   1.3884E+01   1.4222E+01   4.5899E-05  0.0113
   1.4222E+01   1.4568E+01   4.5271E-05  0.0113
   1.4568E+01   1.4922E+01   4.5642E-05  0.0111
   1.4922E+01   1.5285E+01   4.4476E-05  0.0111
   1.5285E+01   1.5657E+01   4.4279E-05  0.0110
   1.5657E+01   1.6038E+01   4.3009E-05  0.0110
   1.6038E+01   1.6428E+01   4.2280E-05  0.0110
   1.6428E+01   1.6828E+01   4.2557E-05  0.0108
   1.6828E+01   1.7237E+01   4.2331E-05  0.0107
   1.7237E+01   1.7657E+01   4.1962E-05  0.0107
   1.7657E+01   1.8086E+01   4.1603E-05  0.0106
   1.8086E+01   1.8526E+01   4.1376E-05  0.0105
   1.8526E+01   1.8977E+01   4.1355E-05  0.0104
   1.8977E+01   1.9439E+01   4.2122E-05  0.0101
   1.9439E+01   1.9912E+01   4.2741E-05  0.0099
   1.9912E+01   2.0396E+01   4.3206E-05  0.0098
   2.0396E+01   2.0893E+01   4.3566E-05  0.0096
   2.0893E+01   2.1401E+01   4.3534E-05  0.0095
   2.1401E+01   2.1922E+01   4.3484E-05  0.0094
   2.1922E+01   2.2455E+01   4.3902E-05  0.0092
   2.2455E+01   2.3001E+01   4.3917E-05  0.0091
   2.3001E+01   2.3561E+01   4.4114E-05  0.0090
   2.3561E+01   2.4134E+01   4.4109E-05  0.0089
   2.4134E+01   2.4721E+01   4.4407E-05  0.0088
   2.4721E+01   2.5323E+01   4.5410E-05  0.0086
   2.5323E+01   2.5939E+01   4.6555E-05  0.0084
   2.5939E+01   2.6570E+01   4.5754E-05  0.0083
   2.6570E+01   2.7217E+01   4.7349E-05  0.0081
   2.7217E+01   2.7879E+01   4.7484E-05  0.0080
   2.7879E+01   2.8557E+01   4.8346E-05  0.0078
   2.8557E+01   2.9252E+01   4.9040E-05  0.0077
   2.9252E+01   2.9964E+01   5.0727E-05  0.0074
   2.9964E+01   3.0693E+01   5.1967E-05  0.0073
   3.0693E+01   3.1440E+01   5.3531E-05  0.0071
   3.1440E+01   3.2205E+01   5.5185E-05  0.0069
   3.2205E+01   3.2988E+01   5.7047E-05  0.0067
   3.2988E+01   3.3791E+01   5.9495E-05  0.0065
   3.3791E+01   3.4613E+01   6.1407E-05  0.0063
   3.4613E+01   3.5455E+01   6.3829E-05  0.0061
   3.5455E+01   3.6318E+01   6.6959E-05  0.0059
   3.6318E+01   3.7201E+01   7.0122E-05  0.0057
   3.7201E+01   3.8106E+01   7.3640E-05  0.0055
   3.8106E+01   3.9034E+01   7.7797E-05  0.0053
   3.9034E+01   3.9983E+01   8.1475E-05  0.0051
   3.9983E+01   4.0956E+01   8.7025E-05  0.0049
   4.0956E+01   4.1953E+01   9.1691E-05  0.0047
   4.1953E+01   4.2973E+01   9.7633E-05  0.0045
   4.2973E+01   4.4019E+01   1.0415E-04  0.0043
   4.4019E+01   4.5090E+01   1.1152E-04  0.0041
   4.5090E+01   4.6187E+01   1.2007E-04  0.0039
   4.6187E+01   4.7311E+01   1.2874E-04  0.0037
   4.7311E+01   4.8462E+01   1.3801E-04  0.0035
   4.8462E+01   4.9641E+01   1.4767E-04  0.0034
   4.9641E+01   5.0849E+01   1.5826E-04  0.0032
   5.0849E+01   5.2086E+01   1.7068E-04  0.0031
   5.2086E+01   5.3353E+01   1.8290E-04  0.0029
   5.3353E+01   5.4651E+01   1.9705E-04  0.0028
   5.4651E+01   5.5981E+01   2.1118E-04  0.0027
   5.5981E+01   5.7343E+01   2.2704E-04  0.0025
   5.7343E+01   5.8738E+01   2.4256E-04  0.0024
   5.8738E+01   6.0168E+01   2.5975E-04  0.0023
   6.0168E+01   6.1632E+01   2.7675E-04  0.0022
   6.1632E+01   6.3131E+01   2.9192E-04  0.0021
   6.3131E+01   6.4667E+01   3.0700E-04  0.0021
   6.4667E+01   6.6240E+01   3.2255E-04  0.0020
   6.6240E+01   6.7852E+01   3.3570E-04  0.0019
   6.7852E+01   6.9503E+01   3.4571E-04  0.0019
   6.9503E+01   7.1194E+01   3.5481E-04  0.0018
   7.1194E+01   7.2926E+01   3.6011E-04  0.0018
   7.2926E+01   7.4701E+01   3.5964E-04  0.0018
   7.4701E+01   7.6518E+01   3.5683E-04  0.0018
   7.6518E+01   7.8380E+01   3.4945E-04  0.0018
   7.8380E+01   8.0287E+01   3.3752E-04  0.0018
   8.0287E+01   8.2240E+01   3.2287E-04  0.0018
   8.2240E+01   8.4241E+01   3.0501E-04  0.0018
   8.4241E+01   8.6291E+01   2.8423E-04  0.0019
   8.6291E+01   8.8391E+01   2.6191E-04  0.0019
   8.8391E+01   9.0541E+01   2.3868E-04  0.0020
   9.0541E+01   9.2744E+01   2.1632E-04  0.0020
   9.2744E+01   9.5001E+01   1.9387E-04  0.0021
   9.5001E+01   9.7312E+01   1.7265E-04  0.0022
   9.7312E+01   9.9680E+01   1.5210E-04  0.0024
   9.9680E+01   1.0211E+02   1.3401E-04  0.0025
   1.0211E+02   1.0459E+02   1.1713E-04  0.0026
   1.0459E+02   1.0713E+02   1.0263E-04  0.0028
   1.0713E+02   1.0974E+02   8.9237E-05  0.0029
   1.0974E+02   1.1241E+02   7.6991E-05  0.0031
   1.1241E+02   1.1515E+02   6.6551E-05  0.0033
   1.1515E+02   1.1795E+02   5.7412E-05  0.0035
   1.1795E+02   1.2082E+02   4.9539E-05  0.0038
   1.2082E+02   1.2376E+02   4.2247E-05  0.0040
   1.2376E+02   1.2677E+02   3.6217E-05  0.0043
   1.2677E+02   1.2985E+02   3.0282E-05  0.0046
   1.2985E+02   1.3301E+02   2.6056E-05  0.0049
   1.3301E+02   1.3625E+02   2.2505E-05  0.0052
   1.3625E+02   1.3956E+02   1.8944E-05  0.0056
   1.3956E+02   1.4296E+02   1.5920E-05  0.0061
   1.4296E+02   1.4644E+02   1.4791E-05  0.0062
   1.4644E+02   1.5000E+02   1.3615E-05  0.0064

#   sum over                 1.3073E-04
'no. =    1   reg = 104 - 204'
msuc: {\huge [t-cross] in region mesh}
msdr: {\it plotted by \ANGEL \version}
msdl: {\it calculated by \PHITS  3.26}
wt: s(0.7)
\vspace{-3}
  region surface crossing
  area  &=&   1.0000E+00 [cm^2]
e:
 
# Information for Restart Calculation
# This calculation was newly started
# istdev =  2 # 1:Batch variance, 2:History variance
# resc2  = 5.00000000000000000E+08 # Total source weight or Total source weight / maxcas
# resc3  = 5.00000000000000000E+08 # Total history number or Total batch number
# maxcas =   500000000 # History / Batch, only used for istdev=1
# bitrseed = 1101101111010011011000101101110001100110110010110001010100010001 # bit data of rseed
