[ T-Cross ]
    title = [t-cross] in region mesh
     mesh =  reg            # mesh type is region-wise
      reg =    1            # number of crossing regions
      non     r-from    r-to       area
      1       114       214        1.000000    
   e-type =    3            # e-mesh is log given by emin, emax and ne
     emin =  1.0000000E-02  # minimum value of e-mesh points
     emax =   150.0000      # maximum value of e-mesh points
#    edel =  2.4039514E-02  # mesh width of e-mesh points
       ne =    400          # number of e-mesh points
#    data = ( e(i), i = 1, ne + 1 )
#           1.00000E-02  1.02433E-02  1.04925E-02  1.07478E-02  1.10093E-02
#           1.12772E-02  1.15516E-02  1.18326E-02  1.21205E-02  1.24154E-02
#           1.27175E-02  1.30269E-02  1.33439E-02  1.36686E-02  1.40011E-02
#           1.43418E-02  1.46907E-02  1.50482E-02  1.54143E-02  1.57894E-02
#           1.61735E-02  1.65670E-02  1.69701E-02  1.73830E-02  1.78060E-02
#           1.82392E-02  1.86830E-02  1.91375E-02  1.96032E-02  2.00801E-02
#           2.05687E-02  2.10692E-02  2.15818E-02  2.21069E-02  2.26448E-02
#           2.31957E-02  2.37601E-02  2.43382E-02  2.49304E-02  2.55369E-02
#           2.61583E-02  2.67947E-02  2.74467E-02  2.81145E-02  2.87985E-02
#           2.94992E-02  3.02169E-02  3.09521E-02  3.17052E-02  3.24766E-02
#           3.32668E-02  3.40762E-02  3.49053E-02  3.57546E-02  3.66246E-02
#           3.75157E-02  3.84284E-02  3.93634E-02  4.03212E-02  4.13022E-02
#           4.23071E-02  4.33365E-02  4.43909E-02  4.54710E-02  4.65773E-02
#           4.77106E-02  4.88714E-02  5.00605E-02  5.12785E-02  5.25262E-02
#           5.38042E-02  5.51133E-02  5.64542E-02  5.78278E-02  5.92348E-02
#           6.06760E-02  6.21523E-02  6.36645E-02  6.52135E-02  6.68002E-02
#           6.84255E-02  7.00904E-02  7.17957E-02  7.35426E-02  7.53319E-02
#           7.71648E-02  7.90423E-02  8.09655E-02  8.29354E-02  8.49533E-02
#           8.70203E-02  8.91376E-02  9.13064E-02  9.35279E-02  9.58035E-02
#           9.81345E-02  1.00522E-01  1.02968E-01  1.05473E-01  1.08040E-01
#           1.10668E-01  1.13361E-01  1.16119E-01  1.18944E-01  1.21838E-01
#           1.24803E-01  1.27839E-01  1.30950E-01  1.34136E-01  1.37399E-01
#           1.40742E-01  1.44167E-01  1.47675E-01  1.51268E-01  1.54948E-01
#           1.58718E-01  1.62580E-01  1.66535E-01  1.70587E-01  1.74738E-01
#           1.78989E-01  1.83344E-01  1.87805E-01  1.92375E-01  1.97055E-01
#           2.01850E-01  2.06761E-01  2.11792E-01  2.16945E-01  2.22223E-01
#           2.27630E-01  2.33169E-01  2.38842E-01  2.44653E-01  2.50605E-01
#           2.56703E-01  2.62949E-01  2.69346E-01  2.75900E-01  2.82613E-01
#           2.89489E-01  2.96532E-01  3.03747E-01  3.11138E-01  3.18708E-01
#           3.26462E-01  3.34405E-01  3.42542E-01  3.50876E-01  3.59413E-01
#           3.68158E-01  3.77116E-01  3.86291E-01  3.95690E-01  4.05317E-01
#           4.15179E-01  4.25281E-01  4.35628E-01  4.46227E-01  4.57084E-01
#           4.68205E-01  4.79597E-01  4.91266E-01  5.03219E-01  5.15463E-01
#           5.28005E-01  5.40851E-01  5.54011E-01  5.67490E-01  5.81298E-01
#           5.95441E-01  6.09929E-01  6.24769E-01  6.39970E-01  6.55541E-01
#           6.71491E-01  6.87828E-01  7.04564E-01  7.21706E-01  7.39266E-01
#           7.57253E-01  7.75678E-01  7.94551E-01  8.13883E-01  8.33685E-01
#           8.53969E-01  8.74747E-01  8.96030E-01  9.17831E-01  9.40163E-01
#           9.63038E-01  9.86469E-01  1.01047E+00  1.03506E+00  1.06024E+00
#           1.08604E+00  1.11246E+00  1.13953E+00  1.16725E+00  1.19565E+00
#           1.22474E+00  1.25454E+00  1.28507E+00  1.31633E+00  1.34836E+00
#           1.38117E+00  1.41477E+00  1.44920E+00  1.48446E+00  1.52057E+00
#           1.55757E+00  1.59547E+00  1.63429E+00  1.67405E+00  1.71478E+00
#           1.75650E+00  1.79924E+00  1.84302E+00  1.88786E+00  1.93379E+00
#           1.98084E+00  2.02904E+00  2.07841E+00  2.12898E+00  2.18078E+00
#           2.23384E+00  2.28819E+00  2.34386E+00  2.40089E+00  2.45930E+00
#           2.51914E+00  2.58043E+00  2.64322E+00  2.70753E+00  2.77341E+00
#           2.84088E+00  2.91001E+00  2.98081E+00  3.05333E+00  3.12762E+00
#           3.20372E+00  3.28167E+00  3.36152E+00  3.44330E+00  3.52708E+00
#           3.61290E+00  3.70080E+00  3.79085E+00  3.88308E+00  3.97756E+00
#           4.07434E+00  4.17347E+00  4.27501E+00  4.37903E+00  4.48557E+00
#           4.59471E+00  4.70650E+00  4.82102E+00  4.93832E+00  5.05847E+00
#           5.18155E+00  5.30762E+00  5.43676E+00  5.56904E+00  5.70453E+00
#           5.84333E+00  5.98550E+00  6.13114E+00  6.28031E+00  6.43312E+00
#           6.58964E+00  6.74997E+00  6.91420E+00  7.08243E+00  7.25475E+00
#           7.43126E+00  7.61207E+00  7.79728E+00  7.98700E+00  8.18133E+00
#           8.38038E+00  8.58428E+00  8.79315E+00  9.00709E+00  9.22624E+00
#           9.45072E+00  9.68067E+00  9.91620E+00  1.01575E+01  1.04046E+01
#           1.06578E+01  1.09171E+01  1.11827E+01  1.14548E+01  1.17335E+01
#           1.20190E+01  1.23114E+01  1.26109E+01  1.29178E+01  1.32321E+01
#           1.35540E+01  1.38838E+01  1.42216E+01  1.45676E+01  1.49221E+01
#           1.52851E+01  1.56570E+01  1.60380E+01  1.64282E+01  1.68279E+01
#           1.72374E+01  1.76568E+01  1.80864E+01  1.85264E+01  1.89772E+01
#           1.94389E+01  1.99119E+01  2.03963E+01  2.08926E+01  2.14009E+01
#           2.19216E+01  2.24550E+01  2.30014E+01  2.35610E+01  2.41343E+01
#           2.47215E+01  2.53230E+01  2.59391E+01  2.65702E+01  2.72167E+01
#           2.78789E+01  2.85572E+01  2.92520E+01  2.99637E+01  3.06928E+01
#           3.14396E+01  3.22045E+01  3.29881E+01  3.37907E+01  3.46128E+01
#           3.54550E+01  3.63177E+01  3.72013E+01  3.81064E+01  3.90336E+01
#           3.99833E+01  4.09561E+01  4.19526E+01  4.29734E+01  4.40189E+01
#           4.50900E+01  4.61870E+01  4.73108E+01  4.84619E+01  4.96410E+01
#           5.08488E+01  5.20860E+01  5.33533E+01  5.46514E+01  5.59812E+01
#           5.73432E+01  5.87384E+01  6.01676E+01  6.16315E+01  6.31311E+01
#           6.46671E+01  6.62405E+01  6.78522E+01  6.95031E+01  7.11941E+01
#           7.29263E+01  7.47007E+01  7.65182E+01  7.83800E+01  8.02870E+01
#           8.22405E+01  8.42414E+01  8.62911E+01  8.83906E+01  9.05412E+01
#           9.27442E+01  9.50007E+01  9.73122E+01  9.96799E+01  1.02105E+02
#           1.04589E+02  1.07134E+02  1.09741E+02  1.12411E+02  1.15146E+02
#           1.17948E+02  1.20817E+02  1.23757E+02  1.26768E+02  1.29852E+02
#           1.33012E+02  1.36248E+02  1.39563E+02  1.42959E+02  1.46437E+02
#           1.50000E+02
     unit =    2            # unit is [1/cm^2/(MeV/n)/source]
     axis =  eng            # axis of output
     file = detector-15.out  # file name of output for the above axis
   output = f-curr          # surface crossing forward current spectrum
     part =  neutron  
# kf/name :  2112     
#    used :        main (  %)        temp (  %)       total (  %)
#  memory :         414 (  0)           0 (  0)         414 (  0)

#------------------------------------------------------------------------------
#newpage:
#   no. =    1   reg = 114 - 214

x: Energy [MeV/n]
y:  F-Curr [1/cm^2/(MeV/n)/source]         
p: xlog ylog afac(0.8) form(0.9)
h: n            x            y(neutron ),hh0l   n 
#  e-lower      e-upper      neutron     r.err 
   1.0000E-02   1.0243E-02   7.1749E-04  0.0405
   1.0243E-02   1.0493E-02   7.7038E-04  0.0386
   1.0493E-02   1.0748E-02   6.8269E-04  0.0405
   1.0748E-02   1.1009E-02   7.3203E-04  0.0387
   1.1009E-02   1.1277E-02   6.7518E-04  0.0397
   1.1277E-02   1.1552E-02   6.6851E-04  0.0395
   1.1552E-02   1.1833E-02   6.9635E-04  0.0382
   1.1833E-02   1.2121E-02   7.2248E-04  0.0371
   1.2121E-02   1.2415E-02   6.8013E-04  0.0377
   1.2415E-02   1.2718E-02   6.8951E-04  0.0370
   1.2718E-02   1.3027E-02   6.7867E-04  0.0369
   1.3027E-02   1.3344E-02   7.2746E-04  0.0352
   1.3344E-02   1.3669E-02   6.7674E-04  0.0361
   1.3669E-02   1.4001E-02   7.2681E-04  0.0344
   1.4001E-02   1.4342E-02   7.2549E-04  0.0340
   1.4342E-02   1.4691E-02   6.7468E-04  0.0348
   1.4691E-02   1.5048E-02   6.8424E-04  0.0342
   1.5048E-02   1.5414E-02   7.0973E-04  0.0332
   1.5414E-02   1.5789E-02   7.0773E-04  0.0328
   1.5789E-02   1.6174E-02   7.1174E-04  0.0323
   1.6174E-02   1.6567E-02   7.3441E-04  0.0314
   1.6567E-02   1.6970E-02   7.1377E-04  0.0315
   1.6970E-02   1.7383E-02   7.1689E-04  0.0311
   1.7383E-02   1.7806E-02   7.0121E-04  0.0310
   1.7806E-02   1.8239E-02   6.8719E-04  0.0310
   1.8239E-02   1.8683E-02   6.9727E-04  0.0304
   1.8683E-02   1.9138E-02   7.1747E-04  0.0296
   1.9138E-02   1.9603E-02   6.9706E-04  0.0297
   1.9603E-02   2.0080E-02   6.8829E-04  0.0295
   2.0080E-02   2.0569E-02   6.8831E-04  0.0291
   2.0569E-02   2.1069E-02   6.9137E-04  0.0287
   2.1069E-02   2.1582E-02   7.1006E-04  0.0280
   2.1582E-02   2.2107E-02   6.6817E-04  0.0285
   2.2107E-02   2.2645E-02   6.9373E-04  0.0277
   2.2645E-02   2.3196E-02   6.5029E-04  0.0282
   2.3196E-02   2.3760E-02   7.2546E-04  0.0264
   2.3760E-02   2.4338E-02   6.7907E-04  0.0270
   2.4338E-02   2.4930E-02   7.1939E-04  0.0259
   2.4930E-02   2.5537E-02   6.7922E-04  0.0263
   2.5537E-02   2.6158E-02   6.9528E-04  0.0257
   2.6158E-02   2.6795E-02   6.9044E-04  0.0255
   2.6795E-02   2.7447E-02   7.1611E-04  0.0247
   2.7447E-02   2.8114E-02   6.9931E-04  0.0247
   2.8114E-02   2.8799E-02   6.8625E-04  0.0247
   2.8799E-02   2.9499E-02   6.6383E-04  0.0248
   2.9499E-02   3.0217E-02   7.0061E-04  0.0238
   3.0217E-02   3.0952E-02   6.5560E-04  0.0243
   3.0952E-02   3.1705E-02   6.6203E-04  0.0239
   3.1705E-02   3.2477E-02   6.8501E-04  0.0233
   3.2477E-02   3.3267E-02   7.0436E-04  0.0227
   3.3267E-02   3.4076E-02   6.9133E-04  0.0226
   3.4076E-02   3.4905E-02   7.1127E-04  0.0220
   3.4905E-02   3.5755E-02   6.6746E-04  0.0225
   3.5755E-02   3.6625E-02   6.6786E-04  0.0222
   3.6625E-02   3.7516E-02   6.7509E-04  0.0218
   3.7516E-02   3.8428E-02   6.4121E-04  0.0221
   3.8428E-02   3.9363E-02   6.7686E-04  0.0212
   3.9363E-02   4.0321E-02   6.8614E-04  0.0208
   4.0321E-02   4.1302E-02   6.7916E-04  0.0207
   4.1302E-02   4.2307E-02   6.6445E-04  0.0207
   4.2307E-02   4.3337E-02   6.6449E-04  0.0204
   4.3337E-02   4.4391E-02   7.0479E-04  0.0196
   4.4391E-02   4.5471E-02   6.7496E-04  0.0198
   4.5471E-02   4.6577E-02   6.6500E-04  0.0197
   4.6577E-02   4.7711E-02   6.6836E-04  0.0194
   4.7711E-02   4.8871E-02   6.6528E-04  0.0192
   4.8871E-02   5.0061E-02   6.9598E-04  0.0186
   5.0061E-02   5.1279E-02   6.6138E-04  0.0188
   5.1279E-02   5.2526E-02   6.4865E-04  0.0188
   5.2526E-02   5.3804E-02   6.5180E-04  0.0185
   5.3804E-02   5.5113E-02   6.4690E-04  0.0184
   5.5113E-02   5.6454E-02   6.6477E-04  0.0179
   5.6454E-02   5.7828E-02   6.8195E-04  0.0175
   5.7828E-02   5.9235E-02   6.3509E-04  0.0179
   5.9235E-02   6.0676E-02   6.5133E-04  0.0174
   6.0676E-02   6.2152E-02   6.4650E-04  0.0173
   6.2152E-02   6.3665E-02   6.4824E-04  0.0171
   6.3665E-02   6.5214E-02   6.4004E-04  0.0170
   6.5214E-02   6.6800E-02   6.5212E-04  0.0166
   6.6800E-02   6.8426E-02   6.4199E-04  0.0165
   6.8426E-02   7.0090E-02   6.4536E-04  0.0163
   7.0090E-02   7.1796E-02   6.3816E-04  0.0162
   7.1796E-02   7.3543E-02   6.5260E-04  0.0158
   7.3543E-02   7.5332E-02   6.4676E-04  0.0157
   7.5332E-02   7.7165E-02   6.3413E-04  0.0157
   7.7165E-02   7.9042E-02   6.2721E-04  0.0156
   7.9042E-02   8.0965E-02   6.3571E-04  0.0153
   8.0965E-02   8.2935E-02   6.3780E-04  0.0151
   8.2935E-02   8.4953E-02   6.1960E-04  0.0151
   8.4953E-02   8.7020E-02   6.2928E-04  0.0148
   8.7020E-02   8.9138E-02   6.2425E-04  0.0147
   8.9138E-02   9.1306E-02   6.2056E-04  0.0146
   9.1306E-02   9.3528E-02   6.1932E-04  0.0144
   9.3528E-02   9.5804E-02   6.0235E-04  0.0144
   9.5804E-02   9.8134E-02   6.2684E-04  0.0140
   9.8134E-02   1.0052E-01   6.2086E-04  0.0139
   1.0052E-01   1.0297E-01   6.1114E-04  0.0138
   1.0297E-01   1.0547E-01   6.0814E-04  0.0137
   1.0547E-01   1.0804E-01   6.1012E-04  0.0135
   1.0804E-01   1.1067E-01   5.9606E-04  0.0135
   1.1067E-01   1.1336E-01   6.1607E-04  0.0131
   1.1336E-01   1.1612E-01   6.0009E-04  0.0131
   1.1612E-01   1.1894E-01   5.9989E-04  0.0130
   1.1894E-01   1.2184E-01   6.0154E-04  0.0128
   1.2184E-01   1.2480E-01   6.0012E-04  0.0127
   1.2480E-01   1.2784E-01   5.9108E-04  0.0126
   1.2784E-01   1.3095E-01   6.0221E-04  0.0124
   1.3095E-01   1.3414E-01   5.9392E-04  0.0123
   1.3414E-01   1.3740E-01   5.9364E-04  0.0121
   1.3740E-01   1.4074E-01   5.7933E-04  0.0121
   1.4074E-01   1.4417E-01   5.9273E-04  0.0119
   1.4417E-01   1.4767E-01   5.8300E-04  0.0118
   1.4767E-01   1.5127E-01   5.8681E-04  0.0116
   1.5127E-01   1.5495E-01   5.8071E-04  0.0116
   1.5495E-01   1.5872E-01   5.7200E-04  0.0115
   1.5872E-01   1.6258E-01   5.7550E-04  0.0113
   1.6258E-01   1.6654E-01   5.6783E-04  0.0113
   1.6654E-01   1.7059E-01   5.6213E-04  0.0112
   1.7059E-01   1.7474E-01   5.7452E-04  0.0109
   1.7474E-01   1.7899E-01   5.7324E-04  0.0108
   1.7899E-01   1.8334E-01   5.7045E-04  0.0107
   1.8334E-01   1.8781E-01   5.6414E-04  0.0107
   1.8781E-01   1.9237E-01   5.6484E-04  0.0105
   1.9237E-01   1.9706E-01   5.5408E-04  0.0105
   1.9706E-01   2.0185E-01   5.5942E-04  0.0103
   2.0185E-01   2.0676E-01   5.4334E-04  0.0103
   2.0676E-01   2.1179E-01   5.4869E-04  0.0102
   2.1179E-01   2.1694E-01   5.4614E-04  0.0101
   2.1694E-01   2.2222E-01   5.4329E-04  0.0100
   2.2222E-01   2.2763E-01   5.3757E-04  0.0099
   2.2763E-01   2.3317E-01   5.3687E-04  0.0098
   2.3317E-01   2.3884E-01   5.3797E-04  0.0097
   2.3884E-01   2.4465E-01   5.2335E-04  0.0097
   2.4465E-01   2.5061E-01   5.3331E-04  0.0095
   2.5061E-01   2.5670E-01   5.2338E-04  0.0095
   2.5670E-01   2.6295E-01   5.1850E-04  0.0094
   2.6295E-01   2.6935E-01   5.2447E-04  0.0092
   2.6935E-01   2.7590E-01   5.1777E-04  0.0092
   2.7590E-01   2.8261E-01   5.1971E-04  0.0090
   2.8261E-01   2.8949E-01   5.0572E-04  0.0091
   2.8949E-01   2.9653E-01   5.0693E-04  0.0089
   2.9653E-01   3.0375E-01   5.0871E-04  0.0088
   3.0375E-01   3.1114E-01   5.0015E-04  0.0088
   3.1114E-01   3.1871E-01   5.0429E-04  0.0087
   3.1871E-01   3.2646E-01   4.9714E-04  0.0086
   3.2646E-01   3.3441E-01   4.8662E-04  0.0086
   3.3441E-01   3.4254E-01   4.8121E-04  0.0085
   3.4254E-01   3.5088E-01   4.7881E-04  0.0085
   3.5088E-01   3.5941E-01   4.7862E-04  0.0084
   3.5941E-01   3.6816E-01   4.8104E-04  0.0082
   3.6816E-01   3.7712E-01   4.7449E-04  0.0082
   3.7712E-01   3.8629E-01   4.7158E-04  0.0081
   3.8629E-01   3.9569E-01   4.6324E-04  0.0081
   3.9569E-01   4.0532E-01   4.6347E-04  0.0080
   4.0532E-01   4.1518E-01   4.5194E-04  0.0080
   4.1518E-01   4.2528E-01   4.5287E-04  0.0079
   4.2528E-01   4.3563E-01   4.4730E-04  0.0079
   4.3563E-01   4.4623E-01   4.3993E-04  0.0078
   4.4623E-01   4.5708E-01   4.3649E-04  0.0078
   4.5708E-01   4.6821E-01   4.3362E-04  0.0077
   4.6821E-01   4.7960E-01   4.3519E-04  0.0076
   4.7960E-01   4.9127E-01   4.3239E-04  0.0075
   4.9127E-01   5.0322E-01   4.2024E-04  0.0075
   5.0322E-01   5.1546E-01   4.1770E-04  0.0075
   5.1546E-01   5.2800E-01   4.1291E-04  0.0074
   5.2800E-01   5.4085E-01   4.0712E-04  0.0074
   5.4085E-01   5.5401E-01   4.0109E-04  0.0074
   5.5401E-01   5.6749E-01   3.8937E-04  0.0074
   5.6749E-01   5.8130E-01   3.9181E-04  0.0073
   5.8130E-01   5.9544E-01   3.8873E-04  0.0072
   5.9544E-01   6.0993E-01   3.8441E-04  0.0072
   6.0993E-01   6.2477E-01   3.6807E-04  0.0072
   6.2477E-01   6.3997E-01   3.7131E-04  0.0071
   6.3997E-01   6.5554E-01   3.6763E-04  0.0071
   6.5554E-01   6.7149E-01   3.5630E-04  0.0071
   6.7149E-01   6.8783E-01   3.4633E-04  0.0071
   6.8783E-01   7.0456E-01   3.4125E-04  0.0071
   7.0456E-01   7.2171E-01   3.3591E-04  0.0070
   7.2171E-01   7.3927E-01   3.2479E-04  0.0071
   7.3927E-01   7.5725E-01   3.2150E-04  0.0070
   7.5725E-01   7.7568E-01   3.1189E-04  0.0071
   7.7568E-01   7.9455E-01   3.0730E-04  0.0070
   7.9455E-01   8.1388E-01   2.9757E-04  0.0070
   8.1388E-01   8.3368E-01   2.9215E-04  0.0070
   8.3368E-01   8.5397E-01   2.8234E-04  0.0071
   8.5397E-01   8.7475E-01   2.7396E-04  0.0071
   8.7475E-01   8.9603E-01   2.6710E-04  0.0071
   8.9603E-01   9.1783E-01   2.5617E-04  0.0072
   9.1783E-01   9.4016E-01   2.4818E-04  0.0072
   9.4016E-01   9.6304E-01   2.3644E-04  0.0073
   9.6304E-01   9.8647E-01   2.3051E-04  0.0073
   9.8647E-01   1.0105E+00   2.2130E-04  0.0073
   1.0105E+00   1.0351E+00   2.2050E-04  0.0073
   1.0351E+00   1.0602E+00   2.2166E-04  0.0072
   1.0602E+00   1.0860E+00   2.2798E-04  0.0070
   1.0860E+00   1.1125E+00   2.2401E-04  0.0069
   1.1125E+00   1.1395E+00   2.3044E-04  0.0068
   1.1395E+00   1.1673E+00   2.3374E-04  0.0066
   1.1673E+00   1.1957E+00   2.4051E-04  0.0065
   1.1957E+00   1.2247E+00   2.4723E-04  0.0063
   1.2247E+00   1.2545E+00   2.4516E-04  0.0063
   1.2545E+00   1.2851E+00   2.4676E-04  0.0062
   1.2851E+00   1.3163E+00   2.4946E-04  0.0061
   1.3163E+00   1.3484E+00   2.5434E-04  0.0059
   1.3484E+00   1.3812E+00   2.5541E-04  0.0058
   1.3812E+00   1.4148E+00   2.6239E-04  0.0057
   1.4148E+00   1.4492E+00   2.5916E-04  0.0057
   1.4492E+00   1.4845E+00   2.5914E-04  0.0056
   1.4845E+00   1.5206E+00   2.5862E-04  0.0055
   1.5206E+00   1.5576E+00   2.6323E-04  0.0054
   1.5576E+00   1.5955E+00   2.6126E-04  0.0054
   1.5955E+00   1.6343E+00   2.6397E-04  0.0053
   1.6343E+00   1.6741E+00   2.6514E-04  0.0052
   1.6741E+00   1.7148E+00   2.7294E-04  0.0051
   1.7148E+00   1.7565E+00   2.7149E-04  0.0050
   1.7565E+00   1.7992E+00   2.7063E-04  0.0050
   1.7992E+00   1.8430E+00   2.6827E-04  0.0049
   1.8430E+00   1.8879E+00   2.7207E-04  0.0048
   1.8879E+00   1.9338E+00   2.7283E-04  0.0048
   1.9338E+00   1.9808E+00   2.7519E-04  0.0047
   1.9808E+00   2.0290E+00   2.7600E-04  0.0046
   2.0290E+00   2.0784E+00   2.7813E-04  0.0046
   2.0784E+00   2.1290E+00   2.7456E-04  0.0045
   2.1290E+00   2.1808E+00   2.7316E-04  0.0045
   2.1808E+00   2.2338E+00   2.7497E-04  0.0044
   2.2338E+00   2.2882E+00   2.7253E-04  0.0044
   2.2882E+00   2.3439E+00   2.7384E-04  0.0043
   2.3439E+00   2.4009E+00   2.7834E-04  0.0042
   2.4009E+00   2.4593E+00   2.7694E-04  0.0042
   2.4593E+00   2.5191E+00   2.7425E-04  0.0042
   2.5191E+00   2.5804E+00   2.7214E-04  0.0041
   2.5804E+00   2.6432E+00   2.7153E-04  0.0041
   2.6432E+00   2.7075E+00   2.6872E-04  0.0041
   2.7075E+00   2.7734E+00   2.6946E-04  0.0040
   2.7734E+00   2.8409E+00   2.6794E-04  0.0040
   2.8409E+00   2.9100E+00   2.7193E-04  0.0039
   2.9100E+00   2.9808E+00   2.7250E-04  0.0038
   2.9808E+00   3.0533E+00   2.6735E-04  0.0038
   3.0533E+00   3.1276E+00   2.6353E-04  0.0038
   3.1276E+00   3.2037E+00   2.6191E-04  0.0038
   3.2037E+00   3.2817E+00   2.5790E-04  0.0038
   3.2817E+00   3.3615E+00   2.5576E-04  0.0037
   3.3615E+00   3.4433E+00   2.5229E-04  0.0037
   3.4433E+00   3.5271E+00   2.4922E-04  0.0037
   3.5271E+00   3.6129E+00   2.5048E-04  0.0036
   3.6129E+00   3.7008E+00   2.4656E-04  0.0036
   3.7008E+00   3.7908E+00   2.4218E-04  0.0036
   3.7908E+00   3.8831E+00   2.3672E-04  0.0036
   3.8831E+00   3.9776E+00   2.3640E-04  0.0036
   3.9776E+00   4.0743E+00   2.3030E-04  0.0036
   4.0743E+00   4.1735E+00   2.2373E-04  0.0036
   4.1735E+00   4.2750E+00   2.1862E-04  0.0036
   4.2750E+00   4.3790E+00   2.1295E-04  0.0036
   4.3790E+00   4.4856E+00   2.0780E-04  0.0036
   4.4856E+00   4.5947E+00   2.0361E-04  0.0036
   4.5947E+00   4.7065E+00   1.9897E-04  0.0036
   4.7065E+00   4.8210E+00   1.9279E-04  0.0036
   4.8210E+00   4.9383E+00   1.8924E-04  0.0036
   4.9383E+00   5.0585E+00   1.8412E-04  0.0036
   5.0585E+00   5.1815E+00   1.7875E-04  0.0036
   5.1815E+00   5.3076E+00   1.7131E-04  0.0036
   5.3076E+00   5.4368E+00   1.6556E-04  0.0037
   5.4368E+00   5.5690E+00   1.5815E-04  0.0037
   5.5690E+00   5.7045E+00   1.5385E-04  0.0037
   5.7045E+00   5.8433E+00   1.4818E-04  0.0037
   5.8433E+00   5.9855E+00   1.4348E-04  0.0037
   5.9855E+00   6.1311E+00   1.3825E-04  0.0038
   6.1311E+00   6.2803E+00   1.3161E-04  0.0038
   6.2803E+00   6.4331E+00   1.2582E-04  0.0039
   6.4331E+00   6.5896E+00   1.2111E-04  0.0039
   6.5896E+00   6.7500E+00   1.1651E-04  0.0039
   6.7500E+00   6.9142E+00   1.1142E-04  0.0039
   6.9142E+00   7.0824E+00   1.0618E-04  0.0040
   7.0824E+00   7.2548E+00   1.0074E-04  0.0041
   7.2548E+00   7.4313E+00   9.6523E-05  0.0041
   7.4313E+00   7.6121E+00   9.2244E-05  0.0041
   7.6121E+00   7.7973E+00   8.8339E-05  0.0042
   7.7973E+00   7.9870E+00   8.4130E-05  0.0042
   7.9870E+00   8.1813E+00   7.9057E-05  0.0043
   8.1813E+00   8.3804E+00   7.6324E-05  0.0043
   8.3804E+00   8.5843E+00   7.1828E-05  0.0044
   8.5843E+00   8.7931E+00   6.9008E-05  0.0044
   8.7931E+00   9.0071E+00   6.5350E-05  0.0045
   9.0071E+00   9.2262E+00   6.1961E-05  0.0046
   9.2262E+00   9.4507E+00   5.8609E-05  0.0047
   9.4507E+00   9.6807E+00   5.5938E-05  0.0047
   9.6807E+00   9.9162E+00   5.3599E-05  0.0048
   9.9162E+00   1.0157E+01   5.0651E-05  0.0048
   1.0157E+01   1.0405E+01   4.8283E-05  0.0049
   1.0405E+01   1.0658E+01   4.5826E-05  0.0050
   1.0658E+01   1.0917E+01   4.3542E-05  0.0050
   1.0917E+01   1.1183E+01   4.1564E-05  0.0051
   1.1183E+01   1.1455E+01   3.9464E-05  0.0052
   1.1455E+01   1.1733E+01   3.7589E-05  0.0052
   1.1733E+01   1.2019E+01   3.5646E-05  0.0053
   1.2019E+01   1.2311E+01   3.3846E-05  0.0054
   1.2311E+01   1.2611E+01   3.2132E-05  0.0054
   1.2611E+01   1.2918E+01   3.0866E-05  0.0055
   1.2918E+01   1.3232E+01   2.9139E-05  0.0056
   1.3232E+01   1.3554E+01   2.7754E-05  0.0057
   1.3554E+01   1.3884E+01   2.6159E-05  0.0058
   1.3884E+01   1.4222E+01   2.5018E-05  0.0058
   1.4222E+01   1.4568E+01   2.3892E-05  0.0059
   1.4568E+01   1.4922E+01   2.2636E-05  0.0060
   1.4922E+01   1.5285E+01   2.1332E-05  0.0061
   1.5285E+01   1.5657E+01   2.0269E-05  0.0062
   1.5657E+01   1.6038E+01   1.9088E-05  0.0063
   1.6038E+01   1.6428E+01   1.8017E-05  0.0064
   1.6428E+01   1.6828E+01   1.7584E-05  0.0064
   1.6828E+01   1.7237E+01   1.6286E-05  0.0065
   1.7237E+01   1.7657E+01   1.5316E-05  0.0067
   1.7657E+01   1.8086E+01   1.4562E-05  0.0068
   1.8086E+01   1.8526E+01   1.3730E-05  0.0069
   1.8526E+01   1.8977E+01   1.2822E-05  0.0070
   1.8977E+01   1.9439E+01   1.2089E-05  0.0072
   1.9439E+01   1.9912E+01   1.1432E-05  0.0073
   1.9912E+01   2.0396E+01   1.0135E-05  0.0076
   2.0396E+01   2.0893E+01   9.5227E-06  0.0078
   2.0893E+01   2.1401E+01   9.0132E-06  0.0079
   2.1401E+01   2.1922E+01   8.2938E-06  0.0081
   2.1922E+01   2.2455E+01   7.7828E-06  0.0083
   2.2455E+01   2.3001E+01   7.3365E-06  0.0084
   2.3001E+01   2.3561E+01   6.7543E-06  0.0087
   2.3561E+01   2.4134E+01   6.1603E-06  0.0090
   2.4134E+01   2.4721E+01   5.7634E-06  0.0092
   2.4721E+01   2.5323E+01   5.2916E-06  0.0095
   2.5323E+01   2.5939E+01   4.8580E-06  0.0098
   2.5939E+01   2.6570E+01   4.4511E-06  0.0101
   2.6570E+01   2.7217E+01   4.0855E-06  0.0104
   2.7217E+01   2.7879E+01   3.6683E-06  0.0108
   2.7879E+01   2.8557E+01   3.3057E-06  0.0113
   2.8557E+01   2.9252E+01   3.0244E-06  0.0117
   2.9252E+01   2.9964E+01   2.7073E-06  0.0122
   2.9964E+01   3.0693E+01   2.4835E-06  0.0126
   3.0693E+01   3.1440E+01   2.1980E-06  0.0132
   3.1440E+01   3.2205E+01   1.9561E-06  0.0138
   3.2205E+01   3.2988E+01   1.7685E-06  0.0144
   3.2988E+01   3.3791E+01   1.5649E-06  0.0151
   3.3791E+01   3.4613E+01   1.3793E-06  0.0159
   3.4613E+01   3.5455E+01   1.2091E-06  0.0168
   3.5455E+01   3.6318E+01   1.0648E-06  0.0176
   3.6318E+01   3.7201E+01   8.9985E-07  0.0190
   3.7201E+01   3.8106E+01   7.8662E-07  0.0200
   3.8106E+01   3.9034E+01   6.9490E-07  0.0211
   3.9034E+01   3.9983E+01   6.1101E-07  0.0222
   3.9983E+01   4.0956E+01   5.2366E-07  0.0237
   4.0956E+01   4.1953E+01   4.6104E-07  0.0249
   4.1953E+01   4.2973E+01   3.8739E-07  0.0269
   4.2973E+01   4.4019E+01   3.2655E-07  0.0289
   4.4019E+01   4.5090E+01   2.8784E-07  0.0304
   4.5090E+01   4.6187E+01   2.3205E-07  0.0335
   4.6187E+01   4.7311E+01   2.0187E-07  0.0355
   4.7311E+01   4.8462E+01   1.6630E-07  0.0386
   4.8462E+01   4.9641E+01   1.3933E-07  0.0417
   4.9641E+01   5.0849E+01   1.0574E-07  0.0473
   5.0849E+01   5.2086E+01   8.3830E-08  0.0525
   5.2086E+01   5.3353E+01   7.0567E-08  0.0565
   5.3353E+01   5.4651E+01   4.6661E-08  0.0687
   5.4651E+01   5.5981E+01   3.5668E-08  0.0776
   5.5981E+01   5.7343E+01   1.7411E-08  0.1098
   5.7343E+01   5.8738E+01   1.0649E-08  0.1387
   5.8738E+01   6.0168E+01   3.7985E-09  0.2294
   6.0168E+01   6.1632E+01   1.7565E-09  0.3333
   6.1632E+01   6.3131E+01   1.9053E-10  1.0000
   6.3131E+01   6.4667E+01   0.0000E+00  0.0000
   6.4667E+01   6.6240E+01   0.0000E+00  0.0000
   6.6240E+01   6.7852E+01   0.0000E+00  0.0000
   6.7852E+01   6.9503E+01   0.0000E+00  0.0000
   6.9503E+01   7.1194E+01   0.0000E+00  0.0000
   7.1194E+01   7.2926E+01   0.0000E+00  0.0000
   7.2926E+01   7.4701E+01   0.0000E+00  0.0000
   7.4701E+01   7.6518E+01   0.0000E+00  0.0000
   7.6518E+01   7.8380E+01   0.0000E+00  0.0000
   7.8380E+01   8.0287E+01   0.0000E+00  0.0000
   8.0287E+01   8.2240E+01   0.0000E+00  0.0000
   8.2240E+01   8.4241E+01   0.0000E+00  0.0000
   8.4241E+01   8.6291E+01   0.0000E+00  0.0000
   8.6291E+01   8.8391E+01   0.0000E+00  0.0000
   8.8391E+01   9.0541E+01   0.0000E+00  0.0000
   9.0541E+01   9.2744E+01   0.0000E+00  0.0000
   9.2744E+01   9.5001E+01   0.0000E+00  0.0000
   9.5001E+01   9.7312E+01   0.0000E+00  0.0000
   9.7312E+01   9.9680E+01   0.0000E+00  0.0000
   9.9680E+01   1.0211E+02   0.0000E+00  0.0000
   1.0211E+02   1.0459E+02   0.0000E+00  0.0000
   1.0459E+02   1.0713E+02   0.0000E+00  0.0000
   1.0713E+02   1.0974E+02   0.0000E+00  0.0000
   1.0974E+02   1.1241E+02   0.0000E+00  0.0000
   1.1241E+02   1.1515E+02   0.0000E+00  0.0000
   1.1515E+02   1.1795E+02   0.0000E+00  0.0000
   1.1795E+02   1.2082E+02   0.0000E+00  0.0000
   1.2082E+02   1.2376E+02   0.0000E+00  0.0000
   1.2376E+02   1.2677E+02   0.0000E+00  0.0000
   1.2677E+02   1.2985E+02   0.0000E+00  0.0000
   1.2985E+02   1.3301E+02   0.0000E+00  0.0000
   1.3301E+02   1.3625E+02   0.0000E+00  0.0000
   1.3625E+02   1.3956E+02   0.0000E+00  0.0000
   1.3956E+02   1.4296E+02   0.0000E+00  0.0000
   1.4296E+02   1.4644E+02   0.0000E+00  0.0000
   1.4644E+02   1.5000E+02   0.0000E+00  0.0000

#   sum over                 1.4880E-05
'no. =    1   reg = 114 - 214'
msuc: {\huge [t-cross] in region mesh}
msdr: {\it plotted by \ANGEL \version}
msdl: {\it calculated by \PHITS  3.26}
wt: s(0.7)
\vspace{-3}
  region surface crossing
  area  &=&   1.0000E+00 [cm^2]
e:
 
# Information for Restart Calculation
# This calculation was newly started
# istdev =  2 # 1:Batch variance, 2:History variance
# resc2  = 3.50000000000000000E+09 # Total source weight or Total source weight / maxcas
# resc3  = 3.50000000000000000E+09 # Total history number or Total batch number
# maxcas =   500000000 # History / Batch, only used for istdev=1
# bitrseed = 0000101100011000111110010011011110110000110001011001110010110101 # bit data of rseed
