[ T-Cross ]
    title = [t-cross] in region mesh
     mesh =  reg            # mesh type is region-wise
      reg =    1            # number of crossing regions
      non     r-from    r-to       area
      1       107       207        1.000000    
   e-type =    3            # e-mesh is log given by emin, emax and ne
     emin =  1.0000000E-02  # minimum value of e-mesh points
     emax =   150.0000      # maximum value of e-mesh points
#    edel =  2.4039514E-02  # mesh width of e-mesh points
       ne =    400          # number of e-mesh points
#    data = ( e(i), i = 1, ne + 1 )
#           1.00000E-02  1.02433E-02  1.04925E-02  1.07478E-02  1.10093E-02
#           1.12772E-02  1.15516E-02  1.18326E-02  1.21205E-02  1.24154E-02
#           1.27175E-02  1.30269E-02  1.33439E-02  1.36686E-02  1.40011E-02
#           1.43418E-02  1.46907E-02  1.50482E-02  1.54143E-02  1.57894E-02
#           1.61735E-02  1.65670E-02  1.69701E-02  1.73830E-02  1.78060E-02
#           1.82392E-02  1.86830E-02  1.91375E-02  1.96032E-02  2.00801E-02
#           2.05687E-02  2.10692E-02  2.15818E-02  2.21069E-02  2.26448E-02
#           2.31957E-02  2.37601E-02  2.43382E-02  2.49304E-02  2.55369E-02
#           2.61583E-02  2.67947E-02  2.74467E-02  2.81145E-02  2.87985E-02
#           2.94992E-02  3.02169E-02  3.09521E-02  3.17052E-02  3.24766E-02
#           3.32668E-02  3.40762E-02  3.49053E-02  3.57546E-02  3.66246E-02
#           3.75157E-02  3.84284E-02  3.93634E-02  4.03212E-02  4.13022E-02
#           4.23071E-02  4.33365E-02  4.43909E-02  4.54710E-02  4.65773E-02
#           4.77106E-02  4.88714E-02  5.00605E-02  5.12785E-02  5.25262E-02
#           5.38042E-02  5.51133E-02  5.64542E-02  5.78278E-02  5.92348E-02
#           6.06760E-02  6.21523E-02  6.36645E-02  6.52135E-02  6.68002E-02
#           6.84255E-02  7.00904E-02  7.17957E-02  7.35426E-02  7.53319E-02
#           7.71648E-02  7.90423E-02  8.09655E-02  8.29354E-02  8.49533E-02
#           8.70203E-02  8.91376E-02  9.13064E-02  9.35279E-02  9.58035E-02
#           9.81345E-02  1.00522E-01  1.02968E-01  1.05473E-01  1.08040E-01
#           1.10668E-01  1.13361E-01  1.16119E-01  1.18944E-01  1.21838E-01
#           1.24803E-01  1.27839E-01  1.30950E-01  1.34136E-01  1.37399E-01
#           1.40742E-01  1.44167E-01  1.47675E-01  1.51268E-01  1.54948E-01
#           1.58718E-01  1.62580E-01  1.66535E-01  1.70587E-01  1.74738E-01
#           1.78989E-01  1.83344E-01  1.87805E-01  1.92375E-01  1.97055E-01
#           2.01850E-01  2.06761E-01  2.11792E-01  2.16945E-01  2.22223E-01
#           2.27630E-01  2.33169E-01  2.38842E-01  2.44653E-01  2.50605E-01
#           2.56703E-01  2.62949E-01  2.69346E-01  2.75900E-01  2.82613E-01
#           2.89489E-01  2.96532E-01  3.03747E-01  3.11138E-01  3.18708E-01
#           3.26462E-01  3.34405E-01  3.42542E-01  3.50876E-01  3.59413E-01
#           3.68158E-01  3.77116E-01  3.86291E-01  3.95690E-01  4.05317E-01
#           4.15179E-01  4.25281E-01  4.35628E-01  4.46227E-01  4.57084E-01
#           4.68205E-01  4.79597E-01  4.91266E-01  5.03219E-01  5.15463E-01
#           5.28005E-01  5.40851E-01  5.54011E-01  5.67490E-01  5.81298E-01
#           5.95441E-01  6.09929E-01  6.24769E-01  6.39970E-01  6.55541E-01
#           6.71491E-01  6.87828E-01  7.04564E-01  7.21706E-01  7.39266E-01
#           7.57253E-01  7.75678E-01  7.94551E-01  8.13883E-01  8.33685E-01
#           8.53969E-01  8.74747E-01  8.96030E-01  9.17831E-01  9.40163E-01
#           9.63038E-01  9.86469E-01  1.01047E+00  1.03506E+00  1.06024E+00
#           1.08604E+00  1.11246E+00  1.13953E+00  1.16725E+00  1.19565E+00
#           1.22474E+00  1.25454E+00  1.28507E+00  1.31633E+00  1.34836E+00
#           1.38117E+00  1.41477E+00  1.44920E+00  1.48446E+00  1.52057E+00
#           1.55757E+00  1.59547E+00  1.63429E+00  1.67405E+00  1.71478E+00
#           1.75650E+00  1.79924E+00  1.84302E+00  1.88786E+00  1.93379E+00
#           1.98084E+00  2.02904E+00  2.07841E+00  2.12898E+00  2.18078E+00
#           2.23384E+00  2.28819E+00  2.34386E+00  2.40089E+00  2.45930E+00
#           2.51914E+00  2.58043E+00  2.64322E+00  2.70753E+00  2.77341E+00
#           2.84088E+00  2.91001E+00  2.98081E+00  3.05333E+00  3.12762E+00
#           3.20372E+00  3.28167E+00  3.36152E+00  3.44330E+00  3.52708E+00
#           3.61290E+00  3.70080E+00  3.79085E+00  3.88308E+00  3.97756E+00
#           4.07434E+00  4.17347E+00  4.27501E+00  4.37903E+00  4.48557E+00
#           4.59471E+00  4.70650E+00  4.82102E+00  4.93832E+00  5.05847E+00
#           5.18155E+00  5.30762E+00  5.43676E+00  5.56904E+00  5.70453E+00
#           5.84333E+00  5.98550E+00  6.13114E+00  6.28031E+00  6.43312E+00
#           6.58964E+00  6.74997E+00  6.91420E+00  7.08243E+00  7.25475E+00
#           7.43126E+00  7.61207E+00  7.79728E+00  7.98700E+00  8.18133E+00
#           8.38038E+00  8.58428E+00  8.79315E+00  9.00709E+00  9.22624E+00
#           9.45072E+00  9.68067E+00  9.91620E+00  1.01575E+01  1.04046E+01
#           1.06578E+01  1.09171E+01  1.11827E+01  1.14548E+01  1.17335E+01
#           1.20190E+01  1.23114E+01  1.26109E+01  1.29178E+01  1.32321E+01
#           1.35540E+01  1.38838E+01  1.42216E+01  1.45676E+01  1.49221E+01
#           1.52851E+01  1.56570E+01  1.60380E+01  1.64282E+01  1.68279E+01
#           1.72374E+01  1.76568E+01  1.80864E+01  1.85264E+01  1.89772E+01
#           1.94389E+01  1.99119E+01  2.03963E+01  2.08926E+01  2.14009E+01
#           2.19216E+01  2.24550E+01  2.30014E+01  2.35610E+01  2.41343E+01
#           2.47215E+01  2.53230E+01  2.59391E+01  2.65702E+01  2.72167E+01
#           2.78789E+01  2.85572E+01  2.92520E+01  2.99637E+01  3.06928E+01
#           3.14396E+01  3.22045E+01  3.29881E+01  3.37907E+01  3.46128E+01
#           3.54550E+01  3.63177E+01  3.72013E+01  3.81064E+01  3.90336E+01
#           3.99833E+01  4.09561E+01  4.19526E+01  4.29734E+01  4.40189E+01
#           4.50900E+01  4.61870E+01  4.73108E+01  4.84619E+01  4.96410E+01
#           5.08488E+01  5.20860E+01  5.33533E+01  5.46514E+01  5.59812E+01
#           5.73432E+01  5.87384E+01  6.01676E+01  6.16315E+01  6.31311E+01
#           6.46671E+01  6.62405E+01  6.78522E+01  6.95031E+01  7.11941E+01
#           7.29263E+01  7.47007E+01  7.65182E+01  7.83800E+01  8.02870E+01
#           8.22405E+01  8.42414E+01  8.62911E+01  8.83906E+01  9.05412E+01
#           9.27442E+01  9.50007E+01  9.73122E+01  9.96799E+01  1.02105E+02
#           1.04589E+02  1.07134E+02  1.09741E+02  1.12411E+02  1.15146E+02
#           1.17948E+02  1.20817E+02  1.23757E+02  1.26768E+02  1.29852E+02
#           1.33012E+02  1.36248E+02  1.39563E+02  1.42959E+02  1.46437E+02
#           1.50000E+02
     unit =    2            # unit is [1/cm^2/(MeV/n)/source]
     axis =  eng            # axis of output
     file = detector-08.out  # file name of output for the above axis
   output = f-curr          # surface crossing forward current spectrum
     part =  neutron  
# kf/name :  2112     
#    used :        main (  %)        temp (  %)       total (  %)
#  memory :         414 (  0)           0 (  0)         414 (  0)

#------------------------------------------------------------------------------
#newpage:
#   no. =    1   reg = 107 - 207

x: Energy [MeV/n]
y:  F-Curr [1/cm^2/(MeV/n)/source]         
p: xlog ylog afac(0.8) form(0.9)
h: n            x            y(neutron ),hh0l   n 
#  e-lower      e-upper      neutron     r.err 
   1.0000E-02   1.0243E-02   2.3571E-04  0.0589
   1.0243E-02   1.0493E-02   2.3662E-04  0.0580
   1.0493E-02   1.0748E-02   2.6497E-04  0.0542
   1.0748E-02   1.1009E-02   2.4437E-04  0.0558
   1.1009E-02   1.1277E-02   2.4545E-04  0.0550
   1.1277E-02   1.1552E-02   2.3764E-04  0.0552
   1.1552E-02   1.1833E-02   2.0699E-04  0.0584
   1.1833E-02   1.2121E-02   2.1722E-04  0.0563
   1.2121E-02   1.2415E-02   2.1937E-04  0.0554
   1.2415E-02   1.2718E-02   2.2980E-04  0.0534
   1.2718E-02   1.3027E-02   2.2509E-04  0.0534
   1.3027E-02   1.3344E-02   1.9330E-04  0.0569
   1.3344E-02   1.3669E-02   1.7787E-04  0.0586
   1.3669E-02   1.4001E-02   1.8329E-04  0.0571
   1.4001E-02   1.4342E-02   1.7188E-04  0.0582
   1.4342E-02   1.4691E-02   1.6925E-04  0.0580
   1.4691E-02   1.5048E-02   1.8026E-04  0.0555
   1.5048E-02   1.5414E-02   1.6330E-04  0.0576
   1.5414E-02   1.5789E-02   1.6335E-04  0.0569
   1.5789E-02   1.6174E-02   1.6700E-04  0.0556
   1.6174E-02   1.6567E-02   1.6425E-04  0.0555
   1.6567E-02   1.6970E-02   1.6763E-04  0.0542
   1.6970E-02   1.7383E-02   1.5596E-04  0.0555
   1.7383E-02   1.7806E-02   1.5020E-04  0.0558
   1.7806E-02   1.8239E-02   1.3650E-04  0.0579
   1.8239E-02   1.8683E-02   1.4459E-04  0.0555
   1.8683E-02   1.9138E-02   1.4053E-04  0.0558
   1.9138E-02   1.9603E-02   1.3725E-04  0.0557
   1.9603E-02   2.0080E-02   1.3675E-04  0.0552
   2.0080E-02   2.0569E-02   1.2736E-04  0.0565
   2.0569E-02   2.1069E-02   1.3397E-04  0.0545
   2.1069E-02   2.1582E-02   1.3830E-04  0.0530
   2.1582E-02   2.2107E-02   1.1591E-04  0.0571
   2.2107E-02   2.2645E-02   1.1933E-04  0.0557
   2.2645E-02   2.3196E-02   1.2743E-04  0.0531
   2.3196E-02   2.3760E-02   1.1467E-04  0.0553
   2.3760E-02   2.4338E-02   1.1163E-04  0.0555
   2.4338E-02   2.4930E-02   1.0921E-04  0.0554
   2.4930E-02   2.5537E-02   1.0670E-04  0.0554
   2.5537E-02   2.6158E-02   1.1491E-04  0.0527
   2.6158E-02   2.6795E-02   1.0666E-04  0.0540
   2.6795E-02   2.7447E-02   1.0593E-04  0.0536
   2.7447E-02   2.8114E-02   9.6381E-05  0.0556
   2.8114E-02   2.8799E-02   9.8491E-05  0.0543
   2.8799E-02   2.9499E-02   9.3700E-05  0.0550
   2.9499E-02   3.0217E-02   9.7254E-05  0.0533
   3.0217E-02   3.0952E-02   8.5073E-05  0.0563
   3.0952E-02   3.1705E-02   8.6042E-05  0.0554
   3.1705E-02   3.2477E-02   8.1592E-05  0.0562
   3.2477E-02   3.3267E-02   8.0621E-05  0.0558
   3.3267E-02   3.4076E-02   8.2974E-05  0.0543
   3.4076E-02   3.4905E-02   8.7128E-05  0.0524
   3.4905E-02   3.5755E-02   7.9623E-05  0.0542
   3.5755E-02   3.6625E-02   7.8592E-05  0.0539
   3.6625E-02   3.7516E-02   8.0616E-05  0.0526
   3.7516E-02   3.8428E-02   7.4285E-05  0.0541
   3.8428E-02   3.9363E-02   6.8346E-05  0.0558
   3.9363E-02   4.0321E-02   7.4625E-05  0.0528
   4.0321E-02   4.1302E-02   6.9645E-05  0.0538
   4.1302E-02   4.2307E-02   6.7069E-05  0.0543
   4.2307E-02   4.3337E-02   6.7774E-05  0.0533
   4.3337E-02   4.4391E-02   6.6773E-05  0.0531
   4.4391E-02   4.5471E-02   6.5262E-05  0.0530
   4.5471E-02   4.6577E-02   6.5419E-05  0.0524
   4.6577E-02   4.7711E-02   6.1466E-05  0.0534
   4.7711E-02   4.8871E-02   5.1641E-05  0.0576
   4.8871E-02   5.0061E-02   6.0279E-05  0.0526
   5.0061E-02   5.1279E-02   6.0749E-05  0.0518
   5.1279E-02   5.2526E-02   5.7879E-05  0.0523
   5.2526E-02   5.3804E-02   5.4507E-05  0.0534
   5.3804E-02   5.5113E-02   5.0637E-05  0.0547
   5.5113E-02   5.6454E-02   5.3249E-05  0.0527
   5.6454E-02   5.7828E-02   5.6794E-05  0.0504
   5.7828E-02   5.9235E-02   5.1801E-05  0.0522
   5.9235E-02   6.0676E-02   5.7100E-05  0.0492
   6.0676E-02   6.2152E-02   5.0777E-05  0.0515
   6.2152E-02   6.3665E-02   5.2519E-05  0.0500
   6.3665E-02   6.5214E-02   4.8021E-05  0.0516
   6.5214E-02   6.6800E-02   4.2872E-05  0.0540
   6.6800E-02   6.8426E-02   4.3937E-05  0.0527
   6.8426E-02   7.0090E-02   4.8177E-05  0.0497
   7.0090E-02   7.1796E-02   4.5162E-05  0.0508
   7.1796E-02   7.3543E-02   4.3490E-05  0.0511
   7.3543E-02   7.5332E-02   4.5410E-05  0.0494
   7.5332E-02   7.7165E-02   4.4113E-05  0.0495
   7.7165E-02   7.9042E-02   3.7022E-05  0.0534
   7.9042E-02   8.0965E-02   4.1943E-05  0.0496
   8.0965E-02   8.2935E-02   3.6760E-05  0.0524
   8.2935E-02   8.4953E-02   3.8335E-05  0.0507
   8.4953E-02   8.7020E-02   3.7944E-05  0.0503
   8.7020E-02   8.9138E-02   3.5567E-05  0.0513
   8.9138E-02   9.1306E-02   3.5899E-05  0.0505
   9.1306E-02   9.3528E-02   3.8311E-05  0.0482
   9.3528E-02   9.5804E-02   3.7533E-05  0.0482
   9.5804E-02   9.8134E-02   3.8372E-05  0.0471
   9.8134E-02   1.0052E-01   3.6691E-05  0.0476
   1.0052E-01   1.0297E-01   3.6186E-05  0.0473
   1.0297E-01   1.0547E-01   3.8618E-05  0.0453
   1.0547E-01   1.0804E-01   3.9548E-05  0.0443
   1.0804E-01   1.1067E-01   4.2648E-05  0.0421
   1.1067E-01   1.1336E-01   4.1061E-05  0.0423
   1.1336E-01   1.1612E-01   4.4171E-05  0.0404
   1.1612E-01   1.1894E-01   4.6917E-05  0.0387
   1.1894E-01   1.2184E-01   5.0263E-05  0.0370
   1.2184E-01   1.2480E-01   5.1985E-05  0.0358
   1.2480E-01   1.2784E-01   5.6988E-05  0.0339
   1.2784E-01   1.3095E-01   5.3650E-05  0.0345
   1.3095E-01   1.3414E-01   6.0234E-05  0.0322
   1.3414E-01   1.3740E-01   6.0275E-05  0.0317
   1.3740E-01   1.4074E-01   6.1389E-05  0.0311
   1.4074E-01   1.4417E-01   6.4915E-05  0.0299
   1.4417E-01   1.4767E-01   6.5647E-05  0.0293
   1.4767E-01   1.5127E-01   6.7540E-05  0.0286
   1.5127E-01   1.5495E-01   7.5109E-05  0.0268
   1.5495E-01   1.5872E-01   7.4362E-05  0.0266
   1.5872E-01   1.6258E-01   8.1056E-05  0.0252
   1.6258E-01   1.6654E-01   8.3410E-05  0.0245
   1.6654E-01   1.7059E-01   8.3580E-05  0.0242
   1.7059E-01   1.7474E-01   8.7568E-05  0.0234
   1.7474E-01   1.7899E-01   9.1753E-05  0.0226
   1.7899E-01   1.8334E-01   9.4277E-05  0.0220
   1.8334E-01   1.8781E-01   9.7399E-05  0.0214
   1.8781E-01   1.9237E-01   9.7558E-05  0.0211
   1.9237E-01   1.9706E-01   1.0262E-04  0.0203
   1.9706E-01   2.0185E-01   1.0943E-04  0.0195
   2.0185E-01   2.0676E-01   1.1480E-04  0.0188
   2.0676E-01   2.1179E-01   1.1434E-04  0.0186
   2.1179E-01   2.1694E-01   1.2132E-04  0.0178
   2.1694E-01   2.2222E-01   1.2326E-04  0.0175
   2.2222E-01   2.2763E-01   1.2382E-04  0.0172
   2.2763E-01   2.3317E-01   1.3179E-04  0.0165
   2.3317E-01   2.3884E-01   1.3382E-04  0.0162
   2.3884E-01   2.4465E-01   1.3608E-04  0.0158
   2.4465E-01   2.5061E-01   1.4113E-04  0.0154
   2.5061E-01   2.5670E-01   1.5046E-04  0.0147
   2.5670E-01   2.6295E-01   1.5192E-04  0.0145
   2.6295E-01   2.6935E-01   1.4995E-04  0.0144
   2.6935E-01   2.7590E-01   1.5617E-04  0.0139
   2.7590E-01   2.8261E-01   1.5960E-04  0.0136
   2.8261E-01   2.8949E-01   1.6829E-04  0.0131
   2.8949E-01   2.9653E-01   1.7511E-04  0.0127
   2.9653E-01   3.0375E-01   1.7572E-04  0.0125
   3.0375E-01   3.1114E-01   1.7590E-04  0.0124
   3.1114E-01   3.1871E-01   1.8231E-04  0.0120
   3.1871E-01   3.2646E-01   1.8714E-04  0.0117
   3.2646E-01   3.3441E-01   1.9211E-04  0.0114
   3.3441E-01   3.4254E-01   1.9769E-04  0.0111
   3.4254E-01   3.5088E-01   1.9825E-04  0.0110
   3.5088E-01   3.5941E-01   2.0223E-04  0.0107
   3.5941E-01   3.6816E-01   2.1183E-04  0.0103
   3.6816E-01   3.7712E-01   2.1682E-04  0.0101
   3.7712E-01   3.8629E-01   2.1332E-04  0.0101
   3.8629E-01   3.9569E-01   2.2170E-04  0.0098
   3.9569E-01   4.0532E-01   2.2303E-04  0.0096
   4.0532E-01   4.1518E-01   2.2854E-04  0.0094
   4.1518E-01   4.2528E-01   2.3451E-04  0.0091
   4.2528E-01   4.3563E-01   2.3490E-04  0.0090
   4.3563E-01   4.4623E-01   2.3768E-04  0.0089
   4.4623E-01   4.5708E-01   2.4422E-04  0.0086
   4.5708E-01   4.6821E-01   2.3948E-04  0.0086
   4.6821E-01   4.7960E-01   2.4865E-04  0.0084
   4.7960E-01   4.9127E-01   2.5149E-04  0.0082
   4.9127E-01   5.0322E-01   2.5449E-04  0.0081
   5.0322E-01   5.1546E-01   2.5386E-04  0.0080
   5.1546E-01   5.2800E-01   2.5873E-04  0.0078
   5.2800E-01   5.4085E-01   2.6260E-04  0.0077
   5.4085E-01   5.5401E-01   2.6245E-04  0.0076
   5.5401E-01   5.6749E-01   2.6552E-04  0.0074
   5.6749E-01   5.8130E-01   2.6779E-04  0.0073
   5.8130E-01   5.9544E-01   2.6386E-04  0.0073
   5.9544E-01   6.0993E-01   2.7124E-04  0.0071
   6.0993E-01   6.2477E-01   2.6471E-04  0.0071
   6.2477E-01   6.3997E-01   2.6712E-04  0.0070
   6.3997E-01   6.5554E-01   2.6808E-04  0.0069
   6.5554E-01   6.7149E-01   2.6821E-04  0.0068
   6.7149E-01   6.8783E-01   2.6653E-04  0.0067
   6.8783E-01   7.0456E-01   2.6737E-04  0.0066
   7.0456E-01   7.2171E-01   2.6291E-04  0.0066
   7.2171E-01   7.3927E-01   2.6683E-04  0.0065
   7.3927E-01   7.5725E-01   2.6234E-04  0.0065
   7.5725E-01   7.7568E-01   2.6063E-04  0.0064
   7.7568E-01   7.9455E-01   2.5506E-04  0.0064
   7.9455E-01   8.1388E-01   2.5501E-04  0.0063
   8.1388E-01   8.3368E-01   2.4940E-04  0.0063
   8.3368E-01   8.5397E-01   2.4541E-04  0.0063
   8.5397E-01   8.7475E-01   2.3746E-04  0.0063
   8.7475E-01   8.9603E-01   2.3282E-04  0.0063
   8.9603E-01   9.1783E-01   2.2471E-04  0.0063
   9.1783E-01   9.4016E-01   2.2049E-04  0.0063
   9.4016E-01   9.6304E-01   2.1249E-04  0.0064
   9.6304E-01   9.8647E-01   2.0652E-04  0.0064
   9.8647E-01   1.0105E+00   1.9828E-04  0.0064
   1.0105E+00   1.0351E+00   1.9683E-04  0.0064
   1.0351E+00   1.0602E+00   1.9877E-04  0.0063
   1.0602E+00   1.0860E+00   2.0438E-04  0.0061
   1.0860E+00   1.1125E+00   2.0863E-04  0.0060
   1.1125E+00   1.1395E+00   2.1470E-04  0.0058
   1.1395E+00   1.1673E+00   2.1947E-04  0.0057
   1.1673E+00   1.1957E+00   2.2896E-04  0.0055
   1.1957E+00   1.2247E+00   2.3279E-04  0.0054
   1.2247E+00   1.2545E+00   2.3466E-04  0.0053
   1.2545E+00   1.2851E+00   2.3623E-04  0.0052
   1.2851E+00   1.3163E+00   2.4079E-04  0.0051
   1.3163E+00   1.3484E+00   2.4284E-04  0.0050
   1.3484E+00   1.3812E+00   2.4855E-04  0.0049
   1.3812E+00   1.4148E+00   2.5137E-04  0.0048
   1.4148E+00   1.4492E+00   2.5570E-04  0.0047
   1.4492E+00   1.4845E+00   2.5369E-04  0.0047
   1.4845E+00   1.5206E+00   2.5434E-04  0.0046
   1.5206E+00   1.5576E+00   2.5662E-04  0.0045
   1.5576E+00   1.5955E+00   2.5457E-04  0.0045
   1.5955E+00   1.6343E+00   2.5618E-04  0.0044
   1.6343E+00   1.6741E+00   2.5602E-04  0.0044
   1.6741E+00   1.7148E+00   2.5723E-04  0.0043
   1.7148E+00   1.7565E+00   2.5593E-04  0.0043
   1.7565E+00   1.7992E+00   2.4791E-04  0.0043
   1.7992E+00   1.8430E+00   2.3726E-04  0.0043
   1.8430E+00   1.8879E+00   2.2974E-04  0.0043
   1.8879E+00   1.9338E+00   2.3049E-04  0.0043
   1.9338E+00   1.9808E+00   2.2943E-04  0.0042
   1.9808E+00   2.0290E+00   2.3046E-04  0.0041
   2.0290E+00   2.0784E+00   2.3460E-04  0.0041
   2.0784E+00   2.1290E+00   2.3721E-04  0.0040
   2.1290E+00   2.1808E+00   2.4111E-04  0.0039
   2.1808E+00   2.2338E+00   2.4122E-04  0.0039
   2.2338E+00   2.2882E+00   2.3993E-04  0.0038
   2.2882E+00   2.3439E+00   2.3602E-04  0.0038
   2.3439E+00   2.4009E+00   2.3552E-04  0.0038
   2.4009E+00   2.4593E+00   2.3640E-04  0.0037
   2.4593E+00   2.5191E+00   2.3539E-04  0.0037
   2.5191E+00   2.5804E+00   2.3457E-04  0.0037
   2.5804E+00   2.6432E+00   2.3423E-04  0.0036
   2.6432E+00   2.7075E+00   2.3254E-04  0.0036
   2.7075E+00   2.7734E+00   2.2960E-04  0.0036
   2.7734E+00   2.8409E+00   2.2936E-04  0.0035
   2.8409E+00   2.9100E+00   2.3026E-04  0.0035
   2.9100E+00   2.9808E+00   2.3062E-04  0.0034
   2.9808E+00   3.0533E+00   2.2908E-04  0.0034
   3.0533E+00   3.1276E+00   2.2665E-04  0.0034
   3.1276E+00   3.2037E+00   2.2736E-04  0.0033
   3.2037E+00   3.2817E+00   2.2618E-04  0.0033
   3.2817E+00   3.3615E+00   2.2414E-04  0.0033
   3.3615E+00   3.4433E+00   2.2327E-04  0.0033
   3.4433E+00   3.5271E+00   2.2348E-04  0.0032
   3.5271E+00   3.6129E+00   2.2039E-04  0.0032
   3.6129E+00   3.7008E+00   2.1988E-04  0.0032
   3.7008E+00   3.7908E+00   2.1778E-04  0.0032
   3.7908E+00   3.8831E+00   2.1633E-04  0.0031
   3.8831E+00   3.9776E+00   2.1415E-04  0.0031
   3.9776E+00   4.0743E+00   2.1327E-04  0.0031
   4.0743E+00   4.1735E+00   2.0999E-04  0.0031
   4.1735E+00   4.2750E+00   2.0763E-04  0.0030
   4.2750E+00   4.3790E+00   2.0542E-04  0.0030
   4.3790E+00   4.4856E+00   2.0164E-04  0.0030
   4.4856E+00   4.5947E+00   1.9865E-04  0.0030
   4.5947E+00   4.7065E+00   1.9541E-04  0.0030
   4.7065E+00   4.8210E+00   1.9561E-04  0.0030
   4.8210E+00   4.9383E+00   1.9371E-04  0.0029
   4.9383E+00   5.0585E+00   1.9101E-04  0.0029
   5.0585E+00   5.1815E+00   1.8912E-04  0.0029
   5.1815E+00   5.3076E+00   1.8649E-04  0.0029
   5.3076E+00   5.4368E+00   1.8496E-04  0.0029
   5.4368E+00   5.5690E+00   1.8337E-04  0.0028
   5.5690E+00   5.7045E+00   1.8204E-04  0.0028
   5.7045E+00   5.8433E+00   1.8074E-04  0.0028
   5.8433E+00   5.9855E+00   1.7846E-04  0.0028
   5.9855E+00   6.1311E+00   1.7656E-04  0.0028
   6.1311E+00   6.2803E+00   1.7480E-04  0.0027
   6.2803E+00   6.4331E+00   1.7345E-04  0.0027
   6.4331E+00   6.5896E+00   1.7124E-04  0.0027
   6.5896E+00   6.7500E+00   1.6947E-04  0.0027
   6.7500E+00   6.9142E+00   1.6767E-04  0.0027
   6.9142E+00   7.0824E+00   1.6603E-04  0.0027
   7.0824E+00   7.2548E+00   1.6508E-04  0.0026
   7.2548E+00   7.4313E+00   1.6311E-04  0.0026
   7.4313E+00   7.6121E+00   1.6027E-04  0.0026
   7.6121E+00   7.7973E+00   1.5814E-04  0.0026
   7.7973E+00   7.9870E+00   1.5630E-04  0.0026
   7.9870E+00   8.1813E+00   1.5465E-04  0.0026
   8.1813E+00   8.3804E+00   1.5179E-04  0.0026
   8.3804E+00   8.5843E+00   1.5029E-04  0.0025
   8.5843E+00   8.7931E+00   1.4751E-04  0.0025
   8.7931E+00   9.0071E+00   1.4502E-04  0.0025
   9.0071E+00   9.2262E+00   1.4241E-04  0.0025
   9.2262E+00   9.4507E+00   1.3942E-04  0.0025
   9.4507E+00   9.6807E+00   1.3716E-04  0.0025
   9.6807E+00   9.9162E+00   1.3582E-04  0.0025
   9.9162E+00   1.0157E+01   1.3929E-04  0.0024
   1.0157E+01   1.0405E+01   1.3709E-04  0.0024
   1.0405E+01   1.0658E+01   1.3401E-04  0.0024
   1.0658E+01   1.0917E+01   1.3189E-04  0.0024
   1.0917E+01   1.1183E+01   1.2875E-04  0.0024
   1.1183E+01   1.1455E+01   1.2704E-04  0.0024
   1.1455E+01   1.1733E+01   1.2607E-04  0.0024
   1.1733E+01   1.2019E+01   1.2388E-04  0.0024
   1.2019E+01   1.2311E+01   1.2192E-04  0.0024
   1.2311E+01   1.2611E+01   1.2089E-04  0.0023
   1.2611E+01   1.2918E+01   1.1915E-04  0.0023
   1.2918E+01   1.3232E+01   1.1800E-04  0.0023
   1.3232E+01   1.3554E+01   1.1622E-04  0.0023
   1.3554E+01   1.3884E+01   1.1483E-04  0.0023
   1.3884E+01   1.4222E+01   1.1368E-04  0.0023
   1.4222E+01   1.4568E+01   1.1206E-04  0.0023
   1.4568E+01   1.4922E+01   1.1065E-04  0.0023
   1.4922E+01   1.5285E+01   1.0920E-04  0.0022
   1.5285E+01   1.5657E+01   1.0743E-04  0.0022
   1.5657E+01   1.6038E+01   1.0640E-04  0.0022
   1.6038E+01   1.6428E+01   1.0470E-04  0.0022
   1.6428E+01   1.6828E+01   1.0311E-04  0.0022
   1.6828E+01   1.7237E+01   1.0140E-04  0.0022
   1.7237E+01   1.7657E+01   9.9733E-05  0.0022
   1.7657E+01   1.8086E+01   9.8354E-05  0.0022
   1.8086E+01   1.8526E+01   9.6208E-05  0.0022
   1.8526E+01   1.8977E+01   9.4889E-05  0.0022
   1.8977E+01   1.9439E+01   9.3207E-05  0.0022
   1.9439E+01   1.9912E+01   9.1932E-05  0.0021
   1.9912E+01   2.0396E+01   9.0482E-05  0.0021
   2.0396E+01   2.0893E+01   8.8751E-05  0.0021
   2.0893E+01   2.1401E+01   8.6952E-05  0.0021
   2.1401E+01   2.1922E+01   8.4857E-05  0.0021
   2.1922E+01   2.2455E+01   8.2868E-05  0.0021
   2.2455E+01   2.3001E+01   8.1049E-05  0.0021
   2.3001E+01   2.3561E+01   7.9201E-05  0.0021
   2.3561E+01   2.4134E+01   7.7132E-05  0.0021
   2.4134E+01   2.4721E+01   7.4560E-05  0.0021
   2.4721E+01   2.5323E+01   7.2857E-05  0.0021
   2.5323E+01   2.5939E+01   7.0406E-05  0.0021
   2.5939E+01   2.6570E+01   6.7990E-05  0.0022
   2.6570E+01   2.7217E+01   6.6420E-05  0.0022
   2.7217E+01   2.7879E+01   6.5399E-05  0.0021
   2.7879E+01   2.8557E+01   6.3541E-05  0.0022
   2.8557E+01   2.9252E+01   6.0850E-05  0.0022
   2.9252E+01   2.9964E+01   5.8286E-05  0.0022
   2.9964E+01   3.0693E+01   5.5585E-05  0.0022
   3.0693E+01   3.1440E+01   5.2396E-05  0.0023
   3.1440E+01   3.2205E+01   4.9642E-05  0.0023
   3.2205E+01   3.2988E+01   4.6446E-05  0.0023
   3.2988E+01   3.3791E+01   4.3236E-05  0.0024
   3.3791E+01   3.4613E+01   3.9829E-05  0.0025
   3.4613E+01   3.5455E+01   3.6397E-05  0.0026
   3.5455E+01   3.6318E+01   3.3002E-05  0.0027
   3.6318E+01   3.7201E+01   2.9509E-05  0.0028
   3.7201E+01   3.8106E+01   2.5953E-05  0.0029
   3.8106E+01   3.9034E+01   2.2506E-05  0.0031
   3.9034E+01   3.9983E+01   1.9160E-05  0.0033
   3.9983E+01   4.0956E+01   1.6129E-05  0.0036
   4.0956E+01   4.1953E+01   1.3161E-05  0.0039
   4.1953E+01   4.2973E+01   1.0767E-05  0.0043
   4.2973E+01   4.4019E+01   8.5275E-06  0.0047
   4.4019E+01   4.5090E+01   6.7635E-06  0.0053
   4.5090E+01   4.6187E+01   5.1415E-06  0.0060
   4.6187E+01   4.7311E+01   3.4530E-06  0.0072
   4.7311E+01   4.8462E+01   2.2154E-06  0.0089
   4.8462E+01   4.9641E+01   1.6317E-06  0.0102
   4.9641E+01   5.0849E+01   1.3093E-06  0.0112
   5.0849E+01   5.2086E+01   1.1447E-06  0.0119
   5.2086E+01   5.3353E+01   9.2512E-07  0.0131
   5.3353E+01   5.4651E+01   1.8719E-07  0.0287
   5.4651E+01   5.5981E+01   1.6545E-09  0.3015
   5.5981E+01   5.7343E+01   0.0000E+00  0.0000
   5.7343E+01   5.8738E+01   0.0000E+00  0.0000
   5.8738E+01   6.0168E+01   0.0000E+00  0.0000
   6.0168E+01   6.1632E+01   0.0000E+00  0.0000
   6.1632E+01   6.3131E+01   0.0000E+00  0.0000
   6.3131E+01   6.4667E+01   0.0000E+00  0.0000
   6.4667E+01   6.6240E+01   0.0000E+00  0.0000
   6.6240E+01   6.7852E+01   0.0000E+00  0.0000
   6.7852E+01   6.9503E+01   0.0000E+00  0.0000
   6.9503E+01   7.1194E+01   0.0000E+00  0.0000
   7.1194E+01   7.2926E+01   0.0000E+00  0.0000
   7.2926E+01   7.4701E+01   0.0000E+00  0.0000
   7.4701E+01   7.6518E+01   0.0000E+00  0.0000
   7.6518E+01   7.8380E+01   0.0000E+00  0.0000
   7.8380E+01   8.0287E+01   0.0000E+00  0.0000
   8.0287E+01   8.2240E+01   0.0000E+00  0.0000
   8.2240E+01   8.4241E+01   0.0000E+00  0.0000
   8.4241E+01   8.6291E+01   0.0000E+00  0.0000
   8.6291E+01   8.8391E+01   0.0000E+00  0.0000
   8.8391E+01   9.0541E+01   0.0000E+00  0.0000
   9.0541E+01   9.2744E+01   0.0000E+00  0.0000
   9.2744E+01   9.5001E+01   0.0000E+00  0.0000
   9.5001E+01   9.7312E+01   0.0000E+00  0.0000
   9.7312E+01   9.9680E+01   0.0000E+00  0.0000
   9.9680E+01   1.0211E+02   0.0000E+00  0.0000
   1.0211E+02   1.0459E+02   0.0000E+00  0.0000
   1.0459E+02   1.0713E+02   0.0000E+00  0.0000
   1.0713E+02   1.0974E+02   0.0000E+00  0.0000
   1.0974E+02   1.1241E+02   0.0000E+00  0.0000
   1.1241E+02   1.1515E+02   0.0000E+00  0.0000
   1.1515E+02   1.1795E+02   0.0000E+00  0.0000
   1.1795E+02   1.2082E+02   0.0000E+00  0.0000
   1.2082E+02   1.2376E+02   0.0000E+00  0.0000
   1.2376E+02   1.2677E+02   0.0000E+00  0.0000
   1.2677E+02   1.2985E+02   0.0000E+00  0.0000
   1.2985E+02   1.3301E+02   0.0000E+00  0.0000
   1.3301E+02   1.3625E+02   0.0000E+00  0.0000
   1.3625E+02   1.3956E+02   0.0000E+00  0.0000
   1.3956E+02   1.4296E+02   0.0000E+00  0.0000
   1.4296E+02   1.4644E+02   0.0000E+00  0.0000
   1.4644E+02   1.5000E+02   0.0000E+00  0.0000

#   sum over                 2.7873E-05
'no. =    1   reg = 107 - 207'
msuc: {\huge [t-cross] in region mesh}
msdr: {\it plotted by \ANGEL \version}
msdl: {\it calculated by \PHITS  3.26}
wt: s(0.7)
\vspace{-3}
  region surface crossing
  area  &=&   1.0000E+00 [cm^2]
e:
 
# Information for Restart Calculation
# This calculation was newly started
# istdev =  2 # 1:Batch variance, 2:History variance
# resc2  = 5.00000000000000000E+09 # Total source weight or Total source weight / maxcas
# resc3  = 5.00000000000000000E+09 # Total history number or Total batch number
# maxcas =   100000000 # History / Batch, only used for istdev=1
# bitrseed = 0110100000100010111000001110001111001110100100011111101000111001 # bit data of rseed
