[ T-Cross ]
    title = [t-cross] in region mesh
     mesh =  reg            # mesh type is region-wise
      reg =    1            # number of crossing regions
      non     r-from    r-to       area
      1       125       225        1.000000    
   e-type =    3            # e-mesh is log given by emin, emax and ne
     emin =  1.0000000E-02  # minimum value of e-mesh points
     emax =   150.0000      # maximum value of e-mesh points
#    edel =  2.4039514E-02  # mesh width of e-mesh points
       ne =    400          # number of e-mesh points
#    data = ( e(i), i = 1, ne + 1 )
#           1.00000E-02  1.02433E-02  1.04925E-02  1.07478E-02  1.10093E-02
#           1.12772E-02  1.15516E-02  1.18326E-02  1.21205E-02  1.24154E-02
#           1.27175E-02  1.30269E-02  1.33439E-02  1.36686E-02  1.40011E-02
#           1.43418E-02  1.46907E-02  1.50482E-02  1.54143E-02  1.57894E-02
#           1.61735E-02  1.65670E-02  1.69701E-02  1.73830E-02  1.78060E-02
#           1.82392E-02  1.86830E-02  1.91375E-02  1.96032E-02  2.00801E-02
#           2.05687E-02  2.10692E-02  2.15818E-02  2.21069E-02  2.26448E-02
#           2.31957E-02  2.37601E-02  2.43382E-02  2.49304E-02  2.55369E-02
#           2.61583E-02  2.67947E-02  2.74467E-02  2.81145E-02  2.87985E-02
#           2.94992E-02  3.02169E-02  3.09521E-02  3.17052E-02  3.24766E-02
#           3.32668E-02  3.40762E-02  3.49053E-02  3.57546E-02  3.66246E-02
#           3.75157E-02  3.84284E-02  3.93634E-02  4.03212E-02  4.13022E-02
#           4.23071E-02  4.33365E-02  4.43909E-02  4.54710E-02  4.65773E-02
#           4.77106E-02  4.88714E-02  5.00605E-02  5.12785E-02  5.25262E-02
#           5.38042E-02  5.51133E-02  5.64542E-02  5.78278E-02  5.92348E-02
#           6.06760E-02  6.21523E-02  6.36645E-02  6.52135E-02  6.68002E-02
#           6.84255E-02  7.00904E-02  7.17957E-02  7.35426E-02  7.53319E-02
#           7.71648E-02  7.90423E-02  8.09655E-02  8.29354E-02  8.49533E-02
#           8.70203E-02  8.91376E-02  9.13064E-02  9.35279E-02  9.58035E-02
#           9.81345E-02  1.00522E-01  1.02968E-01  1.05473E-01  1.08040E-01
#           1.10668E-01  1.13361E-01  1.16119E-01  1.18944E-01  1.21838E-01
#           1.24803E-01  1.27839E-01  1.30950E-01  1.34136E-01  1.37399E-01
#           1.40742E-01  1.44167E-01  1.47675E-01  1.51268E-01  1.54948E-01
#           1.58718E-01  1.62580E-01  1.66535E-01  1.70587E-01  1.74738E-01
#           1.78989E-01  1.83344E-01  1.87805E-01  1.92375E-01  1.97055E-01
#           2.01850E-01  2.06761E-01  2.11792E-01  2.16945E-01  2.22223E-01
#           2.27630E-01  2.33169E-01  2.38842E-01  2.44653E-01  2.50605E-01
#           2.56703E-01  2.62949E-01  2.69346E-01  2.75900E-01  2.82613E-01
#           2.89489E-01  2.96532E-01  3.03747E-01  3.11138E-01  3.18708E-01
#           3.26462E-01  3.34405E-01  3.42542E-01  3.50876E-01  3.59413E-01
#           3.68158E-01  3.77116E-01  3.86291E-01  3.95690E-01  4.05317E-01
#           4.15179E-01  4.25281E-01  4.35628E-01  4.46227E-01  4.57084E-01
#           4.68205E-01  4.79597E-01  4.91266E-01  5.03219E-01  5.15463E-01
#           5.28005E-01  5.40851E-01  5.54011E-01  5.67490E-01  5.81298E-01
#           5.95441E-01  6.09929E-01  6.24769E-01  6.39970E-01  6.55541E-01
#           6.71491E-01  6.87828E-01  7.04564E-01  7.21706E-01  7.39266E-01
#           7.57253E-01  7.75678E-01  7.94551E-01  8.13883E-01  8.33685E-01
#           8.53969E-01  8.74747E-01  8.96030E-01  9.17831E-01  9.40163E-01
#           9.63038E-01  9.86469E-01  1.01047E+00  1.03506E+00  1.06024E+00
#           1.08604E+00  1.11246E+00  1.13953E+00  1.16725E+00  1.19565E+00
#           1.22474E+00  1.25454E+00  1.28507E+00  1.31633E+00  1.34836E+00
#           1.38117E+00  1.41477E+00  1.44920E+00  1.48446E+00  1.52057E+00
#           1.55757E+00  1.59547E+00  1.63429E+00  1.67405E+00  1.71478E+00
#           1.75650E+00  1.79924E+00  1.84302E+00  1.88786E+00  1.93379E+00
#           1.98084E+00  2.02904E+00  2.07841E+00  2.12898E+00  2.18078E+00
#           2.23384E+00  2.28819E+00  2.34386E+00  2.40089E+00  2.45930E+00
#           2.51914E+00  2.58043E+00  2.64322E+00  2.70753E+00  2.77341E+00
#           2.84088E+00  2.91001E+00  2.98081E+00  3.05333E+00  3.12762E+00
#           3.20372E+00  3.28167E+00  3.36152E+00  3.44330E+00  3.52708E+00
#           3.61290E+00  3.70080E+00  3.79085E+00  3.88308E+00  3.97756E+00
#           4.07434E+00  4.17347E+00  4.27501E+00  4.37903E+00  4.48557E+00
#           4.59471E+00  4.70650E+00  4.82102E+00  4.93832E+00  5.05847E+00
#           5.18155E+00  5.30762E+00  5.43676E+00  5.56904E+00  5.70453E+00
#           5.84333E+00  5.98550E+00  6.13114E+00  6.28031E+00  6.43312E+00
#           6.58964E+00  6.74997E+00  6.91420E+00  7.08243E+00  7.25475E+00
#           7.43126E+00  7.61207E+00  7.79728E+00  7.98700E+00  8.18133E+00
#           8.38038E+00  8.58428E+00  8.79315E+00  9.00709E+00  9.22624E+00
#           9.45072E+00  9.68067E+00  9.91620E+00  1.01575E+01  1.04046E+01
#           1.06578E+01  1.09171E+01  1.11827E+01  1.14548E+01  1.17335E+01
#           1.20190E+01  1.23114E+01  1.26109E+01  1.29178E+01  1.32321E+01
#           1.35540E+01  1.38838E+01  1.42216E+01  1.45676E+01  1.49221E+01
#           1.52851E+01  1.56570E+01  1.60380E+01  1.64282E+01  1.68279E+01
#           1.72374E+01  1.76568E+01  1.80864E+01  1.85264E+01  1.89772E+01
#           1.94389E+01  1.99119E+01  2.03963E+01  2.08926E+01  2.14009E+01
#           2.19216E+01  2.24550E+01  2.30014E+01  2.35610E+01  2.41343E+01
#           2.47215E+01  2.53230E+01  2.59391E+01  2.65702E+01  2.72167E+01
#           2.78789E+01  2.85572E+01  2.92520E+01  2.99637E+01  3.06928E+01
#           3.14396E+01  3.22045E+01  3.29881E+01  3.37907E+01  3.46128E+01
#           3.54550E+01  3.63177E+01  3.72013E+01  3.81064E+01  3.90336E+01
#           3.99833E+01  4.09561E+01  4.19526E+01  4.29734E+01  4.40189E+01
#           4.50900E+01  4.61870E+01  4.73108E+01  4.84619E+01  4.96410E+01
#           5.08488E+01  5.20860E+01  5.33533E+01  5.46514E+01  5.59812E+01
#           5.73432E+01  5.87384E+01  6.01676E+01  6.16315E+01  6.31311E+01
#           6.46671E+01  6.62405E+01  6.78522E+01  6.95031E+01  7.11941E+01
#           7.29263E+01  7.47007E+01  7.65182E+01  7.83800E+01  8.02870E+01
#           8.22405E+01  8.42414E+01  8.62911E+01  8.83906E+01  9.05412E+01
#           9.27442E+01  9.50007E+01  9.73122E+01  9.96799E+01  1.02105E+02
#           1.04589E+02  1.07134E+02  1.09741E+02  1.12411E+02  1.15146E+02
#           1.17948E+02  1.20817E+02  1.23757E+02  1.26768E+02  1.29852E+02
#           1.33012E+02  1.36248E+02  1.39563E+02  1.42959E+02  1.46437E+02
#           1.50000E+02
     unit =    2            # unit is [1/cm^2/(MeV/n)/source]
     axis =  eng            # axis of output
     file = detector-26.out  # file name of output for the above axis
   output = f-curr          # surface crossing forward current spectrum
     part =  neutron  
# kf/name :  2112     
#    used :        main (  %)        temp (  %)       total (  %)
#  memory :         414 (  0)           0 (  0)         414 (  0)

#------------------------------------------------------------------------------
#newpage:
#   no. =    1   reg = 125 - 225

x: Energy [MeV/n]
y:  F-Curr [1/cm^2/(MeV/n)/source]         
p: xlog ylog afac(0.8) form(0.9)
h: n            x            y(neutron ),hh0l   n 
#  e-lower      e-upper      neutron     r.err 
   1.0000E-02   1.0243E-02   5.6483E-04  0.0456
   1.0243E-02   1.0493E-02   5.9383E-04  0.0439
   1.0493E-02   1.0748E-02   6.0883E-04  0.0429
   1.0748E-02   1.1009E-02   5.9546E-04  0.0428
   1.1009E-02   1.1277E-02   5.8771E-04  0.0426
   1.1277E-02   1.1552E-02   6.3103E-04  0.0406
   1.1552E-02   1.1833E-02   6.7093E-04  0.0389
   1.1833E-02   1.2121E-02   6.1133E-04  0.0403
   1.2121E-02   1.2415E-02   5.9584E-04  0.0403
   1.2415E-02   1.2718E-02   5.9114E-04  0.0400
   1.2718E-02   1.3027E-02   6.5836E-04  0.0375
   1.3027E-02   1.3344E-02   6.2149E-04  0.0381
   1.3344E-02   1.3669E-02   5.8977E-04  0.0386
   1.3669E-02   1.4001E-02   5.6702E-04  0.0389
   1.4001E-02   1.4342E-02   6.1256E-04  0.0370
   1.4342E-02   1.4691E-02   6.1774E-04  0.0364
   1.4691E-02   1.5048E-02   6.3388E-04  0.0355
   1.5048E-02   1.5414E-02   6.1570E-04  0.0356
   1.5414E-02   1.5789E-02   6.5071E-04  0.0342
   1.5789E-02   1.6174E-02   5.9498E-04  0.0354
   1.6174E-02   1.6567E-02   5.7370E-04  0.0356
   1.6567E-02   1.6970E-02   5.8973E-04  0.0347
   1.6970E-02   1.7383E-02   6.3177E-04  0.0331
   1.7383E-02   1.7806E-02   6.2772E-04  0.0328
   1.7806E-02   1.8239E-02   5.8111E-04  0.0337
   1.8239E-02   1.8683E-02   5.7958E-04  0.0333
   1.8683E-02   1.9138E-02   5.8391E-04  0.0328
   1.9138E-02   1.9603E-02   5.8642E-04  0.0323
   1.9603E-02   2.0080E-02   6.1101E-04  0.0313
   2.0080E-02   2.0569E-02   6.1112E-04  0.0309
   2.0569E-02   2.1069E-02   6.3600E-04  0.0300
   2.1069E-02   2.1582E-02   6.1390E-04  0.0301
   2.1582E-02   2.2107E-02   6.0745E-04  0.0299
   2.2107E-02   2.2645E-02   6.3563E-04  0.0289
   2.2645E-02   2.3196E-02   6.1327E-04  0.0291
   2.3196E-02   2.3760E-02   5.8083E-04  0.0295
   2.3760E-02   2.4338E-02   6.0229E-04  0.0286
   2.4338E-02   2.4930E-02   6.0222E-04  0.0283
   2.4930E-02   2.5537E-02   6.1846E-04  0.0276
   2.5537E-02   2.6158E-02   6.1527E-04  0.0273
   2.6158E-02   2.6795E-02   6.2882E-04  0.0267
   2.6795E-02   2.7447E-02   6.3171E-04  0.0263
   2.7447E-02   2.8114E-02   6.0112E-04  0.0267
   2.8114E-02   2.8799E-02   5.9403E-04  0.0265
   2.8799E-02   2.9499E-02   6.1898E-04  0.0257
   2.9499E-02   3.0217E-02   5.9990E-04  0.0258
   3.0217E-02   3.0952E-02   6.3291E-04  0.0248
   3.0952E-02   3.1705E-02   6.0664E-04  0.0250
   3.1705E-02   3.2477E-02   5.9120E-04  0.0250
   3.2477E-02   3.3267E-02   6.2104E-04  0.0241
   3.3267E-02   3.4076E-02   6.1172E-04  0.0240
   3.4076E-02   3.4905E-02   5.9996E-04  0.0240
   3.4905E-02   3.5755E-02   5.9932E-04  0.0237
   3.5755E-02   3.6625E-02   5.9294E-04  0.0235
   3.6625E-02   3.7516E-02   5.9584E-04  0.0232
   3.7516E-02   3.8428E-02   6.3135E-04  0.0223
   3.8428E-02   3.9363E-02   5.9597E-04  0.0226
   3.9363E-02   4.0321E-02   5.8844E-04  0.0225
   4.0321E-02   4.1302E-02   6.1488E-04  0.0218
   4.1302E-02   4.2307E-02   5.8967E-04  0.0220
   4.2307E-02   4.3337E-02   5.9595E-04  0.0216
   4.3337E-02   4.4391E-02   5.7482E-04  0.0217
   4.4391E-02   4.5471E-02   6.1240E-04  0.0208
   4.5471E-02   4.6577E-02   6.0201E-04  0.0207
   4.6577E-02   4.7711E-02   5.9752E-04  0.0205
   4.7711E-02   4.8871E-02   5.9743E-04  0.0203
   4.8871E-02   5.0061E-02   6.1187E-04  0.0198
   5.0061E-02   5.1279E-02   6.0520E-04  0.0197
   5.1279E-02   5.2526E-02   5.8441E-04  0.0198
   5.2526E-02   5.3804E-02   5.8663E-04  0.0195
   5.3804E-02   5.5113E-02   6.1725E-04  0.0188
   5.5113E-02   5.6454E-02   5.9861E-04  0.0189
   5.6454E-02   5.7828E-02   5.9838E-04  0.0186
   5.7828E-02   5.9235E-02   5.8740E-04  0.0186
   5.9235E-02   6.0676E-02   5.9711E-04  0.0182
   6.0676E-02   6.2152E-02   5.7673E-04  0.0183
   6.2152E-02   6.3665E-02   5.8522E-04  0.0180
   6.3665E-02   6.5214E-02   5.8484E-04  0.0178
   6.5214E-02   6.6800E-02   5.9591E-04  0.0174
   6.6800E-02   6.8426E-02   5.8822E-04  0.0173
   6.8426E-02   7.0090E-02   5.8555E-04  0.0171
   7.0090E-02   7.1796E-02   5.7583E-04  0.0171
   7.1796E-02   7.3543E-02   5.7964E-04  0.0168
   7.3543E-02   7.5332E-02   5.8213E-04  0.0166
   7.5332E-02   7.7165E-02   6.0986E-04  0.0160
   7.7165E-02   7.9042E-02   5.9238E-04  0.0160
   7.9042E-02   8.0965E-02   5.9058E-04  0.0159
   8.0965E-02   8.2935E-02   5.8174E-04  0.0158
   8.2935E-02   8.4953E-02   5.9036E-04  0.0155
   8.4953E-02   8.7020E-02   5.5989E-04  0.0157
   8.7020E-02   8.9138E-02   5.7931E-04  0.0153
   8.9138E-02   9.1306E-02   5.6700E-04  0.0152
   9.1306E-02   9.3528E-02   5.6884E-04  0.0150
   9.3528E-02   9.5804E-02   5.6566E-04  0.0149
   9.5804E-02   9.8134E-02   5.5776E-04  0.0148
   9.8134E-02   1.0052E-01   5.7342E-04  0.0144
   1.0052E-01   1.0297E-01   5.4636E-04  0.0146
   1.0297E-01   1.0547E-01   5.4817E-04  0.0144
   1.0547E-01   1.0804E-01   5.6254E-04  0.0141
   1.0804E-01   1.1067E-01   5.6285E-04  0.0139
   1.1067E-01   1.1336E-01   5.5374E-04  0.0138
   1.1336E-01   1.1612E-01   5.5623E-04  0.0136
   1.1612E-01   1.1894E-01   5.5590E-04  0.0135
   1.1894E-01   1.2184E-01   5.4917E-04  0.0134
   1.2184E-01   1.2480E-01   5.4992E-04  0.0132
   1.2480E-01   1.2784E-01   5.5809E-04  0.0130
   1.2784E-01   1.3095E-01   5.5032E-04  0.0129
   1.3095E-01   1.3414E-01   5.5423E-04  0.0127
   1.3414E-01   1.3740E-01   5.3180E-04  0.0128
   1.3740E-01   1.4074E-01   5.3767E-04  0.0126
   1.4074E-01   1.4417E-01   5.3167E-04  0.0125
   1.4417E-01   1.4767E-01   5.4614E-04  0.0122
   1.4767E-01   1.5127E-01   5.3145E-04  0.0122
   1.5127E-01   1.5495E-01   5.2695E-04  0.0121
   1.5495E-01   1.5872E-01   5.2242E-04  0.0120
   1.5872E-01   1.6258E-01   5.1655E-04  0.0120
   1.6258E-01   1.6654E-01   5.2556E-04  0.0117
   1.6654E-01   1.7059E-01   5.1841E-04  0.0117
   1.7059E-01   1.7474E-01   5.1009E-04  0.0116
   1.7474E-01   1.7899E-01   5.1461E-04  0.0114
   1.7899E-01   1.8334E-01   5.2238E-04  0.0112
   1.8334E-01   1.8781E-01   5.0848E-04  0.0112
   1.8781E-01   1.9237E-01   5.0237E-04  0.0112
   1.9237E-01   1.9706E-01   5.0214E-04  0.0110
   1.9706E-01   2.0185E-01   5.0526E-04  0.0109
   2.0185E-01   2.0676E-01   4.9903E-04  0.0108
   2.0676E-01   2.1179E-01   4.9432E-04  0.0107
   2.1179E-01   2.1694E-01   4.9577E-04  0.0106
   2.1694E-01   2.2222E-01   4.9909E-04  0.0104
   2.2222E-01   2.2763E-01   4.8320E-04  0.0105
   2.2763E-01   2.3317E-01   4.7308E-04  0.0104
   2.3317E-01   2.3884E-01   4.7341E-04  0.0103
   2.3884E-01   2.4465E-01   4.6713E-04  0.0103
   2.4465E-01   2.5061E-01   4.6009E-04  0.0102
   2.5061E-01   2.5670E-01   4.6678E-04  0.0100
   2.5670E-01   2.6295E-01   4.6262E-04  0.0099
   2.6295E-01   2.6935E-01   4.5939E-04  0.0099
   2.6935E-01   2.7590E-01   4.5198E-04  0.0098
   2.7590E-01   2.8261E-01   4.4844E-04  0.0097
   2.8261E-01   2.8949E-01   4.5170E-04  0.0096
   2.8949E-01   2.9653E-01   4.4443E-04  0.0096
   2.9653E-01   3.0375E-01   4.4293E-04  0.0095
   3.0375E-01   3.1114E-01   4.2461E-04  0.0095
   3.1114E-01   3.1871E-01   4.2723E-04  0.0094
   3.1871E-01   3.2646E-01   4.2831E-04  0.0093
   3.2646E-01   3.3441E-01   4.2752E-04  0.0092
   3.3441E-01   3.4254E-01   4.1366E-04  0.0092
   3.4254E-01   3.5088E-01   4.1591E-04  0.0091
   3.5088E-01   3.5941E-01   4.0748E-04  0.0091
   3.5941E-01   3.6816E-01   4.0212E-04  0.0090
   3.6816E-01   3.7712E-01   4.0499E-04  0.0089
   3.7712E-01   3.8629E-01   3.9473E-04  0.0089
   3.8629E-01   3.9569E-01   3.9239E-04  0.0088
   3.9569E-01   4.0532E-01   3.8527E-04  0.0088
   4.0532E-01   4.1518E-01   3.7891E-04  0.0087
   4.1518E-01   4.2528E-01   3.6607E-04  0.0088
   4.2528E-01   4.3563E-01   3.7555E-04  0.0086
   4.3563E-01   4.4623E-01   3.6209E-04  0.0086
   4.4623E-01   4.5708E-01   3.6213E-04  0.0085
   4.5708E-01   4.6821E-01   3.5212E-04  0.0085
   4.6821E-01   4.7960E-01   3.4858E-04  0.0085
   4.7960E-01   4.9127E-01   3.3706E-04  0.0085
   4.9127E-01   5.0322E-01   3.3680E-04  0.0084
   5.0322E-01   5.1546E-01   3.2716E-04  0.0084
   5.1546E-01   5.2800E-01   3.2890E-04  0.0083
   5.2800E-01   5.4085E-01   3.2036E-04  0.0083
   5.4085E-01   5.5401E-01   3.1312E-04  0.0083
   5.5401E-01   5.6749E-01   3.0321E-04  0.0084
   5.6749E-01   5.8130E-01   3.0214E-04  0.0083
   5.8130E-01   5.9544E-01   2.9298E-04  0.0083
   5.9544E-01   6.0993E-01   2.9072E-04  0.0082
   6.0993E-01   6.2477E-01   2.8482E-04  0.0082
   6.2477E-01   6.3997E-01   2.7728E-04  0.0082
   6.3997E-01   6.5554E-01   2.7047E-04  0.0082
   6.5554E-01   6.7149E-01   2.6454E-04  0.0082
   6.7149E-01   6.8783E-01   2.6343E-04  0.0081
   6.8783E-01   7.0456E-01   2.4886E-04  0.0083
   7.0456E-01   7.2171E-01   2.4480E-04  0.0083
   7.2171E-01   7.3927E-01   2.3715E-04  0.0083
   7.3927E-01   7.5725E-01   2.3195E-04  0.0083
   7.5725E-01   7.7568E-01   2.2884E-04  0.0082
   7.7568E-01   7.9455E-01   2.2161E-04  0.0083
   7.9455E-01   8.1388E-01   2.1159E-04  0.0084
   8.1388E-01   8.3368E-01   2.0395E-04  0.0084
   8.3368E-01   8.5397E-01   1.9839E-04  0.0084
   8.5397E-01   8.7475E-01   1.8943E-04  0.0085
   8.7475E-01   8.9603E-01   1.8586E-04  0.0085
   8.9603E-01   9.1783E-01   1.7670E-04  0.0086
   9.1783E-01   9.4016E-01   1.7199E-04  0.0086
   9.4016E-01   9.6304E-01   1.6753E-04  0.0086
   9.6304E-01   9.8647E-01   1.5662E-04  0.0088
   9.8647E-01   1.0105E+00   1.5469E-04  0.0088
   1.0105E+00   1.0351E+00   1.5205E-04  0.0087
   1.0351E+00   1.0602E+00   1.5351E-04  0.0086
   1.0602E+00   1.0860E+00   1.5652E-04  0.0084
   1.0860E+00   1.1125E+00   1.5867E-04  0.0083
   1.1125E+00   1.1395E+00   1.6150E-04  0.0081
   1.1395E+00   1.1673E+00   1.6374E-04  0.0079
   1.1673E+00   1.1957E+00   1.6591E-04  0.0078
   1.1957E+00   1.2247E+00   1.6800E-04  0.0076
   1.2247E+00   1.2545E+00   1.7086E-04  0.0075
   1.2545E+00   1.2851E+00   1.7113E-04  0.0074
   1.2851E+00   1.3163E+00   1.6689E-04  0.0074
   1.3163E+00   1.3484E+00   1.7158E-04  0.0072
   1.3484E+00   1.3812E+00   1.7741E-04  0.0070
   1.3812E+00   1.4148E+00   1.7700E-04  0.0069
   1.4148E+00   1.4492E+00   1.7428E-04  0.0069
   1.4492E+00   1.4845E+00   1.7103E-04  0.0069
   1.4845E+00   1.5206E+00   1.7475E-04  0.0067
   1.5206E+00   1.5576E+00   1.7093E-04  0.0067
   1.5576E+00   1.5955E+00   1.6844E-04  0.0067
   1.5955E+00   1.6343E+00   1.6860E-04  0.0066
   1.6343E+00   1.6741E+00   1.7103E-04  0.0065
   1.6741E+00   1.7148E+00   1.6940E-04  0.0064
   1.7148E+00   1.7565E+00   1.6677E-04  0.0064
   1.7565E+00   1.7992E+00   1.6424E-04  0.0064
   1.7992E+00   1.8430E+00   1.6193E-04  0.0063
   1.8430E+00   1.8879E+00   1.5953E-04  0.0063
   1.8879E+00   1.9338E+00   1.5669E-04  0.0063
   1.9338E+00   1.9808E+00   1.5363E-04  0.0063
   1.9808E+00   2.0290E+00   1.5264E-04  0.0062
   2.0290E+00   2.0784E+00   1.4961E-04  0.0062
   2.0784E+00   2.1290E+00   1.4449E-04  0.0062
   2.1290E+00   2.1808E+00   1.4039E-04  0.0063
   2.1808E+00   2.2338E+00   1.3611E-04  0.0063
   2.2338E+00   2.2882E+00   1.3309E-04  0.0063
   2.2882E+00   2.3439E+00   1.2884E-04  0.0063
   2.3439E+00   2.4009E+00   1.2570E-04  0.0063
   2.4009E+00   2.4593E+00   1.2456E-04  0.0063
   2.4593E+00   2.5191E+00   1.1873E-04  0.0063
   2.5191E+00   2.5804E+00   1.1231E-04  0.0064
   2.5804E+00   2.6432E+00   1.0886E-04  0.0065
   2.6432E+00   2.7075E+00   1.0359E-04  0.0065
   2.7075E+00   2.7734E+00   9.9757E-05  0.0066
   2.7734E+00   2.8409E+00   9.5953E-05  0.0066
   2.8409E+00   2.9100E+00   9.2722E-05  0.0067
   2.9100E+00   2.9808E+00   8.8361E-05  0.0067
   2.9808E+00   3.0533E+00   8.4314E-05  0.0068
   3.0533E+00   3.1276E+00   8.0882E-05  0.0069
   3.1276E+00   3.2037E+00   7.6347E-05  0.0070
   3.2037E+00   3.2817E+00   7.2354E-05  0.0071
   3.2817E+00   3.3615E+00   6.8918E-05  0.0072
   3.3615E+00   3.4433E+00   6.5531E-05  0.0073
   3.4433E+00   3.5271E+00   6.1175E-05  0.0074
   3.5271E+00   3.6129E+00   5.8010E-05  0.0075
   3.6129E+00   3.7008E+00   5.5395E-05  0.0076
   3.7008E+00   3.7908E+00   5.1613E-05  0.0078
   3.7908E+00   3.8831E+00   4.8703E-05  0.0079
   3.8831E+00   3.9776E+00   4.5827E-05  0.0081
   3.9776E+00   4.0743E+00   4.3041E-05  0.0082
   4.0743E+00   4.1735E+00   4.0268E-05  0.0084
   4.1735E+00   4.2750E+00   3.8012E-05  0.0086
   4.2750E+00   4.3790E+00   3.5915E-05  0.0087
   4.3790E+00   4.4856E+00   3.3249E-05  0.0089
   4.4856E+00   4.5947E+00   3.0956E-05  0.0091
   4.5947E+00   4.7065E+00   2.9171E-05  0.0093
   4.7065E+00   4.8210E+00   2.6606E-05  0.0096
   4.8210E+00   4.9383E+00   2.5482E-05  0.0097
   4.9383E+00   5.0585E+00   2.4387E-05  0.0098
   5.0585E+00   5.1815E+00   2.2218E-05  0.0102
   5.1815E+00   5.3076E+00   2.0395E-05  0.0105
   5.3076E+00   5.4368E+00   1.9081E-05  0.0107
   5.4368E+00   5.5690E+00   1.7609E-05  0.0110
   5.5690E+00   5.7045E+00   1.5958E-05  0.0114
   5.7045E+00   5.8433E+00   1.5219E-05  0.0116
   5.8433E+00   5.9855E+00   1.3836E-05  0.0120
   5.9855E+00   6.1311E+00   1.2813E-05  0.0123
   6.1311E+00   6.2803E+00   1.1890E-05  0.0126
   6.2803E+00   6.4331E+00   1.1022E-05  0.0129
   6.4331E+00   6.5896E+00   1.0279E-05  0.0132
   6.5896E+00   6.7500E+00   9.3613E-06  0.0137
   6.7500E+00   6.9142E+00   8.6131E-06  0.0141
   6.9142E+00   7.0824E+00   8.0972E-06  0.0144
   7.0824E+00   7.2548E+00   7.2903E-06  0.0150
   7.2548E+00   7.4313E+00   6.5178E-06  0.0157
   7.4313E+00   7.6121E+00   5.9116E-06  0.0162
   7.6121E+00   7.7973E+00   5.4329E-06  0.0167
   7.7973E+00   7.9870E+00   5.0000E-06  0.0172
   7.9870E+00   8.1813E+00   4.6666E-06  0.0176
   8.1813E+00   8.3804E+00   4.1496E-06  0.0185
   8.3804E+00   8.5843E+00   3.8133E-06  0.0190
   8.5843E+00   8.7931E+00   3.5296E-06  0.0196
   8.7931E+00   9.0071E+00   3.2221E-06  0.0202
   9.0071E+00   9.2262E+00   2.9190E-06  0.0210
   9.2262E+00   9.4507E+00   2.6414E-06  0.0218
   9.4507E+00   9.6807E+00   2.4550E-06  0.0223
   9.6807E+00   9.9162E+00   2.1433E-06  0.0236
   9.9162E+00   1.0157E+01   2.0003E-06  0.0242
   1.0157E+01   1.0405E+01   1.8146E-06  0.0251
   1.0405E+01   1.0658E+01   1.6693E-06  0.0258
   1.0658E+01   1.0917E+01   1.3587E-06  0.0283
   1.0917E+01   1.1183E+01   1.3668E-06  0.0279
   1.1183E+01   1.1455E+01   1.2012E-06  0.0294
   1.1455E+01   1.1733E+01   1.0989E-06  0.0304
   1.1733E+01   1.2019E+01   9.9953E-07  0.0315
   1.2019E+01   1.2311E+01   8.8054E-07  0.0331
   1.2311E+01   1.2611E+01   8.2687E-07  0.0338
   1.2611E+01   1.2918E+01   7.1617E-07  0.0359
   1.2918E+01   1.3232E+01   7.2360E-07  0.0353
   1.3232E+01   1.3554E+01   6.0345E-07  0.0382
   1.3554E+01   1.3884E+01   5.4538E-07  0.0397
   1.3884E+01   1.4222E+01   5.1096E-07  0.0405
   1.4222E+01   1.4568E+01   4.5638E-07  0.0424
   1.4568E+01   1.4922E+01   4.0013E-07  0.0447
   1.4922E+01   1.5285E+01   3.7190E-07  0.0459
   1.5285E+01   1.5657E+01   3.3896E-07  0.0475
   1.5657E+01   1.6038E+01   3.0578E-07  0.0494
   1.6038E+01   1.6428E+01   2.9059E-07  0.0501
   1.6428E+01   1.6828E+01   2.7727E-07  0.0507
   1.6828E+01   1.7237E+01   2.5361E-07  0.0524
   1.7237E+01   1.7657E+01   2.3898E-07  0.0532
   1.7657E+01   1.8086E+01   2.1444E-07  0.0556
   1.8086E+01   1.8526E+01   1.9151E-07  0.0582
   1.8526E+01   1.8977E+01   1.8255E-07  0.0589
   1.8977E+01   1.9439E+01   1.4789E-07  0.0647
   1.9439E+01   1.9912E+01   1.3773E-07  0.0662
   1.9912E+01   2.0396E+01   1.3446E-07  0.0662
   2.0396E+01   2.0893E+01   1.4221E-07  0.0636
   2.0893E+01   2.1401E+01   1.2365E-07  0.0674
   2.1401E+01   2.1922E+01   1.1303E-07  0.0697
   2.1922E+01   2.2455E+01   1.0660E-07  0.0709
   2.2455E+01   2.3001E+01   1.1296E-07  0.0680
   2.3001E+01   2.3561E+01   1.0262E-07  0.0705
   2.3561E+01   2.4134E+01   1.0018E-07  0.0705
   2.4134E+01   2.4721E+01   9.5854E-08  0.0712
   2.4721E+01   2.5323E+01   7.4101E-08  0.0801
   2.5323E+01   2.5939E+01   7.6978E-08  0.0776
   2.5939E+01   2.6570E+01   6.8359E-08  0.0814
   2.6570E+01   2.7217E+01   6.6294E-08  0.0816
   2.7217E+01   2.7879E+01   6.0404E-08  0.0845
   2.7879E+01   2.8557E+01   5.8127E-08  0.0851
   2.8557E+01   2.9252E+01   5.6747E-08  0.0851
   2.9252E+01   2.9964E+01   3.8538E-08  0.1021
   2.9964E+01   3.0693E+01   4.7028E-08  0.0913
   3.0693E+01   3.1440E+01   3.6347E-08  0.1026
   3.1440E+01   3.2205E+01   3.9218E-08  0.0976
   3.2205E+01   3.2988E+01   3.4640E-08  0.1026
   3.2988E+01   3.3791E+01   2.8478E-08  0.1118
   3.3791E+01   3.4613E+01   2.4326E-08  0.1195
   3.4613E+01   3.5455E+01   2.8837E-08  0.1085
   3.5455E+01   3.6318E+01   2.2522E-08  0.1213
   3.6318E+01   3.7201E+01   2.2634E-08  0.1195
   3.7201E+01   3.8106E+01   1.9571E-08  0.1270
   3.8106E+01   3.9034E+01   1.6949E-08  0.1348
   3.9034E+01   3.9983E+01   1.4741E-08  0.1429
   3.9983E+01   4.0956E+01   1.2629E-08  0.1525
   4.0956E+01   4.1953E+01   1.2042E-08  0.1543
   4.1953E+01   4.2973E+01   9.2370E-09  0.1741
   4.2973E+01   4.4019E+01   8.4711E-09  0.1796
   4.4019E+01   4.5090E+01   6.1357E-09  0.2085
   4.5090E+01   4.6187E+01   4.4274E-09  0.2425
   4.6187E+01   4.7311E+01   3.3052E-09  0.2774
   4.7311E+01   4.8462E+01   3.7231E-09  0.2582
   4.8462E+01   4.9641E+01   2.1808E-09  0.3333
   4.9641E+01   5.0849E+01   3.5483E-09  0.2582
   5.0849E+01   5.2086E+01   1.3856E-09  0.4082
   5.2086E+01   5.3353E+01   2.0291E-09  0.3333
   5.3353E+01   5.4651E+01   8.8039E-10  0.5000
   5.4651E+01   5.5981E+01   4.2974E-10  0.7071
   5.5981E+01   5.7343E+01   6.2930E-10  0.5774
   5.7343E+01   5.8738E+01   4.0957E-10  0.7071
   5.8738E+01   6.0168E+01   1.9992E-10  1.0000
   6.0168E+01   6.1632E+01   0.0000E+00  0.0000
   6.1632E+01   6.3131E+01   0.0000E+00  0.0000
   6.3131E+01   6.4667E+01   0.0000E+00  0.0000
   6.4667E+01   6.6240E+01   0.0000E+00  0.0000
   6.6240E+01   6.7852E+01   0.0000E+00  0.0000
   6.7852E+01   6.9503E+01   0.0000E+00  0.0000
   6.9503E+01   7.1194E+01   0.0000E+00  0.0000
   7.1194E+01   7.2926E+01   0.0000E+00  0.0000
   7.2926E+01   7.4701E+01   0.0000E+00  0.0000
   7.4701E+01   7.6518E+01   0.0000E+00  0.0000
   7.6518E+01   7.8380E+01   0.0000E+00  0.0000
   7.8380E+01   8.0287E+01   0.0000E+00  0.0000
   8.0287E+01   8.2240E+01   0.0000E+00  0.0000
   8.2240E+01   8.4241E+01   0.0000E+00  0.0000
   8.4241E+01   8.6291E+01   0.0000E+00  0.0000
   8.6291E+01   8.8391E+01   0.0000E+00  0.0000
   8.8391E+01   9.0541E+01   0.0000E+00  0.0000
   9.0541E+01   9.2744E+01   0.0000E+00  0.0000
   9.2744E+01   9.5001E+01   0.0000E+00  0.0000
   9.5001E+01   9.7312E+01   0.0000E+00  0.0000
   9.7312E+01   9.9680E+01   0.0000E+00  0.0000
   9.9680E+01   1.0211E+02   0.0000E+00  0.0000
   1.0211E+02   1.0459E+02   0.0000E+00  0.0000
   1.0459E+02   1.0713E+02   0.0000E+00  0.0000
   1.0713E+02   1.0974E+02   0.0000E+00  0.0000
   1.0974E+02   1.1241E+02   0.0000E+00  0.0000
   1.1241E+02   1.1515E+02   0.0000E+00  0.0000
   1.1515E+02   1.1795E+02   0.0000E+00  0.0000
   1.1795E+02   1.2082E+02   0.0000E+00  0.0000
   1.2082E+02   1.2376E+02   0.0000E+00  0.0000
   1.2376E+02   1.2677E+02   0.0000E+00  0.0000
   1.2677E+02   1.2985E+02   0.0000E+00  0.0000
   1.2985E+02   1.3301E+02   0.0000E+00  0.0000
   1.3301E+02   1.3625E+02   0.0000E+00  0.0000
   1.3625E+02   1.3956E+02   0.0000E+00  0.0000
   1.3956E+02   1.4296E+02   0.0000E+00  0.0000
   1.4296E+02   1.4644E+02   0.0000E+00  0.0000
   1.4644E+02   1.5000E+02   0.0000E+00  0.0000

#   sum over                 5.1580E-06
'no. =    1   reg = 125 - 225'
msuc: {\huge [t-cross] in region mesh}
msdr: {\it plotted by \ANGEL \version}
msdl: {\it calculated by \PHITS  3.26}
wt: s(0.7)
\vspace{-3}
  region surface crossing
  area  &=&   1.0000E+00 [cm^2]
e:
 
# Information for Restart Calculation
# This calculation was newly started
# istdev =  2 # 1:Batch variance, 2:History variance
# resc2  = 3.50000000000000000E+09 # Total source weight or Total source weight / maxcas
# resc3  = 3.50000000000000000E+09 # Total history number or Total batch number
# maxcas =   100000000 # History / Batch, only used for istdev=1
# bitrseed = 0000101100011000111110010011011110110000110001011001110010110101 # bit data of rseed
