[ T-Cross ]
    title = [t-cross] in region mesh
     mesh =  reg            # mesh type is region-wise
      reg =    1            # number of crossing regions
      non     r-from    r-to       area
      1       114       214        1.000000    
   e-type =    3            # e-mesh is log given by emin, emax and ne
     emin =  1.0000000E-02  # minimum value of e-mesh points
     emax =   150.0000      # maximum value of e-mesh points
#    edel =  2.4039514E-02  # mesh width of e-mesh points
       ne =    400          # number of e-mesh points
#    data = ( e(i), i = 1, ne + 1 )
#           1.00000E-02  1.02433E-02  1.04925E-02  1.07478E-02  1.10093E-02
#           1.12772E-02  1.15516E-02  1.18326E-02  1.21205E-02  1.24154E-02
#           1.27175E-02  1.30269E-02  1.33439E-02  1.36686E-02  1.40011E-02
#           1.43418E-02  1.46907E-02  1.50482E-02  1.54143E-02  1.57894E-02
#           1.61735E-02  1.65670E-02  1.69701E-02  1.73830E-02  1.78060E-02
#           1.82392E-02  1.86830E-02  1.91375E-02  1.96032E-02  2.00801E-02
#           2.05687E-02  2.10692E-02  2.15818E-02  2.21069E-02  2.26448E-02
#           2.31957E-02  2.37601E-02  2.43382E-02  2.49304E-02  2.55369E-02
#           2.61583E-02  2.67947E-02  2.74467E-02  2.81145E-02  2.87985E-02
#           2.94992E-02  3.02169E-02  3.09521E-02  3.17052E-02  3.24766E-02
#           3.32668E-02  3.40762E-02  3.49053E-02  3.57546E-02  3.66246E-02
#           3.75157E-02  3.84284E-02  3.93634E-02  4.03212E-02  4.13022E-02
#           4.23071E-02  4.33365E-02  4.43909E-02  4.54710E-02  4.65773E-02
#           4.77106E-02  4.88714E-02  5.00605E-02  5.12785E-02  5.25262E-02
#           5.38042E-02  5.51133E-02  5.64542E-02  5.78278E-02  5.92348E-02
#           6.06760E-02  6.21523E-02  6.36645E-02  6.52135E-02  6.68002E-02
#           6.84255E-02  7.00904E-02  7.17957E-02  7.35426E-02  7.53319E-02
#           7.71648E-02  7.90423E-02  8.09655E-02  8.29354E-02  8.49533E-02
#           8.70203E-02  8.91376E-02  9.13064E-02  9.35279E-02  9.58035E-02
#           9.81345E-02  1.00522E-01  1.02968E-01  1.05473E-01  1.08040E-01
#           1.10668E-01  1.13361E-01  1.16119E-01  1.18944E-01  1.21838E-01
#           1.24803E-01  1.27839E-01  1.30950E-01  1.34136E-01  1.37399E-01
#           1.40742E-01  1.44167E-01  1.47675E-01  1.51268E-01  1.54948E-01
#           1.58718E-01  1.62580E-01  1.66535E-01  1.70587E-01  1.74738E-01
#           1.78989E-01  1.83344E-01  1.87805E-01  1.92375E-01  1.97055E-01
#           2.01850E-01  2.06761E-01  2.11792E-01  2.16945E-01  2.22223E-01
#           2.27630E-01  2.33169E-01  2.38842E-01  2.44653E-01  2.50605E-01
#           2.56703E-01  2.62949E-01  2.69346E-01  2.75900E-01  2.82613E-01
#           2.89489E-01  2.96532E-01  3.03747E-01  3.11138E-01  3.18708E-01
#           3.26462E-01  3.34405E-01  3.42542E-01  3.50876E-01  3.59413E-01
#           3.68158E-01  3.77116E-01  3.86291E-01  3.95690E-01  4.05317E-01
#           4.15179E-01  4.25281E-01  4.35628E-01  4.46227E-01  4.57084E-01
#           4.68205E-01  4.79597E-01  4.91266E-01  5.03219E-01  5.15463E-01
#           5.28005E-01  5.40851E-01  5.54011E-01  5.67490E-01  5.81298E-01
#           5.95441E-01  6.09929E-01  6.24769E-01  6.39970E-01  6.55541E-01
#           6.71491E-01  6.87828E-01  7.04564E-01  7.21706E-01  7.39266E-01
#           7.57253E-01  7.75678E-01  7.94551E-01  8.13883E-01  8.33685E-01
#           8.53969E-01  8.74747E-01  8.96030E-01  9.17831E-01  9.40163E-01
#           9.63038E-01  9.86469E-01  1.01047E+00  1.03506E+00  1.06024E+00
#           1.08604E+00  1.11246E+00  1.13953E+00  1.16725E+00  1.19565E+00
#           1.22474E+00  1.25454E+00  1.28507E+00  1.31633E+00  1.34836E+00
#           1.38117E+00  1.41477E+00  1.44920E+00  1.48446E+00  1.52057E+00
#           1.55757E+00  1.59547E+00  1.63429E+00  1.67405E+00  1.71478E+00
#           1.75650E+00  1.79924E+00  1.84302E+00  1.88786E+00  1.93379E+00
#           1.98084E+00  2.02904E+00  2.07841E+00  2.12898E+00  2.18078E+00
#           2.23384E+00  2.28819E+00  2.34386E+00  2.40089E+00  2.45930E+00
#           2.51914E+00  2.58043E+00  2.64322E+00  2.70753E+00  2.77341E+00
#           2.84088E+00  2.91001E+00  2.98081E+00  3.05333E+00  3.12762E+00
#           3.20372E+00  3.28167E+00  3.36152E+00  3.44330E+00  3.52708E+00
#           3.61290E+00  3.70080E+00  3.79085E+00  3.88308E+00  3.97756E+00
#           4.07434E+00  4.17347E+00  4.27501E+00  4.37903E+00  4.48557E+00
#           4.59471E+00  4.70650E+00  4.82102E+00  4.93832E+00  5.05847E+00
#           5.18155E+00  5.30762E+00  5.43676E+00  5.56904E+00  5.70453E+00
#           5.84333E+00  5.98550E+00  6.13114E+00  6.28031E+00  6.43312E+00
#           6.58964E+00  6.74997E+00  6.91420E+00  7.08243E+00  7.25475E+00
#           7.43126E+00  7.61207E+00  7.79728E+00  7.98700E+00  8.18133E+00
#           8.38038E+00  8.58428E+00  8.79315E+00  9.00709E+00  9.22624E+00
#           9.45072E+00  9.68067E+00  9.91620E+00  1.01575E+01  1.04046E+01
#           1.06578E+01  1.09171E+01  1.11827E+01  1.14548E+01  1.17335E+01
#           1.20190E+01  1.23114E+01  1.26109E+01  1.29178E+01  1.32321E+01
#           1.35540E+01  1.38838E+01  1.42216E+01  1.45676E+01  1.49221E+01
#           1.52851E+01  1.56570E+01  1.60380E+01  1.64282E+01  1.68279E+01
#           1.72374E+01  1.76568E+01  1.80864E+01  1.85264E+01  1.89772E+01
#           1.94389E+01  1.99119E+01  2.03963E+01  2.08926E+01  2.14009E+01
#           2.19216E+01  2.24550E+01  2.30014E+01  2.35610E+01  2.41343E+01
#           2.47215E+01  2.53230E+01  2.59391E+01  2.65702E+01  2.72167E+01
#           2.78789E+01  2.85572E+01  2.92520E+01  2.99637E+01  3.06928E+01
#           3.14396E+01  3.22045E+01  3.29881E+01  3.37907E+01  3.46128E+01
#           3.54550E+01  3.63177E+01  3.72013E+01  3.81064E+01  3.90336E+01
#           3.99833E+01  4.09561E+01  4.19526E+01  4.29734E+01  4.40189E+01
#           4.50900E+01  4.61870E+01  4.73108E+01  4.84619E+01  4.96410E+01
#           5.08488E+01  5.20860E+01  5.33533E+01  5.46514E+01  5.59812E+01
#           5.73432E+01  5.87384E+01  6.01676E+01  6.16315E+01  6.31311E+01
#           6.46671E+01  6.62405E+01  6.78522E+01  6.95031E+01  7.11941E+01
#           7.29263E+01  7.47007E+01  7.65182E+01  7.83800E+01  8.02870E+01
#           8.22405E+01  8.42414E+01  8.62911E+01  8.83906E+01  9.05412E+01
#           9.27442E+01  9.50007E+01  9.73122E+01  9.96799E+01  1.02105E+02
#           1.04589E+02  1.07134E+02  1.09741E+02  1.12411E+02  1.15146E+02
#           1.17948E+02  1.20817E+02  1.23757E+02  1.26768E+02  1.29852E+02
#           1.33012E+02  1.36248E+02  1.39563E+02  1.42959E+02  1.46437E+02
#           1.50000E+02
     unit =    2            # unit is [1/cm^2/(MeV/n)/source]
     axis =  eng            # axis of output
     file = detector-15.out  # file name of output for the above axis
   output = f-curr          # surface crossing forward current spectrum
     part =  neutron  
# kf/name :  2112     
#    used :        main (  %)        temp (  %)       total (  %)
#  memory :         414 (  0)           0 (  0)         414 (  0)

#------------------------------------------------------------------------------
#newpage:
#   no. =    1   reg = 114 - 214

x: Energy [MeV/n]
y:  F-Curr [1/cm^2/(MeV/n)/source]         
p: xlog ylog afac(0.8) form(0.9)
h: n            x            y(neutron ),hh0l   n 
#  e-lower      e-upper      neutron     r.err 
   1.0000E-02   1.0243E-02   6.2472E-05  0.1622
   1.0243E-02   1.0493E-02   6.9013E-05  0.1525
   1.0493E-02   1.0748E-02   7.5208E-05  0.1443
   1.0748E-02   1.1009E-02   7.6481E-05  0.1414
   1.1009E-02   1.1277E-02   7.9144E-05  0.1374
   1.1277E-02   1.1552E-02   9.3300E-05  0.1250
   1.1552E-02   1.1833E-02   9.9623E-05  0.1195
   1.1833E-02   1.2121E-02   6.6690E-05  0.1443
   1.2121E-02   1.2415E-02   6.7819E-05  0.1414
   1.2415E-02   1.2718E-02   6.6208E-05  0.1414
   1.2718E-02   1.3027E-02   9.0490E-05  0.1195
   1.3027E-02   1.3344E-02   8.5816E-05  0.1213
   1.3344E-02   1.3669E-02   6.8994E-05  0.1336
   1.3669E-02   1.4001E-02   8.2991E-05  0.1204
   1.4001E-02   1.4342E-02   8.1020E-05  0.1204
   1.4342E-02   1.4691E-02   8.1388E-05  0.1187
   1.4691E-02   1.5048E-02   8.1693E-05  0.1170
   1.5048E-02   1.5414E-02   9.0677E-05  0.1098
   1.5414E-02   1.5789E-02   8.2124E-05  0.1140
   1.5789E-02   1.6174E-02   7.3926E-05  0.1187
   1.6174E-02   1.6567E-02   1.0165E-04  0.1000
   1.6567E-02   1.6970E-02   7.2441E-05  0.1170
   1.6970E-02   1.7383E-02   6.2970E-05  0.1240
   1.7383E-02   1.7806E-02   8.8901E-05  0.1031
   1.7806E-02   1.8239E-02   9.4176E-05  0.0990
   1.8239E-02   1.8683E-02   7.6616E-05  0.1085
   1.8683E-02   1.9138E-02   8.7115E-05  0.1005
   1.9138E-02   1.9603E-02   8.1610E-05  0.1026
   1.9603E-02   2.0080E-02   9.4767E-05  0.0941
   2.0080E-02   2.0569E-02   8.1872E-05  0.1000
   2.0569E-02   2.1069E-02   1.0311E-04  0.0880
   2.1069E-02   2.1582E-02   9.1294E-05  0.0925
   2.1582E-02   2.2107E-02   8.5317E-05  0.0945
   2.2107E-02   2.2645E-02   9.6676E-05  0.0877
   2.2645E-02   2.3196E-02   9.2202E-05  0.0887
   2.3196E-02   2.3760E-02   9.9934E-05  0.0842
   2.3760E-02   2.4338E-02   9.8253E-05  0.0839
   2.4338E-02   2.4930E-02   8.5111E-05  0.0891
   2.4930E-02   2.5537E-02   9.4959E-05  0.0833
   2.5537E-02   2.6158E-02   8.9485E-05  0.0848
   2.6158E-02   2.6795E-02   9.0502E-05  0.0833
   2.6795E-02   2.7447E-02   8.7739E-05  0.0836
   2.7447E-02   2.8114E-02   8.4457E-05  0.0842
   2.8114E-02   2.8799E-02   9.8824E-05  0.0769
   2.8799E-02   2.9499E-02   9.0768E-05  0.0793
   2.9499E-02   3.0217E-02   8.7497E-05  0.0798
   3.0217E-02   3.0952E-02   9.5212E-05  0.0756
   3.0952E-02   3.1705E-02   1.0570E-04  0.0709
   3.1705E-02   3.2477E-02   1.1511E-04  0.0671
   3.2477E-02   3.3267E-02   9.8711E-05  0.0716
   3.3267E-02   3.4076E-02   1.1416E-04  0.0658
   3.4076E-02   3.4905E-02   1.0324E-04  0.0684
   3.4905E-02   3.5755E-02   1.1257E-04  0.0647
   3.5755E-02   3.6625E-02   9.7938E-05  0.0685
   3.6625E-02   3.7516E-02   1.1042E-04  0.0638
   3.7516E-02   3.8428E-02   1.1525E-04  0.0617
   3.8428E-02   3.9363E-02   1.0952E-04  0.0625
   3.9363E-02   4.0321E-02   1.2362E-04  0.0581
   4.0321E-02   4.1302E-02   1.0886E-04  0.0612
   4.1302E-02   4.2307E-02   1.2220E-04  0.0571
   4.2307E-02   4.3337E-02   1.1541E-04  0.0580
   4.3337E-02   4.4391E-02   1.1760E-04  0.0568
   4.4391E-02   4.5471E-02   1.1666E-04  0.0563
   4.5471E-02   4.6577E-02   1.1063E-04  0.0572
   4.6577E-02   4.7711E-02   1.2318E-04  0.0535
   4.7711E-02   4.8871E-02   1.2198E-04  0.0531
   4.8871E-02   5.0061E-02   1.3288E-04  0.0503
   5.0061E-02   5.1279E-02   1.2972E-04  0.0503
   5.1279E-02   5.2526E-02   1.2183E-04  0.0513
   5.2526E-02   5.3804E-02   1.3146E-04  0.0488
   5.3804E-02   5.5113E-02   1.4025E-04  0.0467
   5.5113E-02   5.6454E-02   1.2946E-04  0.0480
   5.6454E-02   5.7828E-02   1.2202E-04  0.0489
   5.7828E-02   5.9235E-02   1.3845E-04  0.0453
   5.9235E-02   6.0676E-02   1.3544E-04  0.0453
   6.0676E-02   6.2152E-02   1.3873E-04  0.0442
   6.2152E-02   6.3665E-02   1.4548E-04  0.0426
   6.3665E-02   6.5214E-02   1.3970E-04  0.0430
   6.5214E-02   6.6800E-02   1.4496E-04  0.0417
   6.6800E-02   6.8426E-02   1.4422E-04  0.0413
   6.8426E-02   7.0090E-02   1.4752E-04  0.0404
   7.0090E-02   7.1796E-02   1.4589E-04  0.0401
   7.1796E-02   7.3543E-02   1.4701E-04  0.0395
   7.3543E-02   7.5332E-02   1.6744E-04  0.0365
   7.5332E-02   7.7165E-02   1.5473E-04  0.0376
   7.7165E-02   7.9042E-02   1.4871E-04  0.0379
   7.9042E-02   8.0965E-02   1.6202E-04  0.0358
   8.0965E-02   8.2935E-02   1.5513E-04  0.0362
   8.2935E-02   8.4953E-02   1.6532E-04  0.0346
   8.4953E-02   8.7020E-02   1.6391E-04  0.0344
   8.7020E-02   8.9138E-02   1.7721E-04  0.0327
   8.9138E-02   9.1306E-02   1.6193E-04  0.0337
   9.1306E-02   9.3528E-02   1.6187E-04  0.0334
   9.3528E-02   9.5804E-02   1.6629E-04  0.0325
   9.5804E-02   9.8134E-02   1.6748E-04  0.0320
   9.8134E-02   1.0052E-01   1.8378E-04  0.0302
   1.0052E-01   1.0297E-01   1.6993E-04  0.0310
   1.0297E-01   1.0547E-01   1.7786E-04  0.0300
   1.0547E-01   1.0804E-01   1.7816E-04  0.0296
   1.0804E-01   1.1067E-01   1.7925E-04  0.0291
   1.1067E-01   1.1336E-01   1.9000E-04  0.0280
   1.1336E-01   1.1612E-01   1.8708E-04  0.0278
   1.1612E-01   1.1894E-01   1.8688E-04  0.0275
   1.1894E-01   1.2184E-01   1.9433E-04  0.0267
   1.2184E-01   1.2480E-01   1.9080E-04  0.0266
   1.2480E-01   1.2784E-01   1.9430E-04  0.0260
   1.2784E-01   1.3095E-01   2.0447E-04  0.0251
   1.3095E-01   1.3414E-01   2.1707E-04  0.0240
   1.3414E-01   1.3740E-01   2.0333E-04  0.0246
   1.3740E-01   1.4074E-01   2.0807E-04  0.0240
   1.4074E-01   1.4417E-01   2.0687E-04  0.0238
   1.4417E-01   1.4767E-01   2.0686E-04  0.0235
   1.4767E-01   1.5127E-01   2.0618E-04  0.0232
   1.5127E-01   1.5495E-01   2.1867E-04  0.0223
   1.5495E-01   1.5872E-01   2.1485E-04  0.0222
   1.5872E-01   1.6258E-01   2.2114E-04  0.0216
   1.6258E-01   1.6654E-01   2.2621E-04  0.0211
   1.6654E-01   1.7059E-01   2.1985E-04  0.0212
   1.7059E-01   1.7474E-01   2.3226E-04  0.0204
   1.7474E-01   1.7899E-01   2.2759E-04  0.0203
   1.7899E-01   1.8334E-01   2.2512E-04  0.0202
   1.8334E-01   1.8781E-01   2.3870E-04  0.0194
   1.8781E-01   1.9237E-01   2.3732E-04  0.0192
   1.9237E-01   1.9706E-01   2.3185E-04  0.0192
   1.9706E-01   2.0185E-01   2.3519E-04  0.0188
   2.0185E-01   2.0676E-01   2.4475E-04  0.0182
   2.0676E-01   2.1179E-01   2.4665E-04  0.0180
   2.1179E-01   2.1694E-01   2.4622E-04  0.0178
   2.1694E-01   2.2222E-01   2.5636E-04  0.0172
   2.2222E-01   2.2763E-01   2.5161E-04  0.0172
   2.2763E-01   2.3317E-01   2.5459E-04  0.0168
   2.3317E-01   2.3884E-01   2.5206E-04  0.0167
   2.3884E-01   2.4465E-01   2.6184E-04  0.0162
   2.4465E-01   2.5061E-01   2.5992E-04  0.0161
   2.5061E-01   2.5670E-01   2.6273E-04  0.0158
   2.5670E-01   2.6295E-01   2.5963E-04  0.0157
   2.6295E-01   2.6935E-01   2.6497E-04  0.0154
   2.6935E-01   2.7590E-01   2.6887E-04  0.0151
   2.7590E-01   2.8261E-01   2.7327E-04  0.0148
   2.8261E-01   2.8949E-01   2.7009E-04  0.0147
   2.8949E-01   2.9653E-01   2.8088E-04  0.0142
   2.9653E-01   3.0375E-01   2.7521E-04  0.0142
   3.0375E-01   3.1114E-01   2.7598E-04  0.0140
   3.1114E-01   3.1871E-01   2.7888E-04  0.0138
   3.1871E-01   3.2646E-01   2.7293E-04  0.0137
   3.2646E-01   3.3441E-01   2.7274E-04  0.0136
   3.3441E-01   3.4254E-01   2.7742E-04  0.0133
   3.4254E-01   3.5088E-01   2.8720E-04  0.0129
   3.5088E-01   3.5941E-01   2.8483E-04  0.0128
   3.5941E-01   3.6816E-01   2.8977E-04  0.0126
   3.6816E-01   3.7712E-01   2.8289E-04  0.0126
   3.7712E-01   3.8629E-01   2.8650E-04  0.0123
   3.8629E-01   3.9569E-01   2.8591E-04  0.0122
   3.9569E-01   4.0532E-01   2.8917E-04  0.0120
   4.0532E-01   4.1518E-01   2.9005E-04  0.0118
   4.1518E-01   4.2528E-01   2.9231E-04  0.0116
   4.2528E-01   4.3563E-01   2.9399E-04  0.0115
   4.3563E-01   4.4623E-01   2.9617E-04  0.0113
   4.4623E-01   4.5708E-01   2.9308E-04  0.0112
   4.5708E-01   4.6821E-01   2.9173E-04  0.0111
   4.6821E-01   4.7960E-01   2.9232E-04  0.0110
   4.7960E-01   4.9127E-01   2.9559E-04  0.0108
   4.9127E-01   5.0322E-01   2.9395E-04  0.0107
   5.0322E-01   5.1546E-01   2.8648E-04  0.0107
   5.1546E-01   5.2800E-01   2.9830E-04  0.0103
   5.2800E-01   5.4085E-01   2.8975E-04  0.0104
   5.4085E-01   5.5401E-01   2.8968E-04  0.0102
   5.5401E-01   5.6749E-01   2.8912E-04  0.0101
   5.6749E-01   5.8130E-01   2.8595E-04  0.0101
   5.8130E-01   5.9544E-01   2.8482E-04  0.0100
   5.9544E-01   6.0993E-01   2.8874E-04  0.0098
   6.0993E-01   6.2477E-01   2.8003E-04  0.0098
   6.2477E-01   6.3997E-01   2.8316E-04  0.0096
   6.3997E-01   6.5554E-01   2.7813E-04  0.0096
   6.5554E-01   6.7149E-01   2.8299E-04  0.0094
   6.7149E-01   6.8783E-01   2.7661E-04  0.0094
   6.8783E-01   7.0456E-01   2.7310E-04  0.0094
   7.0456E-01   7.2171E-01   2.7370E-04  0.0092
   7.2171E-01   7.3927E-01   2.6677E-04  0.0092
   7.3927E-01   7.5725E-01   2.5872E-04  0.0093
   7.5725E-01   7.7568E-01   2.6067E-04  0.0091
   7.7568E-01   7.9455E-01   2.5789E-04  0.0091
   7.9455E-01   8.1388E-01   2.4610E-04  0.0092
   8.1388E-01   8.3368E-01   2.4583E-04  0.0091
   8.3368E-01   8.5397E-01   2.3818E-04  0.0091
   8.5397E-01   8.7475E-01   2.3048E-04  0.0091
   8.7475E-01   8.9603E-01   2.2726E-04  0.0091
   8.9603E-01   9.1783E-01   2.1725E-04  0.0092
   9.1783E-01   9.4016E-01   2.0986E-04  0.0092
   9.4016E-01   9.6304E-01   2.0457E-04  0.0092
   9.6304E-01   9.8647E-01   1.9574E-04  0.0093
   9.8647E-01   1.0105E+00   1.8377E-04  0.0095
   1.0105E+00   1.0351E+00   1.8079E-04  0.0095
   1.0351E+00   1.0602E+00   1.8190E-04  0.0093
   1.0602E+00   1.0860E+00   1.7788E-04  0.0093
   1.0860E+00   1.1125E+00   1.7567E-04  0.0093
   1.1125E+00   1.1395E+00   1.7373E-04  0.0092
   1.1395E+00   1.1673E+00   1.7341E-04  0.0091
   1.1673E+00   1.1957E+00   1.7367E-04  0.0090
   1.1957E+00   1.2247E+00   1.7629E-04  0.0088
   1.2247E+00   1.2545E+00   1.7458E-04  0.0088
   1.2545E+00   1.2851E+00   1.7475E-04  0.0087
   1.2851E+00   1.3163E+00   1.6909E-04  0.0087
   1.3163E+00   1.3484E+00   1.6945E-04  0.0086
   1.3484E+00   1.3812E+00   1.6494E-04  0.0086
   1.3812E+00   1.4148E+00   1.6696E-04  0.0084
   1.4148E+00   1.4492E+00   1.6686E-04  0.0084
   1.4492E+00   1.4845E+00   1.6075E-04  0.0084
   1.4845E+00   1.5206E+00   1.5602E-04  0.0084
   1.5206E+00   1.5576E+00   1.5526E-04  0.0083
   1.5576E+00   1.5955E+00   1.5071E-04  0.0084
   1.5955E+00   1.6343E+00   1.5095E-04  0.0083
   1.6343E+00   1.6741E+00   1.4743E-04  0.0083
   1.6741E+00   1.7148E+00   1.4592E-04  0.0082
   1.7148E+00   1.7565E+00   1.4223E-04  0.0082
   1.7565E+00   1.7992E+00   1.4043E-04  0.0082
   1.7992E+00   1.8430E+00   1.3714E-04  0.0082
   1.8430E+00   1.8879E+00   1.3327E-04  0.0082
   1.8879E+00   1.9338E+00   1.3062E-04  0.0082
   1.9338E+00   1.9808E+00   1.2857E-04  0.0081
   1.9808E+00   2.0290E+00   1.2780E-04  0.0081
   2.0290E+00   2.0784E+00   1.2512E-04  0.0081
   2.0784E+00   2.1290E+00   1.1887E-04  0.0082
   2.1290E+00   2.1808E+00   1.1582E-04  0.0082
   2.1808E+00   2.2338E+00   1.1472E-04  0.0081
   2.2338E+00   2.2882E+00   1.0914E-04  0.0082
   2.2882E+00   2.3439E+00   1.0756E-04  0.0082
   2.3439E+00   2.4009E+00   1.0516E-04  0.0082
   2.4009E+00   2.4593E+00   1.0245E-04  0.0082
   2.4593E+00   2.5191E+00   9.9745E-05  0.0082
   2.5191E+00   2.5804E+00   9.7767E-05  0.0082
   2.5804E+00   2.6432E+00   9.3412E-05  0.0083
   2.6432E+00   2.7075E+00   9.1436E-05  0.0083
   2.7075E+00   2.7734E+00   8.6738E-05  0.0084
   2.7734E+00   2.8409E+00   8.5466E-05  0.0083
   2.8409E+00   2.9100E+00   8.2736E-05  0.0084
   2.9100E+00   2.9808E+00   8.0460E-05  0.0084
   2.9808E+00   3.0533E+00   7.6939E-05  0.0085
   3.0533E+00   3.1276E+00   7.4282E-05  0.0085
   3.1276E+00   3.2037E+00   7.2617E-05  0.0085
   3.2037E+00   3.2817E+00   7.0102E-05  0.0086
   3.2817E+00   3.3615E+00   6.6123E-05  0.0087
   3.3615E+00   3.4433E+00   6.4283E-05  0.0087
   3.4433E+00   3.5271E+00   6.2097E-05  0.0088
   3.5271E+00   3.6129E+00   5.9984E-05  0.0088
   3.6129E+00   3.7008E+00   5.7685E-05  0.0089
   3.7008E+00   3.7908E+00   5.6515E-05  0.0089
   3.7908E+00   3.8831E+00   5.3321E-05  0.0090
   3.8831E+00   3.9776E+00   5.1876E-05  0.0090
   3.9776E+00   4.0743E+00   4.9446E-05  0.0091
   4.0743E+00   4.1735E+00   4.7085E-05  0.0093
   4.1735E+00   4.2750E+00   4.4997E-05  0.0094
   4.2750E+00   4.3790E+00   4.3417E-05  0.0094
   4.3790E+00   4.4856E+00   4.1729E-05  0.0095
   4.4856E+00   4.5947E+00   3.9609E-05  0.0096
   4.5947E+00   4.7065E+00   3.7884E-05  0.0097
   4.7065E+00   4.8210E+00   3.5909E-05  0.0099
   4.8210E+00   4.9383E+00   3.4906E-05  0.0099
   4.9383E+00   5.0585E+00   3.2828E-05  0.0101
   5.0585E+00   5.1815E+00   3.2055E-05  0.0101
   5.1815E+00   5.3076E+00   3.0151E-05  0.0103
   5.3076E+00   5.4368E+00   2.7964E-05  0.0105
   5.4368E+00   5.5690E+00   2.6852E-05  0.0106
   5.5690E+00   5.7045E+00   2.5656E-05  0.0107
   5.7045E+00   5.8433E+00   2.4767E-05  0.0108
   5.8433E+00   5.9855E+00   2.3391E-05  0.0110
   5.9855E+00   6.1311E+00   2.2888E-05  0.0110
   6.1311E+00   6.2803E+00   2.1781E-05  0.0111
   6.2803E+00   6.4331E+00   2.0510E-05  0.0113
   6.4331E+00   6.5896E+00   1.9570E-05  0.0114
   6.5896E+00   6.7500E+00   1.9179E-05  0.0114
   6.7500E+00   6.9142E+00   1.8102E-05  0.0116
   6.9142E+00   7.0824E+00   1.7589E-05  0.0116
   7.0824E+00   7.2548E+00   1.6745E-05  0.0118
   7.2548E+00   7.4313E+00   1.5873E-05  0.0119
   7.4313E+00   7.6121E+00   1.5562E-05  0.0119
   7.6121E+00   7.7973E+00   1.4874E-05  0.0121
   7.7973E+00   7.9870E+00   1.4434E-05  0.0121
   7.9870E+00   8.1813E+00   1.3928E-05  0.0122
   8.1813E+00   8.3804E+00   1.3824E-05  0.0121
   8.3804E+00   8.5843E+00   1.3093E-05  0.0122
   8.5843E+00   8.7931E+00   1.2977E-05  0.0121
   8.7931E+00   9.0071E+00   1.2623E-05  0.0122
   9.0071E+00   9.2262E+00   1.2031E-05  0.0123
   9.2262E+00   9.4507E+00   1.1833E-05  0.0123
   9.4507E+00   9.6807E+00   1.2053E-05  0.0120
   9.6807E+00   9.9162E+00   1.1436E-05  0.0122
   9.9162E+00   1.0157E+01   1.1553E-05  0.0120
   1.0157E+01   1.0405E+01   1.1419E-05  0.0119
   1.0405E+01   1.0658E+01   1.1039E-05  0.0120
   1.0658E+01   1.0917E+01   1.0721E-05  0.0120
   1.0917E+01   1.1183E+01   1.0867E-05  0.0118
   1.1183E+01   1.1455E+01   1.0637E-05  0.0118
   1.1455E+01   1.1733E+01   1.0560E-05  0.0117
   1.1733E+01   1.2019E+01   1.0590E-05  0.0115
   1.2019E+01   1.2311E+01   1.0213E-05  0.0116
   1.2311E+01   1.2611E+01   1.0211E-05  0.0114
   1.2611E+01   1.2918E+01   9.8196E-06  0.0115
   1.2918E+01   1.3232E+01   9.8218E-06  0.0114
   1.3232E+01   1.3554E+01   9.6649E-06  0.0113
   1.3554E+01   1.3884E+01   9.6300E-06  0.0112
   1.3884E+01   1.4222E+01   9.3652E-06  0.0112
   1.4222E+01   1.4568E+01   9.3757E-06  0.0111
   1.4568E+01   1.4922E+01   8.9177E-06  0.0113
   1.4922E+01   1.5285E+01   8.9642E-06  0.0111
   1.5285E+01   1.5657E+01   8.7491E-06  0.0111
   1.5657E+01   1.6038E+01   8.6090E-06  0.0110
   1.6038E+01   1.6428E+01   8.2836E-06  0.0111
   1.6428E+01   1.6828E+01   8.0568E-06  0.0111
   1.6828E+01   1.7237E+01   7.7360E-06  0.0112
   1.7237E+01   1.7657E+01   7.6939E-06  0.0111
   1.7657E+01   1.8086E+01   7.5107E-06  0.0111
   1.8086E+01   1.8526E+01   7.1841E-06  0.0112
   1.8526E+01   1.8977E+01   6.9043E-06  0.0113
   1.8977E+01   1.9439E+01   6.6160E-06  0.0114
   1.9439E+01   1.9912E+01   6.4550E-06  0.0114
   1.9912E+01   2.0396E+01   5.2098E-06  0.0126
   2.0396E+01   2.0893E+01   4.8813E-06  0.0129
   2.0893E+01   2.1401E+01   4.5545E-06  0.0131
   2.1401E+01   2.1922E+01   4.2028E-06  0.0135
   2.1922E+01   2.2455E+01   4.0925E-06  0.0135
   2.2455E+01   2.3001E+01   3.9425E-06  0.0136
   2.3001E+01   2.3561E+01   3.7324E-06  0.0138
   2.3561E+01   2.4134E+01   3.4100E-06  0.0143
   2.4134E+01   2.4721E+01   3.2602E-06  0.0145
   2.4721E+01   2.5323E+01   3.0045E-06  0.0149
   2.5323E+01   2.5939E+01   2.8559E-06  0.0151
   2.5939E+01   2.6570E+01   2.6772E-06  0.0154
   2.6570E+01   2.7217E+01   2.4638E-06  0.0158
   2.7217E+01   2.7879E+01   2.2265E-06  0.0165
   2.7879E+01   2.8557E+01   2.0598E-06  0.0169
   2.8557E+01   2.9252E+01   1.8134E-06  0.0178
   2.9252E+01   2.9964E+01   1.7237E-06  0.0181
   2.9964E+01   3.0693E+01   1.6334E-06  0.0183
   3.0693E+01   3.1440E+01   1.4173E-06  0.0194
   3.1440E+01   3.2205E+01   1.2921E-06  0.0201
   3.2205E+01   3.2988E+01   1.1884E-06  0.0207
   3.2988E+01   3.3791E+01   1.0675E-06  0.0216
   3.3791E+01   3.4613E+01   9.2391E-07  0.0229
   3.4613E+01   3.5455E+01   8.4260E-07  0.0237
   3.5455E+01   3.6318E+01   7.0295E-07  0.0257
   3.6318E+01   3.7201E+01   6.3918E-07  0.0266
   3.7201E+01   3.8106E+01   5.6610E-07  0.0279
   3.8106E+01   3.9034E+01   5.1555E-07  0.0289
   3.9034E+01   3.9983E+01   4.3171E-07  0.0312
   3.9983E+01   4.0956E+01   3.5443E-07  0.0341
   4.0956E+01   4.1953E+01   2.8339E-07  0.0376
   4.1953E+01   4.2973E+01   2.4884E-07  0.0397
   4.2973E+01   4.4019E+01   1.9052E-07  0.0448
   4.4019E+01   4.5090E+01   1.6321E-07  0.0478
   4.5090E+01   4.6187E+01   1.2615E-07  0.0538
   4.6187E+01   4.7311E+01   1.1212E-07  0.0563
   4.7311E+01   4.8462E+01   7.4016E-08  0.0685
   4.8462E+01   4.9641E+01   5.7331E-08  0.0769
   4.9641E+01   5.0849E+01   4.2722E-08  0.0880
   5.0849E+01   5.2086E+01   2.6835E-08  0.1098
   5.2086E+01   5.3353E+01   1.8307E-08  0.1313
   5.3353E+01   5.4651E+01   1.2942E-08  0.1543
   5.4651E+01   5.5981E+01   7.5204E-09  0.2000
   5.5981E+01   5.7343E+01   6.1671E-09  0.2182
   5.7343E+01   5.8738E+01   4.5871E-09  0.2500
   5.8738E+01   6.0168E+01   2.7989E-10  1.0000
   6.0168E+01   6.1632E+01   0.0000E+00  0.0000
   6.1632E+01   6.3131E+01   0.0000E+00  0.0000
   6.3131E+01   6.4667E+01   0.0000E+00  0.0000
   6.4667E+01   6.6240E+01   0.0000E+00  0.0000
   6.6240E+01   6.7852E+01   0.0000E+00  0.0000
   6.7852E+01   6.9503E+01   0.0000E+00  0.0000
   6.9503E+01   7.1194E+01   0.0000E+00  0.0000
   7.1194E+01   7.2926E+01   0.0000E+00  0.0000
   7.2926E+01   7.4701E+01   0.0000E+00  0.0000
   7.4701E+01   7.6518E+01   0.0000E+00  0.0000
   7.6518E+01   7.8380E+01   0.0000E+00  0.0000
   7.8380E+01   8.0287E+01   0.0000E+00  0.0000
   8.0287E+01   8.2240E+01   0.0000E+00  0.0000
   8.2240E+01   8.4241E+01   0.0000E+00  0.0000
   8.4241E+01   8.6291E+01   0.0000E+00  0.0000
   8.6291E+01   8.8391E+01   0.0000E+00  0.0000
   8.8391E+01   9.0541E+01   0.0000E+00  0.0000
   9.0541E+01   9.2744E+01   0.0000E+00  0.0000
   9.2744E+01   9.5001E+01   0.0000E+00  0.0000
   9.5001E+01   9.7312E+01   0.0000E+00  0.0000
   9.7312E+01   9.9680E+01   0.0000E+00  0.0000
   9.9680E+01   1.0211E+02   0.0000E+00  0.0000
   1.0211E+02   1.0459E+02   0.0000E+00  0.0000
   1.0459E+02   1.0713E+02   0.0000E+00  0.0000
   1.0713E+02   1.0974E+02   0.0000E+00  0.0000
   1.0974E+02   1.1241E+02   0.0000E+00  0.0000
   1.1241E+02   1.1515E+02   0.0000E+00  0.0000
   1.1515E+02   1.1795E+02   0.0000E+00  0.0000
   1.1795E+02   1.2082E+02   0.0000E+00  0.0000
   1.2082E+02   1.2376E+02   0.0000E+00  0.0000
   1.2376E+02   1.2677E+02   0.0000E+00  0.0000
   1.2677E+02   1.2985E+02   0.0000E+00  0.0000
   1.2985E+02   1.3301E+02   0.0000E+00  0.0000
   1.3301E+02   1.3625E+02   0.0000E+00  0.0000
   1.3625E+02   1.3956E+02   0.0000E+00  0.0000
   1.3956E+02   1.4296E+02   0.0000E+00  0.0000
   1.4296E+02   1.4644E+02   0.0000E+00  0.0000
   1.4644E+02   1.5000E+02   0.0000E+00  0.0000

#   sum over                 5.4830E-06
'no. =    1   reg = 114 - 214'
msuc: {\huge [t-cross] in region mesh}
msdr: {\it plotted by \ANGEL \version}
msdl: {\it calculated by \PHITS  3.26}
wt: s(0.7)
\vspace{-3}
  region surface crossing
  area  &=&   1.0000E+00 [cm^2]
e:
 
# Information for Restart Calculation
# This calculation was newly started
# istdev =  2 # 1:Batch variance, 2:History variance
# resc2  = 2.50000000000000000E+09 # Total source weight or Total source weight / maxcas
# resc3  = 2.50000000000000000E+09 # Total history number or Total batch number
# maxcas =   500000000 # History / Batch, only used for istdev=1
# bitrseed = 1100001110001001100010001100011001110101000011000110100101010100 # bit data of rseed
