[ T-Cross ]
    title = [t-cross] in region mesh
     mesh =  reg            # mesh type is region-wise
      reg =    1            # number of crossing regions
      non     r-from    r-to       area
      1       112       212        1.000000    
   e-type =    3            # e-mesh is log given by emin, emax and ne
     emin =  1.0000000E-02  # minimum value of e-mesh points
     emax =   150.0000      # maximum value of e-mesh points
#    edel =  2.4039514E-02  # mesh width of e-mesh points
       ne =    400          # number of e-mesh points
#    data = ( e(i), i = 1, ne + 1 )
#           1.00000E-02  1.02433E-02  1.04925E-02  1.07478E-02  1.10093E-02
#           1.12772E-02  1.15516E-02  1.18326E-02  1.21205E-02  1.24154E-02
#           1.27175E-02  1.30269E-02  1.33439E-02  1.36686E-02  1.40011E-02
#           1.43418E-02  1.46907E-02  1.50482E-02  1.54143E-02  1.57894E-02
#           1.61735E-02  1.65670E-02  1.69701E-02  1.73830E-02  1.78060E-02
#           1.82392E-02  1.86830E-02  1.91375E-02  1.96032E-02  2.00801E-02
#           2.05687E-02  2.10692E-02  2.15818E-02  2.21069E-02  2.26448E-02
#           2.31957E-02  2.37601E-02  2.43382E-02  2.49304E-02  2.55369E-02
#           2.61583E-02  2.67947E-02  2.74467E-02  2.81145E-02  2.87985E-02
#           2.94992E-02  3.02169E-02  3.09521E-02  3.17052E-02  3.24766E-02
#           3.32668E-02  3.40762E-02  3.49053E-02  3.57546E-02  3.66246E-02
#           3.75157E-02  3.84284E-02  3.93634E-02  4.03212E-02  4.13022E-02
#           4.23071E-02  4.33365E-02  4.43909E-02  4.54710E-02  4.65773E-02
#           4.77106E-02  4.88714E-02  5.00605E-02  5.12785E-02  5.25262E-02
#           5.38042E-02  5.51133E-02  5.64542E-02  5.78278E-02  5.92348E-02
#           6.06760E-02  6.21523E-02  6.36645E-02  6.52135E-02  6.68002E-02
#           6.84255E-02  7.00904E-02  7.17957E-02  7.35426E-02  7.53319E-02
#           7.71648E-02  7.90423E-02  8.09655E-02  8.29354E-02  8.49533E-02
#           8.70203E-02  8.91376E-02  9.13064E-02  9.35279E-02  9.58035E-02
#           9.81345E-02  1.00522E-01  1.02968E-01  1.05473E-01  1.08040E-01
#           1.10668E-01  1.13361E-01  1.16119E-01  1.18944E-01  1.21838E-01
#           1.24803E-01  1.27839E-01  1.30950E-01  1.34136E-01  1.37399E-01
#           1.40742E-01  1.44167E-01  1.47675E-01  1.51268E-01  1.54948E-01
#           1.58718E-01  1.62580E-01  1.66535E-01  1.70587E-01  1.74738E-01
#           1.78989E-01  1.83344E-01  1.87805E-01  1.92375E-01  1.97055E-01
#           2.01850E-01  2.06761E-01  2.11792E-01  2.16945E-01  2.22223E-01
#           2.27630E-01  2.33169E-01  2.38842E-01  2.44653E-01  2.50605E-01
#           2.56703E-01  2.62949E-01  2.69346E-01  2.75900E-01  2.82613E-01
#           2.89489E-01  2.96532E-01  3.03747E-01  3.11138E-01  3.18708E-01
#           3.26462E-01  3.34405E-01  3.42542E-01  3.50876E-01  3.59413E-01
#           3.68158E-01  3.77116E-01  3.86291E-01  3.95690E-01  4.05317E-01
#           4.15179E-01  4.25281E-01  4.35628E-01  4.46227E-01  4.57084E-01
#           4.68205E-01  4.79597E-01  4.91266E-01  5.03219E-01  5.15463E-01
#           5.28005E-01  5.40851E-01  5.54011E-01  5.67490E-01  5.81298E-01
#           5.95441E-01  6.09929E-01  6.24769E-01  6.39970E-01  6.55541E-01
#           6.71491E-01  6.87828E-01  7.04564E-01  7.21706E-01  7.39266E-01
#           7.57253E-01  7.75678E-01  7.94551E-01  8.13883E-01  8.33685E-01
#           8.53969E-01  8.74747E-01  8.96030E-01  9.17831E-01  9.40163E-01
#           9.63038E-01  9.86469E-01  1.01047E+00  1.03506E+00  1.06024E+00
#           1.08604E+00  1.11246E+00  1.13953E+00  1.16725E+00  1.19565E+00
#           1.22474E+00  1.25454E+00  1.28507E+00  1.31633E+00  1.34836E+00
#           1.38117E+00  1.41477E+00  1.44920E+00  1.48446E+00  1.52057E+00
#           1.55757E+00  1.59547E+00  1.63429E+00  1.67405E+00  1.71478E+00
#           1.75650E+00  1.79924E+00  1.84302E+00  1.88786E+00  1.93379E+00
#           1.98084E+00  2.02904E+00  2.07841E+00  2.12898E+00  2.18078E+00
#           2.23384E+00  2.28819E+00  2.34386E+00  2.40089E+00  2.45930E+00
#           2.51914E+00  2.58043E+00  2.64322E+00  2.70753E+00  2.77341E+00
#           2.84088E+00  2.91001E+00  2.98081E+00  3.05333E+00  3.12762E+00
#           3.20372E+00  3.28167E+00  3.36152E+00  3.44330E+00  3.52708E+00
#           3.61290E+00  3.70080E+00  3.79085E+00  3.88308E+00  3.97756E+00
#           4.07434E+00  4.17347E+00  4.27501E+00  4.37903E+00  4.48557E+00
#           4.59471E+00  4.70650E+00  4.82102E+00  4.93832E+00  5.05847E+00
#           5.18155E+00  5.30762E+00  5.43676E+00  5.56904E+00  5.70453E+00
#           5.84333E+00  5.98550E+00  6.13114E+00  6.28031E+00  6.43312E+00
#           6.58964E+00  6.74997E+00  6.91420E+00  7.08243E+00  7.25475E+00
#           7.43126E+00  7.61207E+00  7.79728E+00  7.98700E+00  8.18133E+00
#           8.38038E+00  8.58428E+00  8.79315E+00  9.00709E+00  9.22624E+00
#           9.45072E+00  9.68067E+00  9.91620E+00  1.01575E+01  1.04046E+01
#           1.06578E+01  1.09171E+01  1.11827E+01  1.14548E+01  1.17335E+01
#           1.20190E+01  1.23114E+01  1.26109E+01  1.29178E+01  1.32321E+01
#           1.35540E+01  1.38838E+01  1.42216E+01  1.45676E+01  1.49221E+01
#           1.52851E+01  1.56570E+01  1.60380E+01  1.64282E+01  1.68279E+01
#           1.72374E+01  1.76568E+01  1.80864E+01  1.85264E+01  1.89772E+01
#           1.94389E+01  1.99119E+01  2.03963E+01  2.08926E+01  2.14009E+01
#           2.19216E+01  2.24550E+01  2.30014E+01  2.35610E+01  2.41343E+01
#           2.47215E+01  2.53230E+01  2.59391E+01  2.65702E+01  2.72167E+01
#           2.78789E+01  2.85572E+01  2.92520E+01  2.99637E+01  3.06928E+01
#           3.14396E+01  3.22045E+01  3.29881E+01  3.37907E+01  3.46128E+01
#           3.54550E+01  3.63177E+01  3.72013E+01  3.81064E+01  3.90336E+01
#           3.99833E+01  4.09561E+01  4.19526E+01  4.29734E+01  4.40189E+01
#           4.50900E+01  4.61870E+01  4.73108E+01  4.84619E+01  4.96410E+01
#           5.08488E+01  5.20860E+01  5.33533E+01  5.46514E+01  5.59812E+01
#           5.73432E+01  5.87384E+01  6.01676E+01  6.16315E+01  6.31311E+01
#           6.46671E+01  6.62405E+01  6.78522E+01  6.95031E+01  7.11941E+01
#           7.29263E+01  7.47007E+01  7.65182E+01  7.83800E+01  8.02870E+01
#           8.22405E+01  8.42414E+01  8.62911E+01  8.83906E+01  9.05412E+01
#           9.27442E+01  9.50007E+01  9.73122E+01  9.96799E+01  1.02105E+02
#           1.04589E+02  1.07134E+02  1.09741E+02  1.12411E+02  1.15146E+02
#           1.17948E+02  1.20817E+02  1.23757E+02  1.26768E+02  1.29852E+02
#           1.33012E+02  1.36248E+02  1.39563E+02  1.42959E+02  1.46437E+02
#           1.50000E+02
     unit =    2            # unit is [1/cm^2/(MeV/n)/source]
     axis =  eng            # axis of output
     file = detector-13.out  # file name of output for the above axis
   output = f-curr          # surface crossing forward current spectrum
     part =  neutron  
# kf/name :  2112     
#    used :        main (  %)        temp (  %)       total (  %)
#  memory :         414 (  0)           0 (  0)         414 (  0)

#------------------------------------------------------------------------------
#newpage:
#   no. =    1   reg = 112 - 212

x: Energy [MeV/n]
y:  F-Curr [1/cm^2/(MeV/n)/source]         
p: xlog ylog afac(0.8) form(0.9)
h: n            x            y(neutron ),hh0l   n 
#  e-lower      e-upper      neutron     r.err 
   1.0000E-02   1.0243E-02   5.3856E-04  0.1232
   1.0243E-02   1.0493E-02   4.1143E-04  0.1394
   1.0493E-02   1.0748E-02   5.9118E-04  0.1148
   1.0748E-02   1.1009E-02   4.9901E-04  0.1236
   1.1009E-02   1.1277E-02   4.7743E-04  0.1245
   1.1277E-02   1.1552E-02   4.8837E-04  0.1222
   1.1552E-02   1.1833E-02   4.3554E-04  0.1276
   1.1833E-02   1.2121E-02   4.6544E-04  0.1222
   1.2121E-02   1.2415E-02   4.9013E-04  0.1175
   1.2415E-02   1.2718E-02   4.8055E-04  0.1165
   1.2718E-02   1.3027E-02   4.2912E-04  0.1224
   1.3027E-02   1.3344E-02   3.9410E-04  0.1262
   1.3344E-02   1.3669E-02   3.4293E-04  0.1334
   1.3669E-02   1.4001E-02   5.2320E-04  0.1072
   1.4001E-02   1.4342E-02   3.7696E-04  0.1242
   1.4342E-02   1.4691E-02   4.7800E-04  0.1093
   1.4691E-02   1.5048E-02   3.7190E-04  0.1223
   1.5048E-02   1.5414E-02   4.4986E-04  0.1100
   1.5414E-02   1.5789E-02   3.5996E-04  0.1215
   1.5789E-02   1.6174E-02   3.3529E-04  0.1243
   1.6174E-02   1.6567E-02   3.6788E-04  0.1173
   1.6567E-02   1.6970E-02   3.8701E-04  0.1132
   1.6970E-02   1.7383E-02   3.3576E-04  0.1199
   1.7383E-02   1.7806E-02   2.8935E-04  0.1277
   1.7806E-02   1.8239E-02   4.0874E-04  0.1060
   1.8239E-02   1.8683E-02   2.9153E-04  0.1238
   1.8683E-02   1.9138E-02   2.8267E-04  0.1240
   1.9138E-02   1.9603E-02   2.8802E-04  0.1214
   1.9603E-02   2.0080E-02   2.7784E-04  0.1227
   2.0080E-02   2.0569E-02   2.4059E-04  0.1298
   2.0569E-02   2.1069E-02   2.7215E-04  0.1205
   2.1069E-02   2.1582E-02   2.8628E-04  0.1165
   2.1582E-02   2.2107E-02   2.4851E-04  0.1236
   2.2107E-02   2.2645E-02   2.8313E-04  0.1140
   2.2645E-02   2.3196E-02   2.8872E-04  0.1119
   2.3196E-02   2.3760E-02   2.8170E-04  0.1119
   2.3760E-02   2.4338E-02   2.2487E-04  0.1240
   2.4338E-02   2.4930E-02   3.1890E-04  0.1027
   2.4930E-02   2.5537E-02   1.9406E-04  0.1296
   2.5537E-02   2.6158E-02   2.0923E-04  0.1240
   2.6158E-02   2.6795E-02   2.4668E-04  0.1127
   2.6795E-02   2.7447E-02   2.3476E-04  0.1140
   2.7447E-02   2.8114E-02   2.2222E-04  0.1160
   2.8114E-02   2.8799E-02   1.7671E-04  0.1277
   2.8799E-02   2.9499E-02   2.2835E-04  0.1118
   2.9499E-02   3.0217E-02   2.1531E-04  0.1132
   3.0217E-02   3.0952E-02   1.9286E-04  0.1182
   3.0952E-02   3.1705E-02   1.9663E-04  0.1157
   3.1705E-02   3.2477E-02   2.2661E-04  0.1068
   3.2477E-02   3.3267E-02   2.3040E-04  0.1040
   3.3267E-02   3.4076E-02   1.7914E-04  0.1172
   3.4076E-02   3.4905E-02   2.4510E-04  0.0990
   3.4905E-02   3.5755E-02   1.7768E-04  0.1149
   3.5755E-02   3.6625E-02   1.8253E-04  0.1120
   3.6625E-02   3.7516E-02   1.5296E-04  0.1204
   3.7516E-02   3.8428E-02   1.9368E-04  0.1062
   3.8428E-02   3.9363E-02   2.0288E-04  0.1023
   3.9363E-02   4.0321E-02   2.2016E-04  0.0972
   4.0321E-02   4.1302E-02   1.6179E-04  0.1120
   4.1302E-02   4.2307E-02   1.6901E-04  0.1081
   4.2307E-02   4.3337E-02   1.2802E-04  0.1225
   4.3337E-02   4.4391E-02   1.8713E-04  0.1004
   4.4391E-02   4.5471E-02   1.3458E-04  0.1170
   4.5471E-02   4.6577E-02   1.5279E-04  0.1085
   4.6577E-02   4.7711E-02   1.5133E-04  0.1076
   4.7711E-02   4.8871E-02   1.3817E-04  0.1111
   4.8871E-02   5.0061E-02   1.9511E-04  0.0926
   5.0061E-02   5.1279E-02   1.5203E-04  0.1037
   5.1279E-02   5.2526E-02   1.8077E-04  0.0940
   5.2526E-02   5.3804E-02   1.2853E-04  0.1098
   5.3804E-02   5.5113E-02   1.4284E-04  0.1032
   5.5113E-02   5.6454E-02   1.2291E-04  0.1099
   5.6454E-02   5.7828E-02   1.3887E-04  0.1022
   5.7828E-02   5.9235E-02   1.3963E-04  0.1008
   5.9235E-02   6.0676E-02   1.5688E-04  0.0938
   6.0676E-02   6.2152E-02   1.1097E-04  0.1100
   6.2152E-02   6.3665E-02   1.2368E-04  0.1032
   6.3665E-02   6.5214E-02   1.4435E-04  0.0943
   6.5214E-02   6.6800E-02   1.5216E-04  0.0909
   6.6800E-02   6.8426E-02   1.3568E-04  0.0949
   6.8426E-02   7.0090E-02   1.1172E-04  0.1037
   7.0090E-02   7.1796E-02   1.1629E-04  0.1000
   7.1796E-02   7.3543E-02   1.1332E-04  0.1001
   7.3543E-02   7.5332E-02   1.2622E-04  0.0938
   7.5332E-02   7.7165E-02   9.2015E-05  0.1087
   7.7165E-02   7.9042E-02   1.1876E-04  0.0942
   7.9042E-02   8.0965E-02   9.5975E-05  0.1032
   8.0965E-02   8.2935E-02   1.0706E-04  0.0972
   8.2935E-02   8.4953E-02   1.0899E-04  0.0948
   8.4953E-02   8.7020E-02   9.5658E-05  0.1003
   8.7020E-02   8.9138E-02   1.0321E-04  0.0956
   8.9138E-02   9.1306E-02   1.0754E-04  0.0924
   9.1306E-02   9.3528E-02   8.7136E-05  0.1011
   9.3528E-02   9.5804E-02   8.8004E-05  0.0995
   9.5804E-02   9.8134E-02   6.5619E-05  0.1140
   9.8134E-02   1.0052E-01   8.8690E-05  0.0969
   1.0052E-01   1.0297E-01   9.9748E-05  0.0903
   1.0297E-01   1.0547E-01   7.4366E-05  0.1031
   1.0547E-01   1.0804E-01   9.1527E-05  0.0919
   1.0804E-01   1.1067E-01   9.0294E-05  0.0916
   1.1067E-01   1.1336E-01   8.3693E-05  0.0940
   1.1336E-01   1.1612E-01   8.5920E-05  0.0915
   1.1612E-01   1.1894E-01   6.5739E-05  0.1031
   1.1894E-01   1.2184E-01   8.4249E-05  0.0903
   1.2184E-01   1.2480E-01   6.6076E-05  0.1007
   1.2480E-01   1.2784E-01   6.0901E-05  0.1038
   1.2784E-01   1.3095E-01   7.4631E-05  0.0925
   1.3095E-01   1.3414E-01   8.1405E-05  0.0877
   1.3414E-01   1.3740E-01   6.4332E-05  0.0972
   1.3740E-01   1.4074E-01   7.3503E-05  0.0900
   1.4074E-01   1.4417E-01   7.7135E-05  0.0865
   1.4417E-01   1.4767E-01   8.5474E-05  0.0815
   1.4767E-01   1.5127E-01   6.7484E-05  0.0908
   1.5127E-01   1.5495E-01   6.2616E-05  0.0931
   1.5495E-01   1.5872E-01   6.2725E-05  0.0919
   1.5872E-01   1.6258E-01   6.1748E-05  0.0912
   1.6258E-01   1.6654E-01   5.2740E-05  0.0978
   1.6654E-01   1.7059E-01   5.8975E-05  0.0911
   1.7059E-01   1.7474E-01   5.3885E-05  0.0943
   1.7474E-01   1.7899E-01   5.4934E-05  0.0923
   1.7899E-01   1.8334E-01   4.6000E-05  0.0998
   1.8334E-01   1.8781E-01   4.9015E-05  0.0952
   1.8781E-01   1.9237E-01   5.8963E-05  0.0858
   1.9237E-01   1.9706E-01   5.2885E-05  0.0897
   1.9706E-01   2.0185E-01   5.1185E-05  0.0899
   2.0185E-01   2.0676E-01   4.7308E-05  0.0927
   2.0676E-01   2.1179E-01   4.9604E-05  0.0894
   2.1179E-01   2.1694E-01   4.8404E-05  0.0889
   2.1694E-01   2.2222E-01   5.9431E-05  0.0795
   2.2222E-01   2.2763E-01   5.9119E-05  0.0788
   2.2763E-01   2.3317E-01   6.2878E-05  0.0755
   2.3317E-01   2.3884E-01   5.5348E-05  0.0797
   2.3884E-01   2.4465E-01   6.3732E-05  0.0732
   2.4465E-01   2.5061E-01   7.0678E-05  0.0688
   2.5061E-01   2.5670E-01   6.8242E-05  0.0690
   2.5670E-01   2.6295E-01   7.3138E-05  0.0660
   2.6295E-01   2.6935E-01   6.3599E-05  0.0700
   2.6935E-01   2.7590E-01   7.1126E-05  0.0652
   2.7590E-01   2.8261E-01   7.4554E-05  0.0631
   2.8261E-01   2.8949E-01   7.5334E-05  0.0619
   2.8949E-01   2.9653E-01   7.8074E-05  0.0601
   2.9653E-01   3.0375E-01   7.5272E-05  0.0605
   3.0375E-01   3.1114E-01   9.2443E-05  0.0539
   3.1114E-01   3.1871E-01   9.1434E-05  0.0535
   3.1871E-01   3.2646E-01   8.7833E-05  0.0540
   3.2646E-01   3.3441E-01   9.4899E-05  0.0513
   3.3441E-01   3.4254E-01   9.8140E-05  0.0499
   3.4254E-01   3.5088E-01   9.3067E-05  0.0506
   3.5088E-01   3.5941E-01   1.0596E-04  0.0469
   3.5941E-01   3.6816E-01   1.0042E-04  0.0475
   3.6816E-01   3.7712E-01   1.0874E-04  0.0452
   3.7712E-01   3.8629E-01   1.0725E-04  0.0450
   3.8629E-01   3.9569E-01   1.0470E-04  0.0449
   3.9569E-01   4.0532E-01   1.1468E-04  0.0425
   4.0532E-01   4.1518E-01   1.1812E-04  0.0414
   4.1518E-01   4.2528E-01   1.2373E-04  0.0398
   4.2528E-01   4.3563E-01   1.2309E-04  0.0395
   4.3563E-01   4.4623E-01   1.3410E-04  0.0373
   4.4623E-01   4.5708E-01   1.2712E-04  0.0379
   4.5708E-01   4.6821E-01   1.3643E-04  0.0362
   4.6821E-01   4.7960E-01   1.3861E-04  0.0355
   4.7960E-01   4.9127E-01   1.2981E-04  0.0362
   4.9127E-01   5.0322E-01   1.4728E-04  0.0336
   5.0322E-01   5.1546E-01   1.4228E-04  0.0338
   5.1546E-01   5.2800E-01   1.4854E-04  0.0326
   5.2800E-01   5.4085E-01   1.6528E-04  0.0306
   5.4085E-01   5.5401E-01   1.6854E-04  0.0299
   5.5401E-01   5.6749E-01   1.7378E-04  0.0291
   5.6749E-01   5.8130E-01   1.6413E-04  0.0296
   5.8130E-01   5.9544E-01   1.6379E-04  0.0293
   5.9544E-01   6.0993E-01   1.7217E-04  0.0282
   6.0993E-01   6.2477E-01   1.8512E-04  0.0269
   6.2477E-01   6.3997E-01   1.8657E-04  0.0264
   6.3997E-01   6.5554E-01   1.8375E-04  0.0263
   6.5554E-01   6.7149E-01   1.8697E-04  0.0258
   6.7149E-01   6.8783E-01   1.9546E-04  0.0249
   6.8783E-01   7.0456E-01   1.9607E-04  0.0246
   7.0456E-01   7.2171E-01   2.0234E-04  0.0239
   7.2171E-01   7.3927E-01   2.0940E-04  0.0232
   7.3927E-01   7.5725E-01   2.1038E-04  0.0229
   7.5725E-01   7.7568E-01   2.1631E-04  0.0223
   7.7568E-01   7.9455E-01   2.2436E-04  0.0217
   7.9455E-01   8.1388E-01   2.3661E-04  0.0208
   8.1388E-01   8.3368E-01   2.3303E-04  0.0207
   8.3368E-01   8.5397E-01   2.5521E-04  0.0196
   8.5397E-01   8.7475E-01   2.4219E-04  0.0199
   8.7475E-01   8.9603E-01   2.4892E-04  0.0193
   8.9603E-01   9.1783E-01   2.6048E-04  0.0187
   9.1783E-01   9.4016E-01   2.7174E-04  0.0181
   9.4016E-01   9.6304E-01   2.6992E-04  0.0179
   9.6304E-01   9.8647E-01   2.8985E-04  0.0171
   9.8647E-01   1.0105E+00   2.9033E-04  0.0169
   1.0105E+00   1.0351E+00   2.9403E-04  0.0166
   1.0351E+00   1.0602E+00   2.9726E-04  0.0163
   1.0602E+00   1.0860E+00   2.9505E-04  0.0161
   1.0860E+00   1.1125E+00   3.1131E-04  0.0155
   1.1125E+00   1.1395E+00   3.0352E-04  0.0155
   1.1395E+00   1.1673E+00   3.1515E-04  0.0151
   1.1673E+00   1.1957E+00   3.1721E-04  0.0148
   1.1957E+00   1.2247E+00   3.1996E-04  0.0146
   1.2247E+00   1.2545E+00   3.3717E-04  0.0140
   1.2545E+00   1.2851E+00   3.3224E-04  0.0140
   1.2851E+00   1.3163E+00   3.4328E-04  0.0136
   1.3163E+00   1.3484E+00   3.3614E-04  0.0136
   1.3484E+00   1.3812E+00   3.4143E-04  0.0133
   1.3812E+00   1.4148E+00   3.6017E-04  0.0128
   1.4148E+00   1.4492E+00   3.6733E-04  0.0125
   1.4492E+00   1.4845E+00   3.6242E-04  0.0124
   1.4845E+00   1.5206E+00   3.6572E-04  0.0122
   1.5206E+00   1.5576E+00   3.7140E-04  0.0120
   1.5576E+00   1.5955E+00   3.7602E-04  0.0118
   1.5955E+00   1.6343E+00   3.7602E-04  0.0116
   1.6343E+00   1.6741E+00   3.7039E-04  0.0116
   1.6741E+00   1.7148E+00   3.8074E-04  0.0113
   1.7148E+00   1.7565E+00   3.7916E-04  0.0112
   1.7565E+00   1.7992E+00   3.8719E-04  0.0109
   1.7992E+00   1.8430E+00   3.8773E-04  0.0108
   1.8430E+00   1.8879E+00   3.8216E-04  0.0107
   1.8879E+00   1.9338E+00   3.8871E-04  0.0105
   1.9338E+00   1.9808E+00   3.8551E-04  0.0104
   1.9808E+00   2.0290E+00   3.8249E-04  0.0104
   2.0290E+00   2.0784E+00   3.9176E-04  0.0101
   2.0784E+00   2.1290E+00   3.8885E-04  0.0100
   2.1290E+00   2.1808E+00   3.8196E-04  0.0100
   2.1808E+00   2.2338E+00   3.7354E-04  0.0100
   2.2338E+00   2.2882E+00   3.6952E-04  0.0099
   2.2882E+00   2.3439E+00   3.7253E-04  0.0098
   2.3439E+00   2.4009E+00   3.7400E-04  0.0096
   2.4009E+00   2.4593E+00   3.7695E-04  0.0095
   2.4593E+00   2.5191E+00   3.8153E-04  0.0093
   2.5191E+00   2.5804E+00   3.6856E-04  0.0094
   2.5804E+00   2.6432E+00   3.7140E-04  0.0092
   2.6432E+00   2.7075E+00   3.6626E-04  0.0092
   2.7075E+00   2.7734E+00   3.6678E-04  0.0091
   2.7734E+00   2.8409E+00   3.5827E-04  0.0090
   2.8409E+00   2.9100E+00   3.4548E-04  0.0091
   2.9100E+00   2.9808E+00   3.4922E-04  0.0090
   2.9808E+00   3.0533E+00   3.4303E-04  0.0089
   3.0533E+00   3.1276E+00   3.4120E-04  0.0088
   3.1276E+00   3.2037E+00   3.3167E-04  0.0089
   3.2037E+00   3.2817E+00   3.2862E-04  0.0088
   3.2817E+00   3.3615E+00   3.2535E-04  0.0087
   3.3615E+00   3.4433E+00   3.1776E-04  0.0087
   3.4433E+00   3.5271E+00   3.1402E-04  0.0087
   3.5271E+00   3.6129E+00   3.0627E-04  0.0087
   3.6129E+00   3.7008E+00   3.0363E-04  0.0086
   3.7008E+00   3.7908E+00   2.8987E-04  0.0087
   3.7908E+00   3.8831E+00   2.8566E-04  0.0087
   3.8831E+00   3.9776E+00   2.8414E-04  0.0086
   3.9776E+00   4.0743E+00   2.7948E-04  0.0086
   4.0743E+00   4.1735E+00   2.7504E-04  0.0085
   4.1735E+00   4.2750E+00   2.6781E-04  0.0085
   4.2750E+00   4.3790E+00   2.5998E-04  0.0086
   4.3790E+00   4.4856E+00   2.5448E-04  0.0086
   4.4856E+00   4.5947E+00   2.5353E-04  0.0085
   4.5947E+00   4.7065E+00   2.4731E-04  0.0085
   4.7065E+00   4.8210E+00   2.4444E-04  0.0084
   4.8210E+00   4.9383E+00   2.4404E-04  0.0083
   4.9383E+00   5.0585E+00   2.4599E-04  0.0082
   5.0585E+00   5.1815E+00   2.4966E-04  0.0080
   5.1815E+00   5.3076E+00   2.4179E-04  0.0081
   5.3076E+00   5.4368E+00   2.3519E-04  0.0081
   5.4368E+00   5.5690E+00   2.3229E-04  0.0080
   5.5690E+00   5.7045E+00   2.2783E-04  0.0080
   5.7045E+00   5.8433E+00   2.2269E-04  0.0080
   5.8433E+00   5.9855E+00   2.1717E-04  0.0080
   5.9855E+00   6.1311E+00   2.1501E-04  0.0080
   6.1311E+00   6.2803E+00   2.0752E-04  0.0080
   6.2803E+00   6.4331E+00   1.9862E-04  0.0081
   6.4331E+00   6.5896E+00   1.9820E-04  0.0080
   6.5896E+00   6.7500E+00   1.9176E-04  0.0080
   6.7500E+00   6.9142E+00   1.8635E-04  0.0081
   6.9142E+00   7.0824E+00   1.8053E-04  0.0081
   7.0824E+00   7.2548E+00   1.8122E-04  0.0080
   7.2548E+00   7.4313E+00   1.7516E-04  0.0080
   7.4313E+00   7.6121E+00   1.6734E-04  0.0081
   7.6121E+00   7.7973E+00   1.6282E-04  0.0081
   7.7973E+00   7.9870E+00   1.6237E-04  0.0080
   7.9870E+00   8.1813E+00   1.5667E-04  0.0081
   8.1813E+00   8.3804E+00   1.5243E-04  0.0081
   8.3804E+00   8.5843E+00   1.4767E-04  0.0081
   8.5843E+00   8.7931E+00   1.4386E-04  0.0081
   8.7931E+00   9.0071E+00   1.3985E-04  0.0082
   9.0071E+00   9.2262E+00   1.3483E-04  0.0082
   9.2262E+00   9.4507E+00   1.3406E-04  0.0081
   9.4507E+00   9.6807E+00   1.2628E-04  0.0083
   9.6807E+00   9.9162E+00   1.2354E-04  0.0083
   9.9162E+00   1.0157E+01   1.1922E-04  0.0083
   1.0157E+01   1.0405E+01   1.1711E-04  0.0083
   1.0405E+01   1.0658E+01   1.1174E-04  0.0084
   1.0658E+01   1.0917E+01   1.0816E-04  0.0084
   1.0917E+01   1.1183E+01   1.0303E-04  0.0085
   1.1183E+01   1.1455E+01   9.9666E-05  0.0086
   1.1455E+01   1.1733E+01   9.7732E-05  0.0086
   1.1733E+01   1.2019E+01   9.1970E-05  0.0087
   1.2019E+01   1.2311E+01   9.1365E-05  0.0086
   1.2311E+01   1.2611E+01   8.7077E-05  0.0088
   1.2611E+01   1.2918E+01   8.4146E-05  0.0088
   1.2918E+01   1.3232E+01   8.0293E-05  0.0089
   1.3232E+01   1.3554E+01   7.8340E-05  0.0089
   1.3554E+01   1.3884E+01   7.4695E-05  0.0090
   1.3884E+01   1.4222E+01   7.0613E-05  0.0092
   1.4222E+01   1.4568E+01   6.7607E-05  0.0092
   1.4568E+01   1.4922E+01   6.5618E-05  0.0093
   1.4922E+01   1.5285E+01   6.3581E-05  0.0093
   1.5285E+01   1.5657E+01   5.9426E-05  0.0095
   1.5657E+01   1.6038E+01   5.6575E-05  0.0096
   1.6038E+01   1.6428E+01   5.3291E-05  0.0098
   1.6428E+01   1.6828E+01   5.0959E-05  0.0099
   1.6828E+01   1.7237E+01   4.8802E-05  0.0100
   1.7237E+01   1.7657E+01   4.6736E-05  0.0101
   1.7657E+01   1.8086E+01   4.3846E-05  0.0103
   1.8086E+01   1.8526E+01   4.1777E-05  0.0104
   1.8526E+01   1.8977E+01   3.9285E-05  0.0106
   1.8977E+01   1.9439E+01   3.7593E-05  0.0107
   1.9439E+01   1.9912E+01   3.5673E-05  0.0109
   1.9912E+01   2.0396E+01   3.4623E-05  0.0109
   2.0396E+01   2.0893E+01   3.3495E-05  0.0110
   2.0893E+01   2.1401E+01   3.0925E-05  0.0113
   2.1401E+01   2.1922E+01   2.9310E-05  0.0114
   2.1922E+01   2.2455E+01   2.7531E-05  0.0117
   2.2455E+01   2.3001E+01   2.5885E-05  0.0119
   2.3001E+01   2.3561E+01   2.3755E-05  0.0123
   2.3561E+01   2.4134E+01   2.2123E-05  0.0126
   2.4134E+01   2.4721E+01   2.0589E-05  0.0129
   2.4721E+01   2.5323E+01   1.9817E-05  0.0130
   2.5323E+01   2.5939E+01   1.7529E-05  0.0136
   2.5939E+01   2.6570E+01   1.6926E-05  0.0137
   2.6570E+01   2.7217E+01   1.5388E-05  0.0142
   2.7217E+01   2.7879E+01   1.4567E-05  0.0144
   2.7879E+01   2.8557E+01   1.2847E-05  0.0151
   2.8557E+01   2.9252E+01   1.1364E-05  0.0159
   2.9252E+01   2.9964E+01   1.0749E-05  0.0162
   2.9964E+01   3.0693E+01   9.8540E-06  0.0167
   3.0693E+01   3.1440E+01   8.9183E-06  0.0173
   3.1440E+01   3.2205E+01   7.9038E-06  0.0182
   3.2205E+01   3.2988E+01   7.3715E-06  0.0186
   3.2988E+01   3.3791E+01   6.4339E-06  0.0197
   3.3791E+01   3.4613E+01   5.8335E-06  0.0204
   3.4613E+01   3.5455E+01   5.0584E-06  0.0217
   3.5455E+01   3.6318E+01   4.5279E-06  0.0226
   3.6318E+01   3.7201E+01   4.0379E-06  0.0237
   3.7201E+01   3.8106E+01   3.4293E-06  0.0254
   3.8106E+01   3.9034E+01   2.8949E-06  0.0273
   3.9034E+01   3.9983E+01   2.4133E-06  0.0295
   3.9983E+01   4.0956E+01   2.2491E-06  0.0302
   4.0956E+01   4.1953E+01   1.9147E-06  0.0324
   4.1953E+01   4.2973E+01   1.6086E-06  0.0349
   4.2973E+01   4.4019E+01   1.2204E-06  0.0396
   4.4019E+01   4.5090E+01   1.1298E-06  0.0407
   4.5090E+01   4.6187E+01   8.6229E-07  0.0460
   4.6187E+01   4.7311E+01   6.4426E-07  0.0526
   4.7311E+01   4.8462E+01   4.6216E-07  0.0613
   4.8462E+01   4.9641E+01   3.6807E-07  0.0679
   4.9641E+01   5.0849E+01   2.7653E-07  0.0774
   5.0849E+01   5.2086E+01   2.1500E-07  0.0867
   5.2086E+01   5.3353E+01   1.6571E-07  0.0976
   5.3353E+01   5.4651E+01   1.2325E-07  0.1118
   5.4651E+01   5.5981E+01   9.6261E-08  0.1250
   5.5981E+01   5.7343E+01   5.8734E-08  0.1581
   5.7343E+01   5.8738E+01   4.3004E-08  0.1826
   5.8738E+01   6.0168E+01   2.3790E-08  0.2425
   6.0168E+01   6.1632E+01   1.3662E-08  0.3162
   6.1632E+01   6.3131E+01   2.6675E-09  0.7071
   6.3131E+01   6.4667E+01   1.3021E-09  1.0000
   6.4667E+01   6.6240E+01   1.2711E-09  1.0000
   6.6240E+01   6.7852E+01   0.0000E+00  0.0000
   6.7852E+01   6.9503E+01   2.4229E-09  0.7071
   6.9503E+01   7.1194E+01   0.0000E+00  0.0000
   7.1194E+01   7.2926E+01   0.0000E+00  0.0000
   7.2926E+01   7.4701E+01   0.0000E+00  0.0000
   7.4701E+01   7.6518E+01   0.0000E+00  0.0000
   7.6518E+01   7.8380E+01   0.0000E+00  0.0000
   7.8380E+01   8.0287E+01   0.0000E+00  0.0000
   8.0287E+01   8.2240E+01   0.0000E+00  0.0000
   8.2240E+01   8.4241E+01   0.0000E+00  0.0000
   8.4241E+01   8.6291E+01   0.0000E+00  0.0000
   8.6291E+01   8.8391E+01   0.0000E+00  0.0000
   8.8391E+01   9.0541E+01   0.0000E+00  0.0000
   9.0541E+01   9.2744E+01   0.0000E+00  0.0000
   9.2744E+01   9.5001E+01   0.0000E+00  0.0000
   9.5001E+01   9.7312E+01   0.0000E+00  0.0000
   9.7312E+01   9.9680E+01   0.0000E+00  0.0000
   9.9680E+01   1.0211E+02   0.0000E+00  0.0000
   1.0211E+02   1.0459E+02   0.0000E+00  0.0000
   1.0459E+02   1.0713E+02   0.0000E+00  0.0000
   1.0713E+02   1.0974E+02   0.0000E+00  0.0000
   1.0974E+02   1.1241E+02   0.0000E+00  0.0000
   1.1241E+02   1.1515E+02   0.0000E+00  0.0000
   1.1515E+02   1.1795E+02   0.0000E+00  0.0000
   1.1795E+02   1.2082E+02   0.0000E+00  0.0000
   1.2082E+02   1.2376E+02   0.0000E+00  0.0000
   1.2376E+02   1.2677E+02   0.0000E+00  0.0000
   1.2677E+02   1.2985E+02   0.0000E+00  0.0000
   1.2985E+02   1.3301E+02   0.0000E+00  0.0000
   1.3301E+02   1.3625E+02   0.0000E+00  0.0000
   1.3625E+02   1.3956E+02   0.0000E+00  0.0000
   1.3956E+02   1.4296E+02   0.0000E+00  0.0000
   1.4296E+02   1.4644E+02   0.0000E+00  0.0000
   1.4644E+02   1.5000E+02   0.0000E+00  0.0000

#   sum over                 2.1857E-05
'no. =    1   reg = 112 - 212'
msuc: {\huge [t-cross] in region mesh}
msdr: {\it plotted by \ANGEL \version}
msdl: {\it calculated by \PHITS  3.26}
wt: s(0.7)
\vspace{-3}
  region surface crossing
  area  &=&   1.0000E+00 [cm^2]
e:
 
# Information for Restart Calculation
# This calculation was newly started
# istdev =  2 # 1:Batch variance, 2:History variance
# resc2  = 5.00000000000000000E+08 # Total source weight or Total source weight / maxcas
# resc3  = 5.00000000000000000E+08 # Total history number or Total batch number
# maxcas =   500000000 # History / Batch, only used for istdev=1
# bitrseed = 1101101111010011011000101101110001100110110010110001010100010001 # bit data of rseed
