[ T-Cross ]
    title = [t-cross] in region mesh
     mesh =  reg            # mesh type is region-wise
      reg =    1            # number of crossing regions
      non     r-from    r-to       area
      1       125       225        1.000000    
   e-type =    3            # e-mesh is log given by emin, emax and ne
     emin =  1.0000000E-02  # minimum value of e-mesh points
     emax =   150.0000      # maximum value of e-mesh points
#    edel =  2.4039514E-02  # mesh width of e-mesh points
       ne =    400          # number of e-mesh points
#    data = ( e(i), i = 1, ne + 1 )
#           1.00000E-02  1.02433E-02  1.04925E-02  1.07478E-02  1.10093E-02
#           1.12772E-02  1.15516E-02  1.18326E-02  1.21205E-02  1.24154E-02
#           1.27175E-02  1.30269E-02  1.33439E-02  1.36686E-02  1.40011E-02
#           1.43418E-02  1.46907E-02  1.50482E-02  1.54143E-02  1.57894E-02
#           1.61735E-02  1.65670E-02  1.69701E-02  1.73830E-02  1.78060E-02
#           1.82392E-02  1.86830E-02  1.91375E-02  1.96032E-02  2.00801E-02
#           2.05687E-02  2.10692E-02  2.15818E-02  2.21069E-02  2.26448E-02
#           2.31957E-02  2.37601E-02  2.43382E-02  2.49304E-02  2.55369E-02
#           2.61583E-02  2.67947E-02  2.74467E-02  2.81145E-02  2.87985E-02
#           2.94992E-02  3.02169E-02  3.09521E-02  3.17052E-02  3.24766E-02
#           3.32668E-02  3.40762E-02  3.49053E-02  3.57546E-02  3.66246E-02
#           3.75157E-02  3.84284E-02  3.93634E-02  4.03212E-02  4.13022E-02
#           4.23071E-02  4.33365E-02  4.43909E-02  4.54710E-02  4.65773E-02
#           4.77106E-02  4.88714E-02  5.00605E-02  5.12785E-02  5.25262E-02
#           5.38042E-02  5.51133E-02  5.64542E-02  5.78278E-02  5.92348E-02
#           6.06760E-02  6.21523E-02  6.36645E-02  6.52135E-02  6.68002E-02
#           6.84255E-02  7.00904E-02  7.17957E-02  7.35426E-02  7.53319E-02
#           7.71648E-02  7.90423E-02  8.09655E-02  8.29354E-02  8.49533E-02
#           8.70203E-02  8.91376E-02  9.13064E-02  9.35279E-02  9.58035E-02
#           9.81345E-02  1.00522E-01  1.02968E-01  1.05473E-01  1.08040E-01
#           1.10668E-01  1.13361E-01  1.16119E-01  1.18944E-01  1.21838E-01
#           1.24803E-01  1.27839E-01  1.30950E-01  1.34136E-01  1.37399E-01
#           1.40742E-01  1.44167E-01  1.47675E-01  1.51268E-01  1.54948E-01
#           1.58718E-01  1.62580E-01  1.66535E-01  1.70587E-01  1.74738E-01
#           1.78989E-01  1.83344E-01  1.87805E-01  1.92375E-01  1.97055E-01
#           2.01850E-01  2.06761E-01  2.11792E-01  2.16945E-01  2.22223E-01
#           2.27630E-01  2.33169E-01  2.38842E-01  2.44653E-01  2.50605E-01
#           2.56703E-01  2.62949E-01  2.69346E-01  2.75900E-01  2.82613E-01
#           2.89489E-01  2.96532E-01  3.03747E-01  3.11138E-01  3.18708E-01
#           3.26462E-01  3.34405E-01  3.42542E-01  3.50876E-01  3.59413E-01
#           3.68158E-01  3.77116E-01  3.86291E-01  3.95690E-01  4.05317E-01
#           4.15179E-01  4.25281E-01  4.35628E-01  4.46227E-01  4.57084E-01
#           4.68205E-01  4.79597E-01  4.91266E-01  5.03219E-01  5.15463E-01
#           5.28005E-01  5.40851E-01  5.54011E-01  5.67490E-01  5.81298E-01
#           5.95441E-01  6.09929E-01  6.24769E-01  6.39970E-01  6.55541E-01
#           6.71491E-01  6.87828E-01  7.04564E-01  7.21706E-01  7.39266E-01
#           7.57253E-01  7.75678E-01  7.94551E-01  8.13883E-01  8.33685E-01
#           8.53969E-01  8.74747E-01  8.96030E-01  9.17831E-01  9.40163E-01
#           9.63038E-01  9.86469E-01  1.01047E+00  1.03506E+00  1.06024E+00
#           1.08604E+00  1.11246E+00  1.13953E+00  1.16725E+00  1.19565E+00
#           1.22474E+00  1.25454E+00  1.28507E+00  1.31633E+00  1.34836E+00
#           1.38117E+00  1.41477E+00  1.44920E+00  1.48446E+00  1.52057E+00
#           1.55757E+00  1.59547E+00  1.63429E+00  1.67405E+00  1.71478E+00
#           1.75650E+00  1.79924E+00  1.84302E+00  1.88786E+00  1.93379E+00
#           1.98084E+00  2.02904E+00  2.07841E+00  2.12898E+00  2.18078E+00
#           2.23384E+00  2.28819E+00  2.34386E+00  2.40089E+00  2.45930E+00
#           2.51914E+00  2.58043E+00  2.64322E+00  2.70753E+00  2.77341E+00
#           2.84088E+00  2.91001E+00  2.98081E+00  3.05333E+00  3.12762E+00
#           3.20372E+00  3.28167E+00  3.36152E+00  3.44330E+00  3.52708E+00
#           3.61290E+00  3.70080E+00  3.79085E+00  3.88308E+00  3.97756E+00
#           4.07434E+00  4.17347E+00  4.27501E+00  4.37903E+00  4.48557E+00
#           4.59471E+00  4.70650E+00  4.82102E+00  4.93832E+00  5.05847E+00
#           5.18155E+00  5.30762E+00  5.43676E+00  5.56904E+00  5.70453E+00
#           5.84333E+00  5.98550E+00  6.13114E+00  6.28031E+00  6.43312E+00
#           6.58964E+00  6.74997E+00  6.91420E+00  7.08243E+00  7.25475E+00
#           7.43126E+00  7.61207E+00  7.79728E+00  7.98700E+00  8.18133E+00
#           8.38038E+00  8.58428E+00  8.79315E+00  9.00709E+00  9.22624E+00
#           9.45072E+00  9.68067E+00  9.91620E+00  1.01575E+01  1.04046E+01
#           1.06578E+01  1.09171E+01  1.11827E+01  1.14548E+01  1.17335E+01
#           1.20190E+01  1.23114E+01  1.26109E+01  1.29178E+01  1.32321E+01
#           1.35540E+01  1.38838E+01  1.42216E+01  1.45676E+01  1.49221E+01
#           1.52851E+01  1.56570E+01  1.60380E+01  1.64282E+01  1.68279E+01
#           1.72374E+01  1.76568E+01  1.80864E+01  1.85264E+01  1.89772E+01
#           1.94389E+01  1.99119E+01  2.03963E+01  2.08926E+01  2.14009E+01
#           2.19216E+01  2.24550E+01  2.30014E+01  2.35610E+01  2.41343E+01
#           2.47215E+01  2.53230E+01  2.59391E+01  2.65702E+01  2.72167E+01
#           2.78789E+01  2.85572E+01  2.92520E+01  2.99637E+01  3.06928E+01
#           3.14396E+01  3.22045E+01  3.29881E+01  3.37907E+01  3.46128E+01
#           3.54550E+01  3.63177E+01  3.72013E+01  3.81064E+01  3.90336E+01
#           3.99833E+01  4.09561E+01  4.19526E+01  4.29734E+01  4.40189E+01
#           4.50900E+01  4.61870E+01  4.73108E+01  4.84619E+01  4.96410E+01
#           5.08488E+01  5.20860E+01  5.33533E+01  5.46514E+01  5.59812E+01
#           5.73432E+01  5.87384E+01  6.01676E+01  6.16315E+01  6.31311E+01
#           6.46671E+01  6.62405E+01  6.78522E+01  6.95031E+01  7.11941E+01
#           7.29263E+01  7.47007E+01  7.65182E+01  7.83800E+01  8.02870E+01
#           8.22405E+01  8.42414E+01  8.62911E+01  8.83906E+01  9.05412E+01
#           9.27442E+01  9.50007E+01  9.73122E+01  9.96799E+01  1.02105E+02
#           1.04589E+02  1.07134E+02  1.09741E+02  1.12411E+02  1.15146E+02
#           1.17948E+02  1.20817E+02  1.23757E+02  1.26768E+02  1.29852E+02
#           1.33012E+02  1.36248E+02  1.39563E+02  1.42959E+02  1.46437E+02
#           1.50000E+02
     unit =    2            # unit is [1/cm^2/(MeV/n)/source]
     axis =  eng            # axis of output
     file = detector-26.out  # file name of output for the above axis
   output = f-curr          # surface crossing forward current spectrum
     part =  neutron  
# kf/name :  2112     
#    used :        main (  %)        temp (  %)       total (  %)
#  memory :         414 (  0)           0 (  0)         414 (  0)

#------------------------------------------------------------------------------
#newpage:
#   no. =    1   reg = 125 - 225

x: Energy [MeV/n]
y:  F-Curr [1/cm^2/(MeV/n)/source]         
p: xlog ylog afac(0.8) form(0.9)
h: n            x            y(neutron ),hh0l   n 
#  e-lower      e-upper      neutron     r.err 
   1.0000E-02   1.0243E-02   1.2076E-04  0.0823
   1.0243E-02   1.0493E-02   1.1840E-04  0.0822
   1.0493E-02   1.0748E-02   9.4653E-05  0.0909
   1.0748E-02   1.1009E-02   1.0767E-04  0.0842
   1.1009E-02   1.1277E-02   1.1450E-04  0.0806
   1.1277E-02   1.1552E-02   1.0970E-04  0.0814
   1.1552E-02   1.1833E-02   9.5885E-05  0.0861
   1.1833E-02   1.2121E-02   9.1908E-05  0.0867
   1.2121E-02   1.2415E-02   9.3415E-05  0.0851
   1.2415E-02   1.2718E-02   9.0057E-05  0.0855
   1.2718E-02   1.3027E-02   8.6949E-05  0.0859
   1.3027E-02   1.3344E-02   8.4099E-05  0.0864
   1.3344E-02   1.3669E-02   8.4270E-05  0.0854
   1.3669E-02   1.4001E-02   8.3677E-05  0.0846
   1.4001E-02   1.4342E-02   8.1192E-05  0.0849
   1.4342E-02   1.4691E-02   8.1809E-05  0.0836
   1.4691E-02   1.5048E-02   8.0395E-05  0.0832
   1.5048E-02   1.5414E-02   8.5524E-05  0.0798
   1.5414E-02   1.5789E-02   7.6471E-05  0.0834
   1.5789E-02   1.6174E-02   7.0697E-05  0.0857
   1.6174E-02   1.6567E-02   7.8855E-05  0.0801
   1.6567E-02   1.6970E-02   7.7032E-05  0.0801
   1.6970E-02   1.7383E-02   7.0969E-05  0.0825
   1.7383E-02   1.7806E-02   6.5548E-05  0.0848
   1.7806E-02   1.8239E-02   7.3553E-05  0.0791
   1.8239E-02   1.8683E-02   6.5073E-05  0.0831
   1.8683E-02   1.9138E-02   6.2819E-05  0.0836
   1.9138E-02   1.9603E-02   6.9667E-05  0.0783
   1.9603E-02   2.0080E-02   6.5605E-05  0.0797
   2.0080E-02   2.0569E-02   5.5114E-05  0.0861
   2.0569E-02   2.1069E-02   6.6836E-05  0.0772
   2.1069E-02   2.1582E-02   5.7659E-05  0.0822
   2.1582E-02   2.2107E-02   4.9697E-05  0.0874
   2.2107E-02   2.2645E-02   5.6070E-05  0.0814
   2.2645E-02   2.3196E-02   5.6403E-05  0.0801
   2.3196E-02   2.3760E-02   4.4363E-05  0.0891
   2.3760E-02   2.4338E-02   5.1019E-05  0.0822
   2.4338E-02   2.4930E-02   5.5836E-05  0.0776
   2.4930E-02   2.5537E-02   5.7960E-05  0.0753
   2.5537E-02   2.6158E-02   5.3825E-05  0.0771
   2.6158E-02   2.6795E-02   5.8893E-05  0.0729
   2.6795E-02   2.7447E-02   5.0907E-05  0.0775
   2.7447E-02   2.8114E-02   4.6345E-05  0.0803
   2.8114E-02   2.8799E-02   4.7959E-05  0.0779
   2.8799E-02   2.9499E-02   4.3704E-05  0.0806
   2.9499E-02   3.0217E-02   4.4856E-05  0.0787
   3.0217E-02   3.0952E-02   4.4503E-05  0.0780
   3.0952E-02   3.1705E-02   3.8894E-05  0.0825
   3.1705E-02   3.2477E-02   4.1344E-05  0.0791
   3.2477E-02   3.3267E-02   4.0190E-05  0.0793
   3.3267E-02   3.4076E-02   4.1301E-05  0.0772
   3.4076E-02   3.4905E-02   4.1392E-05  0.0763
   3.4905E-02   3.5755E-02   4.0056E-05  0.0765
   3.5755E-02   3.6625E-02   4.1505E-05  0.0743
   3.6625E-02   3.7516E-02   3.1733E-05  0.0840
   3.7516E-02   3.8428E-02   3.7081E-05  0.0767
   3.8428E-02   3.9363E-02   3.0863E-05  0.0830
   3.9363E-02   4.0321E-02   3.4454E-05  0.0777
   4.0321E-02   4.1302E-02   3.7185E-05  0.0739
   4.1302E-02   4.2307E-02   3.6659E-05  0.0735
   4.2307E-02   4.3337E-02   2.8487E-05  0.0824
   4.3337E-02   4.4391E-02   2.7652E-05  0.0828
   4.4391E-02   4.5471E-02   2.7722E-05  0.0817
   4.5471E-02   4.6577E-02   2.8841E-05  0.0791
   4.6577E-02   4.7711E-02   2.9478E-05  0.0772
   4.7711E-02   4.8871E-02   2.6584E-05  0.0803
   4.8871E-02   5.0061E-02   2.6085E-05  0.0801
   5.0061E-02   5.1279E-02   2.8419E-05  0.0759
   5.1279E-02   5.2526E-02   2.8876E-05  0.0743
   5.2526E-02   5.3804E-02   2.4848E-05  0.0793
   5.3804E-02   5.5113E-02   2.8320E-05  0.0733
   5.5113E-02   5.6454E-02   2.7336E-05  0.0737
   5.6454E-02   5.7828E-02   2.2734E-05  0.0798
   5.7828E-02   5.9235E-02   2.3368E-05  0.0778
   5.9235E-02   6.0676E-02   2.5431E-05  0.0737
   6.0676E-02   6.2152E-02   2.3337E-05  0.0761
   6.2152E-02   6.3665E-02   2.1887E-05  0.0776
   6.3665E-02   6.5214E-02   2.1832E-05  0.0767
   6.5214E-02   6.6800E-02   2.2635E-05  0.0744
   6.6800E-02   6.8426E-02   1.9590E-05  0.0791
   6.8426E-02   7.0090E-02   2.3015E-05  0.0722
   7.0090E-02   7.1796E-02   1.9199E-05  0.0779
   7.1796E-02   7.3543E-02   1.6745E-05  0.0825
   7.3543E-02   7.5332E-02   2.1398E-05  0.0721
   7.5332E-02   7.7165E-02   1.9250E-05  0.0752
   7.7165E-02   7.9042E-02   1.5738E-05  0.0822
   7.9042E-02   8.0965E-02   1.8662E-05  0.0745
   8.0965E-02   8.2935E-02   1.7609E-05  0.0758
   8.2935E-02   8.4953E-02   1.6123E-05  0.0782
   8.4953E-02   8.7020E-02   1.5483E-05  0.0789
   8.7020E-02   8.9138E-02   1.7498E-05  0.0733
   8.9138E-02   9.1306E-02   1.7239E-05  0.0730
   9.1306E-02   9.3528E-02   1.6251E-05  0.0743
   9.3528E-02   9.5804E-02   1.5910E-05  0.0742
   9.5804E-02   9.8134E-02   1.6016E-05  0.0731
   9.8134E-02   1.0052E-01   1.4174E-05  0.0767
   1.0052E-01   1.0297E-01   1.5873E-05  0.0716
   1.0297E-01   1.0547E-01   1.6233E-05  0.0700
   1.0547E-01   1.0804E-01   1.7452E-05  0.0667
   1.0804E-01   1.1067E-01   1.5264E-05  0.0704
   1.1067E-01   1.1336E-01   1.9426E-05  0.0617
   1.1336E-01   1.1612E-01   1.7574E-05  0.0642
   1.1612E-01   1.1894E-01   1.8387E-05  0.0619
   1.1894E-01   1.2184E-01   2.1166E-05  0.0570
   1.2184E-01   1.2480E-01   1.9842E-05  0.0582
   1.2480E-01   1.2784E-01   2.2678E-05  0.0538
   1.2784E-01   1.3095E-01   1.9897E-05  0.0567
   1.3095E-01   1.3414E-01   2.2663E-05  0.0525
   1.3414E-01   1.3740E-01   2.2898E-05  0.0516
   1.3740E-01   1.4074E-01   2.3898E-05  0.0499
   1.4074E-01   1.4417E-01   2.5500E-05  0.0477
   1.4417E-01   1.4767E-01   2.4731E-05  0.0479
   1.4767E-01   1.5127E-01   2.3998E-05  0.0481
   1.5127E-01   1.5495E-01   2.6426E-05  0.0452
   1.5495E-01   1.5872E-01   2.7022E-05  0.0442
   1.5872E-01   1.6258E-01   2.6803E-05  0.0438
   1.6258E-01   1.6654E-01   3.0304E-05  0.0408
   1.6654E-01   1.7059E-01   3.0869E-05  0.0399
   1.7059E-01   1.7474E-01   3.0194E-05  0.0398
   1.7474E-01   1.7899E-01   3.0717E-05  0.0390
   1.7899E-01   1.8334E-01   3.1665E-05  0.0380
   1.8334E-01   1.8781E-01   3.3728E-05  0.0364
   1.8781E-01   1.9237E-01   3.1902E-05  0.0370
   1.9237E-01   1.9706E-01   3.5874E-05  0.0344
   1.9706E-01   2.0185E-01   3.4063E-05  0.0349
   2.0185E-01   2.0676E-01   3.5441E-05  0.0338
   2.0676E-01   2.1179E-01   3.6130E-05  0.0331
   2.1179E-01   2.1694E-01   3.8766E-05  0.0316
   2.1694E-01   2.2222E-01   3.7689E-05  0.0316
   2.2222E-01   2.2763E-01   4.0380E-05  0.0302
   2.2763E-01   2.3317E-01   4.0730E-05  0.0297
   2.3317E-01   2.3884E-01   4.1454E-05  0.0291
   2.3884E-01   2.4465E-01   4.2486E-05  0.0284
   2.4465E-01   2.5061E-01   4.3824E-05  0.0276
   2.5061E-01   2.5670E-01   4.4287E-05  0.0271
   2.5670E-01   2.6295E-01   4.5536E-05  0.0264
   2.6295E-01   2.6935E-01   4.6889E-05  0.0257
   2.6935E-01   2.7590E-01   4.6644E-05  0.0255
   2.7590E-01   2.8261E-01   4.5567E-05  0.0255
   2.8261E-01   2.8949E-01   4.7671E-05  0.0246
   2.8949E-01   2.9653E-01   4.8713E-05  0.0241
   2.9653E-01   3.0375E-01   4.8574E-05  0.0238
   3.0375E-01   3.1114E-01   5.2244E-05  0.0227
   3.1114E-01   3.1871E-01   5.1984E-05  0.0225
   3.1871E-01   3.2646E-01   4.9883E-05  0.0227
   3.2646E-01   3.3441E-01   5.0793E-05  0.0222
   3.3441E-01   3.4254E-01   5.2922E-05  0.0215
   3.4254E-01   3.5088E-01   5.4025E-05  0.0210
   3.5088E-01   3.5941E-01   5.6528E-05  0.0203
   3.5941E-01   3.6816E-01   5.6126E-05  0.0201
   3.6816E-01   3.7712E-01   5.9489E-05  0.0193
   3.7712E-01   3.8629E-01   5.8525E-05  0.0192
   3.8629E-01   3.9569E-01   5.9196E-05  0.0189
   3.9569E-01   4.0532E-01   5.9317E-05  0.0186
   4.0532E-01   4.1518E-01   5.9506E-05  0.0184
   4.1518E-01   4.2528E-01   5.9406E-05  0.0182
   4.2528E-01   4.3563E-01   6.0031E-05  0.0179
   4.3563E-01   4.4623E-01   5.9914E-05  0.0177
   4.4623E-01   4.5708E-01   6.1114E-05  0.0173
   4.5708E-01   4.6821E-01   6.2070E-05  0.0169
   4.6821E-01   4.7960E-01   6.2326E-05  0.0167
   4.7960E-01   4.9127E-01   6.3054E-05  0.0164
   4.9127E-01   5.0322E-01   6.1420E-05  0.0164
   5.0322E-01   5.1546E-01   6.3368E-05  0.0160
   5.1546E-01   5.2800E-01   6.3562E-05  0.0158
   5.2800E-01   5.4085E-01   6.4148E-05  0.0155
   5.4085E-01   5.5401E-01   6.4729E-05  0.0153
   5.5401E-01   5.6749E-01   6.3909E-05  0.0152
   5.6749E-01   5.8130E-01   6.2313E-05  0.0152
   5.8130E-01   5.9544E-01   6.2129E-05  0.0150
   5.9544E-01   6.0993E-01   6.3403E-05  0.0147
   6.0993E-01   6.2477E-01   6.3220E-05  0.0145
   6.2477E-01   6.3997E-01   6.2728E-05  0.0144
   6.3997E-01   6.5554E-01   6.2989E-05  0.0142
   6.5554E-01   6.7149E-01   6.0616E-05  0.0143
   6.7149E-01   6.8783E-01   6.1840E-05  0.0140
   6.8783E-01   7.0456E-01   6.0039E-05  0.0140
   7.0456E-01   7.2171E-01   6.0100E-05  0.0139
   7.2171E-01   7.3927E-01   6.0156E-05  0.0137
   7.3927E-01   7.5725E-01   5.7675E-05  0.0138
   7.5725E-01   7.7568E-01   5.8436E-05  0.0136
   7.7568E-01   7.9455E-01   5.7442E-05  0.0135
   7.9455E-01   8.1388E-01   5.7578E-05  0.0133
   8.1388E-01   8.3368E-01   5.5334E-05  0.0134
   8.3368E-01   8.5397E-01   5.4095E-05  0.0134
   8.5397E-01   8.7475E-01   5.2544E-05  0.0134
   8.7475E-01   8.9603E-01   5.2203E-05  0.0133
   8.9603E-01   9.1783E-01   4.9281E-05  0.0136
   9.1783E-01   9.4016E-01   4.9801E-05  0.0133
   9.4016E-01   9.6304E-01   4.6975E-05  0.0135
   9.6304E-01   9.8647E-01   4.4133E-05  0.0138
   9.8647E-01   1.0105E+00   4.1398E-05  0.0141
   1.0105E+00   1.0351E+00   4.1549E-05  0.0139
   1.0351E+00   1.0602E+00   4.2739E-05  0.0135
   1.0602E+00   1.0860E+00   4.1473E-05  0.0135
   1.0860E+00   1.1125E+00   4.1249E-05  0.0134
   1.1125E+00   1.1395E+00   4.1011E-05  0.0133
   1.1395E+00   1.1673E+00   4.1223E-05  0.0131
   1.1673E+00   1.1957E+00   4.0069E-05  0.0131
   1.1957E+00   1.2247E+00   4.1372E-05  0.0127
   1.2247E+00   1.2545E+00   4.0308E-05  0.0127
   1.2545E+00   1.2851E+00   4.0703E-05  0.0125
   1.2851E+00   1.3163E+00   3.9441E-05  0.0126
   1.3163E+00   1.3484E+00   3.9601E-05  0.0124
   1.3484E+00   1.3812E+00   3.8512E-05  0.0124
   1.3812E+00   1.4148E+00   3.8998E-05  0.0122
   1.4148E+00   1.4492E+00   3.7915E-05  0.0122
   1.4492E+00   1.4845E+00   3.7651E-05  0.0121
   1.4845E+00   1.5206E+00   3.5939E-05  0.0122
   1.5206E+00   1.5576E+00   3.5664E-05  0.0121
   1.5576E+00   1.5955E+00   3.4206E-05  0.0122
   1.5955E+00   1.6343E+00   3.3990E-05  0.0121
   1.6343E+00   1.6741E+00   3.3263E-05  0.0120
   1.6741E+00   1.7148E+00   3.2975E-05  0.0119
   1.7148E+00   1.7565E+00   3.2033E-05  0.0120
   1.7565E+00   1.7992E+00   3.1262E-05  0.0119
   1.7992E+00   1.8430E+00   2.8914E-05  0.0123
   1.8430E+00   1.8879E+00   2.7134E-05  0.0125
   1.8879E+00   1.9338E+00   2.7619E-05  0.0122
   1.9338E+00   1.9808E+00   2.6262E-05  0.0124
   1.9808E+00   2.0290E+00   2.5818E-05  0.0123
   2.0290E+00   2.0784E+00   2.5526E-05  0.0122
   2.0784E+00   2.1290E+00   2.5205E-05  0.0122
   2.1290E+00   2.1808E+00   2.5410E-05  0.0119
   2.1808E+00   2.2338E+00   2.3948E-05  0.0122
   2.2338E+00   2.2882E+00   2.3861E-05  0.0121
   2.2882E+00   2.3439E+00   2.2735E-05  0.0122
   2.3439E+00   2.4009E+00   2.1766E-05  0.0123
   2.4009E+00   2.4593E+00   2.2412E-05  0.0120
   2.4593E+00   2.5191E+00   2.1574E-05  0.0121
   2.5191E+00   2.5804E+00   2.0973E-05  0.0122
   2.5804E+00   2.6432E+00   2.0939E-05  0.0120
   2.6432E+00   2.7075E+00   1.9651E-05  0.0123
   2.7075E+00   2.7734E+00   1.9046E-05  0.0123
   2.7734E+00   2.8409E+00   1.8613E-05  0.0123
   2.8409E+00   2.9100E+00   1.8336E-05  0.0123
   2.9100E+00   2.9808E+00   1.8453E-05  0.0121
   2.9808E+00   3.0533E+00   1.7504E-05  0.0123
   3.0533E+00   3.1276E+00   1.6601E-05  0.0124
   3.1276E+00   3.2037E+00   1.6299E-05  0.0124
   3.2037E+00   3.2817E+00   1.5797E-05  0.0125
   3.2817E+00   3.3615E+00   1.5666E-05  0.0124
   3.3615E+00   3.4433E+00   1.5286E-05  0.0124
   3.4433E+00   3.5271E+00   1.5094E-05  0.0123
   3.5271E+00   3.6129E+00   1.4901E-05  0.0123
   3.6129E+00   3.7008E+00   1.4167E-05  0.0124
   3.7008E+00   3.7908E+00   1.3913E-05  0.0124
   3.7908E+00   3.8831E+00   1.3639E-05  0.0124
   3.8831E+00   3.9776E+00   1.3232E-05  0.0124
   3.9776E+00   4.0743E+00   1.2970E-05  0.0124
   4.0743E+00   4.1735E+00   1.2350E-05  0.0125
   4.1735E+00   4.2750E+00   1.1798E-05  0.0127
   4.2750E+00   4.3790E+00   1.1191E-05  0.0129
   4.3790E+00   4.4856E+00   1.0670E-05  0.0130
   4.4856E+00   4.5947E+00   1.0411E-05  0.0130
   4.5947E+00   4.7065E+00   1.0137E-05  0.0131
   4.7065E+00   4.8210E+00   9.7411E-06  0.0132
   4.8210E+00   4.9383E+00   9.5652E-06  0.0131
   4.9383E+00   5.0585E+00   9.2252E-06  0.0132
   5.0585E+00   5.1815E+00   8.6438E-06  0.0135
   5.1815E+00   5.3076E+00   8.3734E-06  0.0135
   5.3076E+00   5.4368E+00   8.1642E-06  0.0135
   5.4368E+00   5.5690E+00   7.8429E-06  0.0137
   5.5690E+00   5.7045E+00   7.4167E-06  0.0139
   5.7045E+00   5.8433E+00   7.2354E-06  0.0139
   5.8433E+00   5.9855E+00   6.7747E-06  0.0142
   5.9855E+00   6.1311E+00   6.5723E-06  0.0142
   6.1311E+00   6.2803E+00   6.1555E-06  0.0145
   6.2803E+00   6.4331E+00   5.7729E-06  0.0149
   6.4331E+00   6.5896E+00   5.6264E-06  0.0149
   6.5896E+00   6.7500E+00   5.2811E-06  0.0152
   6.7500E+00   6.9142E+00   4.7354E-06  0.0158
   6.9142E+00   7.0824E+00   4.4890E-06  0.0161
   7.0824E+00   7.2548E+00   4.1338E-06  0.0166
   7.2548E+00   7.4313E+00   3.9255E-06  0.0168
   7.4313E+00   7.6121E+00   3.6754E-06  0.0172
   7.6121E+00   7.7973E+00   3.3864E-06  0.0177
   7.7973E+00   7.9870E+00   3.1153E-06  0.0182
   7.9870E+00   8.1813E+00   2.9441E-06  0.0185
   8.1813E+00   8.3804E+00   2.8708E-06  0.0185
   8.3804E+00   8.5843E+00   2.5723E-06  0.0193
   8.5843E+00   8.7931E+00   2.4848E-06  0.0195
   8.7931E+00   9.0071E+00   2.3765E-06  0.0197
   9.0071E+00   9.2262E+00   2.0898E-06  0.0207
   9.2262E+00   9.4507E+00   2.0080E-06  0.0209
   9.4507E+00   9.6807E+00   1.8572E-06  0.0215
   9.6807E+00   9.9162E+00   1.7692E-06  0.0218
   9.9162E+00   1.0157E+01   1.6500E-06  0.0223
   1.0157E+01   1.0405E+01   1.6054E-06  0.0223
   1.0405E+01   1.0658E+01   1.3987E-06  0.0236
   1.0658E+01   1.0917E+01   1.2398E-06  0.0248
   1.0917E+01   1.1183E+01   1.2452E-06  0.0245
   1.1183E+01   1.1455E+01   1.1618E-06  0.0251
   1.1455E+01   1.1733E+01   1.0538E-06  0.0260
   1.1733E+01   1.2019E+01   9.7321E-07  0.0267
   1.2019E+01   1.2311E+01   8.6993E-07  0.0279
   1.2311E+01   1.2611E+01   8.7001E-07  0.0276
   1.2611E+01   1.2918E+01   7.9012E-07  0.0286
   1.2918E+01   1.3232E+01   6.8524E-07  0.0304
   1.3232E+01   1.3554E+01   7.0483E-07  0.0296
   1.3554E+01   1.3884E+01   6.5370E-07  0.0304
   1.3884E+01   1.4222E+01   5.4526E-07  0.0328
   1.4222E+01   1.4568E+01   5.3950E-07  0.0327
   1.4568E+01   1.4922E+01   4.8442E-07  0.0341
   1.4922E+01   1.5285E+01   4.7576E-07  0.0339
   1.5285E+01   1.5657E+01   4.1584E-07  0.0359
   1.5657E+01   1.6038E+01   4.1366E-07  0.0356
   1.6038E+01   1.6428E+01   3.6187E-07  0.0376
   1.6428E+01   1.6828E+01   3.0470E-07  0.0405
   1.6828E+01   1.7237E+01   2.9694E-07  0.0405
   1.7237E+01   1.7657E+01   2.5632E-07  0.0431
   1.7657E+01   1.8086E+01   2.7098E-07  0.0414
   1.8086E+01   1.8526E+01   2.2247E-07  0.0452
   1.8526E+01   1.8977E+01   1.9478E-07  0.0477
   1.8977E+01   1.9439E+01   1.6763E-07  0.0508
   1.9439E+01   1.9912E+01   1.6745E-07  0.0503
   1.9912E+01   2.0396E+01   1.4242E-07  0.0538
   2.0396E+01   2.0893E+01   1.3582E-07  0.0545
   2.0893E+01   2.1401E+01   1.0820E-07  0.0603
   2.1401E+01   2.1922E+01   9.6792E-08  0.0630
   2.1922E+01   2.2455E+01   8.8869E-08  0.0650
   2.2455E+01   2.3001E+01   6.9919E-08  0.0724
   2.3001E+01   2.3561E+01   5.8252E-08  0.0783
   2.3561E+01   2.4134E+01   5.5124E-08  0.0796
   2.4134E+01   2.4721E+01   4.2575E-08  0.0894
   2.4721E+01   2.5323E+01   4.5553E-08  0.0854
   2.5323E+01   2.5939E+01   3.5707E-08  0.0953
   2.5939E+01   2.6570E+01   2.8838E-08  0.1048
   2.6570E+01   2.7217E+01   2.3822E-08  0.1140
   2.7217E+01   2.7879E+01   1.6007E-08  0.1374
   2.7879E+01   2.8557E+01   1.3858E-08  0.1459
   2.8557E+01   2.9252E+01   1.2665E-08  0.1508
   2.9252E+01   2.9964E+01   1.0959E-08  0.1601
   2.9964E+01   3.0693E+01   9.3273E-09  0.1715
   3.0693E+01   3.1440E+01   8.3023E-09  0.1796
   3.1440E+01   3.2205E+01   5.7520E-09  0.2132
   3.2205E+01   3.2988E+01   5.8706E-09  0.2085
   3.2988E+01   3.3791E+01   4.4853E-09  0.2357
   3.3791E+01   3.4613E+01   3.8922E-09  0.2500
   3.4613E+01   3.5455E+01   1.6624E-09  0.3780
   3.5455E+01   3.6318E+01   9.2738E-10  0.5000
   3.6318E+01   3.7201E+01   9.0535E-10  0.5000
   3.7201E+01   3.8106E+01   4.4192E-10  0.7071
   3.8106E+01   3.9034E+01   6.4714E-10  0.5774
   3.9034E+01   3.9983E+01   4.2118E-10  0.7071
   3.9983E+01   4.0956E+01   4.1117E-10  0.7071
   4.0956E+01   4.1953E+01   2.0070E-10  1.0000
   4.1953E+01   4.2973E+01   1.9594E-10  1.0000
   4.2973E+01   4.4019E+01   1.9128E-10  1.0000
   4.4019E+01   4.5090E+01   1.8674E-10  1.0000
   4.5090E+01   4.6187E+01   1.8230E-10  1.0000
   4.6187E+01   4.7311E+01   0.0000E+00  0.0000
   4.7311E+01   4.8462E+01   0.0000E+00  0.0000
   4.8462E+01   4.9641E+01   0.0000E+00  0.0000
   4.9641E+01   5.0849E+01   1.6559E-10  1.0000
   5.0849E+01   5.2086E+01   0.0000E+00  0.0000
   5.2086E+01   5.3353E+01   0.0000E+00  0.0000
   5.3353E+01   5.4651E+01   0.0000E+00  0.0000
   5.4651E+01   5.5981E+01   0.0000E+00  0.0000
   5.5981E+01   5.7343E+01   0.0000E+00  0.0000
   5.7343E+01   5.8738E+01   0.0000E+00  0.0000
   5.8738E+01   6.0168E+01   0.0000E+00  0.0000
   6.0168E+01   6.1632E+01   0.0000E+00  0.0000
   6.1632E+01   6.3131E+01   0.0000E+00  0.0000
   6.3131E+01   6.4667E+01   0.0000E+00  0.0000
   6.4667E+01   6.6240E+01   0.0000E+00  0.0000
   6.6240E+01   6.7852E+01   0.0000E+00  0.0000
   6.7852E+01   6.9503E+01   0.0000E+00  0.0000
   6.9503E+01   7.1194E+01   0.0000E+00  0.0000
   7.1194E+01   7.2926E+01   0.0000E+00  0.0000
   7.2926E+01   7.4701E+01   0.0000E+00  0.0000
   7.4701E+01   7.6518E+01   0.0000E+00  0.0000
   7.6518E+01   7.8380E+01   0.0000E+00  0.0000
   7.8380E+01   8.0287E+01   0.0000E+00  0.0000
   8.0287E+01   8.2240E+01   0.0000E+00  0.0000
   8.2240E+01   8.4241E+01   0.0000E+00  0.0000
   8.4241E+01   8.6291E+01   0.0000E+00  0.0000
   8.6291E+01   8.8391E+01   0.0000E+00  0.0000
   8.8391E+01   9.0541E+01   0.0000E+00  0.0000
   9.0541E+01   9.2744E+01   0.0000E+00  0.0000
   9.2744E+01   9.5001E+01   0.0000E+00  0.0000
   9.5001E+01   9.7312E+01   0.0000E+00  0.0000
   9.7312E+01   9.9680E+01   0.0000E+00  0.0000
   9.9680E+01   1.0211E+02   0.0000E+00  0.0000
   1.0211E+02   1.0459E+02   0.0000E+00  0.0000
   1.0459E+02   1.0713E+02   0.0000E+00  0.0000
   1.0713E+02   1.0974E+02   0.0000E+00  0.0000
   1.0974E+02   1.1241E+02   0.0000E+00  0.0000
   1.1241E+02   1.1515E+02   0.0000E+00  0.0000
   1.1515E+02   1.1795E+02   0.0000E+00  0.0000
   1.1795E+02   1.2082E+02   0.0000E+00  0.0000
   1.2082E+02   1.2376E+02   0.0000E+00  0.0000
   1.2376E+02   1.2677E+02   0.0000E+00  0.0000
   1.2677E+02   1.2985E+02   0.0000E+00  0.0000
   1.2985E+02   1.3301E+02   0.0000E+00  0.0000
   1.3301E+02   1.3625E+02   0.0000E+00  0.0000
   1.3625E+02   1.3956E+02   0.0000E+00  0.0000
   1.3956E+02   1.4296E+02   0.0000E+00  0.0000
   1.4296E+02   1.4644E+02   0.0000E+00  0.0000
   1.4644E+02   1.5000E+02   0.0000E+00  0.0000

#   sum over                 1.0727E-06
'no. =    1   reg = 125 - 225'
msuc: {\huge [t-cross] in region mesh}
msdr: {\it plotted by \ANGEL \version}
msdl: {\it calculated by \PHITS  3.26}
wt: s(0.7)
\vspace{-3}
  region surface crossing
  area  &=&   1.0000E+00 [cm^2]
e:
 
# Information for Restart Calculation
# This calculation was newly started
# istdev =  2 # 1:Batch variance, 2:History variance
# resc2  = 5.00000000000000000E+09 # Total source weight or Total source weight / maxcas
# resc3  = 5.00000000000000000E+09 # Total history number or Total batch number
# maxcas =   100000000 # History / Batch, only used for istdev=1
# bitrseed = 0110100000100010111000001110001111001110100100011111101000111001 # bit data of rseed
