[ T-Cross ]
    title = [t-cross] in region mesh
     mesh =  reg            # mesh type is region-wise
      reg =    1            # number of crossing regions
      non     r-from    r-to       area
      1       100       200        1.000000    
   e-type =    3            # e-mesh is log given by emin, emax and ne
     emin =  1.0000000E-02  # minimum value of e-mesh points
     emax =   150.0000      # maximum value of e-mesh points
#    edel =  2.4039514E-02  # mesh width of e-mesh points
       ne =    400          # number of e-mesh points
#    data = ( e(i), i = 1, ne + 1 )
#           1.00000E-02  1.02433E-02  1.04925E-02  1.07478E-02  1.10093E-02
#           1.12772E-02  1.15516E-02  1.18326E-02  1.21205E-02  1.24154E-02
#           1.27175E-02  1.30269E-02  1.33439E-02  1.36686E-02  1.40011E-02
#           1.43418E-02  1.46907E-02  1.50482E-02  1.54143E-02  1.57894E-02
#           1.61735E-02  1.65670E-02  1.69701E-02  1.73830E-02  1.78060E-02
#           1.82392E-02  1.86830E-02  1.91375E-02  1.96032E-02  2.00801E-02
#           2.05687E-02  2.10692E-02  2.15818E-02  2.21069E-02  2.26448E-02
#           2.31957E-02  2.37601E-02  2.43382E-02  2.49304E-02  2.55369E-02
#           2.61583E-02  2.67947E-02  2.74467E-02  2.81145E-02  2.87985E-02
#           2.94992E-02  3.02169E-02  3.09521E-02  3.17052E-02  3.24766E-02
#           3.32668E-02  3.40762E-02  3.49053E-02  3.57546E-02  3.66246E-02
#           3.75157E-02  3.84284E-02  3.93634E-02  4.03212E-02  4.13022E-02
#           4.23071E-02  4.33365E-02  4.43909E-02  4.54710E-02  4.65773E-02
#           4.77106E-02  4.88714E-02  5.00605E-02  5.12785E-02  5.25262E-02
#           5.38042E-02  5.51133E-02  5.64542E-02  5.78278E-02  5.92348E-02
#           6.06760E-02  6.21523E-02  6.36645E-02  6.52135E-02  6.68002E-02
#           6.84255E-02  7.00904E-02  7.17957E-02  7.35426E-02  7.53319E-02
#           7.71648E-02  7.90423E-02  8.09655E-02  8.29354E-02  8.49533E-02
#           8.70203E-02  8.91376E-02  9.13064E-02  9.35279E-02  9.58035E-02
#           9.81345E-02  1.00522E-01  1.02968E-01  1.05473E-01  1.08040E-01
#           1.10668E-01  1.13361E-01  1.16119E-01  1.18944E-01  1.21838E-01
#           1.24803E-01  1.27839E-01  1.30950E-01  1.34136E-01  1.37399E-01
#           1.40742E-01  1.44167E-01  1.47675E-01  1.51268E-01  1.54948E-01
#           1.58718E-01  1.62580E-01  1.66535E-01  1.70587E-01  1.74738E-01
#           1.78989E-01  1.83344E-01  1.87805E-01  1.92375E-01  1.97055E-01
#           2.01850E-01  2.06761E-01  2.11792E-01  2.16945E-01  2.22223E-01
#           2.27630E-01  2.33169E-01  2.38842E-01  2.44653E-01  2.50605E-01
#           2.56703E-01  2.62949E-01  2.69346E-01  2.75900E-01  2.82613E-01
#           2.89489E-01  2.96532E-01  3.03747E-01  3.11138E-01  3.18708E-01
#           3.26462E-01  3.34405E-01  3.42542E-01  3.50876E-01  3.59413E-01
#           3.68158E-01  3.77116E-01  3.86291E-01  3.95690E-01  4.05317E-01
#           4.15179E-01  4.25281E-01  4.35628E-01  4.46227E-01  4.57084E-01
#           4.68205E-01  4.79597E-01  4.91266E-01  5.03219E-01  5.15463E-01
#           5.28005E-01  5.40851E-01  5.54011E-01  5.67490E-01  5.81298E-01
#           5.95441E-01  6.09929E-01  6.24769E-01  6.39970E-01  6.55541E-01
#           6.71491E-01  6.87828E-01  7.04564E-01  7.21706E-01  7.39266E-01
#           7.57253E-01  7.75678E-01  7.94551E-01  8.13883E-01  8.33685E-01
#           8.53969E-01  8.74747E-01  8.96030E-01  9.17831E-01  9.40163E-01
#           9.63038E-01  9.86469E-01  1.01047E+00  1.03506E+00  1.06024E+00
#           1.08604E+00  1.11246E+00  1.13953E+00  1.16725E+00  1.19565E+00
#           1.22474E+00  1.25454E+00  1.28507E+00  1.31633E+00  1.34836E+00
#           1.38117E+00  1.41477E+00  1.44920E+00  1.48446E+00  1.52057E+00
#           1.55757E+00  1.59547E+00  1.63429E+00  1.67405E+00  1.71478E+00
#           1.75650E+00  1.79924E+00  1.84302E+00  1.88786E+00  1.93379E+00
#           1.98084E+00  2.02904E+00  2.07841E+00  2.12898E+00  2.18078E+00
#           2.23384E+00  2.28819E+00  2.34386E+00  2.40089E+00  2.45930E+00
#           2.51914E+00  2.58043E+00  2.64322E+00  2.70753E+00  2.77341E+00
#           2.84088E+00  2.91001E+00  2.98081E+00  3.05333E+00  3.12762E+00
#           3.20372E+00  3.28167E+00  3.36152E+00  3.44330E+00  3.52708E+00
#           3.61290E+00  3.70080E+00  3.79085E+00  3.88308E+00  3.97756E+00
#           4.07434E+00  4.17347E+00  4.27501E+00  4.37903E+00  4.48557E+00
#           4.59471E+00  4.70650E+00  4.82102E+00  4.93832E+00  5.05847E+00
#           5.18155E+00  5.30762E+00  5.43676E+00  5.56904E+00  5.70453E+00
#           5.84333E+00  5.98550E+00  6.13114E+00  6.28031E+00  6.43312E+00
#           6.58964E+00  6.74997E+00  6.91420E+00  7.08243E+00  7.25475E+00
#           7.43126E+00  7.61207E+00  7.79728E+00  7.98700E+00  8.18133E+00
#           8.38038E+00  8.58428E+00  8.79315E+00  9.00709E+00  9.22624E+00
#           9.45072E+00  9.68067E+00  9.91620E+00  1.01575E+01  1.04046E+01
#           1.06578E+01  1.09171E+01  1.11827E+01  1.14548E+01  1.17335E+01
#           1.20190E+01  1.23114E+01  1.26109E+01  1.29178E+01  1.32321E+01
#           1.35540E+01  1.38838E+01  1.42216E+01  1.45676E+01  1.49221E+01
#           1.52851E+01  1.56570E+01  1.60380E+01  1.64282E+01  1.68279E+01
#           1.72374E+01  1.76568E+01  1.80864E+01  1.85264E+01  1.89772E+01
#           1.94389E+01  1.99119E+01  2.03963E+01  2.08926E+01  2.14009E+01
#           2.19216E+01  2.24550E+01  2.30014E+01  2.35610E+01  2.41343E+01
#           2.47215E+01  2.53230E+01  2.59391E+01  2.65702E+01  2.72167E+01
#           2.78789E+01  2.85572E+01  2.92520E+01  2.99637E+01  3.06928E+01
#           3.14396E+01  3.22045E+01  3.29881E+01  3.37907E+01  3.46128E+01
#           3.54550E+01  3.63177E+01  3.72013E+01  3.81064E+01  3.90336E+01
#           3.99833E+01  4.09561E+01  4.19526E+01  4.29734E+01  4.40189E+01
#           4.50900E+01  4.61870E+01  4.73108E+01  4.84619E+01  4.96410E+01
#           5.08488E+01  5.20860E+01  5.33533E+01  5.46514E+01  5.59812E+01
#           5.73432E+01  5.87384E+01  6.01676E+01  6.16315E+01  6.31311E+01
#           6.46671E+01  6.62405E+01  6.78522E+01  6.95031E+01  7.11941E+01
#           7.29263E+01  7.47007E+01  7.65182E+01  7.83800E+01  8.02870E+01
#           8.22405E+01  8.42414E+01  8.62911E+01  8.83906E+01  9.05412E+01
#           9.27442E+01  9.50007E+01  9.73122E+01  9.96799E+01  1.02105E+02
#           1.04589E+02  1.07134E+02  1.09741E+02  1.12411E+02  1.15146E+02
#           1.17948E+02  1.20817E+02  1.23757E+02  1.26768E+02  1.29852E+02
#           1.33012E+02  1.36248E+02  1.39563E+02  1.42959E+02  1.46437E+02
#           1.50000E+02
     unit =    2            # unit is [1/cm^2/(MeV/n)/source]
     axis =  eng            # axis of output
     file = detector-01.out  # file name of output for the above axis
   output = f-curr          # surface crossing forward current spectrum
     part =  neutron  
# kf/name :  2112     
#    used :        main (  %)        temp (  %)       total (  %)
#  memory :         414 (  0)           0 (  0)         414 (  0)

#------------------------------------------------------------------------------
#newpage:
#   no. =    1   reg = 100 - 200

x: Energy [MeV/n]
y:  F-Curr [1/cm^2/(MeV/n)/source]         
p: xlog ylog afac(0.8) form(0.9)
h: n            x            y(neutron ),hh0l   n 
#  e-lower      e-upper      neutron     r.err 
   1.0000E-02   1.0243E-02   3.1841E-04  0.0507
   1.0243E-02   1.0493E-02   3.2036E-04  0.0500
   1.0493E-02   1.0748E-02   3.0152E-04  0.0508
   1.0748E-02   1.1009E-02   3.0132E-04  0.0503
   1.1009E-02   1.1277E-02   2.9863E-04  0.0499
   1.1277E-02   1.1552E-02   3.2082E-04  0.0476
   1.1552E-02   1.1833E-02   3.1275E-04  0.0476
   1.1833E-02   1.2121E-02   2.8372E-04  0.0493
   1.2121E-02   1.2415E-02   2.9050E-04  0.0483
   1.2415E-02   1.2718E-02   3.0560E-04  0.0464
   1.2718E-02   1.3027E-02   2.9266E-04  0.0469
   1.3027E-02   1.3344E-02   2.9606E-04  0.0461
   1.3344E-02   1.3669E-02   2.6885E-04  0.0478
   1.3669E-02   1.4001E-02   2.5794E-04  0.0482
   1.4001E-02   1.4342E-02   2.5355E-04  0.0481
   1.4342E-02   1.4691E-02   2.6006E-04  0.0469
   1.4691E-02   1.5048E-02   2.6230E-04  0.0462
   1.5048E-02   1.5414E-02   2.3959E-04  0.0477
   1.5414E-02   1.5789E-02   2.4268E-04  0.0468
   1.5789E-02   1.6174E-02   2.4809E-04  0.0458
   1.6174E-02   1.6567E-02   2.4758E-04  0.0452
   1.6567E-02   1.6970E-02   2.3576E-04  0.0458
   1.6970E-02   1.7383E-02   2.1332E-04  0.0476
   1.7383E-02   1.7806E-02   2.3018E-04  0.0452
   1.7806E-02   1.8239E-02   2.0181E-04  0.0478
   1.8239E-02   1.8683E-02   2.1866E-04  0.0454
   1.8683E-02   1.9138E-02   2.0790E-04  0.0459
   1.9138E-02   1.9603E-02   1.9077E-04  0.0474
   1.9603E-02   2.0080E-02   2.1496E-04  0.0441
   2.0080E-02   2.0569E-02   2.1268E-04  0.0438
   2.0569E-02   2.1069E-02   1.9262E-04  0.0455
   2.1069E-02   2.1582E-02   2.0097E-04  0.0440
   2.1582E-02   2.2107E-02   1.9695E-04  0.0439
   2.2107E-02   2.2645E-02   1.8466E-04  0.0448
   2.2645E-02   2.3196E-02   1.8028E-04  0.0448
   2.3196E-02   2.3760E-02   1.8206E-04  0.0441
   2.3760E-02   2.4338E-02   1.7602E-04  0.0443
   2.4338E-02   2.4930E-02   1.7997E-04  0.0432
   2.4930E-02   2.5537E-02   1.6856E-04  0.0442
   2.5537E-02   2.6158E-02   1.7268E-04  0.0431
   2.6158E-02   2.6795E-02   1.6971E-04  0.0430
   2.6795E-02   2.7447E-02   1.5469E-04  0.0444
   2.7447E-02   2.8114E-02   1.4768E-04  0.0449
   2.8114E-02   2.8799E-02   1.5615E-04  0.0432
   2.8799E-02   2.9499E-02   1.5124E-04  0.0434
   2.9499E-02   3.0217E-02   1.5537E-04  0.0423
   3.0217E-02   3.0952E-02   1.4580E-04  0.0431
   3.0952E-02   3.1705E-02   1.3932E-04  0.0435
   3.1705E-02   3.2477E-02   1.4332E-04  0.0425
   3.2477E-02   3.3267E-02   1.4573E-04  0.0416
   3.3267E-02   3.4076E-02   1.2882E-04  0.0437
   3.4076E-02   3.4905E-02   1.3231E-04  0.0426
   3.4905E-02   3.5755E-02   1.2557E-04  0.0432
   3.5755E-02   3.6625E-02   1.3157E-04  0.0417
   3.6625E-02   3.7516E-02   1.2634E-04  0.0421
   3.7516E-02   3.8428E-02   1.1612E-04  0.0434
   3.8428E-02   3.9363E-02   1.2814E-04  0.0407
   3.9363E-02   4.0321E-02   1.2197E-04  0.0413
   4.0321E-02   4.1302E-02   1.1148E-04  0.0427
   4.1302E-02   4.2307E-02   1.1360E-04  0.0418
   4.2307E-02   4.3337E-02   1.1185E-04  0.0416
   4.3337E-02   4.4391E-02   1.0680E-04  0.0420
   4.4391E-02   4.5471E-02   1.0987E-04  0.0410
   4.5471E-02   4.6577E-02   1.0722E-04  0.0410
   4.6577E-02   4.7711E-02   1.1079E-04  0.0399
   4.7711E-02   4.8871E-02   1.1058E-04  0.0394
   4.8871E-02   5.0061E-02   1.0713E-04  0.0396
   5.0061E-02   5.1279E-02   1.0506E-04  0.0395
   5.1279E-02   5.2526E-02   1.0016E-04  0.0399
   5.2526E-02   5.3804E-02   1.0338E-04  0.0389
   5.3804E-02   5.5113E-02   9.3911E-05  0.0403
   5.5113E-02   5.6454E-02   9.8384E-05  0.0389
   5.6454E-02   5.7828E-02   8.8983E-05  0.0404
   5.7828E-02   5.9235E-02   8.8456E-05  0.0400
   5.9235E-02   6.0676E-02   8.8064E-05  0.0397
   6.0676E-02   6.2152E-02   8.9093E-05  0.0389
   6.2152E-02   6.3665E-02   8.9819E-05  0.0383
   6.3665E-02   6.5214E-02   8.1237E-05  0.0398
   6.5214E-02   6.6800E-02   8.3765E-05  0.0388
   6.6800E-02   6.8426E-02   8.4286E-05  0.0381
   6.8426E-02   7.0090E-02   7.7857E-05  0.0392
   7.0090E-02   7.1796E-02   8.1081E-05  0.0380
   7.1796E-02   7.3543E-02   7.6436E-05  0.0386
   7.3543E-02   7.5332E-02   7.6342E-05  0.0382
   7.5332E-02   7.7165E-02   7.6879E-05  0.0376
   7.7165E-02   7.9042E-02   7.3130E-05  0.0381
   7.9042E-02   8.0965E-02   7.0019E-05  0.0385
   8.0965E-02   8.2935E-02   6.6061E-05  0.0391
   8.2935E-02   8.4953E-02   7.2009E-05  0.0370
   8.4953E-02   8.7020E-02   6.6873E-05  0.0380
   8.7020E-02   8.9138E-02   6.4452E-05  0.0382
   8.9138E-02   9.1306E-02   6.3453E-05  0.0381
   9.1306E-02   9.3528E-02   6.4479E-05  0.0373
   9.3528E-02   9.5804E-02   6.0130E-05  0.0382
   9.5804E-02   9.8134E-02   6.1870E-05  0.0372
   9.8134E-02   1.0052E-01   5.7637E-05  0.0380
   1.0052E-01   1.0297E-01   5.5993E-05  0.0382
   1.0297E-01   1.0547E-01   5.4209E-05  0.0383
   1.0547E-01   1.0804E-01   5.3749E-05  0.0380
   1.0804E-01   1.1067E-01   5.2438E-05  0.0380
   1.1067E-01   1.1336E-01   5.5322E-05  0.0366
   1.1336E-01   1.1612E-01   4.9681E-05  0.0381
   1.1612E-01   1.1894E-01   5.3915E-05  0.0362
   1.1894E-01   1.2184E-01   5.1581E-05  0.0365
   1.2184E-01   1.2480E-01   4.9406E-05  0.0369
   1.2480E-01   1.2784E-01   4.8529E-05  0.0368
   1.2784E-01   1.3095E-01   4.2048E-05  0.0390
   1.3095E-01   1.3414E-01   4.7927E-05  0.0361
   1.3414E-01   1.3740E-01   4.7554E-05  0.0358
   1.3740E-01   1.4074E-01   4.3850E-05  0.0369
   1.4074E-01   1.4417E-01   4.1968E-05  0.0372
   1.4417E-01   1.4767E-01   4.1404E-05  0.0370
   1.4767E-01   1.5127E-01   4.1995E-05  0.0364
   1.5127E-01   1.5495E-01   4.0305E-05  0.0366
   1.5495E-01   1.5872E-01   4.0083E-05  0.0363
   1.5872E-01   1.6258E-01   3.8414E-05  0.0366
   1.6258E-01   1.6654E-01   3.7889E-05  0.0365
   1.6654E-01   1.7059E-01   3.8104E-05  0.0359
   1.7059E-01   1.7474E-01   3.7629E-05  0.0357
   1.7474E-01   1.7899E-01   3.8511E-05  0.0349
   1.7899E-01   1.8334E-01   3.4996E-05  0.0362
   1.8334E-01   1.8781E-01   3.3738E-05  0.0364
   1.8781E-01   1.9237E-01   3.3209E-05  0.0362
   1.9237E-01   1.9706E-01   2.8951E-05  0.0383
   1.9706E-01   2.0185E-01   3.0316E-05  0.0370
   2.0185E-01   2.0676E-01   3.3080E-05  0.0350
   2.0676E-01   2.1179E-01   3.2895E-05  0.0347
   2.1179E-01   2.1694E-01   3.2309E-05  0.0346
   2.1694E-01   2.2222E-01   3.4565E-05  0.0330
   2.2222E-01   2.2763E-01   3.6967E-05  0.0316
   2.2763E-01   2.3317E-01   3.7192E-05  0.0311
   2.3317E-01   2.3884E-01   3.7136E-05  0.0308
   2.3884E-01   2.4465E-01   3.9084E-05  0.0296
   2.4465E-01   2.5061E-01   3.8953E-05  0.0293
   2.5061E-01   2.5670E-01   3.8896E-05  0.0290
   2.5670E-01   2.6295E-01   4.1484E-05  0.0277
   2.6295E-01   2.6935E-01   4.1793E-05  0.0273
   2.6935E-01   2.7590E-01   4.2028E-05  0.0269
   2.7590E-01   2.8261E-01   4.2266E-05  0.0265
   2.8261E-01   2.8949E-01   4.5781E-05  0.0251
   2.8949E-01   2.9653E-01   4.4570E-05  0.0252
   2.9653E-01   3.0375E-01   4.7141E-05  0.0242
   3.0375E-01   3.1114E-01   4.7176E-05  0.0239
   3.1114E-01   3.1871E-01   4.6553E-05  0.0238
   3.1871E-01   3.2646E-01   4.7447E-05  0.0233
   3.2646E-01   3.3441E-01   5.0829E-05  0.0222
   3.3441E-01   3.4254E-01   4.6774E-05  0.0229
   3.4254E-01   3.5088E-01   4.8639E-05  0.0222
   3.5088E-01   3.5941E-01   5.0492E-05  0.0215
   3.5941E-01   3.6816E-01   5.0762E-05  0.0212
   3.6816E-01   3.7712E-01   5.1583E-05  0.0208
   3.7712E-01   3.8629E-01   5.2930E-05  0.0203
   3.8629E-01   3.9569E-01   5.1163E-05  0.0203
   3.9569E-01   4.0532E-01   5.4063E-05  0.0196
   4.0532E-01   4.1518E-01   5.2092E-05  0.0197
   4.1518E-01   4.2528E-01   5.2908E-05  0.0193
   4.2528E-01   4.3563E-01   5.4143E-05  0.0189
   4.3563E-01   4.4623E-01   5.3818E-05  0.0187
   4.4623E-01   4.5708E-01   5.3924E-05  0.0184
   4.5708E-01   4.6821E-01   5.4396E-05  0.0181
   4.6821E-01   4.7960E-01   5.8102E-05  0.0173
   4.7960E-01   4.9127E-01   5.5599E-05  0.0175
   4.9127E-01   5.0322E-01   5.5800E-05  0.0173
   5.0322E-01   5.1546E-01   5.5181E-05  0.0172
   5.1546E-01   5.2800E-01   5.7181E-05  0.0167
   5.2800E-01   5.4085E-01   5.7840E-05  0.0164
   5.4085E-01   5.5401E-01   5.6609E-05  0.0163
   5.5401E-01   5.6749E-01   5.5774E-05  0.0163
   5.6749E-01   5.8130E-01   5.7920E-05  0.0158
   5.8130E-01   5.9544E-01   5.7696E-05  0.0156
   5.9544E-01   6.0993E-01   5.9009E-05  0.0153
   6.0993E-01   6.2477E-01   5.8070E-05  0.0152
   6.2477E-01   6.3997E-01   5.6586E-05  0.0152
   6.3997E-01   6.5554E-01   5.7297E-05  0.0149
   6.5554E-01   6.7149E-01   5.7517E-05  0.0147
   6.7149E-01   6.8783E-01   5.7560E-05  0.0145
   6.8783E-01   7.0456E-01   5.6462E-05  0.0145
   7.0456E-01   7.2171E-01   5.7116E-05  0.0143
   7.2171E-01   7.3927E-01   5.7939E-05  0.0140
   7.3927E-01   7.5725E-01   5.7187E-05  0.0139
   7.5725E-01   7.7568E-01   5.8112E-05  0.0136
   7.7568E-01   7.9455E-01   5.5286E-05  0.0138
   7.9455E-01   8.1388E-01   5.6466E-05  0.0135
   8.1388E-01   8.3368E-01   5.4968E-05  0.0135
   8.3368E-01   8.5397E-01   5.5097E-05  0.0133
   8.5397E-01   8.7475E-01   5.4865E-05  0.0132
   8.7475E-01   8.9603E-01   5.3964E-05  0.0132
   8.9603E-01   9.1783E-01   5.2353E-05  0.0132
   9.1783E-01   9.4016E-01   5.0503E-05  0.0133
   9.4016E-01   9.6304E-01   5.0552E-05  0.0131
   9.6304E-01   9.8647E-01   4.9813E-05  0.0130
   9.8647E-01   1.0105E+00   4.7512E-05  0.0132
   1.0105E+00   1.0351E+00   4.7370E-05  0.0131
   1.0351E+00   1.0602E+00   4.7521E-05  0.0129
   1.0602E+00   1.0860E+00   4.6263E-05  0.0129
   1.0860E+00   1.1125E+00   4.7041E-05  0.0126
   1.1125E+00   1.1395E+00   4.5192E-05  0.0127
   1.1395E+00   1.1673E+00   4.5279E-05  0.0126
   1.1673E+00   1.1957E+00   4.6275E-05  0.0123
   1.1957E+00   1.2247E+00   4.6721E-05  0.0121
   1.2247E+00   1.2545E+00   4.5806E-05  0.0121
   1.2545E+00   1.2851E+00   4.5823E-05  0.0119
   1.2851E+00   1.3163E+00   4.5127E-05  0.0119
   1.3163E+00   1.3484E+00   4.5287E-05  0.0117
   1.3484E+00   1.3812E+00   4.5149E-05  0.0116
   1.3812E+00   1.4148E+00   4.4989E-05  0.0115
   1.4148E+00   1.4492E+00   4.5010E-05  0.0113
   1.4492E+00   1.4845E+00   4.3778E-05  0.0114
   1.4845E+00   1.5206E+00   4.5125E-05  0.0110
   1.5206E+00   1.5576E+00   4.3330E-05  0.0111
   1.5576E+00   1.5955E+00   4.2752E-05  0.0111
   1.5955E+00   1.6343E+00   4.1901E-05  0.0111
   1.6343E+00   1.6741E+00   4.1951E-05  0.0109
   1.6741E+00   1.7148E+00   4.2394E-05  0.0107
   1.7148E+00   1.7565E+00   4.1621E-05  0.0107
   1.7565E+00   1.7992E+00   4.1679E-05  0.0106
   1.7992E+00   1.8430E+00   4.1357E-05  0.0105
   1.8430E+00   1.8879E+00   4.0469E-05  0.0105
   1.8879E+00   1.9338E+00   3.9960E-05  0.0104
   1.9338E+00   1.9808E+00   3.9622E-05  0.0103
   1.9808E+00   2.0290E+00   3.9155E-05  0.0103
   2.0290E+00   2.0784E+00   3.7834E-05  0.0103
   2.0784E+00   2.1290E+00   3.7685E-05  0.0102
   2.1290E+00   2.1808E+00   3.7425E-05  0.0101
   2.1808E+00   2.2338E+00   3.6589E-05  0.0101
   2.2338E+00   2.2882E+00   3.7511E-05  0.0099
   2.2882E+00   2.3439E+00   3.6769E-05  0.0099
   2.3439E+00   2.4009E+00   3.6054E-05  0.0098
   2.4009E+00   2.4593E+00   3.5994E-05  0.0097
   2.4593E+00   2.5191E+00   3.5916E-05  0.0096
   2.5191E+00   2.5804E+00   3.5230E-05  0.0096
   2.5804E+00   2.6432E+00   3.4654E-05  0.0096
   2.6432E+00   2.7075E+00   3.3521E-05  0.0096
   2.7075E+00   2.7734E+00   3.3279E-05  0.0095
   2.7734E+00   2.8409E+00   3.3310E-05  0.0094
   2.8409E+00   2.9100E+00   3.3250E-05  0.0093
   2.9100E+00   2.9808E+00   3.2874E-05  0.0092
   2.9808E+00   3.0533E+00   3.2724E-05  0.0091
   3.0533E+00   3.1276E+00   3.2446E-05  0.0091
   3.1276E+00   3.2037E+00   3.2250E-05  0.0090
   3.2037E+00   3.2817E+00   3.1874E-05  0.0089
   3.2817E+00   3.3615E+00   3.0810E-05  0.0090
   3.3615E+00   3.4433E+00   3.0822E-05  0.0089
   3.4433E+00   3.5271E+00   3.0375E-05  0.0088
   3.5271E+00   3.6129E+00   2.9844E-05  0.0088
   3.6129E+00   3.7008E+00   2.9654E-05  0.0087
   3.7008E+00   3.7908E+00   2.8747E-05  0.0088
   3.7908E+00   3.8831E+00   2.8814E-05  0.0087
   3.8831E+00   3.9776E+00   2.8153E-05  0.0086
   3.9776E+00   4.0743E+00   2.7941E-05  0.0086
   4.0743E+00   4.1735E+00   2.7605E-05  0.0085
   4.1735E+00   4.2750E+00   2.6903E-05  0.0085
   4.2750E+00   4.3790E+00   2.6750E-05  0.0085
   4.3790E+00   4.4856E+00   2.6274E-05  0.0084
   4.4856E+00   4.5947E+00   2.6244E-05  0.0083
   4.5947E+00   4.7065E+00   2.6034E-05  0.0083
   4.7065E+00   4.8210E+00   2.6345E-05  0.0081
   4.8210E+00   4.9383E+00   2.5182E-05  0.0082
   4.9383E+00   5.0585E+00   2.5566E-05  0.0080
   5.0585E+00   5.1815E+00   2.4659E-05  0.0081
   5.1815E+00   5.3076E+00   2.4534E-05  0.0080
   5.3076E+00   5.4368E+00   2.4344E-05  0.0080
   5.4368E+00   5.5690E+00   2.3405E-05  0.0080
   5.5690E+00   5.7045E+00   2.3354E-05  0.0079
   5.7045E+00   5.8433E+00   2.2524E-05  0.0080
   5.8433E+00   5.9855E+00   2.2374E-05  0.0079
   5.9855E+00   6.1311E+00   2.2318E-05  0.0078
   6.1311E+00   6.2803E+00   2.1874E-05  0.0078
   6.2803E+00   6.4331E+00   2.1785E-05  0.0077
   6.4331E+00   6.5896E+00   2.1051E-05  0.0078
   6.5896E+00   6.7500E+00   2.1180E-05  0.0077
   6.7500E+00   6.9142E+00   2.0664E-05  0.0077
   6.9142E+00   7.0824E+00   2.0678E-05  0.0076
   7.0824E+00   7.2548E+00   2.0049E-05  0.0076
   7.2548E+00   7.4313E+00   1.9449E-05  0.0076
   7.4313E+00   7.6121E+00   1.9459E-05  0.0075
   7.6121E+00   7.7973E+00   1.9428E-05  0.0074
   7.7973E+00   7.9870E+00   1.9216E-05  0.0074
   7.9870E+00   8.1813E+00   1.8825E-05  0.0074
   8.1813E+00   8.3804E+00   1.8471E-05  0.0074
   8.3804E+00   8.5843E+00   1.8318E-05  0.0073
   8.5843E+00   8.7931E+00   1.8057E-05  0.0073
   8.7931E+00   9.0071E+00   1.7799E-05  0.0072
   9.0071E+00   9.2262E+00   1.7659E-05  0.0072
   9.2262E+00   9.4507E+00   1.7484E-05  0.0071
   9.4507E+00   9.6807E+00   1.7312E-05  0.0071
   9.6807E+00   9.9162E+00   1.7092E-05  0.0070
   9.9162E+00   1.0157E+01   1.6944E-05  0.0070
   1.0157E+01   1.0405E+01   1.6905E-05  0.0069
   1.0405E+01   1.0658E+01   1.7075E-05  0.0068
   1.0658E+01   1.0917E+01   1.6842E-05  0.0068
   1.0917E+01   1.1183E+01   1.6814E-05  0.0067
   1.1183E+01   1.1455E+01   1.6769E-05  0.0066
   1.1455E+01   1.1733E+01   1.6900E-05  0.0065
   1.1733E+01   1.2019E+01   1.6824E-05  0.0065
   1.2019E+01   1.2311E+01   1.6835E-05  0.0064
   1.2311E+01   1.2611E+01   1.6910E-05  0.0063
   1.2611E+01   1.2918E+01   1.6792E-05  0.0062
   1.2918E+01   1.3232E+01   1.7027E-05  0.0061
   1.3232E+01   1.3554E+01   1.7082E-05  0.0060
   1.3554E+01   1.3884E+01   1.7126E-05  0.0060
   1.3884E+01   1.4222E+01   1.7267E-05  0.0059
   1.4222E+01   1.4568E+01   1.7404E-05  0.0058
   1.4568E+01   1.4922E+01   1.7833E-05  0.0056
   1.4922E+01   1.5285E+01   1.7972E-05  0.0055
   1.5285E+01   1.5657E+01   1.8233E-05  0.0054
   1.5657E+01   1.6038E+01   1.8764E-05  0.0053
   1.6038E+01   1.6428E+01   1.9038E-05  0.0052
   1.6428E+01   1.6828E+01   1.9371E-05  0.0051
   1.6828E+01   1.7237E+01   2.0108E-05  0.0049
   1.7237E+01   1.7657E+01   2.0490E-05  0.0048
   1.7657E+01   1.8086E+01   2.1173E-05  0.0047
   1.8086E+01   1.8526E+01   2.1853E-05  0.0046
   1.8526E+01   1.8977E+01   2.2470E-05  0.0044
   1.8977E+01   1.9439E+01   2.3381E-05  0.0043
   1.9439E+01   1.9912E+01   2.4456E-05  0.0042
   1.9912E+01   2.0396E+01   2.5675E-05  0.0040
   2.0396E+01   2.0893E+01   2.6957E-05  0.0039
   2.0893E+01   2.1401E+01   2.8284E-05  0.0037
   2.1401E+01   2.1922E+01   2.9413E-05  0.0036
   2.1922E+01   2.2455E+01   3.0927E-05  0.0035
   2.2455E+01   2.3001E+01   3.2516E-05  0.0034
   2.3001E+01   2.3561E+01   3.4311E-05  0.0032
   2.3561E+01   2.4134E+01   3.6185E-05  0.0031
   2.4134E+01   2.4721E+01   3.8406E-05  0.0030
   2.4721E+01   2.5323E+01   4.0615E-05  0.0029
   2.5323E+01   2.5939E+01   4.3128E-05  0.0027
   2.5939E+01   2.6570E+01   4.5719E-05  0.0026
   2.6570E+01   2.7217E+01   4.8973E-05  0.0025
   2.7217E+01   2.7879E+01   5.2314E-05  0.0024
   2.7879E+01   2.8557E+01   5.5898E-05  0.0023
   2.8557E+01   2.9252E+01   5.9755E-05  0.0022
   2.9252E+01   2.9964E+01   6.4145E-05  0.0021
   2.9964E+01   3.0693E+01   6.8884E-05  0.0020
   3.0693E+01   3.1440E+01   7.4043E-05  0.0019
   3.1440E+01   3.2205E+01   7.9815E-05  0.0018
   3.2205E+01   3.2988E+01   8.5931E-05  0.0017
   3.2988E+01   3.3791E+01   9.2766E-05  0.0016
   3.3791E+01   3.4613E+01   1.0023E-04  0.0016
   3.4613E+01   3.5455E+01   1.0818E-04  0.0015
   3.5455E+01   3.6318E+01   1.1657E-04  0.0014
   3.6318E+01   3.7201E+01   1.2550E-04  0.0013
   3.7201E+01   3.8106E+01   1.3563E-04  0.0013
   3.8106E+01   3.9034E+01   1.4540E-04  0.0012
   3.9034E+01   3.9983E+01   1.5559E-04  0.0012
   3.9983E+01   4.0956E+01   1.6624E-04  0.0011
   4.0956E+01   4.1953E+01   1.7691E-04  0.0011
   4.1953E+01   4.2973E+01   1.8646E-04  0.0010
   4.2973E+01   4.4019E+01   1.9610E-04  0.0010
   4.4019E+01   4.5090E+01   2.0477E-04  0.0010
   4.5090E+01   4.6187E+01   2.1219E-04  0.0009
   4.6187E+01   4.7311E+01   2.1739E-04  0.0009
   4.7311E+01   4.8462E+01   2.2089E-04  0.0009
   4.8462E+01   4.9641E+01   2.2276E-04  0.0009
   4.9641E+01   5.0849E+01   2.2206E-04  0.0009
   5.0849E+01   5.2086E+01   2.1880E-04  0.0009
   5.2086E+01   5.3353E+01   2.1329E-04  0.0009
   5.3353E+01   5.4651E+01   2.0547E-04  0.0009
   5.4651E+01   5.5981E+01   1.9564E-04  0.0009
   5.5981E+01   5.7343E+01   1.8349E-04  0.0009
   5.7343E+01   5.8738E+01   1.7025E-04  0.0009
   5.8738E+01   6.0168E+01   1.5598E-04  0.0009
   6.0168E+01   6.1632E+01   1.4095E-04  0.0010
   6.1632E+01   6.3131E+01   1.2651E-04  0.0010
   6.3131E+01   6.4667E+01   1.1179E-04  0.0011
   6.4667E+01   6.6240E+01   9.8510E-05  0.0011
   6.6240E+01   6.7852E+01   8.5741E-05  0.0012
   6.7852E+01   6.9503E+01   7.4239E-05  0.0013
   6.9503E+01   7.1194E+01   6.3894E-05  0.0014
   7.1194E+01   7.2926E+01   5.5082E-05  0.0014
   7.2926E+01   7.4701E+01   4.7158E-05  0.0015
   7.4701E+01   7.6518E+01   4.0275E-05  0.0017
   7.6518E+01   7.8380E+01   3.4296E-05  0.0018
   7.8380E+01   8.0287E+01   2.9229E-05  0.0019
   8.0287E+01   8.2240E+01   2.4809E-05  0.0020
   8.2240E+01   8.4241E+01   2.1366E-05  0.0022
   8.4241E+01   8.6291E+01   1.8415E-05  0.0023
   8.6291E+01   8.8391E+01   1.5802E-05  0.0025
   8.8391E+01   9.0541E+01   1.3558E-05  0.0026
   9.0541E+01   9.2744E+01   1.1811E-05  0.0028
   9.2744E+01   9.5001E+01   1.0474E-05  0.0029
   9.5001E+01   9.7312E+01   9.3853E-06  0.0030
   9.7312E+01   9.9680E+01   8.2192E-06  0.0032
   9.9680E+01   1.0211E+02   7.1033E-06  0.0034
   1.0211E+02   1.0459E+02   6.0813E-06  0.0036
   1.0459E+02   1.0713E+02   5.1934E-06  0.0039
   1.0713E+02   1.0974E+02   4.4372E-06  0.0042
   1.0974E+02   1.1241E+02   3.7882E-06  0.0044
   1.1241E+02   1.1515E+02   3.1321E-06  0.0048
   1.1515E+02   1.1795E+02   2.4694E-06  0.0054
   1.1795E+02   1.2082E+02   1.9748E-06  0.0059
   1.2082E+02   1.2376E+02   1.4525E-06  0.0068
   1.2376E+02   1.2677E+02   7.6729E-07  0.0093
   1.2677E+02   1.2985E+02   1.7242E-07  0.0194
   1.2985E+02   1.3301E+02   9.3055E-09  0.0825
   1.3301E+02   1.3625E+02   0.0000E+00  0.0000
   1.3625E+02   1.3956E+02   0.0000E+00  0.0000
   1.3956E+02   1.4296E+02   0.0000E+00  0.0000
   1.4296E+02   1.4644E+02   0.0000E+00  0.0000
   1.4644E+02   1.5000E+02   0.0000E+00  0.0000

#   sum over                 5.2249E-05
'no. =    1   reg = 100 - 200'
msuc: {\huge [t-cross] in region mesh}
msdr: {\it plotted by \ANGEL \version}
msdl: {\it calculated by \PHITS  3.28}
wt: s(0.7)
\vspace{-3}
  region surface crossing
  area  &=&   1.0000E+00 [cm^2]
e:
 
# Information for Restart Calculation
# This calculation was newly started
# istdev =  2 # 1:Batch variance, 2:History variance
# resc2  = 5.00000000000000000E+09 # Total source weight or Total source weight / maxcas
# resc3  = 5.00000000000000000E+09 # Total history number or Total batch number
# maxcas =   500000000 # History / Batch, only used for istdev=1
# bitrseed = 0110100000100010111000001110001111001110100100011111101000111001 # bit data of rseed
