[ T-Cross ]
    title = [t-cross] in region mesh
     mesh =  reg            # mesh type is region-wise
      reg =    1            # number of crossing regions
      non     r-from    r-to       area
      1       107       207        1.000000    
   e-type =    3            # e-mesh is log given by emin, emax and ne
     emin =  1.0000000E-02  # minimum value of e-mesh points
     emax =   150.0000      # maximum value of e-mesh points
#    edel =  2.4039514E-02  # mesh width of e-mesh points
       ne =    400          # number of e-mesh points
#    data = ( e(i), i = 1, ne + 1 )
#           1.00000E-02  1.02433E-02  1.04925E-02  1.07478E-02  1.10093E-02
#           1.12772E-02  1.15516E-02  1.18326E-02  1.21205E-02  1.24154E-02
#           1.27175E-02  1.30269E-02  1.33439E-02  1.36686E-02  1.40011E-02
#           1.43418E-02  1.46907E-02  1.50482E-02  1.54143E-02  1.57894E-02
#           1.61735E-02  1.65670E-02  1.69701E-02  1.73830E-02  1.78060E-02
#           1.82392E-02  1.86830E-02  1.91375E-02  1.96032E-02  2.00801E-02
#           2.05687E-02  2.10692E-02  2.15818E-02  2.21069E-02  2.26448E-02
#           2.31957E-02  2.37601E-02  2.43382E-02  2.49304E-02  2.55369E-02
#           2.61583E-02  2.67947E-02  2.74467E-02  2.81145E-02  2.87985E-02
#           2.94992E-02  3.02169E-02  3.09521E-02  3.17052E-02  3.24766E-02
#           3.32668E-02  3.40762E-02  3.49053E-02  3.57546E-02  3.66246E-02
#           3.75157E-02  3.84284E-02  3.93634E-02  4.03212E-02  4.13022E-02
#           4.23071E-02  4.33365E-02  4.43909E-02  4.54710E-02  4.65773E-02
#           4.77106E-02  4.88714E-02  5.00605E-02  5.12785E-02  5.25262E-02
#           5.38042E-02  5.51133E-02  5.64542E-02  5.78278E-02  5.92348E-02
#           6.06760E-02  6.21523E-02  6.36645E-02  6.52135E-02  6.68002E-02
#           6.84255E-02  7.00904E-02  7.17957E-02  7.35426E-02  7.53319E-02
#           7.71648E-02  7.90423E-02  8.09655E-02  8.29354E-02  8.49533E-02
#           8.70203E-02  8.91376E-02  9.13064E-02  9.35279E-02  9.58035E-02
#           9.81345E-02  1.00522E-01  1.02968E-01  1.05473E-01  1.08040E-01
#           1.10668E-01  1.13361E-01  1.16119E-01  1.18944E-01  1.21838E-01
#           1.24803E-01  1.27839E-01  1.30950E-01  1.34136E-01  1.37399E-01
#           1.40742E-01  1.44167E-01  1.47675E-01  1.51268E-01  1.54948E-01
#           1.58718E-01  1.62580E-01  1.66535E-01  1.70587E-01  1.74738E-01
#           1.78989E-01  1.83344E-01  1.87805E-01  1.92375E-01  1.97055E-01
#           2.01850E-01  2.06761E-01  2.11792E-01  2.16945E-01  2.22223E-01
#           2.27630E-01  2.33169E-01  2.38842E-01  2.44653E-01  2.50605E-01
#           2.56703E-01  2.62949E-01  2.69346E-01  2.75900E-01  2.82613E-01
#           2.89489E-01  2.96532E-01  3.03747E-01  3.11138E-01  3.18708E-01
#           3.26462E-01  3.34405E-01  3.42542E-01  3.50876E-01  3.59413E-01
#           3.68158E-01  3.77116E-01  3.86291E-01  3.95690E-01  4.05317E-01
#           4.15179E-01  4.25281E-01  4.35628E-01  4.46227E-01  4.57084E-01
#           4.68205E-01  4.79597E-01  4.91266E-01  5.03219E-01  5.15463E-01
#           5.28005E-01  5.40851E-01  5.54011E-01  5.67490E-01  5.81298E-01
#           5.95441E-01  6.09929E-01  6.24769E-01  6.39970E-01  6.55541E-01
#           6.71491E-01  6.87828E-01  7.04564E-01  7.21706E-01  7.39266E-01
#           7.57253E-01  7.75678E-01  7.94551E-01  8.13883E-01  8.33685E-01
#           8.53969E-01  8.74747E-01  8.96030E-01  9.17831E-01  9.40163E-01
#           9.63038E-01  9.86469E-01  1.01047E+00  1.03506E+00  1.06024E+00
#           1.08604E+00  1.11246E+00  1.13953E+00  1.16725E+00  1.19565E+00
#           1.22474E+00  1.25454E+00  1.28507E+00  1.31633E+00  1.34836E+00
#           1.38117E+00  1.41477E+00  1.44920E+00  1.48446E+00  1.52057E+00
#           1.55757E+00  1.59547E+00  1.63429E+00  1.67405E+00  1.71478E+00
#           1.75650E+00  1.79924E+00  1.84302E+00  1.88786E+00  1.93379E+00
#           1.98084E+00  2.02904E+00  2.07841E+00  2.12898E+00  2.18078E+00
#           2.23384E+00  2.28819E+00  2.34386E+00  2.40089E+00  2.45930E+00
#           2.51914E+00  2.58043E+00  2.64322E+00  2.70753E+00  2.77341E+00
#           2.84088E+00  2.91001E+00  2.98081E+00  3.05333E+00  3.12762E+00
#           3.20372E+00  3.28167E+00  3.36152E+00  3.44330E+00  3.52708E+00
#           3.61290E+00  3.70080E+00  3.79085E+00  3.88308E+00  3.97756E+00
#           4.07434E+00  4.17347E+00  4.27501E+00  4.37903E+00  4.48557E+00
#           4.59471E+00  4.70650E+00  4.82102E+00  4.93832E+00  5.05847E+00
#           5.18155E+00  5.30762E+00  5.43676E+00  5.56904E+00  5.70453E+00
#           5.84333E+00  5.98550E+00  6.13114E+00  6.28031E+00  6.43312E+00
#           6.58964E+00  6.74997E+00  6.91420E+00  7.08243E+00  7.25475E+00
#           7.43126E+00  7.61207E+00  7.79728E+00  7.98700E+00  8.18133E+00
#           8.38038E+00  8.58428E+00  8.79315E+00  9.00709E+00  9.22624E+00
#           9.45072E+00  9.68067E+00  9.91620E+00  1.01575E+01  1.04046E+01
#           1.06578E+01  1.09171E+01  1.11827E+01  1.14548E+01  1.17335E+01
#           1.20190E+01  1.23114E+01  1.26109E+01  1.29178E+01  1.32321E+01
#           1.35540E+01  1.38838E+01  1.42216E+01  1.45676E+01  1.49221E+01
#           1.52851E+01  1.56570E+01  1.60380E+01  1.64282E+01  1.68279E+01
#           1.72374E+01  1.76568E+01  1.80864E+01  1.85264E+01  1.89772E+01
#           1.94389E+01  1.99119E+01  2.03963E+01  2.08926E+01  2.14009E+01
#           2.19216E+01  2.24550E+01  2.30014E+01  2.35610E+01  2.41343E+01
#           2.47215E+01  2.53230E+01  2.59391E+01  2.65702E+01  2.72167E+01
#           2.78789E+01  2.85572E+01  2.92520E+01  2.99637E+01  3.06928E+01
#           3.14396E+01  3.22045E+01  3.29881E+01  3.37907E+01  3.46128E+01
#           3.54550E+01  3.63177E+01  3.72013E+01  3.81064E+01  3.90336E+01
#           3.99833E+01  4.09561E+01  4.19526E+01  4.29734E+01  4.40189E+01
#           4.50900E+01  4.61870E+01  4.73108E+01  4.84619E+01  4.96410E+01
#           5.08488E+01  5.20860E+01  5.33533E+01  5.46514E+01  5.59812E+01
#           5.73432E+01  5.87384E+01  6.01676E+01  6.16315E+01  6.31311E+01
#           6.46671E+01  6.62405E+01  6.78522E+01  6.95031E+01  7.11941E+01
#           7.29263E+01  7.47007E+01  7.65182E+01  7.83800E+01  8.02870E+01
#           8.22405E+01  8.42414E+01  8.62911E+01  8.83906E+01  9.05412E+01
#           9.27442E+01  9.50007E+01  9.73122E+01  9.96799E+01  1.02105E+02
#           1.04589E+02  1.07134E+02  1.09741E+02  1.12411E+02  1.15146E+02
#           1.17948E+02  1.20817E+02  1.23757E+02  1.26768E+02  1.29852E+02
#           1.33012E+02  1.36248E+02  1.39563E+02  1.42959E+02  1.46437E+02
#           1.50000E+02
     unit =    2            # unit is [1/cm^2/(MeV/n)/source]
     axis =  eng            # axis of output
     file = detector-08.out  # file name of output for the above axis
   output = f-curr          # surface crossing forward current spectrum
     part =  neutron  
# kf/name :  2112     
#    used :        main (  %)        temp (  %)       total (  %)
#  memory :         414 (  0)           0 (  0)         414 (  0)

#------------------------------------------------------------------------------
#newpage:
#   no. =    1   reg = 107 - 207

x: Energy [MeV/n]
y:  F-Curr [1/cm^2/(MeV/n)/source]         
p: xlog ylog afac(0.8) form(0.9)
h: n            x            y(neutron ),hh0l   n 
#  e-lower      e-upper      neutron     r.err 
   1.0000E-02   1.0243E-02   3.3108E-03  0.0351
   1.0243E-02   1.0493E-02   3.1360E-03  0.0356
   1.0493E-02   1.0748E-02   3.2247E-03  0.0347
   1.0748E-02   1.1009E-02   3.2218E-03  0.0343
   1.1009E-02   1.1277E-02   2.9722E-03  0.0353
   1.1277E-02   1.1552E-02   3.1737E-03  0.0338
   1.1552E-02   1.1833E-02   2.8747E-03  0.0350
   1.1833E-02   1.2121E-02   2.9985E-03  0.0339
   1.2121E-02   1.2415E-02   2.7551E-03  0.0349
   1.2415E-02   1.2718E-02   2.7597E-03  0.0345
   1.2718E-02   1.3027E-02   2.6192E-03  0.0350
   1.3027E-02   1.3344E-02   2.6313E-03  0.0344
   1.3344E-02   1.3669E-02   2.6654E-03  0.0338
   1.3669E-02   1.4001E-02   2.4794E-03  0.0347
   1.4001E-02   1.4342E-02   2.6995E-03  0.0328
   1.4342E-02   1.4691E-02   2.3925E-03  0.0344
   1.4691E-02   1.5048E-02   2.4199E-03  0.0339
   1.5048E-02   1.5414E-02   2.3396E-03  0.0340
   1.5414E-02   1.5789E-02   2.4611E-03  0.0328
   1.5789E-02   1.6174E-02   2.1916E-03  0.0343
   1.6174E-02   1.6567E-02   2.2426E-03  0.0335
   1.6567E-02   1.6970E-02   2.2416E-03  0.0332
   1.6970E-02   1.7383E-02   2.2830E-03  0.0324
   1.7383E-02   1.7806E-02   2.0904E-03  0.0335
   1.7806E-02   1.8239E-02   1.9900E-03  0.0339
   1.8239E-02   1.8683E-02   1.9810E-03  0.0336
   1.8683E-02   1.9138E-02   1.9195E-03  0.0337
   1.9138E-02   1.9603E-02   1.8784E-03  0.0336
   1.9603E-02   2.0080E-02   1.9165E-03  0.0329
   2.0080E-02   2.0569E-02   1.9334E-03  0.0324
   2.0569E-02   2.1069E-02   1.7138E-03  0.0340
   2.1069E-02   2.1582E-02   1.7031E-03  0.0337
   2.1582E-02   2.2107E-02   1.6477E-03  0.0339
   2.2107E-02   2.2645E-02   1.7474E-03  0.0325
   2.2645E-02   2.3196E-02   1.6903E-03  0.0326
   2.3196E-02   2.3760E-02   1.7074E-03  0.0321
   2.3760E-02   2.4338E-02   1.5974E-03  0.0328
   2.4338E-02   2.4930E-02   1.5744E-03  0.0326
   2.4930E-02   2.5537E-02   1.4197E-03  0.0339
   2.5537E-02   2.6158E-02   1.5262E-03  0.0323
   2.6158E-02   2.6795E-02   1.4754E-03  0.0325
   2.6795E-02   2.7447E-02   1.4284E-03  0.0326
   2.7447E-02   2.8114E-02   1.3329E-03  0.0333
   2.8114E-02   2.8799E-02   1.3578E-03  0.0327
   2.8799E-02   2.9499E-02   1.3854E-03  0.0319
   2.9499E-02   3.0217E-02   1.3342E-03  0.0321
   3.0217E-02   3.0952E-02   1.2827E-03  0.0324
   3.0952E-02   3.1705E-02   1.2396E-03  0.0326
   3.1705E-02   3.2477E-02   1.3029E-03  0.0314
   3.2477E-02   3.3267E-02   1.2174E-03  0.0321
   3.3267E-02   3.4076E-02   1.2528E-03  0.0313
   3.4076E-02   3.4905E-02   1.1425E-03  0.0323
   3.4905E-02   3.5755E-02   1.1252E-03  0.0322
   3.5755E-02   3.6625E-02   1.2334E-03  0.0304
   3.6625E-02   3.7516E-02   1.0491E-03  0.0325
   3.7516E-02   3.8428E-02   1.1469E-03  0.0307
   3.8428E-02   3.9363E-02   1.0690E-03  0.0315
   3.9363E-02   4.0321E-02   1.0819E-03  0.0309
   4.0321E-02   4.1302E-02   1.0906E-03  0.0304
   4.1302E-02   4.2307E-02   9.8129E-04  0.0317
   4.2307E-02   4.3337E-02   9.5256E-04  0.0318
   4.3337E-02   4.4391E-02   9.4732E-04  0.0315
   4.4391E-02   4.5471E-02   9.1475E-04  0.0316
   4.5471E-02   4.6577E-02   9.2759E-04  0.0311
   4.6577E-02   4.7711E-02   9.1861E-04  0.0308
   4.7711E-02   4.8871E-02   8.3419E-04  0.0320
   4.8871E-02   5.0061E-02   9.0874E-04  0.0303
   5.0061E-02   5.1279E-02   8.5187E-04  0.0309
   5.1279E-02   5.2526E-02   8.4222E-04  0.0307
   5.2526E-02   5.3804E-02   8.0886E-04  0.0309
   5.3804E-02   5.5113E-02   7.8774E-04  0.0310
   5.5113E-02   5.6454E-02   7.8324E-04  0.0307
   5.6454E-02   5.7828E-02   7.6232E-04  0.0307
   5.7828E-02   5.9235E-02   7.3396E-04  0.0309
   5.9235E-02   6.0676E-02   7.4072E-04  0.0304
   6.0676E-02   6.2152E-02   7.6827E-04  0.0296
   6.2152E-02   6.3665E-02   7.3276E-04  0.0299
   6.3665E-02   6.5214E-02   7.0030E-04  0.0302
   6.5214E-02   6.6800E-02   7.1087E-04  0.0297
   6.6800E-02   6.8426E-02   6.7348E-04  0.0301
   6.8426E-02   7.0090E-02   6.6640E-04  0.0299
   7.0090E-02   7.1796E-02   6.5975E-04  0.0297
   7.1796E-02   7.3543E-02   6.4074E-04  0.0297
   7.3543E-02   7.5332E-02   6.1277E-04  0.0300
   7.5332E-02   7.7165E-02   5.9352E-04  0.0302
   7.7165E-02   7.9042E-02   5.9639E-04  0.0297
   7.9042E-02   8.0965E-02   6.0222E-04  0.0292
   8.0965E-02   8.2935E-02   5.8058E-04  0.0294
   8.2935E-02   8.4953E-02   5.6058E-04  0.0296
   8.4953E-02   8.7020E-02   5.4011E-04  0.0298
   8.7020E-02   8.9138E-02   5.4964E-04  0.0292
   8.9138E-02   9.1306E-02   5.1777E-04  0.0297
   9.1306E-02   9.3528E-02   4.9266E-04  0.0300
   9.3528E-02   9.5804E-02   5.0058E-04  0.0295
   9.5804E-02   9.8134E-02   4.9058E-04  0.0294
   9.8134E-02   1.0052E-01   5.1246E-04  0.0285
   1.0052E-01   1.0297E-01   4.8557E-04  0.0289
   1.0297E-01   1.0547E-01   4.5736E-04  0.0294
   1.0547E-01   1.0804E-01   4.4851E-04  0.0293
   1.0804E-01   1.1067E-01   4.5645E-04  0.0287
   1.1067E-01   1.1336E-01   4.3615E-04  0.0290
   1.1336E-01   1.1612E-01   4.2577E-04  0.0290
   1.1612E-01   1.1894E-01   4.2062E-04  0.0289
   1.1894E-01   1.2184E-01   4.1786E-04  0.0286
   1.2184E-01   1.2480E-01   4.2401E-04  0.0281
   1.2480E-01   1.2784E-01   3.9032E-04  0.0289
   1.2784E-01   1.3095E-01   3.9686E-04  0.0283
   1.3095E-01   1.3414E-01   3.9796E-04  0.0280
   1.3414E-01   1.3740E-01   3.6425E-04  0.0289
   1.3740E-01   1.4074E-01   3.6189E-04  0.0286
   1.4074E-01   1.4417E-01   3.5540E-04  0.0285
   1.4417E-01   1.4767E-01   3.3831E-04  0.0289
   1.4767E-01   1.5127E-01   3.3777E-04  0.0286
   1.5127E-01   1.5495E-01   3.4276E-04  0.0280
   1.5495E-01   1.5872E-01   3.2040E-04  0.0287
   1.5872E-01   1.6258E-01   3.1021E-04  0.0287
   1.6258E-01   1.6654E-01   2.9955E-04  0.0289
   1.6654E-01   1.7059E-01   2.9129E-04  0.0289
   1.7059E-01   1.7474E-01   2.8607E-04  0.0289
   1.7474E-01   1.7899E-01   2.8901E-04  0.0284
   1.7899E-01   1.8334E-01   2.8944E-04  0.0280
   1.8334E-01   1.8781E-01   2.8416E-04  0.0280
   1.8781E-01   1.9237E-01   2.7362E-04  0.0281
   1.9237E-01   1.9706E-01   2.6806E-04  0.0281
   1.9706E-01   2.0185E-01   2.6423E-04  0.0279
   2.0185E-01   2.0676E-01   2.7181E-04  0.0272
   2.0676E-01   2.1179E-01   2.9486E-04  0.0258
   2.1179E-01   2.1694E-01   2.8106E-04  0.0261
   2.1694E-01   2.2222E-01   3.0054E-04  0.0250
   2.2222E-01   2.2763E-01   3.0753E-04  0.0244
   2.2763E-01   2.3317E-01   3.1485E-04  0.0238
   2.3317E-01   2.3884E-01   3.2121E-04  0.0233
   2.3884E-01   2.4465E-01   3.3292E-04  0.0226
   2.4465E-01   2.5061E-01   3.5799E-04  0.0216
   2.5061E-01   2.5670E-01   3.6683E-04  0.0211
   2.5670E-01   2.6295E-01   3.7443E-04  0.0206
   2.6295E-01   2.6935E-01   3.9579E-04  0.0198
   2.6935E-01   2.7590E-01   4.0163E-04  0.0194
   2.7590E-01   2.8261E-01   4.0929E-04  0.0190
   2.8261E-01   2.8949E-01   4.2093E-04  0.0185
   2.8949E-01   2.9653E-01   4.2579E-04  0.0182
   2.9653E-01   3.0375E-01   4.3510E-04  0.0178
   3.0375E-01   3.1114E-01   4.5033E-04  0.0172
   3.1114E-01   3.1871E-01   4.5472E-04  0.0170
   3.1871E-01   3.2646E-01   4.8104E-04  0.0163
   3.2646E-01   3.3441E-01   4.8928E-04  0.0160
   3.3441E-01   3.4254E-01   5.0985E-04  0.0154
   3.4254E-01   3.5088E-01   5.1561E-04  0.0152
   3.5088E-01   3.5941E-01   5.3627E-04  0.0147
   3.5941E-01   3.6816E-01   5.4005E-04  0.0145
   3.6816E-01   3.7712E-01   5.5673E-04  0.0141
   3.7712E-01   3.8629E-01   5.6902E-04  0.0138
   3.8629E-01   3.9569E-01   5.8908E-04  0.0134
   3.9569E-01   4.0532E-01   5.9487E-04  0.0131
   4.0532E-01   4.1518E-01   6.0933E-04  0.0128
   4.1518E-01   4.2528E-01   6.2786E-04  0.0125
   4.2528E-01   4.3563E-01   6.3244E-04  0.0123
   4.3563E-01   4.4623E-01   6.3906E-04  0.0121
   4.4623E-01   4.5708E-01   6.5226E-04  0.0118
   4.5708E-01   4.6821E-01   6.8073E-04  0.0114
   4.6821E-01   4.7960E-01   6.8059E-04  0.0113
   4.7960E-01   4.9127E-01   6.8617E-04  0.0111
   4.9127E-01   5.0322E-01   7.1070E-04  0.0108
   5.0322E-01   5.1546E-01   7.0859E-04  0.0107
   5.1546E-01   5.2800E-01   7.2582E-04  0.0104
   5.2800E-01   5.4085E-01   7.2766E-04  0.0103
   5.4085E-01   5.5401E-01   7.5136E-04  0.0100
   5.5401E-01   5.6749E-01   7.5617E-04  0.0099
   5.6749E-01   5.8130E-01   7.6864E-04  0.0097
   5.8130E-01   5.9544E-01   7.7518E-04  0.0095
   5.9544E-01   6.0993E-01   7.7525E-04  0.0094
   6.0993E-01   6.2477E-01   7.9998E-04  0.0091
   6.2477E-01   6.3997E-01   8.0018E-04  0.0090
   6.3997E-01   6.5554E-01   7.9733E-04  0.0089
   6.5554E-01   6.7149E-01   8.0772E-04  0.0088
   6.7149E-01   6.8783E-01   8.1118E-04  0.0086
   6.8783E-01   7.0456E-01   8.2674E-04  0.0085
   7.0456E-01   7.2171E-01   8.2688E-04  0.0084
   7.2171E-01   7.3927E-01   8.1997E-04  0.0083
   7.3927E-01   7.5725E-01   8.4669E-04  0.0081
   7.5725E-01   7.7568E-01   8.4941E-04  0.0079
   7.7568E-01   7.9455E-01   8.4719E-04  0.0079
   7.9455E-01   8.1388E-01   8.4656E-04  0.0078
   8.1388E-01   8.3368E-01   8.4791E-04  0.0077
   8.3368E-01   8.5397E-01   8.4372E-04  0.0076
   8.5397E-01   8.7475E-01   8.6696E-04  0.0074
   8.7475E-01   8.9603E-01   8.6477E-04  0.0073
   8.9603E-01   9.1783E-01   8.6265E-04  0.0073
   9.1783E-01   9.4016E-01   8.6321E-04  0.0072
   9.4016E-01   9.6304E-01   8.5921E-04  0.0071
   9.6304E-01   9.8647E-01   8.7126E-04  0.0070
   9.8647E-01   1.0105E+00   8.7231E-04  0.0069
   1.0105E+00   1.0351E+00   8.7394E-04  0.0068
   1.0351E+00   1.0602E+00   8.5914E-04  0.0068
   1.0602E+00   1.0860E+00   8.5777E-04  0.0067
   1.0860E+00   1.1125E+00   8.4352E-04  0.0067
   1.1125E+00   1.1395E+00   8.4562E-04  0.0066
   1.1395E+00   1.1673E+00   8.4911E-04  0.0065
   1.1673E+00   1.1957E+00   8.4281E-04  0.0064
   1.1957E+00   1.2247E+00   8.5875E-04  0.0063
   1.2247E+00   1.2545E+00   8.4968E-04  0.0062
   1.2545E+00   1.2851E+00   8.3672E-04  0.0062
   1.2851E+00   1.3163E+00   8.3703E-04  0.0061
   1.3163E+00   1.3484E+00   8.2129E-04  0.0061
   1.3484E+00   1.3812E+00   8.3086E-04  0.0060
   1.3812E+00   1.4148E+00   8.2990E-04  0.0060
   1.4148E+00   1.4492E+00   8.2396E-04  0.0059
   1.4492E+00   1.4845E+00   8.1758E-04  0.0059
   1.4845E+00   1.5206E+00   8.2170E-04  0.0058
   1.5206E+00   1.5576E+00   8.2452E-04  0.0057
   1.5576E+00   1.5955E+00   8.1805E-04  0.0056
   1.5955E+00   1.6343E+00   8.0194E-04  0.0056
   1.6343E+00   1.6741E+00   7.9747E-04  0.0056
   1.6741E+00   1.7148E+00   7.8962E-04  0.0055
   1.7148E+00   1.7565E+00   7.8749E-04  0.0055
   1.7565E+00   1.7992E+00   7.8087E-04  0.0054
   1.7992E+00   1.8430E+00   7.8019E-04  0.0054
   1.8430E+00   1.8879E+00   7.7062E-04  0.0053
   1.8879E+00   1.9338E+00   7.7128E-04  0.0053
   1.9338E+00   1.9808E+00   7.6499E-04  0.0052
   1.9808E+00   2.0290E+00   7.5192E-04  0.0052
   2.0290E+00   2.0784E+00   7.5475E-04  0.0051
   2.0784E+00   2.1290E+00   7.5081E-04  0.0051
   2.1290E+00   2.1808E+00   7.3829E-04  0.0051
   2.1808E+00   2.2338E+00   7.3389E-04  0.0050
   2.2338E+00   2.2882E+00   7.1912E-04  0.0050
   2.2882E+00   2.3439E+00   7.2014E-04  0.0050
   2.3439E+00   2.4009E+00   7.1233E-04  0.0049
   2.4009E+00   2.4593E+00   7.0517E-04  0.0049
   2.4593E+00   2.5191E+00   7.0595E-04  0.0048
   2.5191E+00   2.5804E+00   6.9482E-04  0.0048
   2.5804E+00   2.6432E+00   6.8566E-04  0.0048
   2.6432E+00   2.7075E+00   6.8013E-04  0.0048
   2.7075E+00   2.7734E+00   6.7549E-04  0.0047
   2.7734E+00   2.8409E+00   6.7403E-04  0.0047
   2.8409E+00   2.9100E+00   6.7192E-04  0.0046
   2.9100E+00   2.9808E+00   6.5458E-04  0.0046
   2.9808E+00   3.0533E+00   6.5316E-04  0.0046
   3.0533E+00   3.1276E+00   6.4672E-04  0.0045
   3.1276E+00   3.2037E+00   6.3446E-04  0.0045
   3.2037E+00   3.2817E+00   6.2684E-04  0.0045
   3.2817E+00   3.3615E+00   6.1085E-04  0.0045
   3.3615E+00   3.4433E+00   6.1027E-04  0.0045
   3.4433E+00   3.5271E+00   6.0324E-04  0.0044
   3.5271E+00   3.6129E+00   5.8877E-04  0.0044
   3.6129E+00   3.7008E+00   5.8235E-04  0.0044
   3.7008E+00   3.7908E+00   5.7469E-04  0.0044
   3.7908E+00   3.8831E+00   5.6431E-04  0.0044
   3.8831E+00   3.9776E+00   5.5562E-04  0.0043
   3.9776E+00   4.0743E+00   5.5552E-04  0.0043
   4.0743E+00   4.1735E+00   5.4079E-04  0.0043
   4.1735E+00   4.2750E+00   5.3293E-04  0.0043
   4.2750E+00   4.3790E+00   5.2936E-04  0.0042
   4.3790E+00   4.4856E+00   5.1933E-04  0.0042
   4.4856E+00   4.5947E+00   5.1130E-04  0.0042
   4.5947E+00   4.7065E+00   4.9877E-04  0.0042
   4.7065E+00   4.8210E+00   4.9128E-04  0.0042
   4.8210E+00   4.9383E+00   4.9210E-04  0.0041
   4.9383E+00   5.0585E+00   4.8132E-04  0.0041
   5.0585E+00   5.1815E+00   4.9105E-04  0.0041
   5.1815E+00   5.3076E+00   4.9313E-04  0.0040
   5.3076E+00   5.4368E+00   4.8421E-04  0.0040
   5.4368E+00   5.5690E+00   4.7503E-04  0.0040
   5.5690E+00   5.7045E+00   4.6614E-04  0.0040
   5.7045E+00   5.8433E+00   4.5841E-04  0.0040
   5.8433E+00   5.9855E+00   4.4703E-04  0.0040
   5.9855E+00   6.1311E+00   4.4133E-04  0.0039
   6.1311E+00   6.2803E+00   4.3187E-04  0.0039
   6.2803E+00   6.4331E+00   4.2419E-04  0.0039
   6.4331E+00   6.5896E+00   4.1951E-04  0.0039
   6.5896E+00   6.7500E+00   4.0685E-04  0.0039
   6.7500E+00   6.9142E+00   4.0231E-04  0.0039
   6.9142E+00   7.0824E+00   3.9567E-04  0.0039
   7.0824E+00   7.2548E+00   3.8926E-04  0.0039
   7.2548E+00   7.4313E+00   3.8151E-04  0.0038
   7.4313E+00   7.6121E+00   3.7142E-04  0.0039
   7.6121E+00   7.7973E+00   3.6865E-04  0.0038
   7.7973E+00   7.9870E+00   3.6297E-04  0.0038
   7.9870E+00   8.1813E+00   3.5713E-04  0.0038
   8.1813E+00   8.3804E+00   3.5078E-04  0.0038
   8.3804E+00   8.5843E+00   3.4639E-04  0.0038
   8.5843E+00   8.7931E+00   3.4302E-04  0.0037
   8.7931E+00   9.0071E+00   3.3711E-04  0.0037
   9.0071E+00   9.2262E+00   3.3474E-04  0.0037
   9.2262E+00   9.4507E+00   3.2614E-04  0.0037
   9.4507E+00   9.6807E+00   3.2403E-04  0.0037
   9.6807E+00   9.9162E+00   3.1985E-04  0.0036
   9.9162E+00   1.0157E+01   3.1470E-04  0.0036
   1.0157E+01   1.0405E+01   3.1027E-04  0.0036
   1.0405E+01   1.0658E+01   3.0755E-04  0.0036
   1.0658E+01   1.0917E+01   3.0479E-04  0.0036
   1.0917E+01   1.1183E+01   2.9916E-04  0.0035
   1.1183E+01   1.1455E+01   2.9688E-04  0.0035
   1.1455E+01   1.1733E+01   2.9396E-04  0.0035
   1.1733E+01   1.2019E+01   2.9159E-04  0.0035
   1.2019E+01   1.2311E+01   2.9006E-04  0.0034
   1.2311E+01   1.2611E+01   2.8637E-04  0.0034
   1.2611E+01   1.2918E+01   2.8521E-04  0.0034
   1.2918E+01   1.3232E+01   2.8055E-04  0.0034
   1.3232E+01   1.3554E+01   2.7940E-04  0.0033
   1.3554E+01   1.3884E+01   2.7778E-04  0.0033
   1.3884E+01   1.4222E+01   2.7322E-04  0.0033
   1.4222E+01   1.4568E+01   2.7177E-04  0.0033
   1.4568E+01   1.4922E+01   2.6883E-04  0.0032
   1.4922E+01   1.5285E+01   2.6667E-04  0.0032
   1.5285E+01   1.5657E+01   2.6505E-04  0.0032
   1.5657E+01   1.6038E+01   2.6347E-04  0.0032
   1.6038E+01   1.6428E+01   2.6204E-04  0.0031
   1.6428E+01   1.6828E+01   2.6092E-04  0.0031
   1.6828E+01   1.7237E+01   2.5723E-04  0.0031
   1.7237E+01   1.7657E+01   2.5511E-04  0.0031
   1.7657E+01   1.8086E+01   2.5375E-04  0.0030
   1.8086E+01   1.8526E+01   2.5150E-04  0.0030
   1.8526E+01   1.8977E+01   2.5039E-04  0.0030
   1.8977E+01   1.9439E+01   2.4961E-04  0.0029
   1.9439E+01   1.9912E+01   2.5050E-04  0.0029
   1.9912E+01   2.0396E+01   2.5290E-04  0.0029
   2.0396E+01   2.0893E+01   2.5205E-04  0.0028
   2.0893E+01   2.1401E+01   2.4863E-04  0.0028
   2.1401E+01   2.1922E+01   2.4737E-04  0.0028
   2.1922E+01   2.2455E+01   2.4681E-04  0.0028
   2.2455E+01   2.3001E+01   2.4548E-04  0.0027
   2.3001E+01   2.3561E+01   2.4293E-04  0.0027
   2.3561E+01   2.4134E+01   2.4129E-04  0.0027
   2.4134E+01   2.4721E+01   2.4027E-04  0.0027
   2.4721E+01   2.5323E+01   2.3695E-04  0.0026
   2.5323E+01   2.5939E+01   2.3580E-04  0.0026
   2.5939E+01   2.6570E+01   2.3288E-04  0.0026
   2.6570E+01   2.7217E+01   2.3064E-04  0.0026
   2.7217E+01   2.7879E+01   2.2702E-04  0.0026
   2.7879E+01   2.8557E+01   2.2500E-04  0.0026
   2.8557E+01   2.9252E+01   2.2219E-04  0.0025
   2.9252E+01   2.9964E+01   2.1869E-04  0.0025
   2.9964E+01   3.0693E+01   2.1573E-04  0.0025
   3.0693E+01   3.1440E+01   2.1240E-04  0.0025
   3.1440E+01   3.2205E+01   2.0756E-04  0.0025
   3.2205E+01   3.2988E+01   2.0338E-04  0.0025
   3.2988E+01   3.3791E+01   1.9973E-04  0.0025
   3.3791E+01   3.4613E+01   1.9482E-04  0.0025
   3.4613E+01   3.5455E+01   1.8981E-04  0.0025
   3.5455E+01   3.6318E+01   1.8500E-04  0.0025
   3.6318E+01   3.7201E+01   1.7851E-04  0.0025
   3.7201E+01   3.8106E+01   1.7344E-04  0.0025
   3.8106E+01   3.9034E+01   1.6781E-04  0.0025
   3.9034E+01   3.9983E+01   1.6096E-04  0.0026
   3.9983E+01   4.0956E+01   1.5495E-04  0.0026
   4.0956E+01   4.1953E+01   1.4742E-04  0.0026
   4.1953E+01   4.2973E+01   1.4046E-04  0.0026
   4.2973E+01   4.4019E+01   1.3339E-04  0.0027
   4.4019E+01   4.5090E+01   1.2734E-04  0.0027
   4.5090E+01   4.6187E+01   1.2031E-04  0.0028
   4.6187E+01   4.7311E+01   1.1392E-04  0.0028
   4.7311E+01   4.8462E+01   1.0673E-04  0.0029
   4.8462E+01   4.9641E+01   1.0042E-04  0.0029
   4.9641E+01   5.0849E+01   9.4259E-05  0.0030
   5.0849E+01   5.2086E+01   8.7996E-05  0.0030
   5.2086E+01   5.3353E+01   8.2445E-05  0.0031
   5.3353E+01   5.4651E+01   7.6154E-05  0.0032
   5.4651E+01   5.5981E+01   7.1445E-05  0.0032
   5.5981E+01   5.7343E+01   6.6442E-05  0.0033
   5.7343E+01   5.8738E+01   6.1842E-05  0.0034
   5.8738E+01   6.0168E+01   5.7342E-05  0.0035
   6.0168E+01   6.1632E+01   5.2941E-05  0.0036
   6.1632E+01   6.3131E+01   4.9514E-05  0.0037
   6.3131E+01   6.4667E+01   4.5665E-05  0.0038
   6.4667E+01   6.6240E+01   4.2262E-05  0.0039
   6.6240E+01   6.7852E+01   3.9407E-05  0.0040
   6.7852E+01   6.9503E+01   3.6057E-05  0.0041
   6.9503E+01   7.1194E+01   3.3394E-05  0.0042
   7.1194E+01   7.2926E+01   3.0932E-05  0.0043
   7.2926E+01   7.4701E+01   2.8184E-05  0.0045
   7.4701E+01   7.6518E+01   2.5848E-05  0.0046
   7.6518E+01   7.8380E+01   2.3472E-05  0.0048
   7.8380E+01   8.0287E+01   2.1367E-05  0.0050
   8.0287E+01   8.2240E+01   1.9141E-05  0.0052
   8.2240E+01   8.4241E+01   1.7228E-05  0.0054
   8.4241E+01   8.6291E+01   1.5103E-05  0.0057
   8.6291E+01   8.8391E+01   1.3286E-05  0.0060
   8.8391E+01   9.0541E+01   1.1956E-05  0.0062
   9.0541E+01   9.2744E+01   1.0837E-05  0.0065
   9.2744E+01   9.5001E+01   9.5505E-06  0.0068
   9.5001E+01   9.7312E+01   7.9310E-06  0.0074
   9.7312E+01   9.9680E+01   6.4624E-06  0.0081
   9.9680E+01   1.0211E+02   5.0881E-06  0.0090
   1.0211E+02   1.0459E+02   4.1058E-06  0.0099
   1.0459E+02   1.0713E+02   3.1579E-06  0.0112
   1.0713E+02   1.0974E+02   2.5143E-06  0.0124
   1.0974E+02   1.1241E+02   1.5471E-06  0.0156
   1.1241E+02   1.1515E+02   6.5630E-07  0.0236
   1.1515E+02   1.1795E+02   7.3887E-08  0.0695
   1.1795E+02   1.2082E+02   3.4846E-10  1.0000
   1.2082E+02   1.2376E+02   0.0000E+00  0.0000
   1.2376E+02   1.2677E+02   0.0000E+00  0.0000
   1.2677E+02   1.2985E+02   0.0000E+00  0.0000
   1.2985E+02   1.3301E+02   0.0000E+00  0.0000
   1.3301E+02   1.3625E+02   0.0000E+00  0.0000
   1.3625E+02   1.3956E+02   0.0000E+00  0.0000
   1.3956E+02   1.4296E+02   0.0000E+00  0.0000
   1.4296E+02   1.4644E+02   0.0000E+00  0.0000
   1.4644E+02   1.5000E+02   0.0000E+00  0.0000

#   sum over                 1.0146E-04
'no. =    1   reg = 107 - 207'
msuc: {\huge [t-cross] in region mesh}
msdr: {\it plotted by \ANGEL \version}
msdl: {\it calculated by \PHITS  3.26}
wt: s(0.7)
\vspace{-3}
  region surface crossing
  area  &=&   1.0000E+00 [cm^2]
e:
 
# Information for Restart Calculation
# This calculation was newly started
# istdev =  2 # 1:Batch variance, 2:History variance
# resc2  = 1.00000000000000000E+09 # Total source weight or Total source weight / maxcas
# resc3  = 1.00000000000000000E+09 # Total history number or Total batch number
# maxcas =   500000000 # History / Batch, only used for istdev=1
# bitrseed = 0001001110011001001001110000100100110111001111011100001000101100 # bit data of rseed
