[ T-Cross ]
    title = [t-cross] in region mesh
     mesh =  reg            # mesh type is region-wise
      reg =    1            # number of crossing regions
      non     r-from    r-to       area
      1       121       221        1.000000    
   e-type =    3            # e-mesh is log given by emin, emax and ne
     emin =  1.0000000E-02  # minimum value of e-mesh points
     emax =   150.0000      # maximum value of e-mesh points
#    edel =  2.4039514E-02  # mesh width of e-mesh points
       ne =    400          # number of e-mesh points
#    data = ( e(i), i = 1, ne + 1 )
#           1.00000E-02  1.02433E-02  1.04925E-02  1.07478E-02  1.10093E-02
#           1.12772E-02  1.15516E-02  1.18326E-02  1.21205E-02  1.24154E-02
#           1.27175E-02  1.30269E-02  1.33439E-02  1.36686E-02  1.40011E-02
#           1.43418E-02  1.46907E-02  1.50482E-02  1.54143E-02  1.57894E-02
#           1.61735E-02  1.65670E-02  1.69701E-02  1.73830E-02  1.78060E-02
#           1.82392E-02  1.86830E-02  1.91375E-02  1.96032E-02  2.00801E-02
#           2.05687E-02  2.10692E-02  2.15818E-02  2.21069E-02  2.26448E-02
#           2.31957E-02  2.37601E-02  2.43382E-02  2.49304E-02  2.55369E-02
#           2.61583E-02  2.67947E-02  2.74467E-02  2.81145E-02  2.87985E-02
#           2.94992E-02  3.02169E-02  3.09521E-02  3.17052E-02  3.24766E-02
#           3.32668E-02  3.40762E-02  3.49053E-02  3.57546E-02  3.66246E-02
#           3.75157E-02  3.84284E-02  3.93634E-02  4.03212E-02  4.13022E-02
#           4.23071E-02  4.33365E-02  4.43909E-02  4.54710E-02  4.65773E-02
#           4.77106E-02  4.88714E-02  5.00605E-02  5.12785E-02  5.25262E-02
#           5.38042E-02  5.51133E-02  5.64542E-02  5.78278E-02  5.92348E-02
#           6.06760E-02  6.21523E-02  6.36645E-02  6.52135E-02  6.68002E-02
#           6.84255E-02  7.00904E-02  7.17957E-02  7.35426E-02  7.53319E-02
#           7.71648E-02  7.90423E-02  8.09655E-02  8.29354E-02  8.49533E-02
#           8.70203E-02  8.91376E-02  9.13064E-02  9.35279E-02  9.58035E-02
#           9.81345E-02  1.00522E-01  1.02968E-01  1.05473E-01  1.08040E-01
#           1.10668E-01  1.13361E-01  1.16119E-01  1.18944E-01  1.21838E-01
#           1.24803E-01  1.27839E-01  1.30950E-01  1.34136E-01  1.37399E-01
#           1.40742E-01  1.44167E-01  1.47675E-01  1.51268E-01  1.54948E-01
#           1.58718E-01  1.62580E-01  1.66535E-01  1.70587E-01  1.74738E-01
#           1.78989E-01  1.83344E-01  1.87805E-01  1.92375E-01  1.97055E-01
#           2.01850E-01  2.06761E-01  2.11792E-01  2.16945E-01  2.22223E-01
#           2.27630E-01  2.33169E-01  2.38842E-01  2.44653E-01  2.50605E-01
#           2.56703E-01  2.62949E-01  2.69346E-01  2.75900E-01  2.82613E-01
#           2.89489E-01  2.96532E-01  3.03747E-01  3.11138E-01  3.18708E-01
#           3.26462E-01  3.34405E-01  3.42542E-01  3.50876E-01  3.59413E-01
#           3.68158E-01  3.77116E-01  3.86291E-01  3.95690E-01  4.05317E-01
#           4.15179E-01  4.25281E-01  4.35628E-01  4.46227E-01  4.57084E-01
#           4.68205E-01  4.79597E-01  4.91266E-01  5.03219E-01  5.15463E-01
#           5.28005E-01  5.40851E-01  5.54011E-01  5.67490E-01  5.81298E-01
#           5.95441E-01  6.09929E-01  6.24769E-01  6.39970E-01  6.55541E-01
#           6.71491E-01  6.87828E-01  7.04564E-01  7.21706E-01  7.39266E-01
#           7.57253E-01  7.75678E-01  7.94551E-01  8.13883E-01  8.33685E-01
#           8.53969E-01  8.74747E-01  8.96030E-01  9.17831E-01  9.40163E-01
#           9.63038E-01  9.86469E-01  1.01047E+00  1.03506E+00  1.06024E+00
#           1.08604E+00  1.11246E+00  1.13953E+00  1.16725E+00  1.19565E+00
#           1.22474E+00  1.25454E+00  1.28507E+00  1.31633E+00  1.34836E+00
#           1.38117E+00  1.41477E+00  1.44920E+00  1.48446E+00  1.52057E+00
#           1.55757E+00  1.59547E+00  1.63429E+00  1.67405E+00  1.71478E+00
#           1.75650E+00  1.79924E+00  1.84302E+00  1.88786E+00  1.93379E+00
#           1.98084E+00  2.02904E+00  2.07841E+00  2.12898E+00  2.18078E+00
#           2.23384E+00  2.28819E+00  2.34386E+00  2.40089E+00  2.45930E+00
#           2.51914E+00  2.58043E+00  2.64322E+00  2.70753E+00  2.77341E+00
#           2.84088E+00  2.91001E+00  2.98081E+00  3.05333E+00  3.12762E+00
#           3.20372E+00  3.28167E+00  3.36152E+00  3.44330E+00  3.52708E+00
#           3.61290E+00  3.70080E+00  3.79085E+00  3.88308E+00  3.97756E+00
#           4.07434E+00  4.17347E+00  4.27501E+00  4.37903E+00  4.48557E+00
#           4.59471E+00  4.70650E+00  4.82102E+00  4.93832E+00  5.05847E+00
#           5.18155E+00  5.30762E+00  5.43676E+00  5.56904E+00  5.70453E+00
#           5.84333E+00  5.98550E+00  6.13114E+00  6.28031E+00  6.43312E+00
#           6.58964E+00  6.74997E+00  6.91420E+00  7.08243E+00  7.25475E+00
#           7.43126E+00  7.61207E+00  7.79728E+00  7.98700E+00  8.18133E+00
#           8.38038E+00  8.58428E+00  8.79315E+00  9.00709E+00  9.22624E+00
#           9.45072E+00  9.68067E+00  9.91620E+00  1.01575E+01  1.04046E+01
#           1.06578E+01  1.09171E+01  1.11827E+01  1.14548E+01  1.17335E+01
#           1.20190E+01  1.23114E+01  1.26109E+01  1.29178E+01  1.32321E+01
#           1.35540E+01  1.38838E+01  1.42216E+01  1.45676E+01  1.49221E+01
#           1.52851E+01  1.56570E+01  1.60380E+01  1.64282E+01  1.68279E+01
#           1.72374E+01  1.76568E+01  1.80864E+01  1.85264E+01  1.89772E+01
#           1.94389E+01  1.99119E+01  2.03963E+01  2.08926E+01  2.14009E+01
#           2.19216E+01  2.24550E+01  2.30014E+01  2.35610E+01  2.41343E+01
#           2.47215E+01  2.53230E+01  2.59391E+01  2.65702E+01  2.72167E+01
#           2.78789E+01  2.85572E+01  2.92520E+01  2.99637E+01  3.06928E+01
#           3.14396E+01  3.22045E+01  3.29881E+01  3.37907E+01  3.46128E+01
#           3.54550E+01  3.63177E+01  3.72013E+01  3.81064E+01  3.90336E+01
#           3.99833E+01  4.09561E+01  4.19526E+01  4.29734E+01  4.40189E+01
#           4.50900E+01  4.61870E+01  4.73108E+01  4.84619E+01  4.96410E+01
#           5.08488E+01  5.20860E+01  5.33533E+01  5.46514E+01  5.59812E+01
#           5.73432E+01  5.87384E+01  6.01676E+01  6.16315E+01  6.31311E+01
#           6.46671E+01  6.62405E+01  6.78522E+01  6.95031E+01  7.11941E+01
#           7.29263E+01  7.47007E+01  7.65182E+01  7.83800E+01  8.02870E+01
#           8.22405E+01  8.42414E+01  8.62911E+01  8.83906E+01  9.05412E+01
#           9.27442E+01  9.50007E+01  9.73122E+01  9.96799E+01  1.02105E+02
#           1.04589E+02  1.07134E+02  1.09741E+02  1.12411E+02  1.15146E+02
#           1.17948E+02  1.20817E+02  1.23757E+02  1.26768E+02  1.29852E+02
#           1.33012E+02  1.36248E+02  1.39563E+02  1.42959E+02  1.46437E+02
#           1.50000E+02
     unit =    2            # unit is [1/cm^2/(MeV/n)/source]
     axis =  eng            # axis of output
     file = detector-22.out  # file name of output for the above axis
   output = f-curr          # surface crossing forward current spectrum
     part =  neutron  
# kf/name :  2112     
#    used :        main (  %)        temp (  %)       total (  %)
#  memory :         414 (  0)           0 (  0)         414 (  0)

#------------------------------------------------------------------------------
#newpage:
#   no. =    1   reg = 121 - 221

x: Energy [MeV/n]
y:  F-Curr [1/cm^2/(MeV/n)/source]         
p: xlog ylog afac(0.8) form(0.9)
h: n            x            y(neutron ),hh0l   n 
#  e-lower      e-upper      neutron     r.err 
   1.0000E-02   1.0243E-02   7.4884E-04  0.0737
   1.0243E-02   1.0493E-02   8.4310E-04  0.0687
   1.0493E-02   1.0748E-02   7.2698E-04  0.0732
   1.0748E-02   1.1009E-02   6.7829E-04  0.0749
   1.1009E-02   1.1277E-02   6.8353E-04  0.0738
   1.1277E-02   1.1552E-02   6.3838E-04  0.0754
   1.1552E-02   1.1833E-02   6.2975E-04  0.0747
   1.1833E-02   1.2121E-02   5.5501E-04  0.0786
   1.2121E-02   1.2415E-02   6.8614E-04  0.0701
   1.2415E-02   1.2718E-02   5.8530E-04  0.0748
   1.2718E-02   1.3027E-02   5.8645E-04  0.0740
   1.3027E-02   1.3344E-02   5.7605E-04  0.0737
   1.3344E-02   1.3669E-02   5.6354E-04  0.0736
   1.3669E-02   1.4001E-02   5.2659E-04  0.0752
   1.4001E-02   1.4342E-02   5.1038E-04  0.0757
   1.4342E-02   1.4691E-02   5.5260E-04  0.0718
   1.4691E-02   1.5048E-02   5.2439E-04  0.0728
   1.5048E-02   1.5414E-02   4.4523E-04  0.0780
   1.5414E-02   1.5789E-02   5.1763E-04  0.0715
   1.5789E-02   1.6174E-02   5.6439E-04  0.0677
   1.6174E-02   1.6567E-02   4.8203E-04  0.0722
   1.6567E-02   1.6970E-02   4.4427E-04  0.0744
   1.6970E-02   1.7383E-02   5.5542E-04  0.0659
   1.7383E-02   1.7806E-02   4.8411E-04  0.0697
   1.7806E-02   1.8239E-02   4.2109E-04  0.0739
   1.8239E-02   1.8683E-02   4.0406E-04  0.0743
   1.8683E-02   1.9138E-02   3.9825E-04  0.0740
   1.9138E-02   1.9603E-02   3.9839E-04  0.0732
   1.9603E-02   2.0080E-02   4.2747E-04  0.0697
   2.0080E-02   2.0569E-02   3.7315E-04  0.0737
   2.0569E-02   2.1069E-02   4.0126E-04  0.0702
   2.1069E-02   2.1582E-02   3.5465E-04  0.0738
   2.1582E-02   2.2107E-02   3.4195E-04  0.0745
   2.2107E-02   2.2645E-02   3.7451E-04  0.0702
   2.2645E-02   2.3196E-02   4.1401E-04  0.0660
   2.3196E-02   2.3760E-02   3.2670E-04  0.0732
   2.3760E-02   2.4338E-02   3.5374E-04  0.0699
   2.4338E-02   2.4930E-02   2.6950E-04  0.0789
   2.4930E-02   2.5537E-02   2.9908E-04  0.0739
   2.5537E-02   2.6158E-02   3.0067E-04  0.0728
   2.6158E-02   2.6795E-02   3.2149E-04  0.0698
   2.6795E-02   2.7447E-02   2.6961E-04  0.0751
   2.7447E-02   2.8114E-02   2.7673E-04  0.0733
   2.8114E-02   2.8799E-02   2.9887E-04  0.0696
   2.8799E-02   2.9499E-02   2.8921E-04  0.0700
   2.9499E-02   3.0217E-02   3.2331E-04  0.0655
   3.0217E-02   3.0952E-02   2.4445E-04  0.0741
   3.0952E-02   3.1705E-02   2.2444E-04  0.0766
   3.1705E-02   3.2477E-02   2.4083E-04  0.0731
   3.2477E-02   3.3267E-02   2.6406E-04  0.0690
   3.3267E-02   3.4076E-02   2.5367E-04  0.0696
   3.4076E-02   3.4905E-02   2.4445E-04  0.0700
   3.4905E-02   3.5755E-02   2.4227E-04  0.0695
   3.5755E-02   3.6625E-02   2.4122E-04  0.0687
   3.6625E-02   3.7516E-02   2.3343E-04  0.0691
   3.7516E-02   3.8428E-02   2.1020E-04  0.0719
   3.8428E-02   3.9363E-02   2.3599E-04  0.0670
   3.9363E-02   4.0321E-02   2.2688E-04  0.0677
   4.0321E-02   4.1302E-02   2.2241E-04  0.0675
   4.1302E-02   4.2307E-02   2.2228E-04  0.0667
   4.2307E-02   4.3337E-02   2.0227E-04  0.0690
   4.3337E-02   4.4391E-02   2.0841E-04  0.0672
   4.4391E-02   4.5471E-02   1.9248E-04  0.0690
   4.5471E-02   4.6577E-02   1.7681E-04  0.0712
   4.6577E-02   4.7711E-02   2.0314E-04  0.0657
   4.7711E-02   4.8871E-02   1.8716E-04  0.0675
   4.8871E-02   5.0061E-02   1.8612E-04  0.0670
   5.0061E-02   5.1279E-02   1.6707E-04  0.0697
   5.1279E-02   5.2526E-02   1.6693E-04  0.0689
   5.2526E-02   5.3804E-02   1.4836E-04  0.0723
   5.3804E-02   5.5113E-02   1.6707E-04  0.0673
   5.5113E-02   5.6454E-02   1.5478E-04  0.0691
   5.6454E-02   5.7828E-02   1.5001E-04  0.0695
   5.7828E-02   5.9235E-02   1.5305E-04  0.0679
   5.9235E-02   6.0676E-02   1.2879E-04  0.0730
   6.0676E-02   6.2152E-02   1.4070E-04  0.0692
   6.2152E-02   6.3665E-02   1.4564E-04  0.0671
   6.3665E-02   6.5214E-02   1.4922E-04  0.0654
   6.5214E-02   6.6800E-02   1.3893E-04  0.0670
   6.6800E-02   6.8426E-02   1.6043E-04  0.0617
   6.8426E-02   7.0090E-02   1.5504E-04  0.0621
   7.0090E-02   7.1796E-02   1.1538E-04  0.0710
   7.1796E-02   7.3543E-02   1.1686E-04  0.0699
   7.3543E-02   7.5332E-02   1.2845E-04  0.0657
   7.5332E-02   7.7165E-02   1.2038E-04  0.0670
   7.7165E-02   7.9042E-02   1.2185E-04  0.0658
   7.9042E-02   8.0965E-02   1.1010E-04  0.0685
   8.0965E-02   8.2935E-02   1.0782E-04  0.0685
   8.2935E-02   8.4953E-02   1.1820E-04  0.0645
   8.4953E-02   8.7020E-02   1.0305E-04  0.0683
   8.7020E-02   8.9138E-02   9.5244E-05  0.0701
   8.9138E-02   9.1306E-02   1.0812E-04  0.0652
   9.1306E-02   9.3528E-02   9.1249E-05  0.0701
   9.3528E-02   9.5804E-02   9.4730E-05  0.0677
   9.5804E-02   9.8134E-02   8.7554E-05  0.0697
   9.8134E-02   1.0052E-01   9.9610E-05  0.0646
   1.0052E-01   1.0297E-01   8.6637E-05  0.0686
   1.0297E-01   1.0547E-01   9.3645E-05  0.0649
   1.0547E-01   1.0804E-01   8.9824E-05  0.0655
   1.0804E-01   1.1067E-01   8.6379E-05  0.0659
   1.1067E-01   1.1336E-01   8.3185E-05  0.0664
   1.1336E-01   1.1612E-01   8.4495E-05  0.0652
   1.1612E-01   1.1894E-01   8.1868E-05  0.0655
   1.1894E-01   1.2184E-01   7.3790E-05  0.0681
   1.2184E-01   1.2480E-01   7.5103E-05  0.0669
   1.2480E-01   1.2784E-01   7.2006E-05  0.0675
   1.2784E-01   1.3095E-01   7.0148E-05  0.0675
   1.3095E-01   1.3414E-01   6.6608E-05  0.0684
   1.3414E-01   1.3740E-01   7.1714E-05  0.0653
   1.3740E-01   1.4074E-01   7.2531E-05  0.0640
   1.4074E-01   1.4417E-01   5.8985E-05  0.0701
   1.4417E-01   1.4767E-01   5.8728E-05  0.0693
   1.4767E-01   1.5127E-01   6.2441E-05  0.0664
   1.5127E-01   1.5495E-01   6.2289E-05  0.0657
   1.5495E-01   1.5872E-01   6.6662E-05  0.0628
   1.5872E-01   1.6258E-01   5.2466E-05  0.0699
   1.6258E-01   1.6654E-01   5.8372E-05  0.0653
   1.6654E-01   1.7059E-01   6.0840E-05  0.0633
   1.7059E-01   1.7474E-01   5.4949E-05  0.0660
   1.7474E-01   1.7899E-01   4.5864E-05  0.0714
   1.7899E-01   1.8334E-01   5.0437E-05  0.0672
   1.8334E-01   1.8781E-01   5.0352E-05  0.0666
   1.8781E-01   1.9237E-01   4.3344E-05  0.0707
   1.9237E-01   1.9706E-01   5.3187E-05  0.0631
   1.9706E-01   2.0185E-01   4.2845E-05  0.0695
   2.0185E-01   2.0676E-01   4.6938E-05  0.0657
   2.0676E-01   2.1179E-01   5.4281E-05  0.0603
   2.1179E-01   2.1694E-01   5.1362E-05  0.0612
   2.1694E-01   2.2222E-01   5.2449E-05  0.0599
   2.2222E-01   2.2763E-01   5.5140E-05  0.0577
   2.2763E-01   2.3317E-01   5.8839E-05  0.0550
   2.3317E-01   2.3884E-01   5.6972E-05  0.0553
   2.3884E-01   2.4465E-01   6.2613E-05  0.0523
   2.4465E-01   2.5061E-01   6.4387E-05  0.0509
   2.5061E-01   2.5670E-01   6.3276E-05  0.0506
   2.5670E-01   2.6295E-01   6.5678E-05  0.0491
   2.6295E-01   2.6935E-01   6.8617E-05  0.0475
   2.6935E-01   2.7590E-01   7.3469E-05  0.0453
   2.7590E-01   2.8261E-01   7.3121E-05  0.0450
   2.8261E-01   2.8949E-01   7.6281E-05  0.0435
   2.8949E-01   2.9653E-01   7.5465E-05  0.0432
   2.9653E-01   3.0375E-01   7.8787E-05  0.0417
   3.0375E-01   3.1114E-01   7.6005E-05  0.0420
   3.1114E-01   3.1871E-01   8.4395E-05  0.0393
   3.1871E-01   3.2646E-01   8.6612E-05  0.0384
   3.2646E-01   3.3441E-01   8.9331E-05  0.0374
   3.3441E-01   3.4254E-01   9.0193E-05  0.0368
   3.4254E-01   3.5088E-01   9.5313E-05  0.0353
   3.5088E-01   3.5941E-01   9.5790E-05  0.0348
   3.5941E-01   3.6816E-01   9.5625E-05  0.0344
   3.6816E-01   3.7712E-01   9.4467E-05  0.0342
   3.7712E-01   3.8629E-01   1.0144E-04  0.0326
   3.8629E-01   3.9569E-01   1.0318E-04  0.0319
   3.9569E-01   4.0532E-01   1.0669E-04  0.0310
   4.0532E-01   4.1518E-01   1.1366E-04  0.0297
   4.1518E-01   4.2528E-01   1.0673E-04  0.0303
   4.2528E-01   4.3563E-01   1.0739E-04  0.0299
   4.3563E-01   4.4623E-01   1.1337E-04  0.0287
   4.4623E-01   4.5708E-01   1.1516E-04  0.0281
   4.5708E-01   4.6821E-01   1.1101E-04  0.0283
   4.6821E-01   4.7960E-01   1.1072E-04  0.0280
   4.7960E-01   4.9127E-01   1.2102E-04  0.0265
   4.9127E-01   5.0322E-01   1.1548E-04  0.0267
   5.0322E-01   5.1546E-01   1.1836E-04  0.0261
   5.1546E-01   5.2800E-01   1.1939E-04  0.0257
   5.2800E-01   5.4085E-01   1.2048E-04  0.0253
   5.4085E-01   5.5401E-01   1.2623E-04  0.0244
   5.5401E-01   5.6749E-01   1.2452E-04  0.0242
   5.6749E-01   5.8130E-01   1.2453E-04  0.0240
   5.8130E-01   5.9544E-01   1.2674E-04  0.0235
   5.9544E-01   6.0993E-01   1.2769E-04  0.0231
   6.0993E-01   6.2477E-01   1.2407E-04  0.0232
   6.2477E-01   6.3997E-01   1.2603E-04  0.0227
   6.3997E-01   6.5554E-01   1.2574E-04  0.0224
   6.5554E-01   6.7149E-01   1.2342E-04  0.0224
   6.7149E-01   6.8783E-01   1.1986E-04  0.0224
   6.8783E-01   7.0456E-01   1.2214E-04  0.0220
   7.0456E-01   7.2171E-01   1.2071E-04  0.0218
   7.2171E-01   7.3927E-01   1.1978E-04  0.0217
   7.3927E-01   7.5725E-01   1.2459E-04  0.0209
   7.5725E-01   7.7568E-01   1.2272E-04  0.0209
   7.7568E-01   7.9455E-01   1.2245E-04  0.0206
   7.9455E-01   8.1388E-01   1.1609E-04  0.0210
   8.1388E-01   8.3368E-01   1.1379E-04  0.0209
   8.3368E-01   8.5397E-01   1.1914E-04  0.0202
   8.5397E-01   8.7475E-01   1.1250E-04  0.0205
   8.7475E-01   8.9603E-01   1.0928E-04  0.0206
   8.9603E-01   9.1783E-01   1.1359E-04  0.0199
   9.1783E-01   9.4016E-01   1.1229E-04  0.0198
   9.4016E-01   9.6304E-01   1.1089E-04  0.0197
   9.6304E-01   9.8647E-01   1.0654E-04  0.0199
   9.8647E-01   1.0105E+00   1.0528E-04  0.0197
   1.0105E+00   1.0351E+00   1.0006E-04  0.0200
   1.0351E+00   1.0602E+00   9.8900E-05  0.0199
   1.0602E+00   1.0860E+00   9.8793E-05  0.0196
   1.0860E+00   1.1125E+00   9.5320E-05  0.0197
   1.1125E+00   1.1395E+00   9.3549E-05  0.0197
   1.1395E+00   1.1673E+00   8.6909E-05  0.0202
   1.1673E+00   1.1957E+00   9.2733E-05  0.0193
   1.1957E+00   1.2247E+00   8.8675E-05  0.0195
   1.2247E+00   1.2545E+00   8.8439E-05  0.0193
   1.2545E+00   1.2851E+00   8.5407E-05  0.0194
   1.2851E+00   1.3163E+00   8.0847E-05  0.0197
   1.3163E+00   1.3484E+00   8.3731E-05  0.0191
   1.3484E+00   1.3812E+00   7.9506E-05  0.0194
   1.3812E+00   1.4148E+00   7.7169E-05  0.0195
   1.4148E+00   1.4492E+00   7.3172E-05  0.0197
   1.4492E+00   1.4845E+00   7.2478E-05  0.0196
   1.4845E+00   1.5206E+00   7.1835E-05  0.0194
   1.5206E+00   1.5576E+00   7.0315E-05  0.0194
   1.5576E+00   1.5955E+00   6.9975E-05  0.0192
   1.5955E+00   1.6343E+00   6.5721E-05  0.0196
   1.6343E+00   1.6741E+00   6.5307E-05  0.0194
   1.6741E+00   1.7148E+00   6.3143E-05  0.0195
   1.7148E+00   1.7565E+00   6.0927E-05  0.0196
   1.7565E+00   1.7992E+00   6.0057E-05  0.0195
   1.7992E+00   1.8430E+00   6.0294E-05  0.0193
   1.8430E+00   1.8879E+00   5.8210E-05  0.0194
   1.8879E+00   1.9338E+00   5.5467E-05  0.0196
   1.9338E+00   1.9808E+00   5.4037E-05  0.0196
   1.9808E+00   2.0290E+00   5.3751E-05  0.0195
   2.0290E+00   2.0784E+00   5.0651E-05  0.0198
   2.0784E+00   2.1290E+00   5.1480E-05  0.0194
   2.1290E+00   2.1808E+00   4.8537E-05  0.0197
   2.1808E+00   2.2338E+00   4.7749E-05  0.0197
   2.2338E+00   2.2882E+00   4.5724E-05  0.0199
   2.2882E+00   2.3439E+00   4.3922E-05  0.0200
   2.3439E+00   2.4009E+00   4.2865E-05  0.0200
   2.4009E+00   2.4593E+00   4.1554E-05  0.0201
   2.4593E+00   2.5191E+00   4.0744E-05  0.0200
   2.5191E+00   2.5804E+00   3.9330E-05  0.0201
   2.5804E+00   2.6432E+00   3.9029E-05  0.0200
   2.6432E+00   2.7075E+00   3.7252E-05  0.0202
   2.7075E+00   2.7734E+00   3.7984E-05  0.0198
   2.7734E+00   2.8409E+00   3.5840E-05  0.0201
   2.8409E+00   2.9100E+00   3.3087E-05  0.0207
   2.9100E+00   2.9808E+00   3.3134E-05  0.0204
   2.9808E+00   3.0533E+00   3.1375E-05  0.0207
   3.0533E+00   3.1276E+00   3.1731E-05  0.0204
   3.1276E+00   3.2037E+00   3.0504E-05  0.0205
   3.2037E+00   3.2817E+00   2.9589E-05  0.0206
   3.2817E+00   3.3615E+00   2.8990E-05  0.0206
   3.3615E+00   3.4433E+00   2.7657E-05  0.0208
   3.4433E+00   3.5271E+00   2.6687E-05  0.0209
   3.5271E+00   3.6129E+00   2.5218E-05  0.0212
   3.6129E+00   3.7008E+00   2.5380E-05  0.0209
   3.7008E+00   3.7908E+00   2.4737E-05  0.0209
   3.7908E+00   3.8831E+00   2.4706E-05  0.0207
   3.8831E+00   3.9776E+00   2.4607E-05  0.0205
   3.9776E+00   4.0743E+00   2.3740E-05  0.0206
   4.0743E+00   4.1735E+00   2.3463E-05  0.0205
   4.1735E+00   4.2750E+00   2.2253E-05  0.0208
   4.2750E+00   4.3790E+00   2.2026E-05  0.0207
   4.3790E+00   4.4856E+00   2.2249E-05  0.0203
   4.4856E+00   4.5947E+00   2.1181E-05  0.0206
   4.5947E+00   4.7065E+00   2.1597E-05  0.0202
   4.7065E+00   4.8210E+00   1.9544E-05  0.0210
   4.8210E+00   4.9383E+00   1.9634E-05  0.0206
   4.9383E+00   5.0585E+00   1.9127E-05  0.0207
   5.0585E+00   5.1815E+00   1.8567E-05  0.0208
   5.1815E+00   5.3076E+00   1.8666E-05  0.0205
   5.3076E+00   5.4368E+00   1.7437E-05  0.0209
   5.4368E+00   5.5690E+00   1.7513E-05  0.0206
   5.5690E+00   5.7045E+00   1.6147E-05  0.0212
   5.7045E+00   5.8433E+00   1.5801E-05  0.0212
   5.8433E+00   5.9855E+00   1.5886E-05  0.0209
   5.9855E+00   6.1311E+00   1.5752E-05  0.0207
   6.1311E+00   6.2803E+00   1.4538E-05  0.0213
   6.2803E+00   6.4331E+00   1.4343E-05  0.0212
   6.4331E+00   6.5896E+00   1.2965E-05  0.0220
   6.5896E+00   6.7500E+00   1.3010E-05  0.0218
   6.7500E+00   6.9142E+00   1.2106E-05  0.0223
   6.9142E+00   7.0824E+00   1.2056E-05  0.0221
   7.0824E+00   7.2548E+00   1.1293E-05  0.0226
   7.2548E+00   7.4313E+00   1.0879E-05  0.0227
   7.4313E+00   7.6121E+00   1.0663E-05  0.0227
   7.6121E+00   7.7973E+00   1.0439E-05  0.0227
   7.7973E+00   7.9870E+00   1.0055E-05  0.0228
   7.9870E+00   8.1813E+00   9.3566E-06  0.0234
   8.1813E+00   8.3804E+00   8.8758E-06  0.0237
   8.3804E+00   8.5843E+00   8.4961E-06  0.0240
   8.5843E+00   8.7931E+00   8.2112E-06  0.0241
   8.7931E+00   9.0071E+00   7.7692E-06  0.0245
   9.0071E+00   9.2262E+00   7.7157E-06  0.0243
   9.2262E+00   9.4507E+00   7.2012E-06  0.0248
   9.4507E+00   9.6807E+00   6.7236E-06  0.0254
   9.6807E+00   9.9162E+00   6.3768E-06  0.0258
   9.9162E+00   1.0157E+01   6.0131E-06  0.0262
   1.0157E+01   1.0405E+01   6.2260E-06  0.0255
   1.0405E+01   1.0658E+01   5.5963E-06  0.0265
   1.0658E+01   1.0917E+01   5.2365E-06  0.0271
   1.0917E+01   1.1183E+01   4.7244E-06  0.0282
   1.1183E+01   1.1455E+01   4.5277E-06  0.0285
   1.1455E+01   1.1733E+01   4.4907E-06  0.0282
   1.1733E+01   1.2019E+01   4.2363E-06  0.0287
   1.2019E+01   1.2311E+01   4.0206E-06  0.0291
   1.2311E+01   1.2611E+01   3.7502E-06  0.0298
   1.2611E+01   1.2918E+01   3.4762E-06  0.0306
   1.2918E+01   1.3232E+01   3.5605E-06  0.0299
   1.3232E+01   1.3554E+01   3.3718E-06  0.0303
   1.3554E+01   1.3884E+01   3.0999E-06  0.0313
   1.3884E+01   1.4222E+01   2.6422E-06  0.0335
   1.4222E+01   1.4568E+01   2.7549E-06  0.0324
   1.4568E+01   1.4922E+01   2.4427E-06  0.0340
   1.4922E+01   1.5285E+01   2.3687E-06  0.0341
   1.5285E+01   1.5657E+01   2.1807E-06  0.0351
   1.5657E+01   1.6038E+01   1.9819E-06  0.0364
   1.6038E+01   1.6428E+01   1.8221E-06  0.0375
   1.6428E+01   1.6828E+01   1.6712E-06  0.0387
   1.6828E+01   1.7237E+01   1.6315E-06  0.0387
   1.7237E+01   1.7657E+01   1.4211E-06  0.0410
   1.7657E+01   1.8086E+01   1.3897E-06  0.0409
   1.8086E+01   1.8526E+01   1.1499E-06  0.0445
   1.8526E+01   1.8977E+01   1.1691E-06  0.0436
   1.8977E+01   1.9439E+01   1.0439E-06  0.0455
   1.9439E+01   1.9912E+01   1.0085E-06  0.0458
   1.9912E+01   2.0396E+01   8.9376E-07  0.0481
   2.0396E+01   2.0893E+01   8.5238E-07  0.0486
   2.0893E+01   2.1401E+01   7.7705E-07  0.0503
   2.1401E+01   2.1922E+01   6.2992E-07  0.0552
   2.1922E+01   2.2455E+01   6.5620E-07  0.0535
   2.2455E+01   2.3001E+01   5.2165E-07  0.0592
   2.3001E+01   2.3561E+01   4.5386E-07  0.0627
   2.3561E+01   2.4134E+01   4.1343E-07  0.0650
   2.4134E+01   2.4721E+01   4.0190E-07  0.0651
   2.4721E+01   2.5323E+01   3.6908E-07  0.0671
   2.5323E+01   2.5939E+01   2.7754E-07  0.0765
   2.5939E+01   2.6570E+01   2.4876E-07  0.0798
   2.6570E+01   2.7217E+01   1.7789E-07  0.0933
   2.7217E+01   2.7879E+01   1.7819E-07  0.0921
   2.7879E+01   2.8557E+01   1.4005E-07  0.1026
   2.8557E+01   2.9252E+01   1.1802E-07  0.1104
   2.9252E+01   2.9964E+01   8.8517E-08  0.1260
   2.9964E+01   3.0693E+01   9.8760E-08  0.1179
   3.0693E+01   3.1440E+01   5.6241E-08  0.1543
   3.1440E+01   3.2205E+01   6.0135E-08  0.1474
   3.2205E+01   3.2988E+01   4.5944E-08  0.1667
   3.2988E+01   3.3791E+01   4.6099E-08  0.1644
   3.3791E+01   3.4613E+01   3.5273E-08  0.1857
   3.4613E+01   3.5455E+01   2.4936E-08  0.2182
   3.5455E+01   3.6318E+01   2.2025E-08  0.2294
   3.6318E+01   3.7201E+01   3.0556E-08  0.1925
   3.7201E+01   3.8106E+01   2.2096E-08  0.2236
   3.8106E+01   3.9034E+01   8.6285E-09  0.3536
   3.9034E+01   3.9983E+01   1.1582E-08  0.3015
   3.9983E+01   4.0956E+01   7.1955E-09  0.3780
   4.0956E+01   4.1953E+01   9.0317E-09  0.3333
   4.1953E+01   4.2973E+01   3.9187E-09  0.5000
   4.2973E+01   4.4019E+01   2.8692E-09  0.5774
   4.4019E+01   4.5090E+01   2.8011E-09  0.5774
   4.5090E+01   4.6187E+01   5.4691E-09  0.4082
   4.6187E+01   4.7311E+01   1.7797E-09  0.7071
   4.7311E+01   4.8462E+01   8.6873E-10  1.0000
   4.8462E+01   4.9641E+01   8.4809E-10  1.0000
   4.9641E+01   5.0849E+01   1.6559E-09  0.7071
   5.0849E+01   5.2086E+01   0.0000E+00  0.0000
   5.2086E+01   5.3353E+01   7.8908E-10  1.0000
   5.3353E+01   5.4651E+01   7.7034E-10  1.0000
   5.4651E+01   5.5981E+01   0.0000E+00  0.0000
   5.5981E+01   5.7343E+01   0.0000E+00  0.0000
   5.7343E+01   5.8738E+01   0.0000E+00  0.0000
   5.8738E+01   6.0168E+01   0.0000E+00  0.0000
   6.0168E+01   6.1632E+01   0.0000E+00  0.0000
   6.1632E+01   6.3131E+01   0.0000E+00  0.0000
   6.3131E+01   6.4667E+01   0.0000E+00  0.0000
   6.4667E+01   6.6240E+01   0.0000E+00  0.0000
   6.6240E+01   6.7852E+01   0.0000E+00  0.0000
   6.7852E+01   6.9503E+01   0.0000E+00  0.0000
   6.9503E+01   7.1194E+01   0.0000E+00  0.0000
   7.1194E+01   7.2926E+01   0.0000E+00  0.0000
   7.2926E+01   7.4701E+01   0.0000E+00  0.0000
   7.4701E+01   7.6518E+01   0.0000E+00  0.0000
   7.6518E+01   7.8380E+01   0.0000E+00  0.0000
   7.8380E+01   8.0287E+01   0.0000E+00  0.0000
   8.0287E+01   8.2240E+01   0.0000E+00  0.0000
   8.2240E+01   8.4241E+01   0.0000E+00  0.0000
   8.4241E+01   8.6291E+01   0.0000E+00  0.0000
   8.6291E+01   8.8391E+01   0.0000E+00  0.0000
   8.8391E+01   9.0541E+01   0.0000E+00  0.0000
   9.0541E+01   9.2744E+01   0.0000E+00  0.0000
   9.2744E+01   9.5001E+01   0.0000E+00  0.0000
   9.5001E+01   9.7312E+01   0.0000E+00  0.0000
   9.7312E+01   9.9680E+01   0.0000E+00  0.0000
   9.9680E+01   1.0211E+02   0.0000E+00  0.0000
   1.0211E+02   1.0459E+02   0.0000E+00  0.0000
   1.0459E+02   1.0713E+02   0.0000E+00  0.0000
   1.0713E+02   1.0974E+02   0.0000E+00  0.0000
   1.0974E+02   1.1241E+02   0.0000E+00  0.0000
   1.1241E+02   1.1515E+02   0.0000E+00  0.0000
   1.1515E+02   1.1795E+02   0.0000E+00  0.0000
   1.1795E+02   1.2082E+02   0.0000E+00  0.0000
   1.2082E+02   1.2376E+02   0.0000E+00  0.0000
   1.2376E+02   1.2677E+02   0.0000E+00  0.0000
   1.2677E+02   1.2985E+02   0.0000E+00  0.0000
   1.2985E+02   1.3301E+02   0.0000E+00  0.0000
   1.3301E+02   1.3625E+02   0.0000E+00  0.0000
   1.3625E+02   1.3956E+02   0.0000E+00  0.0000
   1.3956E+02   1.4296E+02   0.0000E+00  0.0000
   1.4296E+02   1.4644E+02   0.0000E+00  0.0000
   1.4644E+02   1.5000E+02   0.0000E+00  0.0000

#   sum over                 2.4298E-06
'no. =    1   reg = 121 - 221'
msuc: {\huge [t-cross] in region mesh}
msdr: {\it plotted by \ANGEL \version}
msdl: {\it calculated by \PHITS  3.26}
wt: s(0.7)
\vspace{-3}
  region surface crossing
  area  &=&   1.0000E+00 [cm^2]
e:
 
# Information for Restart Calculation
# This calculation was newly started
# istdev =  2 # 1:Batch variance, 2:History variance
# resc2  = 1.00000000000000000E+09 # Total source weight or Total source weight / maxcas
# resc3  = 1.00000000000000000E+09 # Total history number or Total batch number
# maxcas =   500000000 # History / Batch, only used for istdev=1
# bitrseed = 0001001110011001001001110000100100110111001111011100001000101100 # bit data of rseed
