[ T-Cross ]
    title = [t-cross] in region mesh
     mesh =  reg            # mesh type is region-wise
      reg =    1            # number of crossing regions
      non     r-from    r-to       area
      1       114       214        1.000000    
   e-type =    3            # e-mesh is log given by emin, emax and ne
     emin =  1.0000000E-02  # minimum value of e-mesh points
     emax =   150.0000      # maximum value of e-mesh points
#    edel =  2.4039514E-02  # mesh width of e-mesh points
       ne =    400          # number of e-mesh points
#    data = ( e(i), i = 1, ne + 1 )
#           1.00000E-02  1.02433E-02  1.04925E-02  1.07478E-02  1.10093E-02
#           1.12772E-02  1.15516E-02  1.18326E-02  1.21205E-02  1.24154E-02
#           1.27175E-02  1.30269E-02  1.33439E-02  1.36686E-02  1.40011E-02
#           1.43418E-02  1.46907E-02  1.50482E-02  1.54143E-02  1.57894E-02
#           1.61735E-02  1.65670E-02  1.69701E-02  1.73830E-02  1.78060E-02
#           1.82392E-02  1.86830E-02  1.91375E-02  1.96032E-02  2.00801E-02
#           2.05687E-02  2.10692E-02  2.15818E-02  2.21069E-02  2.26448E-02
#           2.31957E-02  2.37601E-02  2.43382E-02  2.49304E-02  2.55369E-02
#           2.61583E-02  2.67947E-02  2.74467E-02  2.81145E-02  2.87985E-02
#           2.94992E-02  3.02169E-02  3.09521E-02  3.17052E-02  3.24766E-02
#           3.32668E-02  3.40762E-02  3.49053E-02  3.57546E-02  3.66246E-02
#           3.75157E-02  3.84284E-02  3.93634E-02  4.03212E-02  4.13022E-02
#           4.23071E-02  4.33365E-02  4.43909E-02  4.54710E-02  4.65773E-02
#           4.77106E-02  4.88714E-02  5.00605E-02  5.12785E-02  5.25262E-02
#           5.38042E-02  5.51133E-02  5.64542E-02  5.78278E-02  5.92348E-02
#           6.06760E-02  6.21523E-02  6.36645E-02  6.52135E-02  6.68002E-02
#           6.84255E-02  7.00904E-02  7.17957E-02  7.35426E-02  7.53319E-02
#           7.71648E-02  7.90423E-02  8.09655E-02  8.29354E-02  8.49533E-02
#           8.70203E-02  8.91376E-02  9.13064E-02  9.35279E-02  9.58035E-02
#           9.81345E-02  1.00522E-01  1.02968E-01  1.05473E-01  1.08040E-01
#           1.10668E-01  1.13361E-01  1.16119E-01  1.18944E-01  1.21838E-01
#           1.24803E-01  1.27839E-01  1.30950E-01  1.34136E-01  1.37399E-01
#           1.40742E-01  1.44167E-01  1.47675E-01  1.51268E-01  1.54948E-01
#           1.58718E-01  1.62580E-01  1.66535E-01  1.70587E-01  1.74738E-01
#           1.78989E-01  1.83344E-01  1.87805E-01  1.92375E-01  1.97055E-01
#           2.01850E-01  2.06761E-01  2.11792E-01  2.16945E-01  2.22223E-01
#           2.27630E-01  2.33169E-01  2.38842E-01  2.44653E-01  2.50605E-01
#           2.56703E-01  2.62949E-01  2.69346E-01  2.75900E-01  2.82613E-01
#           2.89489E-01  2.96532E-01  3.03747E-01  3.11138E-01  3.18708E-01
#           3.26462E-01  3.34405E-01  3.42542E-01  3.50876E-01  3.59413E-01
#           3.68158E-01  3.77116E-01  3.86291E-01  3.95690E-01  4.05317E-01
#           4.15179E-01  4.25281E-01  4.35628E-01  4.46227E-01  4.57084E-01
#           4.68205E-01  4.79597E-01  4.91266E-01  5.03219E-01  5.15463E-01
#           5.28005E-01  5.40851E-01  5.54011E-01  5.67490E-01  5.81298E-01
#           5.95441E-01  6.09929E-01  6.24769E-01  6.39970E-01  6.55541E-01
#           6.71491E-01  6.87828E-01  7.04564E-01  7.21706E-01  7.39266E-01
#           7.57253E-01  7.75678E-01  7.94551E-01  8.13883E-01  8.33685E-01
#           8.53969E-01  8.74747E-01  8.96030E-01  9.17831E-01  9.40163E-01
#           9.63038E-01  9.86469E-01  1.01047E+00  1.03506E+00  1.06024E+00
#           1.08604E+00  1.11246E+00  1.13953E+00  1.16725E+00  1.19565E+00
#           1.22474E+00  1.25454E+00  1.28507E+00  1.31633E+00  1.34836E+00
#           1.38117E+00  1.41477E+00  1.44920E+00  1.48446E+00  1.52057E+00
#           1.55757E+00  1.59547E+00  1.63429E+00  1.67405E+00  1.71478E+00
#           1.75650E+00  1.79924E+00  1.84302E+00  1.88786E+00  1.93379E+00
#           1.98084E+00  2.02904E+00  2.07841E+00  2.12898E+00  2.18078E+00
#           2.23384E+00  2.28819E+00  2.34386E+00  2.40089E+00  2.45930E+00
#           2.51914E+00  2.58043E+00  2.64322E+00  2.70753E+00  2.77341E+00
#           2.84088E+00  2.91001E+00  2.98081E+00  3.05333E+00  3.12762E+00
#           3.20372E+00  3.28167E+00  3.36152E+00  3.44330E+00  3.52708E+00
#           3.61290E+00  3.70080E+00  3.79085E+00  3.88308E+00  3.97756E+00
#           4.07434E+00  4.17347E+00  4.27501E+00  4.37903E+00  4.48557E+00
#           4.59471E+00  4.70650E+00  4.82102E+00  4.93832E+00  5.05847E+00
#           5.18155E+00  5.30762E+00  5.43676E+00  5.56904E+00  5.70453E+00
#           5.84333E+00  5.98550E+00  6.13114E+00  6.28031E+00  6.43312E+00
#           6.58964E+00  6.74997E+00  6.91420E+00  7.08243E+00  7.25475E+00
#           7.43126E+00  7.61207E+00  7.79728E+00  7.98700E+00  8.18133E+00
#           8.38038E+00  8.58428E+00  8.79315E+00  9.00709E+00  9.22624E+00
#           9.45072E+00  9.68067E+00  9.91620E+00  1.01575E+01  1.04046E+01
#           1.06578E+01  1.09171E+01  1.11827E+01  1.14548E+01  1.17335E+01
#           1.20190E+01  1.23114E+01  1.26109E+01  1.29178E+01  1.32321E+01
#           1.35540E+01  1.38838E+01  1.42216E+01  1.45676E+01  1.49221E+01
#           1.52851E+01  1.56570E+01  1.60380E+01  1.64282E+01  1.68279E+01
#           1.72374E+01  1.76568E+01  1.80864E+01  1.85264E+01  1.89772E+01
#           1.94389E+01  1.99119E+01  2.03963E+01  2.08926E+01  2.14009E+01
#           2.19216E+01  2.24550E+01  2.30014E+01  2.35610E+01  2.41343E+01
#           2.47215E+01  2.53230E+01  2.59391E+01  2.65702E+01  2.72167E+01
#           2.78789E+01  2.85572E+01  2.92520E+01  2.99637E+01  3.06928E+01
#           3.14396E+01  3.22045E+01  3.29881E+01  3.37907E+01  3.46128E+01
#           3.54550E+01  3.63177E+01  3.72013E+01  3.81064E+01  3.90336E+01
#           3.99833E+01  4.09561E+01  4.19526E+01  4.29734E+01  4.40189E+01
#           4.50900E+01  4.61870E+01  4.73108E+01  4.84619E+01  4.96410E+01
#           5.08488E+01  5.20860E+01  5.33533E+01  5.46514E+01  5.59812E+01
#           5.73432E+01  5.87384E+01  6.01676E+01  6.16315E+01  6.31311E+01
#           6.46671E+01  6.62405E+01  6.78522E+01  6.95031E+01  7.11941E+01
#           7.29263E+01  7.47007E+01  7.65182E+01  7.83800E+01  8.02870E+01
#           8.22405E+01  8.42414E+01  8.62911E+01  8.83906E+01  9.05412E+01
#           9.27442E+01  9.50007E+01  9.73122E+01  9.96799E+01  1.02105E+02
#           1.04589E+02  1.07134E+02  1.09741E+02  1.12411E+02  1.15146E+02
#           1.17948E+02  1.20817E+02  1.23757E+02  1.26768E+02  1.29852E+02
#           1.33012E+02  1.36248E+02  1.39563E+02  1.42959E+02  1.46437E+02
#           1.50000E+02
     unit =    2            # unit is [1/cm^2/(MeV/n)/source]
     axis =  eng            # axis of output
     file = detector-15.out  # file name of output for the above axis
   output = f-curr          # surface crossing forward current spectrum
     part =  neutron  
# kf/name :  2112     
#    used :        main (  %)        temp (  %)       total (  %)
#  memory :         414 (  0)           0 (  0)         414 (  0)

#------------------------------------------------------------------------------
#newpage:
#   no. =    1   reg = 114 - 214

x: Energy [MeV/n]
y:  F-Curr [1/cm^2/(MeV/n)/source]         
p: xlog ylog afac(0.8) form(0.9)
h: n            x            y(neutron ),hh0l   n 
#  e-lower      e-upper      neutron     r.err 
   1.0000E-02   1.0243E-02   7.1082E-04  0.0755
   1.0243E-02   1.0493E-02   5.6041E-04  0.0839
   1.0493E-02   1.0748E-02   5.7985E-04  0.0817
   1.0748E-02   1.1009E-02   5.9946E-04  0.0793
   1.1009E-02   1.1277E-02   6.6047E-04  0.0747
   1.1277E-02   1.1552E-02   5.5793E-04  0.0799
   1.1552E-02   1.1833E-02   4.6338E-04  0.0867
   1.1833E-02   1.2121E-02   4.9993E-04  0.0827
   1.2121E-02   1.2415E-02   5.2629E-04  0.0795
   1.2415E-02   1.2718E-02   5.3340E-04  0.0782
   1.2718E-02   1.3027E-02   5.1581E-04  0.0784
   1.3027E-02   1.3344E-02   4.7761E-04  0.0808
   1.3344E-02   1.3669E-02   4.8863E-04  0.0786
   1.3669E-02   1.4001E-02   4.2620E-04  0.0834
   1.4001E-02   1.4342E-02   5.2086E-04  0.0748
   1.4342E-02   1.4691E-02   4.8577E-04  0.0762
   1.4691E-02   1.5048E-02   4.4848E-04  0.0785
   1.5048E-02   1.5414E-02   4.0934E-04  0.0811
   1.5414E-02   1.5789E-02   4.8644E-04  0.0733
   1.5789E-02   1.6174E-02   4.0899E-04  0.0792
   1.6174E-02   1.6567E-02   3.6954E-04  0.0820
   1.6567E-02   1.6970E-02   3.5258E-04  0.0830
   1.6970E-02   1.7383E-02   3.9522E-04  0.0777
   1.7383E-02   1.7806E-02   4.1539E-04  0.0746
   1.7806E-02   1.8239E-02   3.6057E-04  0.0794
   1.8239E-02   1.8683E-02   3.1505E-04  0.0839
   1.8683E-02   1.9138E-02   3.7096E-04  0.0765
   1.9138E-02   1.9603E-02   3.4941E-04  0.0776
   1.9603E-02   2.0080E-02   3.4687E-04  0.0774
   2.0080E-02   2.0569E-02   3.5026E-04  0.0758
   2.0569E-02   2.1069E-02   3.2132E-04  0.0780
   2.1069E-02   2.1582E-02   3.3689E-04  0.0754
   2.1582E-02   2.2107E-02   3.4318E-04  0.0741
   2.2107E-02   2.2645E-02   2.5200E-04  0.0848
   2.2645E-02   2.3196E-02   3.3674E-04  0.0728
   2.3196E-02   2.3760E-02   2.7753E-04  0.0792
   2.3760E-02   2.4338E-02   2.6145E-04  0.0809
   2.4338E-02   2.4930E-02   2.8243E-04  0.0765
   2.4930E-02   2.5537E-02   2.3894E-04  0.0823
   2.5537E-02   2.6158E-02   2.6980E-04  0.0767
   2.6158E-02   2.6795E-02   2.5901E-04  0.0774
   2.6795E-02   2.7447E-02   2.7389E-04  0.0742
   2.7447E-02   2.8114E-02   2.3095E-04  0.0797
   2.8114E-02   2.8799E-02   2.1231E-04  0.0819
   2.8799E-02   2.9499E-02   2.6674E-04  0.0725
   2.9499E-02   3.0217E-02   2.3055E-04  0.0773
   3.0217E-02   3.0952E-02   2.4365E-04  0.0741
   3.0952E-02   3.1705E-02   2.4188E-04  0.0735
   3.1705E-02   3.2477E-02   2.0303E-04  0.0792
   3.2477E-02   3.3267E-02   2.2806E-04  0.0739
   3.3267E-02   3.4076E-02   2.3725E-04  0.0718
   3.4076E-02   3.4905E-02   2.1552E-04  0.0742
   3.4905E-02   3.5755E-02   2.0167E-04  0.0757
   3.5755E-02   3.6625E-02   1.9026E-04  0.0770
   3.6625E-02   3.7516E-02   2.0836E-04  0.0725
   3.7516E-02   3.8428E-02   1.7879E-04  0.0776
   3.8428E-02   3.9363E-02   1.7844E-04  0.0768
   3.9363E-02   4.0321E-02   1.5236E-04  0.0819
   4.0321E-02   4.1302E-02   1.7119E-04  0.0767
   4.1302E-02   4.2307E-02   1.8161E-04  0.0732
   4.2307E-02   4.3337E-02   1.7703E-04  0.0733
   4.3337E-02   4.4391E-02   1.7253E-04  0.0734
   4.4391E-02   4.5471E-02   1.7306E-04  0.0725
   4.5471E-02   4.6577E-02   1.7214E-04  0.0718
   4.6577E-02   4.7711E-02   1.3838E-04  0.0792
   4.7711E-02   4.8871E-02   1.6889E-04  0.0709
   4.8871E-02   5.0061E-02   1.4590E-04  0.0753
   5.0061E-02   5.1279E-02   1.4678E-04  0.0741
   5.1279E-02   5.2526E-02   1.2823E-04  0.0783
   5.2526E-02   5.3804E-02   1.4418E-04  0.0729
   5.3804E-02   5.5113E-02   1.4034E-04  0.0733
   5.5113E-02   5.6454E-02   1.4824E-04  0.0703
   5.6454E-02   5.7828E-02   1.2101E-04  0.0767
   5.7828E-02   5.9235E-02   1.4651E-04  0.0693
   5.9235E-02   6.0676E-02   1.2661E-04  0.0733
   6.0676E-02   6.2152E-02   1.3653E-04  0.0700
   6.2152E-02   6.3665E-02   1.2819E-04  0.0711
   6.3665E-02   6.5214E-02   1.1466E-04  0.0743
   6.5214E-02   6.6800E-02   1.0656E-04  0.0761
   6.6800E-02   6.8426E-02   9.6141E-05  0.0793
   6.8426E-02   7.0090E-02   1.1722E-04  0.0709
   7.0090E-02   7.1796E-02   1.1221E-04  0.0717
   7.1796E-02   7.3543E-02   1.2058E-04  0.0684
   7.3543E-02   7.5332E-02   1.1564E-04  0.0688
   7.5332E-02   7.7165E-02   1.1488E-04  0.0684
   7.7165E-02   7.9042E-02   1.0794E-04  0.0697
   7.9042E-02   8.0965E-02   9.1461E-05  0.0748
   8.0965E-02   8.2935E-02   1.0300E-04  0.0695
   8.2935E-02   8.4953E-02   1.1442E-04  0.0654
   8.4953E-02   8.7020E-02   8.4462E-05  0.0753
   8.7020E-02   8.9138E-02   1.0126E-04  0.0678
   8.9138E-02   9.1306E-02   8.1225E-05  0.0746
   9.1306E-02   9.3528E-02   9.7891E-05  0.0670
   9.3528E-02   9.5804E-02   9.1705E-05  0.0686
   9.5804E-02   9.8134E-02   7.7490E-05  0.0736
   9.8134E-02   1.0052E-01   8.7654E-05  0.0686
   1.0052E-01   1.0297E-01   8.3188E-05  0.0693
   1.0297E-01   1.0547E-01   7.9645E-05  0.0702
   1.0547E-01   1.0804E-01   7.4495E-05  0.0716
   1.0804E-01   1.1067E-01   7.9708E-05  0.0683
   1.1067E-01   1.1336E-01   8.2884E-05  0.0661
   1.1336E-01   1.1612E-01   6.9381E-05  0.0717
   1.1612E-01   1.1894E-01   7.5515E-05  0.0680
   1.1894E-01   1.2184E-01   7.1830E-05  0.0688
   1.2184E-01   1.2480E-01   7.9818E-05  0.0644
   1.2480E-01   1.2784E-01   7.1691E-05  0.0670
   1.2784E-01   1.3095E-01   6.7038E-05  0.0688
   1.3095E-01   1.3414E-01   5.8137E-05  0.0730
   1.3414E-01   1.3740E-01   6.5213E-05  0.0677
   1.3740E-01   1.4074E-01   6.0188E-05  0.0699
   1.4074E-01   1.4417E-01   6.2348E-05  0.0677
   1.4417E-01   1.4767E-01   6.5338E-05  0.0656
   1.4767E-01   1.5127E-01   5.8787E-05  0.0684
   1.5127E-01   1.5495E-01   5.9144E-05  0.0675
   1.5495E-01   1.5872E-01   5.4127E-05  0.0694
   1.5872E-01   1.6258E-01   6.2042E-05  0.0642
   1.6258E-01   1.6654E-01   5.8075E-05  0.0656
   1.6654E-01   1.7059E-01   5.7090E-05  0.0652
   1.7059E-01   1.7474E-01   5.0234E-05  0.0686
   1.7474E-01   1.7899E-01   5.7456E-05  0.0634
   1.7899E-01   1.8334E-01   5.4076E-05  0.0646
   1.8334E-01   1.8781E-01   5.5250E-05  0.0632
   1.8781E-01   1.9237E-01   5.2630E-05  0.0640
   1.9237E-01   1.9706E-01   5.5440E-05  0.0616
   1.9706E-01   2.0185E-01   6.4281E-05  0.0564
   2.0185E-01   2.0676E-01   5.2631E-05  0.0617
   2.0676E-01   2.1179E-01   5.7379E-05  0.0584
   2.1179E-01   2.1694E-01   5.3410E-05  0.0597
   2.1694E-01   2.2222E-01   5.7489E-05  0.0570
   2.2222E-01   2.2763E-01   5.5852E-05  0.0570
   2.2763E-01   2.3317E-01   6.1524E-05  0.0537
   2.3317E-01   2.3884E-01   6.2224E-05  0.0528
   2.3884E-01   2.4465E-01   6.6557E-05  0.0504
   2.4465E-01   2.5061E-01   6.9712E-05  0.0486
   2.5061E-01   2.5670E-01   6.8207E-05  0.0486
   2.5670E-01   2.6295E-01   7.0137E-05  0.0473
   2.6295E-01   2.6935E-01   7.9588E-05  0.0439
   2.6935E-01   2.7590E-01   8.0101E-05  0.0433
   2.7590E-01   2.8261E-01   8.0615E-05  0.0426
   2.8261E-01   2.8949E-01   7.9267E-05  0.0424
   2.8949E-01   2.9653E-01   8.6785E-05  0.0401
   2.9653E-01   3.0375E-01   9.2537E-05  0.0383
   3.0375E-01   3.1114E-01   9.4284E-05  0.0375
   3.1114E-01   3.1871E-01   1.0017E-04  0.0360
   3.1871E-01   3.2646E-01   1.0848E-04  0.0342
   3.2646E-01   3.3441E-01   1.0788E-04  0.0338
   3.3441E-01   3.4254E-01   1.1370E-04  0.0326
   3.4254E-01   3.5088E-01   1.1923E-04  0.0314
   3.5088E-01   3.5941E-01   1.2182E-04  0.0308
   3.5941E-01   3.6816E-01   1.2363E-04  0.0301
   3.6816E-01   3.7712E-01   1.3479E-04  0.0285
   3.7712E-01   3.8629E-01   1.3344E-04  0.0283
   3.8629E-01   3.9569E-01   1.4057E-04  0.0272
   3.9569E-01   4.0532E-01   1.4732E-04  0.0263
   4.0532E-01   4.1518E-01   1.4712E-04  0.0260
   4.1518E-01   4.2528E-01   1.6169E-04  0.0245
   4.2528E-01   4.3563E-01   1.6059E-04  0.0243
   4.3563E-01   4.4623E-01   1.7555E-04  0.0230
   4.4623E-01   4.5708E-01   1.7587E-04  0.0227
   4.5708E-01   4.6821E-01   1.8354E-04  0.0219
   4.6821E-01   4.7960E-01   1.8931E-04  0.0214
   4.7960E-01   4.9127E-01   2.0022E-04  0.0205
   4.9127E-01   5.0322E-01   2.0220E-04  0.0202
   5.0322E-01   5.1546E-01   2.0937E-04  0.0196
   5.1546E-01   5.2800E-01   2.1407E-04  0.0191
   5.2800E-01   5.4085E-01   2.2298E-04  0.0185
   5.4085E-01   5.5401E-01   2.2745E-04  0.0181
   5.5401E-01   5.6749E-01   2.3570E-04  0.0176
   5.6749E-01   5.8130E-01   2.4345E-04  0.0171
   5.8130E-01   5.9544E-01   2.5157E-04  0.0166
   5.9544E-01   6.0993E-01   2.6563E-04  0.0160
   6.0993E-01   6.2477E-01   2.7340E-04  0.0155
   6.2477E-01   6.3997E-01   2.8256E-04  0.0151
   6.3997E-01   6.5554E-01   2.9105E-04  0.0147
   6.5554E-01   6.7149E-01   2.9771E-04  0.0144
   6.7149E-01   6.8783E-01   3.1109E-04  0.0139
   6.8783E-01   7.0456E-01   3.1162E-04  0.0137
   7.0456E-01   7.2171E-01   3.1695E-04  0.0134
   7.2171E-01   7.3927E-01   3.3767E-04  0.0129
   7.3927E-01   7.5725E-01   3.4859E-04  0.0125
   7.5725E-01   7.7568E-01   3.5405E-04  0.0123
   7.7568E-01   7.9455E-01   3.6970E-04  0.0119
   7.9455E-01   8.1388E-01   3.7513E-04  0.0116
   8.1388E-01   8.3368E-01   3.8857E-04  0.0113
   8.3368E-01   8.5397E-01   4.0782E-04  0.0109
   8.5397E-01   8.7475E-01   4.1604E-04  0.0107
   8.7475E-01   8.9603E-01   4.1746E-04  0.0105
   8.9603E-01   9.1783E-01   4.3036E-04  0.0102
   9.1783E-01   9.4016E-01   4.5513E-04  0.0098
   9.4016E-01   9.6304E-01   4.5981E-04  0.0097
   9.6304E-01   9.8647E-01   4.7295E-04  0.0094
   9.8647E-01   1.0105E+00   4.7851E-04  0.0092
   1.0105E+00   1.0351E+00   4.8184E-04  0.0091
   1.0351E+00   1.0602E+00   4.9118E-04  0.0089
   1.0602E+00   1.0860E+00   4.9809E-04  0.0087
   1.0860E+00   1.1125E+00   4.9646E-04  0.0086
   1.1125E+00   1.1395E+00   5.1019E-04  0.0084
   1.1395E+00   1.1673E+00   5.2566E-04  0.0082
   1.1673E+00   1.1957E+00   5.3294E-04  0.0080
   1.1957E+00   1.2247E+00   5.3666E-04  0.0079
   1.2247E+00   1.2545E+00   5.4796E-04  0.0077
   1.2545E+00   1.2851E+00   5.4570E-04  0.0077
   1.2851E+00   1.3163E+00   5.4996E-04  0.0075
   1.3163E+00   1.3484E+00   5.5682E-04  0.0074
   1.3484E+00   1.3812E+00   5.6604E-04  0.0073
   1.3812E+00   1.4148E+00   5.7443E-04  0.0071
   1.4148E+00   1.4492E+00   5.8586E-04  0.0070
   1.4492E+00   1.4845E+00   6.0421E-04  0.0068
   1.4845E+00   1.5206E+00   5.9532E-04  0.0068
   1.5206E+00   1.5576E+00   6.0058E-04  0.0066
   1.5576E+00   1.5955E+00   5.9678E-04  0.0066
   1.5955E+00   1.6343E+00   5.9095E-04  0.0065
   1.6343E+00   1.6741E+00   5.9053E-04  0.0065
   1.6741E+00   1.7148E+00   5.9348E-04  0.0064
   1.7148E+00   1.7565E+00   5.9321E-04  0.0063
   1.7565E+00   1.7992E+00   5.9362E-04  0.0062
   1.7992E+00   1.8430E+00   5.9910E-04  0.0061
   1.8430E+00   1.8879E+00   5.9656E-04  0.0060
   1.8879E+00   1.9338E+00   5.8982E-04  0.0060
   1.9338E+00   1.9808E+00   6.0145E-04  0.0059
   1.9808E+00   2.0290E+00   5.9896E-04  0.0058
   2.0290E+00   2.0784E+00   5.8745E-04  0.0058
   2.0784E+00   2.1290E+00   5.7633E-04  0.0058
   2.1290E+00   2.1808E+00   5.7703E-04  0.0057
   2.1808E+00   2.2338E+00   5.6014E-04  0.0057
   2.2338E+00   2.2882E+00   5.6023E-04  0.0057
   2.2882E+00   2.3439E+00   5.5312E-04  0.0056
   2.3439E+00   2.4009E+00   5.4844E-04  0.0056
   2.4009E+00   2.4593E+00   5.5211E-04  0.0055
   2.4593E+00   2.5191E+00   5.4680E-04  0.0055
   2.5191E+00   2.5804E+00   5.4266E-04  0.0054
   2.5804E+00   2.6432E+00   5.3346E-04  0.0054
   2.6432E+00   2.7075E+00   5.1998E-04  0.0054
   2.7075E+00   2.7734E+00   5.1596E-04  0.0054
   2.7734E+00   2.8409E+00   5.0010E-04  0.0054
   2.8409E+00   2.9100E+00   4.9036E-04  0.0054
   2.9100E+00   2.9808E+00   4.8934E-04  0.0053
   2.9808E+00   3.0533E+00   4.8778E-04  0.0053
   3.0533E+00   3.1276E+00   4.8126E-04  0.0052
   3.1276E+00   3.2037E+00   4.6361E-04  0.0053
   3.2037E+00   3.2817E+00   4.5413E-04  0.0053
   3.2817E+00   3.3615E+00   4.4329E-04  0.0053
   3.3615E+00   3.4433E+00   4.3568E-04  0.0052
   3.4433E+00   3.5271E+00   4.3492E-04  0.0052
   3.5271E+00   3.6129E+00   4.2594E-04  0.0052
   3.6129E+00   3.7008E+00   4.1272E-04  0.0052
   3.7008E+00   3.7908E+00   4.0074E-04  0.0052
   3.7908E+00   3.8831E+00   3.9289E-04  0.0052
   3.8831E+00   3.9776E+00   3.8800E-04  0.0052
   3.9776E+00   4.0743E+00   3.7932E-04  0.0052
   4.0743E+00   4.1735E+00   3.7148E-04  0.0052
   4.1735E+00   4.2750E+00   3.6265E-04  0.0052
   4.2750E+00   4.3790E+00   3.5357E-04  0.0052
   4.3790E+00   4.4856E+00   3.4878E-04  0.0051
   4.4856E+00   4.5947E+00   3.4392E-04  0.0051
   4.5947E+00   4.7065E+00   3.3526E-04  0.0051
   4.7065E+00   4.8210E+00   3.2813E-04  0.0051
   4.8210E+00   4.9383E+00   3.2359E-04  0.0051
   4.9383E+00   5.0585E+00   3.2212E-04  0.0050
   5.0585E+00   5.1815E+00   3.1810E-04  0.0050
   5.1815E+00   5.3076E+00   3.1130E-04  0.0050
   5.3076E+00   5.4368E+00   3.0477E-04  0.0050
   5.4368E+00   5.5690E+00   2.9678E-04  0.0050
   5.5690E+00   5.7045E+00   2.8864E-04  0.0050
   5.7045E+00   5.8433E+00   2.7877E-04  0.0050
   5.8433E+00   5.9855E+00   2.7279E-04  0.0050
   5.9855E+00   6.1311E+00   2.6566E-04  0.0050
   6.1311E+00   6.2803E+00   2.5942E-04  0.0050
   6.2803E+00   6.4331E+00   2.5117E-04  0.0051
   6.4331E+00   6.5896E+00   2.4117E-04  0.0051
   6.5896E+00   6.7500E+00   2.3566E-04  0.0051
   6.7500E+00   6.9142E+00   2.2961E-04  0.0051
   6.9142E+00   7.0824E+00   2.2301E-04  0.0051
   7.0824E+00   7.2548E+00   2.1599E-04  0.0052
   7.2548E+00   7.4313E+00   2.1072E-04  0.0052
   7.4313E+00   7.6121E+00   2.0633E-04  0.0052
   7.6121E+00   7.7973E+00   1.9991E-04  0.0052
   7.7973E+00   7.9870E+00   1.9472E-04  0.0052
   7.9870E+00   8.1813E+00   1.8735E-04  0.0052
   8.1813E+00   8.3804E+00   1.8276E-04  0.0052
   8.3804E+00   8.5843E+00   1.7719E-04  0.0052
   8.5843E+00   8.7931E+00   1.7119E-04  0.0053
   8.7931E+00   9.0071E+00   1.6679E-04  0.0053
   9.0071E+00   9.2262E+00   1.6193E-04  0.0053
   9.2262E+00   9.4507E+00   1.5763E-04  0.0053
   9.4507E+00   9.6807E+00   1.5185E-04  0.0053
   9.6807E+00   9.9162E+00   1.4732E-04  0.0054
   9.9162E+00   1.0157E+01   1.4372E-04  0.0054
   1.0157E+01   1.0405E+01   1.3884E-04  0.0054
   1.0405E+01   1.0658E+01   1.3457E-04  0.0054
   1.0658E+01   1.0917E+01   1.3046E-04  0.0054
   1.0917E+01   1.1183E+01   1.2572E-04  0.0055
   1.1183E+01   1.1455E+01   1.2106E-04  0.0055
   1.1455E+01   1.1733E+01   1.1701E-04  0.0055
   1.1733E+01   1.2019E+01   1.1344E-04  0.0055
   1.2019E+01   1.2311E+01   1.0909E-04  0.0056
   1.2311E+01   1.2611E+01   1.0486E-04  0.0056
   1.2611E+01   1.2918E+01   1.0130E-04  0.0057
   1.2918E+01   1.3232E+01   9.7950E-05  0.0057
   1.3232E+01   1.3554E+01   9.4188E-05  0.0057
   1.3554E+01   1.3884E+01   9.0654E-05  0.0058
   1.3884E+01   1.4222E+01   8.7717E-05  0.0058
   1.4222E+01   1.4568E+01   8.4199E-05  0.0059
   1.4568E+01   1.4922E+01   8.0332E-05  0.0059
   1.4922E+01   1.5285E+01   7.7988E-05  0.0059
   1.5285E+01   1.5657E+01   7.4311E-05  0.0060
   1.5657E+01   1.6038E+01   7.1512E-05  0.0061
   1.6038E+01   1.6428E+01   6.8510E-05  0.0061
   1.6428E+01   1.6828E+01   6.5512E-05  0.0062
   1.6828E+01   1.7237E+01   6.2798E-05  0.0062
   1.7237E+01   1.7657E+01   5.9466E-05  0.0063
   1.7657E+01   1.8086E+01   5.6964E-05  0.0064
   1.8086E+01   1.8526E+01   5.5269E-05  0.0064
   1.8526E+01   1.8977E+01   5.2532E-05  0.0065
   1.8977E+01   1.9439E+01   5.1547E-05  0.0065
   1.9439E+01   1.9912E+01   5.1801E-05  0.0064
   1.9912E+01   2.0396E+01   5.0884E-05  0.0064
   2.0396E+01   2.0893E+01   4.8849E-05  0.0064
   2.0893E+01   2.1401E+01   4.6060E-05  0.0065
   2.1401E+01   2.1922E+01   4.3739E-05  0.0066
   2.1922E+01   2.2455E+01   4.1590E-05  0.0067
   2.2455E+01   2.3001E+01   3.9824E-05  0.0068
   2.3001E+01   2.3561E+01   3.7538E-05  0.0069
   2.3561E+01   2.4134E+01   3.5752E-05  0.0070
   2.4134E+01   2.4721E+01   3.3579E-05  0.0071
   2.4721E+01   2.5323E+01   3.1420E-05  0.0073
   2.5323E+01   2.5939E+01   2.9593E-05  0.0074
   2.5939E+01   2.6570E+01   2.7530E-05  0.0076
   2.6570E+01   2.7217E+01   2.5961E-05  0.0077
   2.7217E+01   2.7879E+01   2.4486E-05  0.0079
   2.7879E+01   2.8557E+01   2.2609E-05  0.0081
   2.8557E+01   2.9252E+01   2.1017E-05  0.0083
   2.9252E+01   2.9964E+01   1.9659E-05  0.0085
   2.9964E+01   3.0693E+01   1.7895E-05  0.0088
   3.0693E+01   3.1440E+01   1.6856E-05  0.0089
   3.1440E+01   3.2205E+01   1.5391E-05  0.0092
   3.2205E+01   3.2988E+01   1.4264E-05  0.0095
   3.2988E+01   3.3791E+01   1.3239E-05  0.0097
   3.3791E+01   3.4613E+01   1.2101E-05  0.0100
   3.4613E+01   3.5455E+01   1.1064E-05  0.0104
   3.5455E+01   3.6318E+01   1.0090E-05  0.0107
   3.6318E+01   3.7201E+01   9.2131E-06  0.0111
   3.7201E+01   3.8106E+01   8.3181E-06  0.0115
   3.8106E+01   3.9034E+01   7.7818E-06  0.0118
   3.9034E+01   3.9983E+01   7.0621E-06  0.0122
   3.9983E+01   4.0956E+01   6.2591E-06  0.0128
   4.0956E+01   4.1953E+01   5.6649E-06  0.0133
   4.1953E+01   4.2973E+01   5.0865E-06  0.0139
   4.2973E+01   4.4019E+01   4.5640E-06  0.0145
   4.4019E+01   4.5090E+01   4.1409E-06  0.0150
   4.5090E+01   4.6187E+01   3.6278E-06  0.0159
   4.6187E+01   4.7311E+01   3.2186E-06  0.0166
   4.7311E+01   4.8462E+01   2.7895E-06  0.0176
   4.8462E+01   4.9641E+01   2.5477E-06  0.0182
   4.9641E+01   5.0849E+01   2.1874E-06  0.0195
   5.0849E+01   5.2086E+01   1.9762E-06  0.0202
   5.2086E+01   5.3353E+01   1.7628E-06  0.0212
   5.3353E+01   5.4651E+01   1.5106E-06  0.0226
   5.4651E+01   5.5981E+01   1.3101E-06  0.0240
   5.5981E+01   5.7343E+01   1.0925E-06  0.0259
   5.7343E+01   5.8738E+01   9.1958E-07  0.0279
   5.8738E+01   6.0168E+01   7.5429E-07  0.0305
   6.0168E+01   6.1632E+01   6.0659E-07  0.0336
   6.1632E+01   6.3131E+01   5.0749E-07  0.0362
   6.3131E+01   6.4667E+01   4.0169E-07  0.0403
   6.4667E+01   6.6240E+01   3.6481E-07  0.0417
   6.6240E+01   6.7852E+01   2.3516E-07  0.0514
   6.7852E+01   6.9503E+01   1.9383E-07  0.0559
   6.9503E+01   7.1194E+01   1.5138E-07  0.0625
   7.1194E+01   7.2926E+01   1.1257E-07  0.0716
   7.2926E+01   7.4701E+01   8.2847E-08  0.0825
   7.4701E+01   7.6518E+01   4.8417E-08  0.1066
   7.6518E+01   7.8380E+01   3.6525E-08  0.1213
   7.8380E+01   8.0287E+01   2.2024E-08  0.1543
   8.0287E+01   8.2240E+01   1.7917E-08  0.1690
   8.2240E+01   8.4241E+01   6.4968E-09  0.2774
   8.4241E+01   8.6291E+01   3.4152E-09  0.3780
   8.6291E+01   8.8391E+01   2.3815E-09  0.4472
   8.8391E+01   9.0541E+01   9.2997E-10  0.7071
   9.0541E+01   9.2744E+01   1.3618E-09  0.5774
   9.2744E+01   9.5001E+01   4.4316E-10  1.0000
   9.5001E+01   9.7312E+01   0.0000E+00  0.0000
   9.7312E+01   9.9680E+01   0.0000E+00  0.0000
   9.9680E+01   1.0211E+02   0.0000E+00  0.0000
   1.0211E+02   1.0459E+02   0.0000E+00  0.0000
   1.0459E+02   1.0713E+02   0.0000E+00  0.0000
   1.0713E+02   1.0974E+02   0.0000E+00  0.0000
   1.0974E+02   1.1241E+02   0.0000E+00  0.0000
   1.1241E+02   1.1515E+02   0.0000E+00  0.0000
   1.1515E+02   1.1795E+02   0.0000E+00  0.0000
   1.1795E+02   1.2082E+02   0.0000E+00  0.0000
   1.2082E+02   1.2376E+02   0.0000E+00  0.0000
   1.2376E+02   1.2677E+02   0.0000E+00  0.0000
   1.2677E+02   1.2985E+02   0.0000E+00  0.0000
   1.2985E+02   1.3301E+02   0.0000E+00  0.0000
   1.3301E+02   1.3625E+02   0.0000E+00  0.0000
   1.3625E+02   1.3956E+02   0.0000E+00  0.0000
   1.3956E+02   1.4296E+02   0.0000E+00  0.0000
   1.4296E+02   1.4644E+02   0.0000E+00  0.0000
   1.4644E+02   1.5000E+02   0.0000E+00  0.0000

#   sum over                 3.0252E-05
'no. =    1   reg = 114 - 214'
msuc: {\huge [t-cross] in region mesh}
msdr: {\it plotted by \ANGEL \version}
msdl: {\it calculated by \PHITS  3.26}
wt: s(0.7)
\vspace{-3}
  region surface crossing
  area  &=&   1.0000E+00 [cm^2]
e:
 
# Information for Restart Calculation
# This calculation was newly started
# istdev =  2 # 1:Batch variance, 2:History variance
# resc2  = 1.00000000000000000E+09 # Total source weight or Total source weight / maxcas
# resc3  = 1.00000000000000000E+09 # Total history number or Total batch number
# maxcas =   500000000 # History / Batch, only used for istdev=1
# bitrseed = 0001001110011001001001110000100100110111001111011100001000101100 # bit data of rseed
