0 <--- number of remaining batches 

-------------------------------------------------------------------------------
bat[      10] ncas =     5000000000.
 bitrseed = 0001011101011011011000011100010110101100100111100111010011101011
          cpu time =   3 h.  2 m. 53.26 s.

 date = 2022-05-18
 time = 23h 04m 56s

