[ T-Cross ]
    title = [t-cross] in region mesh
     mesh =  reg            # mesh type is region-wise
      reg =    1            # number of crossing regions
      non     r-from    r-to       area
      1       105       205        1.000000    
   e-type =    3            # e-mesh is log given by emin, emax and ne
     emin =  1.0000000E-02  # minimum value of e-mesh points
     emax =   150.0000      # maximum value of e-mesh points
#    edel =  2.4039514E-02  # mesh width of e-mesh points
       ne =    400          # number of e-mesh points
#    data = ( e(i), i = 1, ne + 1 )
#           1.00000E-02  1.02433E-02  1.04925E-02  1.07478E-02  1.10093E-02
#           1.12772E-02  1.15516E-02  1.18326E-02  1.21205E-02  1.24154E-02
#           1.27175E-02  1.30269E-02  1.33439E-02  1.36686E-02  1.40011E-02
#           1.43418E-02  1.46907E-02  1.50482E-02  1.54143E-02  1.57894E-02
#           1.61735E-02  1.65670E-02  1.69701E-02  1.73830E-02  1.78060E-02
#           1.82392E-02  1.86830E-02  1.91375E-02  1.96032E-02  2.00801E-02
#           2.05687E-02  2.10692E-02  2.15818E-02  2.21069E-02  2.26448E-02
#           2.31957E-02  2.37601E-02  2.43382E-02  2.49304E-02  2.55369E-02
#           2.61583E-02  2.67947E-02  2.74467E-02  2.81145E-02  2.87985E-02
#           2.94992E-02  3.02169E-02  3.09521E-02  3.17052E-02  3.24766E-02
#           3.32668E-02  3.40762E-02  3.49053E-02  3.57546E-02  3.66246E-02
#           3.75157E-02  3.84284E-02  3.93634E-02  4.03212E-02  4.13022E-02
#           4.23071E-02  4.33365E-02  4.43909E-02  4.54710E-02  4.65773E-02
#           4.77106E-02  4.88714E-02  5.00605E-02  5.12785E-02  5.25262E-02
#           5.38042E-02  5.51133E-02  5.64542E-02  5.78278E-02  5.92348E-02
#           6.06760E-02  6.21523E-02  6.36645E-02  6.52135E-02  6.68002E-02
#           6.84255E-02  7.00904E-02  7.17957E-02  7.35426E-02  7.53319E-02
#           7.71648E-02  7.90423E-02  8.09655E-02  8.29354E-02  8.49533E-02
#           8.70203E-02  8.91376E-02  9.13064E-02  9.35279E-02  9.58035E-02
#           9.81345E-02  1.00522E-01  1.02968E-01  1.05473E-01  1.08040E-01
#           1.10668E-01  1.13361E-01  1.16119E-01  1.18944E-01  1.21838E-01
#           1.24803E-01  1.27839E-01  1.30950E-01  1.34136E-01  1.37399E-01
#           1.40742E-01  1.44167E-01  1.47675E-01  1.51268E-01  1.54948E-01
#           1.58718E-01  1.62580E-01  1.66535E-01  1.70587E-01  1.74738E-01
#           1.78989E-01  1.83344E-01  1.87805E-01  1.92375E-01  1.97055E-01
#           2.01850E-01  2.06761E-01  2.11792E-01  2.16945E-01  2.22223E-01
#           2.27630E-01  2.33169E-01  2.38842E-01  2.44653E-01  2.50605E-01
#           2.56703E-01  2.62949E-01  2.69346E-01  2.75900E-01  2.82613E-01
#           2.89489E-01  2.96532E-01  3.03747E-01  3.11138E-01  3.18708E-01
#           3.26462E-01  3.34405E-01  3.42542E-01  3.50876E-01  3.59413E-01
#           3.68158E-01  3.77116E-01  3.86291E-01  3.95690E-01  4.05317E-01
#           4.15179E-01  4.25281E-01  4.35628E-01  4.46227E-01  4.57084E-01
#           4.68205E-01  4.79597E-01  4.91266E-01  5.03219E-01  5.15463E-01
#           5.28005E-01  5.40851E-01  5.54011E-01  5.67490E-01  5.81298E-01
#           5.95441E-01  6.09929E-01  6.24769E-01  6.39970E-01  6.55541E-01
#           6.71491E-01  6.87828E-01  7.04564E-01  7.21706E-01  7.39266E-01
#           7.57253E-01  7.75678E-01  7.94551E-01  8.13883E-01  8.33685E-01
#           8.53969E-01  8.74747E-01  8.96030E-01  9.17831E-01  9.40163E-01
#           9.63038E-01  9.86469E-01  1.01047E+00  1.03506E+00  1.06024E+00
#           1.08604E+00  1.11246E+00  1.13953E+00  1.16725E+00  1.19565E+00
#           1.22474E+00  1.25454E+00  1.28507E+00  1.31633E+00  1.34836E+00
#           1.38117E+00  1.41477E+00  1.44920E+00  1.48446E+00  1.52057E+00
#           1.55757E+00  1.59547E+00  1.63429E+00  1.67405E+00  1.71478E+00
#           1.75650E+00  1.79924E+00  1.84302E+00  1.88786E+00  1.93379E+00
#           1.98084E+00  2.02904E+00  2.07841E+00  2.12898E+00  2.18078E+00
#           2.23384E+00  2.28819E+00  2.34386E+00  2.40089E+00  2.45930E+00
#           2.51914E+00  2.58043E+00  2.64322E+00  2.70753E+00  2.77341E+00
#           2.84088E+00  2.91001E+00  2.98081E+00  3.05333E+00  3.12762E+00
#           3.20372E+00  3.28167E+00  3.36152E+00  3.44330E+00  3.52708E+00
#           3.61290E+00  3.70080E+00  3.79085E+00  3.88308E+00  3.97756E+00
#           4.07434E+00  4.17347E+00  4.27501E+00  4.37903E+00  4.48557E+00
#           4.59471E+00  4.70650E+00  4.82102E+00  4.93832E+00  5.05847E+00
#           5.18155E+00  5.30762E+00  5.43676E+00  5.56904E+00  5.70453E+00
#           5.84333E+00  5.98550E+00  6.13114E+00  6.28031E+00  6.43312E+00
#           6.58964E+00  6.74997E+00  6.91420E+00  7.08243E+00  7.25475E+00
#           7.43126E+00  7.61207E+00  7.79728E+00  7.98700E+00  8.18133E+00
#           8.38038E+00  8.58428E+00  8.79315E+00  9.00709E+00  9.22624E+00
#           9.45072E+00  9.68067E+00  9.91620E+00  1.01575E+01  1.04046E+01
#           1.06578E+01  1.09171E+01  1.11827E+01  1.14548E+01  1.17335E+01
#           1.20190E+01  1.23114E+01  1.26109E+01  1.29178E+01  1.32321E+01
#           1.35540E+01  1.38838E+01  1.42216E+01  1.45676E+01  1.49221E+01
#           1.52851E+01  1.56570E+01  1.60380E+01  1.64282E+01  1.68279E+01
#           1.72374E+01  1.76568E+01  1.80864E+01  1.85264E+01  1.89772E+01
#           1.94389E+01  1.99119E+01  2.03963E+01  2.08926E+01  2.14009E+01
#           2.19216E+01  2.24550E+01  2.30014E+01  2.35610E+01  2.41343E+01
#           2.47215E+01  2.53230E+01  2.59391E+01  2.65702E+01  2.72167E+01
#           2.78789E+01  2.85572E+01  2.92520E+01  2.99637E+01  3.06928E+01
#           3.14396E+01  3.22045E+01  3.29881E+01  3.37907E+01  3.46128E+01
#           3.54550E+01  3.63177E+01  3.72013E+01  3.81064E+01  3.90336E+01
#           3.99833E+01  4.09561E+01  4.19526E+01  4.29734E+01  4.40189E+01
#           4.50900E+01  4.61870E+01  4.73108E+01  4.84619E+01  4.96410E+01
#           5.08488E+01  5.20860E+01  5.33533E+01  5.46514E+01  5.59812E+01
#           5.73432E+01  5.87384E+01  6.01676E+01  6.16315E+01  6.31311E+01
#           6.46671E+01  6.62405E+01  6.78522E+01  6.95031E+01  7.11941E+01
#           7.29263E+01  7.47007E+01  7.65182E+01  7.83800E+01  8.02870E+01
#           8.22405E+01  8.42414E+01  8.62911E+01  8.83906E+01  9.05412E+01
#           9.27442E+01  9.50007E+01  9.73122E+01  9.96799E+01  1.02105E+02
#           1.04589E+02  1.07134E+02  1.09741E+02  1.12411E+02  1.15146E+02
#           1.17948E+02  1.20817E+02  1.23757E+02  1.26768E+02  1.29852E+02
#           1.33012E+02  1.36248E+02  1.39563E+02  1.42959E+02  1.46437E+02
#           1.50000E+02
     unit =    2            # unit is [1/cm^2/(MeV/n)/source]
     axis =  eng            # axis of output
     file = detector-06.out  # file name of output for the above axis
   output = f-curr          # surface crossing forward current spectrum
     part =  neutron  
# kf/name :  2112     
#    used :        main (  %)        temp (  %)       total (  %)
#  memory :         414 (  0)           0 (  0)         414 (  0)

#------------------------------------------------------------------------------
#newpage:
#   no. =    1   reg = 105 - 205

x: Energy [MeV/n]
y:  F-Curr [1/cm^2/(MeV/n)/source]         
p: xlog ylog afac(0.8) form(0.9)
h: n            x            y(neutron ),hh0l   n 
#  e-lower      e-upper      neutron     r.err 
   1.0000E-02   1.0243E-02   2.7259E-05  0.1730
   1.0243E-02   1.0493E-02   3.0976E-05  0.1602
   1.0493E-02   1.0748E-02   3.8018E-05  0.1430
   1.0748E-02   1.1009E-02   2.5896E-05  0.1715
   1.1009E-02   1.1277E-02   2.6788E-05  0.1667
   1.1277E-02   1.1552E-02   3.2722E-05  0.1491
   1.1552E-02   1.1833E-02   2.3428E-05  0.1741
   1.1833E-02   1.2121E-02   2.4137E-05  0.1691
   1.2121E-02   1.2415E-02   3.1082E-05  0.1475
   1.2415E-02   1.2718E-02   2.9069E-05  0.1508
   1.2718E-02   1.3027E-02   3.6138E-05  0.1336
   1.3027E-02   1.3344E-02   2.6926E-05  0.1526
   1.3344E-02   1.3669E-02   1.9593E-05  0.1768
   1.3669E-02   1.4001E-02   2.2157E-05  0.1644
   1.4001E-02   1.4342E-02   1.6285E-05  0.1891
   1.4342E-02   1.4691E-02   2.2864E-05  0.1581
   1.4691E-02   1.5048E-02   2.5113E-05  0.1491
   1.5048E-02   1.5414E-02   2.0703E-05  0.1622
   1.5414E-02   1.5789E-02   2.4949E-05  0.1459
   1.5789E-02   1.6174E-02   1.7398E-05  0.1719
   1.6174E-02   1.6567E-02   1.8249E-05  0.1667
   1.6567E-02   1.6970E-02   1.8613E-05  0.1626
   1.6970E-02   1.7383E-02   2.3204E-05  0.1443
   1.7383E-02   1.7806E-02   1.6622E-05  0.1680
   1.7806E-02   1.8239E-02   1.1947E-05  0.1961
   1.8239E-02   1.8683E-02   2.3781E-05  0.1369
   1.8683E-02   1.9138E-02   1.3403E-05  0.1803
   1.9138E-02   1.9603E-02   1.7815E-05  0.1544
   1.9603E-02   2.0080E-02   1.2897E-05  0.1797
   2.0080E-02   2.0569E-02   1.7979E-05  0.1503
   2.0569E-02   2.1069E-02   1.0757E-05  0.1925
   2.1069E-02   2.1582E-02   1.3567E-05  0.1691
   2.1582E-02   2.2107E-02   1.6272E-05  0.1525
   2.2107E-02   2.2645E-02   1.3696E-05  0.1644
   2.2645E-02   2.3196E-02   1.1775E-05  0.1742
   2.3196E-02   2.3760E-02   1.3956E-05  0.1583
   2.3760E-02   2.4338E-02   1.3807E-05  0.1581
   2.4338E-02   2.4930E-02   1.6482E-05  0.1424
   2.4930E-02   2.5537E-02   1.3709E-05  0.1545
   2.5537E-02   2.6158E-02   1.1510E-05  0.1668
   2.6158E-02   2.6795E-02   9.6656E-06  0.1797
   2.6795E-02   2.7447E-02   1.3259E-05  0.1509
   2.7447E-02   2.8114E-02   1.0362E-05  0.1693
   2.8114E-02   2.8799E-02   1.0551E-05  0.1648
   2.8799E-02   2.9499E-02   1.4782E-05  0.1387
   2.9499E-02   3.0217E-02   1.4451E-05  0.1387
   3.0217E-02   3.0952E-02   1.1348E-05  0.1544
   3.0952E-02   3.1705E-02   9.7543E-06  0.1645
   3.1705E-02   3.2477E-02   1.2153E-05  0.1451
   3.2477E-02   3.3267E-02   1.0612E-05  0.1543
   3.3267E-02   3.4076E-02   1.1501E-05  0.1459
   3.4076E-02   3.4905E-02   1.0033E-05  0.1545
   3.4905E-02   3.5755E-02   7.9569E-06  0.1715
   3.5755E-02   3.6625E-02   8.4517E-06  0.1644
   3.6625E-02   3.7516E-02   9.6420E-06  0.1520
   3.7516E-02   3.8428E-02   9.7741E-06  0.1492
   3.8428E-02   3.9363E-02   9.2208E-06  0.1519
   3.9363E-02   4.0321E-02   6.9700E-06  0.1717
   4.0321E-02   4.1302E-02   1.0987E-05  0.1361
   4.1302E-02   4.2307E-02   7.9746E-06  0.1574
   4.2307E-02   4.3337E-02   6.3315E-06  0.1742
   4.3337E-02   4.4391E-02   6.8100E-06  0.1667
   4.4391E-02   4.5471E-02   6.4933E-06  0.1683
   4.5471E-02   4.6577E-02   9.5166E-06  0.1374
   4.6577E-02   4.7711E-02   6.9728E-06  0.1576
   4.7711E-02   4.8871E-02   6.5094E-06  0.1608
   4.8871E-02   5.0061E-02   7.6092E-06  0.1477
   5.0061E-02   5.1279E-02   6.5924E-06  0.1561
   5.1279E-02   5.2526E-02   7.9238E-06  0.1415
   5.2526E-02   5.3804E-02   6.9986E-06  0.1491
   5.3804E-02   5.5113E-02   5.3209E-06  0.1675
   5.5113E-02   5.6454E-02   7.1319E-06  0.1443
   5.6454E-02   5.7828E-02   7.3341E-06  0.1401
   5.7828E-02   5.9235E-02   6.0359E-06  0.1526
   5.9235E-02   6.0676E-02   4.5019E-06  0.1745
   6.0676E-02   6.2152E-02   7.0191E-06  0.1387
   6.2152E-02   6.3665E-02   6.3091E-06  0.1444
   6.3665E-02   6.5214E-02   6.9228E-06  0.1361
   6.5214E-02   6.6800E-02   4.9996E-06  0.1582
   6.6800E-02   6.8426E-02   4.9115E-06  0.1581
   6.8426E-02   7.0090E-02   7.4092E-06  0.1270
   7.0090E-02   7.1796E-02   5.0090E-06  0.1525
   7.1796E-02   7.3543E-02   5.2158E-06  0.1476
   7.3543E-02   7.5332E-02   4.6834E-06  0.1543
   7.5332E-02   7.7165E-02   5.6287E-06  0.1387
   7.7165E-02   7.9042E-02   5.0243E-06  0.1450
   7.9042E-02   8.0965E-02   5.5969E-06  0.1361
   8.0965E-02   8.2935E-02   5.1535E-06  0.1400
   8.2935E-02   8.4953E-02   4.6277E-06  0.1459
   8.4953E-02   8.7020E-02   4.8030E-06  0.1410
   8.7020E-02   8.9138E-02   4.4259E-06  0.1459
   8.9138E-02   9.1306E-02   4.8742E-06  0.1374
   9.1306E-02   9.3528E-02   3.8451E-06  0.1526
   9.3528E-02   9.5804E-02   4.6814E-06  0.1363
   9.5804E-02   9.8134E-02   4.1938E-06  0.1429
   9.8134E-02   1.0052E-01   4.3318E-06  0.1387
   1.0052E-01   1.0297E-01   3.8197E-06  0.1459
   1.0297E-01   1.0547E-01   5.5579E-06  0.1196
   1.0547E-01   1.0804E-01   4.1129E-06  0.1374
   1.0804E-01   1.1067E-01   4.2266E-06  0.1337
   1.1067E-01   1.1336E-01   6.4270E-06  0.1072
   1.1336E-01   1.1612E-01   4.8905E-06  0.1213
   1.1612E-01   1.1894E-01   6.8755E-06  0.1011
   1.1894E-01   1.2184E-01   5.6753E-06  0.1099
   1.2184E-01   1.2480E-01   5.8550E-06  0.1072
   1.2480E-01   1.2784E-01   6.0805E-06  0.1037
   1.2784E-01   1.3095E-01   7.2799E-06  0.0937
   1.3095E-01   1.3414E-01   6.0871E-06  0.1013
   1.3414E-01   1.3740E-01   8.6739E-06  0.0838
   1.3740E-01   1.4074E-01   8.4849E-06  0.0837
   1.4074E-01   1.4417E-01   7.9364E-06  0.0856
   1.4417E-01   1.4767E-01   6.9756E-06  0.0900
   1.4767E-01   1.5127E-01   8.1027E-06  0.0828
   1.5127E-01   1.5495E-01   9.7431E-06  0.0745
   1.5495E-01   1.5872E-01   9.3783E-06  0.0749
   1.5872E-01   1.6258E-01   8.8214E-06  0.0764
   1.6258E-01   1.6654E-01   1.0336E-05  0.0698
   1.6654E-01   1.7059E-01   1.0324E-05  0.0689
   1.7059E-01   1.7474E-01   9.6848E-06  0.0703
   1.7474E-01   1.7899E-01   1.0487E-05  0.0668
   1.7899E-01   1.8334E-01   1.2372E-05  0.0608
   1.8334E-01   1.8781E-01   1.1333E-05  0.0628
   1.8781E-01   1.9237E-01   1.1829E-05  0.0607
   1.9237E-01   1.9706E-01   1.2928E-05  0.0574
   1.9706E-01   2.0185E-01   1.3757E-05  0.0548
   2.0185E-01   2.0676E-01   1.2636E-05  0.0566
   2.0676E-01   2.1179E-01   1.4562E-05  0.0521
   2.1179E-01   2.1694E-01   1.3236E-05  0.0540
   2.1694E-01   2.2222E-01   1.4669E-05  0.0507
   2.2222E-01   2.2763E-01   1.4233E-05  0.0508
   2.2763E-01   2.3317E-01   1.5639E-05  0.0479
   2.3317E-01   2.3884E-01   1.6456E-05  0.0462
   2.3884E-01   2.4465E-01   1.6637E-05  0.0453
   2.4465E-01   2.5061E-01   1.7763E-05  0.0434
   2.5061E-01   2.5670E-01   1.9286E-05  0.0411
   2.5670E-01   2.6295E-01   1.7783E-05  0.0423
   2.6295E-01   2.6935E-01   1.8879E-05  0.0406
   2.6935E-01   2.7590E-01   1.7516E-05  0.0416
   2.7590E-01   2.8261E-01   2.0349E-05  0.0382
   2.8261E-01   2.8949E-01   2.0484E-05  0.0376
   2.8949E-01   2.9653E-01   2.2729E-05  0.0352
   2.9653E-01   3.0375E-01   2.1779E-05  0.0356
   3.0375E-01   3.1114E-01   2.0642E-05  0.0361
   3.1114E-01   3.1871E-01   2.2105E-05  0.0345
   3.1871E-01   3.2646E-01   2.3262E-05  0.0332
   3.2646E-01   3.3441E-01   2.2994E-05  0.0330
   3.3441E-01   3.4254E-01   2.3885E-05  0.0320
   3.4254E-01   3.5088E-01   2.4826E-05  0.0310
   3.5088E-01   3.5941E-01   2.4363E-05  0.0309
   3.5941E-01   3.6816E-01   2.6112E-05  0.0295
   3.6816E-01   3.7712E-01   2.5970E-05  0.0292
   3.7712E-01   3.8629E-01   2.5849E-05  0.0290
   3.8629E-01   3.9569E-01   2.6483E-05  0.0283
   3.9569E-01   4.0532E-01   2.6811E-05  0.0277
   4.0532E-01   4.1518E-01   2.9440E-05  0.0262
   4.1518E-01   4.2528E-01   2.8067E-05  0.0265
   4.2528E-01   4.3563E-01   3.0135E-05  0.0252
   4.3563E-01   4.4623E-01   2.8603E-05  0.0256
   4.4623E-01   4.5708E-01   2.9912E-05  0.0247
   4.5708E-01   4.6821E-01   2.9501E-05  0.0246
   4.6821E-01   4.7960E-01   3.0907E-05  0.0237
   4.7960E-01   4.9127E-01   3.1455E-05  0.0233
   4.9127E-01   5.0322E-01   3.1763E-05  0.0229
   5.0322E-01   5.1546E-01   3.2442E-05  0.0223
   5.1546E-01   5.2800E-01   3.2541E-05  0.0220
   5.2800E-01   5.4085E-01   3.2353E-05  0.0218
   5.4085E-01   5.5401E-01   3.3096E-05  0.0214
   5.5401E-01   5.6749E-01   3.3430E-05  0.0210
   5.6749E-01   5.8130E-01   3.5130E-05  0.0202
   5.8130E-01   5.9544E-01   3.4207E-05  0.0202
   5.9544E-01   6.0993E-01   3.3308E-05  0.0203
   6.0993E-01   6.2477E-01   3.3185E-05  0.0201
   6.2477E-01   6.3997E-01   3.3595E-05  0.0197
   6.3997E-01   6.5554E-01   3.4360E-05  0.0193
   6.5554E-01   6.7149E-01   3.4083E-05  0.0191
   6.7149E-01   6.8783E-01   3.5841E-05  0.0184
   6.8783E-01   7.0456E-01   3.5525E-05  0.0183
   7.0456E-01   7.2171E-01   3.4984E-05  0.0182
   7.2171E-01   7.3927E-01   3.6425E-05  0.0176
   7.3927E-01   7.5725E-01   3.4655E-05  0.0178
   7.5725E-01   7.7568E-01   3.3969E-05  0.0178
   7.7568E-01   7.9455E-01   3.4322E-05  0.0175
   7.9455E-01   8.1388E-01   3.3353E-05  0.0175
   8.1388E-01   8.3368E-01   3.3414E-05  0.0173
   8.3368E-01   8.5397E-01   3.3143E-05  0.0172
   8.5397E-01   8.7475E-01   3.2477E-05  0.0171
   8.7475E-01   8.9603E-01   3.1239E-05  0.0173
   8.9603E-01   9.1783E-01   3.1390E-05  0.0170
   9.1783E-01   9.4016E-01   3.1217E-05  0.0168
   9.4016E-01   9.6304E-01   2.8428E-05  0.0174
   9.6304E-01   9.8647E-01   2.7567E-05  0.0175
   9.8647E-01   1.0105E+00   2.7332E-05  0.0174
   1.0105E+00   1.0351E+00   2.7335E-05  0.0171
   1.0351E+00   1.0602E+00   2.7097E-05  0.0170
   1.0602E+00   1.0860E+00   2.8559E-05  0.0164
   1.0860E+00   1.1125E+00   2.9778E-05  0.0158
   1.1125E+00   1.1395E+00   2.9965E-05  0.0156
   1.1395E+00   1.1673E+00   2.9914E-05  0.0154
   1.1673E+00   1.1957E+00   3.0670E-05  0.0150
   1.1957E+00   1.2247E+00   3.0753E-05  0.0148
   1.2247E+00   1.2545E+00   3.1702E-05  0.0144
   1.2545E+00   1.2851E+00   3.3218E-05  0.0139
   1.2851E+00   1.3163E+00   3.3281E-05  0.0137
   1.3163E+00   1.3484E+00   3.3455E-05  0.0136
   1.3484E+00   1.3812E+00   3.3976E-05  0.0133
   1.3812E+00   1.4148E+00   3.5846E-05  0.0128
   1.4148E+00   1.4492E+00   3.5091E-05  0.0127
   1.4492E+00   1.4845E+00   3.5106E-05  0.0126
   1.4845E+00   1.5206E+00   3.4954E-05  0.0125
   1.5206E+00   1.5576E+00   3.5181E-05  0.0123
   1.5576E+00   1.5955E+00   3.4666E-05  0.0122
   1.5955E+00   1.6343E+00   3.6382E-05  0.0118
   1.6343E+00   1.6741E+00   3.5277E-05  0.0118
   1.6741E+00   1.7148E+00   3.6009E-05  0.0116
   1.7148E+00   1.7565E+00   3.5614E-05  0.0115
   1.7565E+00   1.7992E+00   3.4440E-05  0.0115
   1.7992E+00   1.8430E+00   3.3472E-05  0.0115
   1.8430E+00   1.8879E+00   3.2607E-05  0.0115
   1.8879E+00   1.9338E+00   3.2248E-05  0.0114
   1.9338E+00   1.9808E+00   3.1863E-05  0.0114
   1.9808E+00   2.0290E+00   3.2212E-05  0.0112
   2.0290E+00   2.0784E+00   3.2675E-05  0.0109
   2.0784E+00   2.1290E+00   3.2826E-05  0.0108
   2.1290E+00   2.1808E+00   3.3051E-05  0.0106
   2.1808E+00   2.2338E+00   3.3212E-05  0.0104
   2.2338E+00   2.2882E+00   3.3636E-05  0.0103
   2.2882E+00   2.3439E+00   3.2163E-05  0.0104
   2.3439E+00   2.4009E+00   3.2123E-05  0.0103
   2.4009E+00   2.4593E+00   3.2872E-05  0.0100
   2.4593E+00   2.5191E+00   3.2445E-05  0.0100
   2.5191E+00   2.5804E+00   3.2425E-05  0.0099
   2.5804E+00   2.6432E+00   3.2057E-05  0.0098
   2.6432E+00   2.7075E+00   3.1734E-05  0.0097
   2.7075E+00   2.7734E+00   3.1263E-05  0.0097
   2.7734E+00   2.8409E+00   3.1901E-05  0.0095
   2.8409E+00   2.9100E+00   3.1836E-05  0.0094
   2.9100E+00   2.9808E+00   3.1767E-05  0.0093
   2.9808E+00   3.0533E+00   3.1343E-05  0.0092
   3.0533E+00   3.1276E+00   3.0901E-05  0.0092
   3.1276E+00   3.2037E+00   3.0837E-05  0.0091
   3.2037E+00   3.2817E+00   3.0913E-05  0.0090
   3.2817E+00   3.3615E+00   3.0482E-05  0.0090
   3.3615E+00   3.4433E+00   3.0248E-05  0.0089
   3.4433E+00   3.5271E+00   3.0114E-05  0.0088
   3.5271E+00   3.6129E+00   3.0367E-05  0.0087
   3.6129E+00   3.7008E+00   2.9950E-05  0.0086
   3.7008E+00   3.7908E+00   2.9865E-05  0.0085
   3.7908E+00   3.8831E+00   2.9860E-05  0.0084
   3.8831E+00   3.9776E+00   2.9286E-05  0.0084
   3.9776E+00   4.0743E+00   2.9703E-05  0.0083
   4.0743E+00   4.1735E+00   2.9238E-05  0.0082
   4.1735E+00   4.2750E+00   2.8534E-05  0.0082
   4.2750E+00   4.3790E+00   2.8203E-05  0.0082
   4.3790E+00   4.4856E+00   2.8028E-05  0.0081
   4.4856E+00   4.5947E+00   2.7398E-05  0.0081
   4.5947E+00   4.7065E+00   2.7329E-05  0.0080
   4.7065E+00   4.8210E+00   2.6962E-05  0.0080
   4.8210E+00   4.9383E+00   2.7286E-05  0.0078
   4.9383E+00   5.0585E+00   2.6523E-05  0.0078
   5.0585E+00   5.1815E+00   2.6540E-05  0.0078
   5.1815E+00   5.3076E+00   2.5750E-05  0.0078
   5.3076E+00   5.4368E+00   2.5995E-05  0.0076
   5.4368E+00   5.5690E+00   2.5303E-05  0.0077
   5.5690E+00   5.7045E+00   2.5176E-05  0.0076
   5.7045E+00   5.8433E+00   2.5373E-05  0.0075
   5.8433E+00   5.9855E+00   2.4909E-05  0.0075
   5.9855E+00   6.1311E+00   2.4906E-05  0.0074
   6.1311E+00   6.2803E+00   2.4735E-05  0.0073
   6.2803E+00   6.4331E+00   2.4408E-05  0.0073
   6.4331E+00   6.5896E+00   2.4263E-05  0.0072
   6.5896E+00   6.7500E+00   2.3915E-05  0.0072
   6.7500E+00   6.9142E+00   2.3544E-05  0.0071
   6.9142E+00   7.0824E+00   2.3574E-05  0.0071
   7.0824E+00   7.2548E+00   2.3138E-05  0.0070
   7.2548E+00   7.4313E+00   2.2616E-05  0.0070
   7.4313E+00   7.6121E+00   2.2652E-05  0.0069
   7.6121E+00   7.7973E+00   2.2530E-05  0.0069
   7.7973E+00   7.9870E+00   2.1893E-05  0.0069
   7.9870E+00   8.1813E+00   2.1937E-05  0.0068
   8.1813E+00   8.3804E+00   2.1540E-05  0.0068
   8.3804E+00   8.5843E+00   2.1263E-05  0.0068
   8.5843E+00   8.7931E+00   2.1120E-05  0.0067
   8.7931E+00   9.0071E+00   2.0740E-05  0.0067
   9.0071E+00   9.2262E+00   2.0342E-05  0.0067
   9.2262E+00   9.4507E+00   2.0055E-05  0.0066
   9.4507E+00   9.6807E+00   1.9296E-05  0.0067
   9.6807E+00   9.9162E+00   1.9198E-05  0.0066
   9.9162E+00   1.0157E+01   1.9497E-05  0.0065
   1.0157E+01   1.0405E+01   1.9416E-05  0.0064
   1.0405E+01   1.0658E+01   1.8977E-05  0.0064
   1.0658E+01   1.0917E+01   1.8811E-05  0.0064
   1.0917E+01   1.1183E+01   1.8284E-05  0.0064
   1.1183E+01   1.1455E+01   1.7811E-05  0.0064
   1.1455E+01   1.1733E+01   1.7548E-05  0.0064
   1.1733E+01   1.2019E+01   1.7439E-05  0.0063
   1.2019E+01   1.2311E+01   1.7192E-05  0.0063
   1.2311E+01   1.2611E+01   1.6835E-05  0.0063
   1.2611E+01   1.2918E+01   1.6548E-05  0.0063
   1.2918E+01   1.3232E+01   1.6474E-05  0.0062
   1.3232E+01   1.3554E+01   1.6050E-05  0.0062
   1.3554E+01   1.3884E+01   1.5781E-05  0.0062
   1.3884E+01   1.4222E+01   1.5598E-05  0.0062
   1.4222E+01   1.4568E+01   1.5285E-05  0.0061
   1.4568E+01   1.4922E+01   1.5020E-05  0.0061
   1.4922E+01   1.5285E+01   1.4808E-05  0.0061
   1.5285E+01   1.5657E+01   1.4451E-05  0.0061
   1.5657E+01   1.6038E+01   1.4092E-05  0.0061
   1.6038E+01   1.6428E+01   1.3669E-05  0.0061
   1.6428E+01   1.6828E+01   1.3327E-05  0.0061
   1.6828E+01   1.7237E+01   1.3043E-05  0.0061
   1.7237E+01   1.7657E+01   1.2707E-05  0.0061
   1.7657E+01   1.8086E+01   1.2253E-05  0.0062
   1.8086E+01   1.8526E+01   1.1983E-05  0.0062
   1.8526E+01   1.8977E+01   1.1624E-05  0.0062
   1.8977E+01   1.9439E+01   1.1261E-05  0.0062
   1.9439E+01   1.9912E+01   1.0982E-05  0.0062
   1.9912E+01   2.0396E+01   1.0613E-05  0.0062
   2.0396E+01   2.0893E+01   1.0221E-05  0.0063
   2.0893E+01   2.1401E+01   9.8180E-06  0.0063
   2.1401E+01   2.1922E+01   9.4999E-06  0.0064
   2.1922E+01   2.2455E+01   8.9525E-06  0.0065
   2.2455E+01   2.3001E+01   8.6439E-06  0.0065
   2.3001E+01   2.3561E+01   8.1559E-06  0.0066
   2.3561E+01   2.4134E+01   7.7815E-06  0.0067
   2.4134E+01   2.4721E+01   7.2557E-06  0.0069
   2.4721E+01   2.5323E+01   6.9198E-06  0.0069
   2.5323E+01   2.5939E+01   6.4292E-06  0.0071
   2.5939E+01   2.6570E+01   6.0201E-06  0.0073
   2.6570E+01   2.7217E+01   5.5913E-06  0.0074
   2.7217E+01   2.7879E+01   5.4714E-06  0.0074
   2.7879E+01   2.8557E+01   7.0666E-06  0.0065
   2.8557E+01   2.9252E+01   7.5502E-06  0.0062
   2.9252E+01   2.9964E+01   7.0474E-06  0.0063
   2.9964E+01   3.0693E+01   6.5670E-06  0.0065
   3.0693E+01   3.1440E+01   6.1284E-06  0.0066
   3.1440E+01   3.2205E+01   5.5695E-06  0.0069
   3.2205E+01   3.2988E+01   5.0000E-06  0.0071
   3.2988E+01   3.3791E+01   4.5416E-06  0.0074
   3.3791E+01   3.4613E+01   4.2289E-06  0.0076
   3.4613E+01   3.5455E+01   4.1256E-06  0.0076
   3.5455E+01   3.6318E+01   4.0503E-06  0.0076
   3.6318E+01   3.7201E+01   2.9512E-06  0.0088
   3.7201E+01   3.8106E+01   3.0935E-09  0.2673
   3.8106E+01   3.9034E+01   0.0000E+00  0.0000
   3.9034E+01   3.9983E+01   0.0000E+00  0.0000
   3.9983E+01   4.0956E+01   0.0000E+00  0.0000
   4.0956E+01   4.1953E+01   0.0000E+00  0.0000
   4.1953E+01   4.2973E+01   0.0000E+00  0.0000
   4.2973E+01   4.4019E+01   0.0000E+00  0.0000
   4.4019E+01   4.5090E+01   0.0000E+00  0.0000
   4.5090E+01   4.6187E+01   0.0000E+00  0.0000
   4.6187E+01   4.7311E+01   0.0000E+00  0.0000
   4.7311E+01   4.8462E+01   0.0000E+00  0.0000
   4.8462E+01   4.9641E+01   0.0000E+00  0.0000
   4.9641E+01   5.0849E+01   0.0000E+00  0.0000
   5.0849E+01   5.2086E+01   0.0000E+00  0.0000
   5.2086E+01   5.3353E+01   0.0000E+00  0.0000
   5.3353E+01   5.4651E+01   0.0000E+00  0.0000
   5.4651E+01   5.5981E+01   0.0000E+00  0.0000
   5.5981E+01   5.7343E+01   0.0000E+00  0.0000
   5.7343E+01   5.8738E+01   0.0000E+00  0.0000
   5.8738E+01   6.0168E+01   0.0000E+00  0.0000
   6.0168E+01   6.1632E+01   0.0000E+00  0.0000
   6.1632E+01   6.3131E+01   0.0000E+00  0.0000
   6.3131E+01   6.4667E+01   0.0000E+00  0.0000
   6.4667E+01   6.6240E+01   0.0000E+00  0.0000
   6.6240E+01   6.7852E+01   0.0000E+00  0.0000
   6.7852E+01   6.9503E+01   0.0000E+00  0.0000
   6.9503E+01   7.1194E+01   0.0000E+00  0.0000
   7.1194E+01   7.2926E+01   0.0000E+00  0.0000
   7.2926E+01   7.4701E+01   0.0000E+00  0.0000
   7.4701E+01   7.6518E+01   0.0000E+00  0.0000
   7.6518E+01   7.8380E+01   0.0000E+00  0.0000
   7.8380E+01   8.0287E+01   0.0000E+00  0.0000
   8.0287E+01   8.2240E+01   0.0000E+00  0.0000
   8.2240E+01   8.4241E+01   0.0000E+00  0.0000
   8.4241E+01   8.6291E+01   0.0000E+00  0.0000
   8.6291E+01   8.8391E+01   0.0000E+00  0.0000
   8.8391E+01   9.0541E+01   0.0000E+00  0.0000
   9.0541E+01   9.2744E+01   0.0000E+00  0.0000
   9.2744E+01   9.5001E+01   0.0000E+00  0.0000
   9.5001E+01   9.7312E+01   0.0000E+00  0.0000
   9.7312E+01   9.9680E+01   0.0000E+00  0.0000
   9.9680E+01   1.0211E+02   0.0000E+00  0.0000
   1.0211E+02   1.0459E+02   0.0000E+00  0.0000
   1.0459E+02   1.0713E+02   0.0000E+00  0.0000
   1.0713E+02   1.0974E+02   0.0000E+00  0.0000
   1.0974E+02   1.1241E+02   0.0000E+00  0.0000
   1.1241E+02   1.1515E+02   0.0000E+00  0.0000
   1.1515E+02   1.1795E+02   0.0000E+00  0.0000
   1.1795E+02   1.2082E+02   0.0000E+00  0.0000
   1.2082E+02   1.2376E+02   0.0000E+00  0.0000
   1.2376E+02   1.2677E+02   0.0000E+00  0.0000
   1.2677E+02   1.2985E+02   0.0000E+00  0.0000
   1.2985E+02   1.3301E+02   0.0000E+00  0.0000
   1.3301E+02   1.3625E+02   0.0000E+00  0.0000
   1.3625E+02   1.3956E+02   0.0000E+00  0.0000
   1.3956E+02   1.4296E+02   0.0000E+00  0.0000
   1.4296E+02   1.4644E+02   0.0000E+00  0.0000
   1.4644E+02   1.5000E+02   0.0000E+00  0.0000

#   sum over                 3.4730E-06
'no. =    1   reg = 105 - 205'
msuc: {\huge [t-cross] in region mesh}
msdr: {\it plotted by \ANGEL \version}
msdl: {\it calculated by \PHITS  3.26}
wt: s(0.7)
\vspace{-3}
  region surface crossing
  area  &=&   1.0000E+00 [cm^2]
e:
 
# Information for Restart Calculation
# This calculation was newly started
# istdev =  2 # 1:Batch variance, 2:History variance
# resc2  = 5.00000000000000000E+09 # Total source weight or Total source weight / maxcas
# resc3  = 5.00000000000000000E+09 # Total history number or Total batch number
# maxcas =   100000000 # History / Batch, only used for istdev=1
# bitrseed = 0110100000100010111000001110001111001110100100011111101000111001 # bit data of rseed
