[ T-Cross ]
    title = [t-cross] in region mesh
     mesh =  reg            # mesh type is region-wise
      reg =    1            # number of crossing regions
      non     r-from    r-to       area
      1       113       213        1.000000    
   e-type =    3            # e-mesh is log given by emin, emax and ne
     emin =  1.0000000E-02  # minimum value of e-mesh points
     emax =   150.0000      # maximum value of e-mesh points
#    edel =  2.4039514E-02  # mesh width of e-mesh points
       ne =    400          # number of e-mesh points
#    data = ( e(i), i = 1, ne + 1 )
#           1.00000E-02  1.02433E-02  1.04925E-02  1.07478E-02  1.10093E-02
#           1.12772E-02  1.15516E-02  1.18326E-02  1.21205E-02  1.24154E-02
#           1.27175E-02  1.30269E-02  1.33439E-02  1.36686E-02  1.40011E-02
#           1.43418E-02  1.46907E-02  1.50482E-02  1.54143E-02  1.57894E-02
#           1.61735E-02  1.65670E-02  1.69701E-02  1.73830E-02  1.78060E-02
#           1.82392E-02  1.86830E-02  1.91375E-02  1.96032E-02  2.00801E-02
#           2.05687E-02  2.10692E-02  2.15818E-02  2.21069E-02  2.26448E-02
#           2.31957E-02  2.37601E-02  2.43382E-02  2.49304E-02  2.55369E-02
#           2.61583E-02  2.67947E-02  2.74467E-02  2.81145E-02  2.87985E-02
#           2.94992E-02  3.02169E-02  3.09521E-02  3.17052E-02  3.24766E-02
#           3.32668E-02  3.40762E-02  3.49053E-02  3.57546E-02  3.66246E-02
#           3.75157E-02  3.84284E-02  3.93634E-02  4.03212E-02  4.13022E-02
#           4.23071E-02  4.33365E-02  4.43909E-02  4.54710E-02  4.65773E-02
#           4.77106E-02  4.88714E-02  5.00605E-02  5.12785E-02  5.25262E-02
#           5.38042E-02  5.51133E-02  5.64542E-02  5.78278E-02  5.92348E-02
#           6.06760E-02  6.21523E-02  6.36645E-02  6.52135E-02  6.68002E-02
#           6.84255E-02  7.00904E-02  7.17957E-02  7.35426E-02  7.53319E-02
#           7.71648E-02  7.90423E-02  8.09655E-02  8.29354E-02  8.49533E-02
#           8.70203E-02  8.91376E-02  9.13064E-02  9.35279E-02  9.58035E-02
#           9.81345E-02  1.00522E-01  1.02968E-01  1.05473E-01  1.08040E-01
#           1.10668E-01  1.13361E-01  1.16119E-01  1.18944E-01  1.21838E-01
#           1.24803E-01  1.27839E-01  1.30950E-01  1.34136E-01  1.37399E-01
#           1.40742E-01  1.44167E-01  1.47675E-01  1.51268E-01  1.54948E-01
#           1.58718E-01  1.62580E-01  1.66535E-01  1.70587E-01  1.74738E-01
#           1.78989E-01  1.83344E-01  1.87805E-01  1.92375E-01  1.97055E-01
#           2.01850E-01  2.06761E-01  2.11792E-01  2.16945E-01  2.22223E-01
#           2.27630E-01  2.33169E-01  2.38842E-01  2.44653E-01  2.50605E-01
#           2.56703E-01  2.62949E-01  2.69346E-01  2.75900E-01  2.82613E-01
#           2.89489E-01  2.96532E-01  3.03747E-01  3.11138E-01  3.18708E-01
#           3.26462E-01  3.34405E-01  3.42542E-01  3.50876E-01  3.59413E-01
#           3.68158E-01  3.77116E-01  3.86291E-01  3.95690E-01  4.05317E-01
#           4.15179E-01  4.25281E-01  4.35628E-01  4.46227E-01  4.57084E-01
#           4.68205E-01  4.79597E-01  4.91266E-01  5.03219E-01  5.15463E-01
#           5.28005E-01  5.40851E-01  5.54011E-01  5.67490E-01  5.81298E-01
#           5.95441E-01  6.09929E-01  6.24769E-01  6.39970E-01  6.55541E-01
#           6.71491E-01  6.87828E-01  7.04564E-01  7.21706E-01  7.39266E-01
#           7.57253E-01  7.75678E-01  7.94551E-01  8.13883E-01  8.33685E-01
#           8.53969E-01  8.74747E-01  8.96030E-01  9.17831E-01  9.40163E-01
#           9.63038E-01  9.86469E-01  1.01047E+00  1.03506E+00  1.06024E+00
#           1.08604E+00  1.11246E+00  1.13953E+00  1.16725E+00  1.19565E+00
#           1.22474E+00  1.25454E+00  1.28507E+00  1.31633E+00  1.34836E+00
#           1.38117E+00  1.41477E+00  1.44920E+00  1.48446E+00  1.52057E+00
#           1.55757E+00  1.59547E+00  1.63429E+00  1.67405E+00  1.71478E+00
#           1.75650E+00  1.79924E+00  1.84302E+00  1.88786E+00  1.93379E+00
#           1.98084E+00  2.02904E+00  2.07841E+00  2.12898E+00  2.18078E+00
#           2.23384E+00  2.28819E+00  2.34386E+00  2.40089E+00  2.45930E+00
#           2.51914E+00  2.58043E+00  2.64322E+00  2.70753E+00  2.77341E+00
#           2.84088E+00  2.91001E+00  2.98081E+00  3.05333E+00  3.12762E+00
#           3.20372E+00  3.28167E+00  3.36152E+00  3.44330E+00  3.52708E+00
#           3.61290E+00  3.70080E+00  3.79085E+00  3.88308E+00  3.97756E+00
#           4.07434E+00  4.17347E+00  4.27501E+00  4.37903E+00  4.48557E+00
#           4.59471E+00  4.70650E+00  4.82102E+00  4.93832E+00  5.05847E+00
#           5.18155E+00  5.30762E+00  5.43676E+00  5.56904E+00  5.70453E+00
#           5.84333E+00  5.98550E+00  6.13114E+00  6.28031E+00  6.43312E+00
#           6.58964E+00  6.74997E+00  6.91420E+00  7.08243E+00  7.25475E+00
#           7.43126E+00  7.61207E+00  7.79728E+00  7.98700E+00  8.18133E+00
#           8.38038E+00  8.58428E+00  8.79315E+00  9.00709E+00  9.22624E+00
#           9.45072E+00  9.68067E+00  9.91620E+00  1.01575E+01  1.04046E+01
#           1.06578E+01  1.09171E+01  1.11827E+01  1.14548E+01  1.17335E+01
#           1.20190E+01  1.23114E+01  1.26109E+01  1.29178E+01  1.32321E+01
#           1.35540E+01  1.38838E+01  1.42216E+01  1.45676E+01  1.49221E+01
#           1.52851E+01  1.56570E+01  1.60380E+01  1.64282E+01  1.68279E+01
#           1.72374E+01  1.76568E+01  1.80864E+01  1.85264E+01  1.89772E+01
#           1.94389E+01  1.99119E+01  2.03963E+01  2.08926E+01  2.14009E+01
#           2.19216E+01  2.24550E+01  2.30014E+01  2.35610E+01  2.41343E+01
#           2.47215E+01  2.53230E+01  2.59391E+01  2.65702E+01  2.72167E+01
#           2.78789E+01  2.85572E+01  2.92520E+01  2.99637E+01  3.06928E+01
#           3.14396E+01  3.22045E+01  3.29881E+01  3.37907E+01  3.46128E+01
#           3.54550E+01  3.63177E+01  3.72013E+01  3.81064E+01  3.90336E+01
#           3.99833E+01  4.09561E+01  4.19526E+01  4.29734E+01  4.40189E+01
#           4.50900E+01  4.61870E+01  4.73108E+01  4.84619E+01  4.96410E+01
#           5.08488E+01  5.20860E+01  5.33533E+01  5.46514E+01  5.59812E+01
#           5.73432E+01  5.87384E+01  6.01676E+01  6.16315E+01  6.31311E+01
#           6.46671E+01  6.62405E+01  6.78522E+01  6.95031E+01  7.11941E+01
#           7.29263E+01  7.47007E+01  7.65182E+01  7.83800E+01  8.02870E+01
#           8.22405E+01  8.42414E+01  8.62911E+01  8.83906E+01  9.05412E+01
#           9.27442E+01  9.50007E+01  9.73122E+01  9.96799E+01  1.02105E+02
#           1.04589E+02  1.07134E+02  1.09741E+02  1.12411E+02  1.15146E+02
#           1.17948E+02  1.20817E+02  1.23757E+02  1.26768E+02  1.29852E+02
#           1.33012E+02  1.36248E+02  1.39563E+02  1.42959E+02  1.46437E+02
#           1.50000E+02
     unit =    2            # unit is [1/cm^2/(MeV/n)/source]
     axis =  eng            # axis of output
     file = detector-14.out  # file name of output for the above axis
   output = f-curr          # surface crossing forward current spectrum
     part =  neutron  
# kf/name :  2112     
#    used :        main (  %)        temp (  %)       total (  %)
#  memory :         414 (  0)           0 (  0)         414 (  0)

#------------------------------------------------------------------------------
#newpage:
#   no. =    1   reg = 113 - 213

x: Energy [MeV/n]
y:  F-Curr [1/cm^2/(MeV/n)/source]         
p: xlog ylog afac(0.8) form(0.9)
h: n            x            y(neutron ),hh0l   n 
#  e-lower      e-upper      neutron     r.err 
   1.0000E-02   1.0243E-02   2.2843E-04  0.0592
   1.0243E-02   1.0493E-02   2.1446E-04  0.0601
   1.0493E-02   1.0748E-02   2.1659E-04  0.0594
   1.0748E-02   1.1009E-02   1.9099E-04  0.0626
   1.1009E-02   1.1277E-02   1.9459E-04  0.0611
   1.1277E-02   1.1552E-02   2.0522E-04  0.0586
   1.1552E-02   1.1833E-02   1.6521E-04  0.0646
   1.1833E-02   1.2121E-02   1.8111E-04  0.0612
   1.2121E-02   1.2415E-02   1.8008E-04  0.0605
   1.2415E-02   1.2718E-02   1.7979E-04  0.0597
   1.2718E-02   1.3027E-02   1.7587E-04  0.0599
   1.3027E-02   1.3344E-02   1.6352E-04  0.0612
   1.3344E-02   1.3669E-02   1.6723E-04  0.0599
   1.3669E-02   1.4001E-02   1.5975E-04  0.0606
   1.4001E-02   1.4342E-02   1.6032E-04  0.0597
   1.4342E-02   1.4691E-02   1.5678E-04  0.0597
   1.4691E-02   1.5048E-02   1.4610E-04  0.0609
   1.5048E-02   1.5414E-02   1.4739E-04  0.0600
   1.5414E-02   1.5789E-02   1.5055E-04  0.0588
   1.5789E-02   1.6174E-02   1.5124E-04  0.0579
   1.6174E-02   1.6567E-02   1.3581E-04  0.0606
   1.6567E-02   1.6970E-02   1.5123E-04  0.0566
   1.6970E-02   1.7383E-02   1.2473E-04  0.0613
   1.7383E-02   1.7806E-02   1.2902E-04  0.0597
   1.7806E-02   1.8239E-02   1.3191E-04  0.0586
   1.8239E-02   1.8683E-02   1.3544E-04  0.0569
   1.8683E-02   1.9138E-02   1.1721E-04  0.0603
   1.9138E-02   1.9603E-02   1.1829E-04  0.0598
   1.9603E-02   2.0080E-02   1.1773E-04  0.0591
   2.0080E-02   2.0569E-02   1.3217E-04  0.0549
   2.0569E-02   2.1069E-02   1.2528E-04  0.0559
   2.1069E-02   2.1582E-02   1.1272E-04  0.0583
   2.1582E-02   2.2107E-02   1.1687E-04  0.0565
   2.2107E-02   2.2645E-02   1.1531E-04  0.0561
   2.2645E-02   2.3196E-02   1.1828E-04  0.0548
   2.3196E-02   2.3760E-02   1.0167E-04  0.0584
   2.3760E-02   2.4338E-02   8.7003E-05  0.0623
   2.4338E-02   2.4930E-02   1.1272E-04  0.0540
   2.4930E-02   2.5537E-02   9.2197E-05  0.0587
   2.5537E-02   2.6158E-02   9.0804E-05  0.0588
   2.6158E-02   2.6795E-02   9.5874E-05  0.0565
   2.6795E-02   2.7447E-02   9.9714E-05  0.0549
   2.7447E-02   2.8114E-02   9.1283E-05  0.0567
   2.8114E-02   2.8799E-02   7.8689E-05  0.0602
   2.8799E-02   2.9499E-02   8.4020E-05  0.0575
   2.9499E-02   3.0217E-02   8.3142E-05  0.0570
   3.0217E-02   3.0952E-02   8.0105E-05  0.0577
   3.0952E-02   3.1705E-02   7.4877E-05  0.0588
   3.1705E-02   3.2477E-02   7.8927E-05  0.0567
   3.2477E-02   3.3267E-02   7.9803E-05  0.0556
   3.3267E-02   3.4076E-02   8.2774E-05  0.0542
   3.4076E-02   3.4905E-02   7.5299E-05  0.0560
   3.4905E-02   3.5755E-02   6.8252E-05  0.0580
   3.5755E-02   3.6625E-02   7.2518E-05  0.0555
   3.6625E-02   3.7516E-02   6.7137E-05  0.0570
   3.7516E-02   3.8428E-02   6.5386E-05  0.0571
   3.8428E-02   3.9363E-02   6.2748E-05  0.0576
   3.9363E-02   4.0321E-02   5.6481E-05  0.0600
   4.0321E-02   4.1302E-02   6.5009E-05  0.0551
   4.1302E-02   4.2307E-02   5.5949E-05  0.0589
   4.2307E-02   4.3337E-02   6.4280E-05  0.0542
   4.3337E-02   4.4391E-02   5.7342E-05  0.0569
   4.4391E-02   4.5471E-02   6.4576E-05  0.0529
   4.5471E-02   4.6577E-02   6.0471E-05  0.0541
   4.6577E-02   4.7711E-02   5.4073E-05  0.0564
   4.7711E-02   4.8871E-02   5.7197E-05  0.0542
   4.8871E-02   5.0061E-02   5.7287E-05  0.0533
   5.0061E-02   5.1279E-02   5.1144E-05  0.0559
   5.1279E-02   5.2526E-02   5.3456E-05  0.0541
   5.2526E-02   5.3804E-02   5.0233E-05  0.0553
   5.3804E-02   5.5113E-02   4.9928E-05  0.0547
   5.5113E-02   5.6454E-02   5.0050E-05  0.0541
   5.6454E-02   5.7828E-02   4.9277E-05  0.0536
   5.7828E-02   5.9235E-02   5.0508E-05  0.0523
   5.9235E-02   6.0676E-02   4.9847E-05  0.0521
   6.0676E-02   6.2152E-02   4.7306E-05  0.0529
   6.2152E-02   6.3665E-02   4.6539E-05  0.0527
   6.3665E-02   6.5214E-02   4.2186E-05  0.0545
   6.5214E-02   6.6800E-02   4.4933E-05  0.0524
   6.6800E-02   6.8426E-02   4.1593E-05  0.0538
   6.8426E-02   7.0090E-02   3.9337E-05  0.0547
   7.0090E-02   7.1796E-02   4.0212E-05  0.0535
   7.1796E-02   7.3543E-02   3.9564E-05  0.0531
   7.3543E-02   7.5332E-02   4.2432E-05  0.0507
   7.5332E-02   7.7165E-02   3.7646E-05  0.0532
   7.7165E-02   7.9042E-02   3.5970E-05  0.0537
   7.9042E-02   8.0965E-02   3.7293E-05  0.0523
   8.0965E-02   8.2935E-02   3.7663E-05  0.0514
   8.2935E-02   8.4953E-02   3.6380E-05  0.0515
   8.4953E-02   8.7020E-02   3.9006E-05  0.0491
   8.7020E-02   8.9138E-02   3.8200E-05  0.0493
   8.9138E-02   9.1306E-02   3.3830E-05  0.0516
   9.1306E-02   9.3528E-02   3.1239E-05  0.0530
   9.3528E-02   9.5804E-02   3.7058E-05  0.0481
   9.5804E-02   9.8134E-02   2.9061E-05  0.0536
   9.8134E-02   1.0052E-01   3.0439E-05  0.0517
   1.0052E-01   1.0297E-01   2.8427E-05  0.0529
   1.0297E-01   1.0547E-01   3.2643E-05  0.0488
   1.0547E-01   1.0804E-01   2.8418E-05  0.0518
   1.0804E-01   1.1067E-01   2.8751E-05  0.0507
   1.1067E-01   1.1336E-01   2.9812E-05  0.0494
   1.1336E-01   1.1612E-01   2.8567E-05  0.0499
   1.1612E-01   1.1894E-01   2.8139E-05  0.0497
   1.1894E-01   1.2184E-01   2.7280E-05  0.0498
   1.2184E-01   1.2480E-01   2.4419E-05  0.0518
   1.2480E-01   1.2784E-01   2.5738E-05  0.0500
   1.2784E-01   1.3095E-01   2.4257E-05  0.0509
   1.3095E-01   1.3414E-01   2.3670E-05  0.0510
   1.3414E-01   1.3740E-01   2.4912E-05  0.0490
   1.3740E-01   1.4074E-01   2.4398E-05  0.0489
   1.4074E-01   1.4417E-01   2.3245E-05  0.0497
   1.4417E-01   1.4767E-01   2.3783E-05  0.0484
   1.4767E-01   1.5127E-01   2.3521E-05  0.0481
   1.5127E-01   1.5495E-01   2.1387E-05  0.0497
   1.5495E-01   1.5872E-01   2.2766E-05  0.0478
   1.5872E-01   1.6258E-01   2.1946E-05  0.0480
   1.6258E-01   1.6654E-01   1.9988E-05  0.0498
   1.6654E-01   1.7059E-01   1.8951E-05  0.0505
   1.7059E-01   1.7474E-01   1.8685E-05  0.0502
   1.7474E-01   1.7899E-01   2.0055E-05  0.0479
   1.7899E-01   1.8334E-01   2.1336E-05  0.0459
   1.8334E-01   1.8781E-01   1.8019E-05  0.0492
   1.8781E-01   1.9237E-01   1.8775E-05  0.0478
   1.9237E-01   1.9706E-01   2.0125E-05  0.0455
   1.9706E-01   2.0185E-01   2.0524E-05  0.0445
   2.0185E-01   2.0676E-01   2.1381E-05  0.0431
   2.0676E-01   2.1179E-01   2.0881E-05  0.0430
   2.1179E-01   2.1694E-01   2.1438E-05  0.0420
   2.1694E-01   2.2222E-01   2.0698E-05  0.0422
   2.2222E-01   2.2763E-01   2.2843E-05  0.0396
   2.2763E-01   2.3317E-01   2.4794E-05  0.0377
   2.3317E-01   2.3884E-01   2.6053E-05  0.0364
   2.3884E-01   2.4465E-01   2.6846E-05  0.0354
   2.4465E-01   2.5061E-01   2.7068E-05  0.0348
   2.5061E-01   2.5670E-01   2.8786E-05  0.0333
   2.5670E-01   2.6295E-01   3.0176E-05  0.0322
   2.6295E-01   2.6935E-01   3.1139E-05  0.0313
   2.6935E-01   2.7590E-01   3.4743E-05  0.0293
   2.7590E-01   2.8261E-01   3.3751E-05  0.0294
   2.8261E-01   2.8949E-01   3.6395E-05  0.0279
   2.8949E-01   2.9653E-01   3.6222E-05  0.0277
   2.9653E-01   3.0375E-01   3.8831E-05  0.0264
   3.0375E-01   3.1114E-01   4.1120E-05  0.0254
   3.1114E-01   3.1871E-01   4.1500E-05  0.0250
   3.1871E-01   3.2646E-01   4.4326E-05  0.0238
   3.2646E-01   3.3441E-01   4.5557E-05  0.0233
   3.3441E-01   3.4254E-01   5.0010E-05  0.0219
   3.4254E-01   3.5088E-01   4.8586E-05  0.0220
   3.5088E-01   3.5941E-01   5.2785E-05  0.0208
   3.5941E-01   3.6816E-01   5.4479E-05  0.0203
   3.6816E-01   3.7712E-01   5.6101E-05  0.0197
   3.7712E-01   3.8629E-01   6.0229E-05  0.0188
   3.8629E-01   3.9569E-01   6.1792E-05  0.0183
   3.9569E-01   4.0532E-01   6.6581E-05  0.0175
   4.0532E-01   4.1518E-01   6.7395E-05  0.0172
   4.1518E-01   4.2528E-01   7.1128E-05  0.0165
   4.2528E-01   4.3563E-01   7.3265E-05  0.0161
   4.3563E-01   4.4623E-01   8.0070E-05  0.0152
   4.4623E-01   4.5708E-01   7.9446E-05  0.0151
   4.5708E-01   4.6821E-01   8.4833E-05  0.0144
   4.6821E-01   4.7960E-01   8.8536E-05  0.0139
   4.7960E-01   4.9127E-01   9.3472E-05  0.0134
   4.9127E-01   5.0322E-01   9.6202E-05  0.0131
   5.0322E-01   5.1546E-01   1.0315E-04  0.0125
   5.1546E-01   5.2800E-01   1.0578E-04  0.0122
   5.2800E-01   5.4085E-01   1.0999E-04  0.0118
   5.4085E-01   5.5401E-01   1.1859E-04  0.0112
   5.5401E-01   5.6749E-01   1.2159E-04  0.0109
   5.6749E-01   5.8130E-01   1.2554E-04  0.0106
   5.8130E-01   5.9544E-01   1.2937E-04  0.0103
   5.9544E-01   6.0993E-01   1.3643E-04  0.0100
   6.0993E-01   6.2477E-01   1.4427E-04  0.0096
   6.2477E-01   6.3997E-01   1.4922E-04  0.0093
   6.3997E-01   6.5554E-01   1.5697E-04  0.0090
   6.5554E-01   6.7149E-01   1.5963E-04  0.0088
   6.7149E-01   6.8783E-01   1.6630E-04  0.0085
   6.8783E-01   7.0456E-01   1.7564E-04  0.0082
   7.0456E-01   7.2171E-01   1.8050E-04  0.0080
   7.2171E-01   7.3927E-01   1.8669E-04  0.0077
   7.3927E-01   7.5725E-01   1.9543E-04  0.0075
   7.5725E-01   7.7568E-01   2.0482E-04  0.0072
   7.7568E-01   7.9455E-01   2.1370E-04  0.0070
   7.9455E-01   8.1388E-01   2.2080E-04  0.0068
   8.1388E-01   8.3368E-01   2.2892E-04  0.0066
   8.3368E-01   8.5397E-01   2.3688E-04  0.0064
   8.5397E-01   8.7475E-01   2.4855E-04  0.0062
   8.7475E-01   8.9603E-01   2.5784E-04  0.0060
   8.9603E-01   9.1783E-01   2.6842E-04  0.0058
   9.1783E-01   9.4016E-01   2.7431E-04  0.0057
   9.4016E-01   9.6304E-01   2.8565E-04  0.0055
   9.6304E-01   9.8647E-01   2.9693E-04  0.0053
   9.8647E-01   1.0105E+00   2.9927E-04  0.0052
   1.0105E+00   1.0351E+00   3.0501E-04  0.0051
   1.0351E+00   1.0602E+00   3.1033E-04  0.0050
   1.0602E+00   1.0860E+00   3.1766E-04  0.0049
   1.0860E+00   1.1125E+00   3.2452E-04  0.0048
   1.1125E+00   1.1395E+00   3.3582E-04  0.0046
   1.1395E+00   1.1673E+00   3.4497E-04  0.0045
   1.1673E+00   1.1957E+00   3.5925E-04  0.0044
   1.1957E+00   1.2247E+00   3.6980E-04  0.0043
   1.2247E+00   1.2545E+00   3.6673E-04  0.0042
   1.2545E+00   1.2851E+00   3.7504E-04  0.0041
   1.2851E+00   1.3163E+00   3.8049E-04  0.0041
   1.3163E+00   1.3484E+00   3.9070E-04  0.0040
   1.3484E+00   1.3812E+00   4.0163E-04  0.0039
   1.3812E+00   1.4148E+00   4.1767E-04  0.0037
   1.4148E+00   1.4492E+00   4.2167E-04  0.0037
   1.4492E+00   1.4845E+00   4.3464E-04  0.0036
   1.4845E+00   1.5206E+00   4.4201E-04  0.0035
   1.5206E+00   1.5576E+00   4.4290E-04  0.0035
   1.5576E+00   1.5955E+00   4.4182E-04  0.0034
   1.5955E+00   1.6343E+00   4.4266E-04  0.0034
   1.6343E+00   1.6741E+00   4.4499E-04  0.0033
   1.6741E+00   1.7148E+00   4.4639E-04  0.0033
   1.7148E+00   1.7565E+00   4.5298E-04  0.0032
   1.7565E+00   1.7992E+00   4.6019E-04  0.0032
   1.7992E+00   1.8430E+00   4.6796E-04  0.0031
   1.8430E+00   1.8879E+00   4.6667E-04  0.0031
   1.8879E+00   1.9338E+00   4.6590E-04  0.0030
   1.9338E+00   1.9808E+00   4.7172E-04  0.0030
   1.9808E+00   2.0290E+00   4.8122E-04  0.0029
   2.0290E+00   2.0784E+00   4.7795E-04  0.0029
   2.0784E+00   2.1290E+00   4.7390E-04  0.0029
   2.1290E+00   2.1808E+00   4.6785E-04  0.0028
   2.1808E+00   2.2338E+00   4.6367E-04  0.0028
   2.2338E+00   2.2882E+00   4.6058E-04  0.0028
   2.2882E+00   2.3439E+00   4.5865E-04  0.0028
   2.3439E+00   2.4009E+00   4.6331E-04  0.0027
   2.4009E+00   2.4593E+00   4.6829E-04  0.0027
   2.4593E+00   2.5191E+00   4.6964E-04  0.0026
   2.5191E+00   2.5804E+00   4.6637E-04  0.0026
   2.5804E+00   2.6432E+00   4.5707E-04  0.0026
   2.6432E+00   2.7075E+00   4.5456E-04  0.0026
   2.7075E+00   2.7734E+00   4.4927E-04  0.0026
   2.7734E+00   2.8409E+00   4.4187E-04  0.0026
   2.8409E+00   2.9100E+00   4.3962E-04  0.0025
   2.9100E+00   2.9808E+00   4.3898E-04  0.0025
   2.9808E+00   3.0533E+00   4.3578E-04  0.0025
   3.0533E+00   3.1276E+00   4.2906E-04  0.0025
   3.1276E+00   3.2037E+00   4.2244E-04  0.0025
   3.2037E+00   3.2817E+00   4.1325E-04  0.0025
   3.2817E+00   3.3615E+00   4.0732E-04  0.0025
   3.3615E+00   3.4433E+00   4.0118E-04  0.0024
   3.4433E+00   3.5271E+00   3.9939E-04  0.0024
   3.5271E+00   3.6129E+00   3.9405E-04  0.0024
   3.6129E+00   3.7008E+00   3.8519E-04  0.0024
   3.7008E+00   3.7908E+00   3.7638E-04  0.0024
   3.7908E+00   3.8831E+00   3.7162E-04  0.0024
   3.8831E+00   3.9776E+00   3.6482E-04  0.0024
   3.9776E+00   4.0743E+00   3.6166E-04  0.0024
   4.0743E+00   4.1735E+00   3.5315E-04  0.0024
   4.1735E+00   4.2750E+00   3.4742E-04  0.0024
   4.2750E+00   4.3790E+00   3.4140E-04  0.0024
   4.3790E+00   4.4856E+00   3.3713E-04  0.0023
   4.4856E+00   4.5947E+00   3.3381E-04  0.0023
   4.5947E+00   4.7065E+00   3.2621E-04  0.0023
   4.7065E+00   4.8210E+00   3.2135E-04  0.0023
   4.8210E+00   4.9383E+00   3.1533E-04  0.0023
   4.9383E+00   5.0585E+00   3.1411E-04  0.0023
   5.0585E+00   5.1815E+00   3.1449E-04  0.0023
   5.1815E+00   5.3076E+00   3.1238E-04  0.0022
   5.3076E+00   5.4368E+00   3.0474E-04  0.0022
   5.4368E+00   5.5690E+00   2.9864E-04  0.0022
   5.5690E+00   5.7045E+00   2.9060E-04  0.0022
   5.7045E+00   5.8433E+00   2.8396E-04  0.0022
   5.8433E+00   5.9855E+00   2.7711E-04  0.0022
   5.9855E+00   6.1311E+00   2.7059E-04  0.0022
   6.1311E+00   6.2803E+00   2.6297E-04  0.0022
   6.2803E+00   6.4331E+00   2.5550E-04  0.0023
   6.4331E+00   6.5896E+00   2.5089E-04  0.0022
   6.5896E+00   6.7500E+00   2.4400E-04  0.0022
   6.7500E+00   6.9142E+00   2.3798E-04  0.0022
   6.9142E+00   7.0824E+00   2.3208E-04  0.0023
   7.0824E+00   7.2548E+00   2.2643E-04  0.0023
   7.2548E+00   7.4313E+00   2.1943E-04  0.0023
   7.4313E+00   7.6121E+00   2.1420E-04  0.0023
   7.6121E+00   7.7973E+00   2.1000E-04  0.0023
   7.7973E+00   7.9870E+00   2.0471E-04  0.0023
   7.9870E+00   8.1813E+00   1.9988E-04  0.0023
   8.1813E+00   8.3804E+00   1.9403E-04  0.0023
   8.3804E+00   8.5843E+00   1.8918E-04  0.0023
   8.5843E+00   8.7931E+00   1.8389E-04  0.0023
   8.7931E+00   9.0071E+00   1.8032E-04  0.0023
   9.0071E+00   9.2262E+00   1.7467E-04  0.0023
   9.2262E+00   9.4507E+00   1.7014E-04  0.0023
   9.4507E+00   9.6807E+00   1.6577E-04  0.0023
   9.6807E+00   9.9162E+00   1.6135E-04  0.0023
   9.9162E+00   1.0157E+01   1.5684E-04  0.0023
   1.0157E+01   1.0405E+01   1.5132E-04  0.0023
   1.0405E+01   1.0658E+01   1.4723E-04  0.0023
   1.0658E+01   1.0917E+01   1.4292E-04  0.0023
   1.0917E+01   1.1183E+01   1.3864E-04  0.0023
   1.1183E+01   1.1455E+01   1.3426E-04  0.0023
   1.1455E+01   1.1733E+01   1.3044E-04  0.0023
   1.1733E+01   1.2019E+01   1.2617E-04  0.0024
   1.2019E+01   1.2311E+01   1.2232E-04  0.0024
   1.2311E+01   1.2611E+01   1.1829E-04  0.0024
   1.2611E+01   1.2918E+01   1.1450E-04  0.0024
   1.2918E+01   1.3232E+01   1.1035E-04  0.0024
   1.3232E+01   1.3554E+01   1.0719E-04  0.0024
   1.3554E+01   1.3884E+01   1.0303E-04  0.0024
   1.3884E+01   1.4222E+01   9.9760E-05  0.0024
   1.4222E+01   1.4568E+01   9.5647E-05  0.0025
   1.4568E+01   1.4922E+01   9.2774E-05  0.0025
   1.4922E+01   1.5285E+01   8.9049E-05  0.0025
   1.5285E+01   1.5657E+01   8.6060E-05  0.0025
   1.5657E+01   1.6038E+01   8.2684E-05  0.0025
   1.6038E+01   1.6428E+01   7.9691E-05  0.0025
   1.6428E+01   1.6828E+01   7.6722E-05  0.0026
   1.6828E+01   1.7237E+01   7.3245E-05  0.0026
   1.7237E+01   1.7657E+01   7.0733E-05  0.0026
   1.7657E+01   1.8086E+01   6.7897E-05  0.0026
   1.8086E+01   1.8526E+01   6.4586E-05  0.0027
   1.8526E+01   1.8977E+01   6.2192E-05  0.0027
   1.8977E+01   1.9439E+01   6.0812E-05  0.0027
   1.9439E+01   1.9912E+01   6.1001E-05  0.0026
   1.9912E+01   2.0396E+01   6.0305E-05  0.0026
   2.0396E+01   2.0893E+01   5.8413E-05  0.0026
   2.0893E+01   2.1401E+01   5.5828E-05  0.0027
   2.1401E+01   2.1922E+01   5.3006E-05  0.0027
   2.1922E+01   2.2455E+01   5.0706E-05  0.0027
   2.2455E+01   2.3001E+01   4.8076E-05  0.0028
   2.3001E+01   2.3561E+01   4.5694E-05  0.0028
   2.3561E+01   2.4134E+01   4.3045E-05  0.0028
   2.4134E+01   2.4721E+01   4.0990E-05  0.0029
   2.4721E+01   2.5323E+01   3.8622E-05  0.0029
   2.5323E+01   2.5939E+01   3.6652E-05  0.0030
   2.5939E+01   2.6570E+01   3.4531E-05  0.0030
   2.6570E+01   2.7217E+01   3.2347E-05  0.0031
   2.7217E+01   2.7879E+01   3.0492E-05  0.0031
   2.7879E+01   2.8557E+01   2.8569E-05  0.0032
   2.8557E+01   2.9252E+01   2.6734E-05  0.0033
   2.9252E+01   2.9964E+01   2.4851E-05  0.0034
   2.9964E+01   3.0693E+01   2.2982E-05  0.0035
   3.0693E+01   3.1440E+01   2.1446E-05  0.0035
   3.1440E+01   3.2205E+01   1.9728E-05  0.0036
   3.2205E+01   3.2988E+01   1.8424E-05  0.0037
   3.2988E+01   3.3791E+01   1.6988E-05  0.0038
   3.3791E+01   3.4613E+01   1.5582E-05  0.0040
   3.4613E+01   3.5455E+01   1.4404E-05  0.0041
   3.5455E+01   3.6318E+01   1.3079E-05  0.0042
   3.6318E+01   3.7201E+01   1.2082E-05  0.0043
   3.7201E+01   3.8106E+01   1.0927E-05  0.0045
   3.8106E+01   3.9034E+01   9.9001E-06  0.0047
   3.9034E+01   3.9983E+01   9.1099E-06  0.0048
   3.9983E+01   4.0956E+01   8.1659E-06  0.0050
   4.0956E+01   4.1953E+01   7.3833E-06  0.0052
   4.1953E+01   4.2973E+01   6.6440E-06  0.0054
   4.2973E+01   4.4019E+01   6.0082E-06  0.0056
   4.4019E+01   4.5090E+01   5.3308E-06  0.0059
   4.5090E+01   4.6187E+01   4.7226E-06  0.0062
   4.6187E+01   4.7311E+01   4.2293E-06  0.0065
   4.7311E+01   4.8462E+01   3.7557E-06  0.0068
   4.8462E+01   4.9641E+01   3.3308E-06  0.0071
   4.9641E+01   5.0849E+01   2.9043E-06  0.0076
   5.0849E+01   5.2086E+01   2.5215E-06  0.0080
   5.2086E+01   5.3353E+01   2.1845E-06  0.0085
   5.3353E+01   5.4651E+01   1.9057E-06  0.0090
   5.4651E+01   5.5981E+01   1.6253E-06  0.0096
   5.5981E+01   5.7343E+01   1.3905E-06  0.0103
   5.7343E+01   5.8738E+01   1.1529E-06  0.0112
   5.8738E+01   6.0168E+01   9.5091E-07  0.0121
   6.0168E+01   6.1632E+01   7.9048E-07  0.0131
   6.1632E+01   6.3131E+01   6.3673E-07  0.0145
   6.3131E+01   6.4667E+01   5.1614E-07  0.0159
   6.4667E+01   6.6240E+01   3.9926E-07  0.0178
   6.6240E+01   6.7852E+01   3.0428E-07  0.0202
   6.7852E+01   6.9503E+01   2.2909E-07  0.0230
   6.9503E+01   7.1194E+01   1.7468E-07  0.0260
   7.1194E+01   7.2926E+01   1.2273E-07  0.0307
   7.2926E+01   7.4701E+01   8.7356E-08  0.0359
   7.4701E+01   7.6518E+01   5.7771E-08  0.0436
   7.6518E+01   7.8380E+01   3.8566E-08  0.0528
   7.8380E+01   8.0287E+01   2.2967E-08  0.0676
   8.0287E+01   8.2240E+01   1.4436E-08  0.0842
   8.2240E+01   8.4241E+01   9.5953E-09  0.1021
   8.4241E+01   8.6291E+01   6.7328E-09  0.1204
   8.6291E+01   8.8391E+01   4.2867E-09  0.1491
   8.8391E+01   9.0541E+01   2.4179E-09  0.1961
   9.0541E+01   9.2744E+01   4.5394E-10  0.4472
   9.2744E+01   9.5001E+01   5.3179E-10  0.4082
   9.5001E+01   9.7312E+01   8.6526E-11  1.0000
   9.7312E+01   9.9680E+01   1.6894E-10  0.7071
   9.9680E+01   1.0211E+02   8.2464E-11  1.0000
   1.0211E+02   1.0459E+02   0.0000E+00  0.0000
   1.0459E+02   1.0713E+02   0.0000E+00  0.0000
   1.0713E+02   1.0974E+02   0.0000E+00  0.0000
   1.0974E+02   1.1241E+02   0.0000E+00  0.0000
   1.1241E+02   1.1515E+02   0.0000E+00  0.0000
   1.1515E+02   1.1795E+02   0.0000E+00  0.0000
   1.1795E+02   1.2082E+02   0.0000E+00  0.0000
   1.2082E+02   1.2376E+02   0.0000E+00  0.0000
   1.2376E+02   1.2677E+02   0.0000E+00  0.0000
   1.2677E+02   1.2985E+02   0.0000E+00  0.0000
   1.2985E+02   1.3301E+02   0.0000E+00  0.0000
   1.3301E+02   1.3625E+02   0.0000E+00  0.0000
   1.3625E+02   1.3956E+02   0.0000E+00  0.0000
   1.3956E+02   1.4296E+02   0.0000E+00  0.0000
   1.4296E+02   1.4644E+02   0.0000E+00  0.0000
   1.4644E+02   1.5000E+02   0.0000E+00  0.0000

#   sum over                 2.9552E-05
'no. =    1   reg = 113 - 213'
msuc: {\huge [t-cross] in region mesh}
msdr: {\it plotted by \ANGEL \version}
msdl: {\it calculated by \PHITS  3.28}
wt: s(0.7)
\vspace{-3}
  region surface crossing
  area  &=&   1.0000E+00 [cm^2]
e:
 
# Information for Restart Calculation
# This calculation was newly started
# istdev =  2 # 1:Batch variance, 2:History variance
# resc2  = 5.00000000000000000E+09 # Total source weight or Total source weight / maxcas
# resc3  = 5.00000000000000000E+09 # Total history number or Total batch number
# maxcas =   500000000 # History / Batch, only used for istdev=1
# bitrseed = 0110100000100010111000001110001111001110100100011111101000111001 # bit data of rseed
