[ T-Cross ]
    title = [t-cross] in region mesh
     mesh =  reg            # mesh type is region-wise
      reg =    1            # number of crossing regions
      non     r-from    r-to       area
      1       113       213        1.000000    
   e-type =    3            # e-mesh is log given by emin, emax and ne
     emin =  1.0000000E-02  # minimum value of e-mesh points
     emax =   150.0000      # maximum value of e-mesh points
#    edel =  2.4039514E-02  # mesh width of e-mesh points
       ne =    400          # number of e-mesh points
#    data = ( e(i), i = 1, ne + 1 )
#           1.00000E-02  1.02433E-02  1.04925E-02  1.07478E-02  1.10093E-02
#           1.12772E-02  1.15516E-02  1.18326E-02  1.21205E-02  1.24154E-02
#           1.27175E-02  1.30269E-02  1.33439E-02  1.36686E-02  1.40011E-02
#           1.43418E-02  1.46907E-02  1.50482E-02  1.54143E-02  1.57894E-02
#           1.61735E-02  1.65670E-02  1.69701E-02  1.73830E-02  1.78060E-02
#           1.82392E-02  1.86830E-02  1.91375E-02  1.96032E-02  2.00801E-02
#           2.05687E-02  2.10692E-02  2.15818E-02  2.21069E-02  2.26448E-02
#           2.31957E-02  2.37601E-02  2.43382E-02  2.49304E-02  2.55369E-02
#           2.61583E-02  2.67947E-02  2.74467E-02  2.81145E-02  2.87985E-02
#           2.94992E-02  3.02169E-02  3.09521E-02  3.17052E-02  3.24766E-02
#           3.32668E-02  3.40762E-02  3.49053E-02  3.57546E-02  3.66246E-02
#           3.75157E-02  3.84284E-02  3.93634E-02  4.03212E-02  4.13022E-02
#           4.23071E-02  4.33365E-02  4.43909E-02  4.54710E-02  4.65773E-02
#           4.77106E-02  4.88714E-02  5.00605E-02  5.12785E-02  5.25262E-02
#           5.38042E-02  5.51133E-02  5.64542E-02  5.78278E-02  5.92348E-02
#           6.06760E-02  6.21523E-02  6.36645E-02  6.52135E-02  6.68002E-02
#           6.84255E-02  7.00904E-02  7.17957E-02  7.35426E-02  7.53319E-02
#           7.71648E-02  7.90423E-02  8.09655E-02  8.29354E-02  8.49533E-02
#           8.70203E-02  8.91376E-02  9.13064E-02  9.35279E-02  9.58035E-02
#           9.81345E-02  1.00522E-01  1.02968E-01  1.05473E-01  1.08040E-01
#           1.10668E-01  1.13361E-01  1.16119E-01  1.18944E-01  1.21838E-01
#           1.24803E-01  1.27839E-01  1.30950E-01  1.34136E-01  1.37399E-01
#           1.40742E-01  1.44167E-01  1.47675E-01  1.51268E-01  1.54948E-01
#           1.58718E-01  1.62580E-01  1.66535E-01  1.70587E-01  1.74738E-01
#           1.78989E-01  1.83344E-01  1.87805E-01  1.92375E-01  1.97055E-01
#           2.01850E-01  2.06761E-01  2.11792E-01  2.16945E-01  2.22223E-01
#           2.27630E-01  2.33169E-01  2.38842E-01  2.44653E-01  2.50605E-01
#           2.56703E-01  2.62949E-01  2.69346E-01  2.75900E-01  2.82613E-01
#           2.89489E-01  2.96532E-01  3.03747E-01  3.11138E-01  3.18708E-01
#           3.26462E-01  3.34405E-01  3.42542E-01  3.50876E-01  3.59413E-01
#           3.68158E-01  3.77116E-01  3.86291E-01  3.95690E-01  4.05317E-01
#           4.15179E-01  4.25281E-01  4.35628E-01  4.46227E-01  4.57084E-01
#           4.68205E-01  4.79597E-01  4.91266E-01  5.03219E-01  5.15463E-01
#           5.28005E-01  5.40851E-01  5.54011E-01  5.67490E-01  5.81298E-01
#           5.95441E-01  6.09929E-01  6.24769E-01  6.39970E-01  6.55541E-01
#           6.71491E-01  6.87828E-01  7.04564E-01  7.21706E-01  7.39266E-01
#           7.57253E-01  7.75678E-01  7.94551E-01  8.13883E-01  8.33685E-01
#           8.53969E-01  8.74747E-01  8.96030E-01  9.17831E-01  9.40163E-01
#           9.63038E-01  9.86469E-01  1.01047E+00  1.03506E+00  1.06024E+00
#           1.08604E+00  1.11246E+00  1.13953E+00  1.16725E+00  1.19565E+00
#           1.22474E+00  1.25454E+00  1.28507E+00  1.31633E+00  1.34836E+00
#           1.38117E+00  1.41477E+00  1.44920E+00  1.48446E+00  1.52057E+00
#           1.55757E+00  1.59547E+00  1.63429E+00  1.67405E+00  1.71478E+00
#           1.75650E+00  1.79924E+00  1.84302E+00  1.88786E+00  1.93379E+00
#           1.98084E+00  2.02904E+00  2.07841E+00  2.12898E+00  2.18078E+00
#           2.23384E+00  2.28819E+00  2.34386E+00  2.40089E+00  2.45930E+00
#           2.51914E+00  2.58043E+00  2.64322E+00  2.70753E+00  2.77341E+00
#           2.84088E+00  2.91001E+00  2.98081E+00  3.05333E+00  3.12762E+00
#           3.20372E+00  3.28167E+00  3.36152E+00  3.44330E+00  3.52708E+00
#           3.61290E+00  3.70080E+00  3.79085E+00  3.88308E+00  3.97756E+00
#           4.07434E+00  4.17347E+00  4.27501E+00  4.37903E+00  4.48557E+00
#           4.59471E+00  4.70650E+00  4.82102E+00  4.93832E+00  5.05847E+00
#           5.18155E+00  5.30762E+00  5.43676E+00  5.56904E+00  5.70453E+00
#           5.84333E+00  5.98550E+00  6.13114E+00  6.28031E+00  6.43312E+00
#           6.58964E+00  6.74997E+00  6.91420E+00  7.08243E+00  7.25475E+00
#           7.43126E+00  7.61207E+00  7.79728E+00  7.98700E+00  8.18133E+00
#           8.38038E+00  8.58428E+00  8.79315E+00  9.00709E+00  9.22624E+00
#           9.45072E+00  9.68067E+00  9.91620E+00  1.01575E+01  1.04046E+01
#           1.06578E+01  1.09171E+01  1.11827E+01  1.14548E+01  1.17335E+01
#           1.20190E+01  1.23114E+01  1.26109E+01  1.29178E+01  1.32321E+01
#           1.35540E+01  1.38838E+01  1.42216E+01  1.45676E+01  1.49221E+01
#           1.52851E+01  1.56570E+01  1.60380E+01  1.64282E+01  1.68279E+01
#           1.72374E+01  1.76568E+01  1.80864E+01  1.85264E+01  1.89772E+01
#           1.94389E+01  1.99119E+01  2.03963E+01  2.08926E+01  2.14009E+01
#           2.19216E+01  2.24550E+01  2.30014E+01  2.35610E+01  2.41343E+01
#           2.47215E+01  2.53230E+01  2.59391E+01  2.65702E+01  2.72167E+01
#           2.78789E+01  2.85572E+01  2.92520E+01  2.99637E+01  3.06928E+01
#           3.14396E+01  3.22045E+01  3.29881E+01  3.37907E+01  3.46128E+01
#           3.54550E+01  3.63177E+01  3.72013E+01  3.81064E+01  3.90336E+01
#           3.99833E+01  4.09561E+01  4.19526E+01  4.29734E+01  4.40189E+01
#           4.50900E+01  4.61870E+01  4.73108E+01  4.84619E+01  4.96410E+01
#           5.08488E+01  5.20860E+01  5.33533E+01  5.46514E+01  5.59812E+01
#           5.73432E+01  5.87384E+01  6.01676E+01  6.16315E+01  6.31311E+01
#           6.46671E+01  6.62405E+01  6.78522E+01  6.95031E+01  7.11941E+01
#           7.29263E+01  7.47007E+01  7.65182E+01  7.83800E+01  8.02870E+01
#           8.22405E+01  8.42414E+01  8.62911E+01  8.83906E+01  9.05412E+01
#           9.27442E+01  9.50007E+01  9.73122E+01  9.96799E+01  1.02105E+02
#           1.04589E+02  1.07134E+02  1.09741E+02  1.12411E+02  1.15146E+02
#           1.17948E+02  1.20817E+02  1.23757E+02  1.26768E+02  1.29852E+02
#           1.33012E+02  1.36248E+02  1.39563E+02  1.42959E+02  1.46437E+02
#           1.50000E+02
     unit =    2            # unit is [1/cm^2/(MeV/n)/source]
     axis =  eng            # axis of output
     file = detector-14.out  # file name of output for the above axis
   output = f-curr          # surface crossing forward current spectrum
     part =  neutron  
# kf/name :  2112     
#    used :        main (  %)        temp (  %)       total (  %)
#  memory :         414 (  0)           0 (  0)         414 (  0)

#------------------------------------------------------------------------------
#newpage:
#   no. =    1   reg = 113 - 213

x: Energy [MeV/n]
y:  F-Curr [1/cm^2/(MeV/n)/source]         
p: xlog ylog afac(0.8) form(0.9)
h: n            x            y(neutron ),hh0l   n 
#  e-lower      e-upper      neutron     r.err 
   1.0000E-02   1.0243E-02   2.4660E-06  0.5774
   1.0243E-02   1.0493E-02   5.6174E-06  0.3780
   1.0493E-02   1.0748E-02   8.6176E-06  0.3015
   1.0748E-02   1.1009E-02   6.8833E-06  0.3333
   1.1009E-02   1.1277E-02   2.9866E-06  0.5000
   1.1277E-02   1.1552E-02   6.5602E-06  0.3333
   1.1552E-02   1.1833E-02   7.1159E-06  0.3162
   1.1833E-02   1.2121E-02   5.5575E-06  0.3536
   1.2121E-02   1.2415E-02   8.1383E-06  0.2887
   1.2415E-02   1.2718E-02   7.2829E-06  0.3015
   1.2718E-02   1.3027E-02   7.7563E-06  0.2887
   1.3027E-02   1.3344E-02   5.6790E-06  0.3333
   1.3344E-02   1.3669E-02   4.3121E-06  0.3780
   1.3669E-02   1.4001E-02   5.4124E-06  0.3333
   1.4001E-02   1.4342E-02   5.2839E-06  0.3333
   1.4342E-02   1.4691E-02   4.5852E-06  0.3536
   1.4691E-02   1.5048E-02   5.5954E-06  0.3162
   1.5048E-02   1.5414E-02   4.9162E-06  0.3333
   1.5414E-02   1.5789E-02   4.2662E-06  0.3536
   1.5789E-02   1.6174E-02   6.7679E-06  0.2774
   1.6174E-02   1.6567E-02   5.0824E-06  0.3162
   1.6567E-02   1.6970E-02   4.4655E-06  0.3333
   1.6970E-02   1.7383E-02   7.2657E-06  0.2582
   1.7383E-02   1.7806E-02   6.1474E-06  0.2774
   1.7806E-02   1.8239E-02   5.5397E-06  0.2887
   1.8239E-02   1.8683E-02   8.1122E-06  0.2357
   1.8683E-02   1.9138E-02   5.7197E-06  0.2774
   1.9138E-02   1.9603E-02   8.5905E-06  0.2236
   1.9603E-02   2.0080E-02   5.8705E-06  0.2673
   2.0080E-02   2.0569E-02   4.0936E-06  0.3162
   2.0569E-02   2.1069E-02   7.9928E-06  0.2236
   2.1069E-02   2.1582E-02   5.4620E-06  0.2673
   2.1582E-02   2.2107E-02   6.0941E-06  0.2500
   2.2107E-02   2.2645E-02   7.8085E-06  0.2182
   2.2645E-02   2.3196E-02   9.0750E-06  0.2000
   2.3196E-02   2.3760E-02   6.0244E-06  0.2425
   2.3760E-02   2.4338E-02   7.9571E-06  0.2085
   2.4338E-02   2.4930E-02   9.1190E-06  0.1925
   2.4930E-02   2.5537E-02   9.2322E-06  0.1890
   2.5537E-02   2.6158E-02   6.4378E-06  0.2236
   2.6158E-02   2.6795E-02   8.1703E-06  0.1961
   2.6795E-02   2.7447E-02   1.0737E-05  0.1690
   2.7447E-02   2.8114E-02   5.9898E-06  0.2236
   2.8114E-02   2.8799E-02   7.0171E-06  0.2041
   2.8799E-02   2.9499E-02   7.7067E-06  0.1925
   2.9499E-02   3.0217E-02   9.4742E-06  0.1715
   3.0217E-02   3.0952E-02   6.2568E-06  0.2085
   3.0952E-02   3.1705E-02   6.9049E-06  0.1961
   3.1705E-02   3.2477E-02   1.0630E-05  0.1562
   3.2477E-02   3.3267E-02   6.3277E-06  0.2000
   3.3267E-02   3.4076E-02   9.8838E-06  0.1581
   3.4076E-02   3.4905E-02   7.4780E-06  0.1796
   3.4905E-02   3.5755E-02   8.2423E-06  0.1690
   3.5755E-02   3.6625E-02   9.6559E-06  0.1543
   3.6625E-02   3.7516E-02   9.8754E-06  0.1508
   3.7516E-02   3.8428E-02   8.7644E-06  0.1581
   3.8428E-02   3.9363E-02   9.4118E-06  0.1508
   3.9363E-02   4.0321E-02   5.2206E-06  0.2000
   4.0321E-02   4.1302E-02   1.1824E-05  0.1313
   4.1302E-02   4.2307E-02   9.5530E-06  0.1443
   4.2307E-02   4.3337E-02   6.9946E-06  0.1667
   4.3337E-02   4.4391E-02   1.0053E-05  0.1374
   4.4391E-02   4.5471E-02   1.1296E-05  0.1280
   4.5471E-02   4.6577E-02   8.3157E-06  0.1474
   4.6577E-02   4.7711E-02   9.8830E-06  0.1336
   4.7711E-02   4.8871E-02   1.0682E-05  0.1270
   4.8871E-02   5.0061E-02   9.7554E-06  0.1313
   5.0061E-02   5.1279E-02   1.0673E-05  0.1240
   5.1279E-02   5.2526E-02   1.2343E-05  0.1140
   5.2526E-02   5.3804E-02   8.2942E-06  0.1374
   5.3804E-02   5.5113E-02   1.2375E-05  0.1111
   5.5113E-02   5.6454E-02   9.0980E-06  0.1280
   5.6454E-02   5.7828E-02   1.0775E-05  0.1162
   5.7828E-02   5.9235E-02   1.1087E-05  0.1132
   5.9235E-02   6.0676E-02   1.1379E-05  0.1104
   6.0676E-02   6.2152E-02   1.0025E-05  0.1162
   6.2152E-02   6.3665E-02   1.2829E-05  0.1015
   6.3665E-02   6.5214E-02   1.0071E-05  0.1132
   6.5214E-02   6.6800E-02   1.2227E-05  0.1015
   6.6800E-02   6.8426E-02   1.1321E-05  0.1043
   6.8426E-02   7.0090E-02   1.1533E-05  0.1021
   7.0090E-02   7.1796E-02   9.7340E-06  0.1098
   7.1796E-02   7.3543E-02   1.0304E-05  0.1054
   7.3543E-02   7.5332E-02   1.2407E-05  0.0949
   7.5332E-02   7.7165E-02   9.8206E-06  0.1054
   7.7165E-02   7.9042E-02   1.1292E-05  0.0971
   7.9042E-02   8.0965E-02   1.1959E-05  0.0933
   8.0965E-02   8.2935E-02   1.1066E-05  0.0958
   8.2935E-02   8.4953E-02   1.2885E-05  0.0877
   8.4953E-02   8.7020E-02   1.1998E-05  0.0898
   8.7020E-02   8.9138E-02   1.3980E-05  0.0822
   8.9138E-02   9.1306E-02   1.4386E-05  0.0801
   9.1306E-02   9.3528E-02   1.3234E-05  0.0825
   9.3528E-02   9.5804E-02   1.4853E-05  0.0769
   9.5804E-02   9.8134E-02   1.3213E-05  0.0806
   9.8134E-02   1.0052E-01   1.0303E-05  0.0902
   1.0052E-01   1.0297E-01   1.1448E-05  0.0845
   1.0297E-01   1.0547E-01   1.3092E-05  0.0781
   1.0547E-01   1.0804E-01   1.3561E-05  0.0758
   1.0804E-01   1.1067E-01   1.3162E-05  0.0760
   1.1067E-01   1.1336E-01   1.3370E-05  0.0745
   1.1336E-01   1.1612E-01   1.4575E-05  0.0705
   1.1612E-01   1.1894E-01   1.2105E-05  0.0765
   1.1894E-01   1.2184E-01   1.3476E-05  0.0716
   1.2184E-01   1.2480E-01   1.4843E-05  0.0674
   1.2480E-01   1.2784E-01   1.3766E-05  0.0692
   1.2784E-01   1.3095E-01   1.5496E-05  0.0644
   1.3095E-01   1.3414E-01   1.4814E-05  0.0651
   1.3414E-01   1.3740E-01   1.4708E-05  0.0645
   1.3740E-01   1.4074E-01   1.4358E-05  0.0645
   1.4074E-01   1.4417E-01   1.5536E-05  0.0613
   1.4417E-01   1.4767E-01   1.6193E-05  0.0593
   1.4767E-01   1.5127E-01   1.6421E-05  0.0582
   1.5127E-01   1.5495E-01   1.7606E-05  0.0556
   1.5495E-01   1.5872E-01   1.6074E-05  0.0574
   1.5872E-01   1.6258E-01   1.6521E-05  0.0560
   1.6258E-01   1.6654E-01   1.5825E-05  0.0565
   1.6654E-01   1.7059E-01   1.6239E-05  0.0551
   1.7059E-01   1.7474E-01   1.8263E-05  0.0514
   1.7474E-01   1.7899E-01   1.7970E-05  0.0512
   1.7899E-01   1.8334E-01   1.8232E-05  0.0502
   1.8334E-01   1.8781E-01   1.8113E-05  0.0498
   1.8781E-01   1.9237E-01   1.8033E-05  0.0493
   1.9237E-01   1.9706E-01   1.8502E-05  0.0481
   1.9706E-01   2.0185E-01   1.9481E-05  0.0463
   2.0185E-01   2.0676E-01   1.8570E-05  0.0468
   2.0676E-01   2.1179E-01   1.6817E-05  0.0486
   2.1179E-01   2.1694E-01   1.8746E-05  0.0455
   2.1694E-01   2.2222E-01   1.9172E-05  0.0445
   2.2222E-01   2.2763E-01   1.9161E-05  0.0439
   2.2763E-01   2.3317E-01   1.9500E-05  0.0430
   2.3317E-01   2.3884E-01   1.8861E-05  0.0432
   2.3884E-01   2.4465E-01   1.9067E-05  0.0425
   2.4465E-01   2.5061E-01   1.9454E-05  0.0416
   2.5061E-01   2.5670E-01   2.0074E-05  0.0404
   2.5670E-01   2.6295E-01   2.1358E-05  0.0387
   2.6295E-01   2.6935E-01   1.9913E-05  0.0396
   2.6935E-01   2.7590E-01   1.9898E-05  0.0392
   2.7590E-01   2.8261E-01   2.1958E-05  0.0368
   2.8261E-01   2.8949E-01   2.1611E-05  0.0367
   2.8949E-01   2.9653E-01   2.0842E-05  0.0369
   2.9653E-01   3.0375E-01   2.0901E-05  0.0364
   3.0375E-01   3.1114E-01   2.1812E-05  0.0352
   3.1114E-01   3.1871E-01   2.1188E-05  0.0353
   3.1871E-01   3.2646E-01   2.2155E-05  0.0341
   3.2646E-01   3.3441E-01   2.2258E-05  0.0336
   3.3441E-01   3.4254E-01   2.2270E-05  0.0332
   3.4254E-01   3.5088E-01   2.2341E-05  0.0328
   3.5088E-01   3.5941E-01   2.2092E-05  0.0326
   3.5941E-01   3.6816E-01   2.2756E-05  0.0317
   3.6816E-01   3.7712E-01   2.3087E-05  0.0311
   3.7712E-01   3.8629E-01   2.2080E-05  0.0314
   3.8629E-01   3.9569E-01   2.2407E-05  0.0308
   3.9569E-01   4.0532E-01   2.1688E-05  0.0309
   4.0532E-01   4.1518E-01   2.2775E-05  0.0298
   4.1518E-01   4.2528E-01   2.1264E-05  0.0305
   4.2528E-01   4.3563E-01   2.2982E-05  0.0290
   4.3563E-01   4.4623E-01   2.3058E-05  0.0286
   4.4623E-01   4.5708E-01   2.2566E-05  0.0286
   4.5708E-01   4.6821E-01   2.3433E-05  0.0277
   4.6821E-01   4.7960E-01   2.4772E-05  0.0266
   4.7960E-01   4.9127E-01   2.3704E-05  0.0269
   4.9127E-01   5.0322E-01   2.2907E-05  0.0270
   5.0322E-01   5.1546E-01   2.1921E-05  0.0273
   5.1546E-01   5.2800E-01   2.3474E-05  0.0261
   5.2800E-01   5.4085E-01   2.3088E-05  0.0260
   5.4085E-01   5.5401E-01   2.2190E-05  0.0262
   5.5401E-01   5.6749E-01   2.2553E-05  0.0256
   5.6749E-01   5.8130E-01   2.3292E-05  0.0249
   5.8130E-01   5.9544E-01   2.2795E-05  0.0249
   5.9544E-01   6.0993E-01   2.2364E-05  0.0248
   6.0993E-01   6.2477E-01   2.2453E-05  0.0245
   6.2477E-01   6.3997E-01   2.2275E-05  0.0243
   6.3997E-01   6.5554E-01   2.1219E-05  0.0246
   6.5554E-01   6.7149E-01   2.2182E-05  0.0238
   6.7149E-01   6.8783E-01   2.1814E-05  0.0237
   6.8783E-01   7.0456E-01   2.2181E-05  0.0232
   7.0456E-01   7.2171E-01   2.2295E-05  0.0229
   7.2171E-01   7.3927E-01   2.1139E-05  0.0232
   7.3927E-01   7.5725E-01   2.1271E-05  0.0229
   7.5725E-01   7.7568E-01   2.1916E-05  0.0223
   7.7568E-01   7.9455E-01   2.1088E-05  0.0224
   7.9455E-01   8.1388E-01   2.1467E-05  0.0220
   8.1388E-01   8.3368E-01   2.1199E-05  0.0218
   8.3368E-01   8.5397E-01   2.0873E-05  0.0217
   8.5397E-01   8.7475E-01   1.9742E-05  0.0221
   8.7475E-01   8.9603E-01   1.9508E-05  0.0219
   8.9603E-01   9.1783E-01   1.9632E-05  0.0216
   9.1783E-01   9.4016E-01   1.8709E-05  0.0219
   9.4016E-01   9.6304E-01   1.8203E-05  0.0219
   9.6304E-01   9.8647E-01   1.7754E-05  0.0219
   9.8647E-01   1.0105E+00   1.7582E-05  0.0218
   1.0105E+00   1.0351E+00   1.7148E-05  0.0218
   1.0351E+00   1.0602E+00   1.6098E-05  0.0222
   1.0602E+00   1.0860E+00   1.6436E-05  0.0217
   1.0860E+00   1.1125E+00   1.5970E-05  0.0218
   1.1125E+00   1.1395E+00   1.5598E-05  0.0218
   1.1395E+00   1.1673E+00   1.6101E-05  0.0212
   1.1673E+00   1.1957E+00   1.5887E-05  0.0211
   1.1957E+00   1.2247E+00   1.6328E-05  0.0205
   1.2247E+00   1.2545E+00   1.5571E-05  0.0208
   1.2545E+00   1.2851E+00   1.5581E-05  0.0205
   1.2851E+00   1.3163E+00   1.5486E-05  0.0203
   1.3163E+00   1.3484E+00   1.5068E-05  0.0204
   1.3484E+00   1.3812E+00   1.5034E-05  0.0201
   1.3812E+00   1.4148E+00   1.5319E-05  0.0197
   1.4148E+00   1.4492E+00   1.4183E-05  0.0202
   1.4492E+00   1.4845E+00   1.4753E-05  0.0196
   1.4845E+00   1.5206E+00   1.4497E-05  0.0195
   1.5206E+00   1.5576E+00   1.4326E-05  0.0194
   1.5576E+00   1.5955E+00   1.3584E-05  0.0197
   1.5955E+00   1.6343E+00   1.3808E-05  0.0193
   1.6343E+00   1.6741E+00   1.3465E-05  0.0193
   1.6741E+00   1.7148E+00   1.3827E-05  0.0188
   1.7148E+00   1.7565E+00   1.3187E-05  0.0191
   1.7565E+00   1.7992E+00   1.2284E-05  0.0195
   1.7992E+00   1.8430E+00   1.2742E-05  0.0189
   1.8430E+00   1.8879E+00   1.2653E-05  0.0188
   1.8879E+00   1.9338E+00   1.2462E-05  0.0187
   1.9338E+00   1.9808E+00   1.2191E-05  0.0187
   1.9808E+00   2.0290E+00   1.2358E-05  0.0183
   2.0290E+00   2.0784E+00   1.1526E-05  0.0187
   2.0784E+00   2.1290E+00   1.1533E-05  0.0185
   2.1290E+00   2.1808E+00   1.1066E-05  0.0187
   2.1808E+00   2.2338E+00   1.0501E-05  0.0189
   2.2338E+00   2.2882E+00   1.0793E-05  0.0185
   2.2882E+00   2.3439E+00   9.9724E-06  0.0190
   2.3439E+00   2.4009E+00   1.0195E-05  0.0186
   2.4009E+00   2.4593E+00   9.7337E-06  0.0188
   2.4593E+00   2.5191E+00   9.4858E-06  0.0188
   2.5191E+00   2.5804E+00   9.2996E-06  0.0187
   2.5804E+00   2.6432E+00   8.9736E-06  0.0188
   2.6432E+00   2.7075E+00   8.6081E-06  0.0190
   2.7075E+00   2.7734E+00   8.2215E-06  0.0192
   2.7734E+00   2.8409E+00   8.4174E-06  0.0188
   2.8409E+00   2.9100E+00   8.1596E-06  0.0188
   2.9100E+00   2.9808E+00   8.0110E-06  0.0188
   2.9808E+00   3.0533E+00   7.8676E-06  0.0187
   3.0533E+00   3.1276E+00   7.4007E-06  0.0191
   3.1276E+00   3.2037E+00   7.1408E-06  0.0192
   3.2037E+00   3.2817E+00   6.6967E-06  0.0196
   3.2817E+00   3.3615E+00   6.6829E-06  0.0194
   3.3615E+00   3.4433E+00   6.3799E-06  0.0196
   3.4433E+00   3.5271E+00   6.2283E-06  0.0196
   3.5271E+00   3.6129E+00   5.7215E-06  0.0202
   3.6129E+00   3.7008E+00   5.9314E-06  0.0196
   3.7008E+00   3.7908E+00   5.5062E-06  0.0201
   3.7908E+00   3.8831E+00   5.2779E-06  0.0203
   3.8831E+00   3.9776E+00   5.3091E-06  0.0200
   3.9776E+00   4.0743E+00   4.9908E-06  0.0203
   4.0743E+00   4.1735E+00   4.7512E-06  0.0206
   4.1735E+00   4.2750E+00   4.6502E-06  0.0206
   4.2750E+00   4.3790E+00   4.4417E-06  0.0208
   4.3790E+00   4.4856E+00   4.4563E-06  0.0205
   4.4856E+00   4.5947E+00   4.0060E-06  0.0214
   4.5947E+00   4.7065E+00   3.9341E-06  0.0213
   4.7065E+00   4.8210E+00   3.8214E-06  0.0214
   4.8210E+00   4.9383E+00   3.7085E-06  0.0214
   4.9383E+00   5.0585E+00   3.5721E-06  0.0216
   5.0585E+00   5.1815E+00   3.5084E-06  0.0215
   5.1815E+00   5.3076E+00   3.2379E-06  0.0221
   5.3076E+00   5.4368E+00   3.0951E-06  0.0224
   5.4368E+00   5.5690E+00   3.0677E-06  0.0222
   5.5690E+00   5.7045E+00   2.9166E-06  0.0225
   5.7045E+00   5.8433E+00   2.8891E-06  0.0223
   5.8433E+00   5.9855E+00   2.8219E-06  0.0223
   5.9855E+00   6.1311E+00   2.5420E-06  0.0232
   6.1311E+00   6.2803E+00   2.5393E-06  0.0230
   6.2803E+00   6.4331E+00   2.5209E-06  0.0228
   6.4331E+00   6.5896E+00   2.5031E-06  0.0226
   6.5896E+00   6.7500E+00   2.2990E-06  0.0233
   6.7500E+00   6.9142E+00   2.2639E-06  0.0232
   6.9142E+00   7.0824E+00   2.1435E-06  0.0236
   7.0824E+00   7.2548E+00   2.1582E-06  0.0232
   7.2548E+00   7.4313E+00   2.1097E-06  0.0232
   7.4313E+00   7.6121E+00   2.1514E-06  0.0227
   7.6121E+00   7.7973E+00   2.0582E-06  0.0229
   7.7973E+00   7.9870E+00   1.9767E-06  0.0231
   7.9870E+00   8.1813E+00   1.9745E-06  0.0228
   8.1813E+00   8.3804E+00   1.9743E-06  0.0226
   8.3804E+00   8.5843E+00   1.8931E-06  0.0228
   8.5843E+00   8.7931E+00   1.8639E-06  0.0227
   8.7931E+00   9.0071E+00   1.8463E-06  0.0225
   9.0071E+00   9.2262E+00   1.8973E-06  0.0219
   9.2262E+00   9.4507E+00   1.7774E-06  0.0224
   9.4507E+00   9.6807E+00   1.7957E-06  0.0220
   9.6807E+00   9.9162E+00   1.8579E-06  0.0214
   9.9162E+00   1.0157E+01   1.7731E-06  0.0216
   1.0157E+01   1.0405E+01   1.8156E-06  0.0211
   1.0405E+01   1.0658E+01   1.7851E-06  0.0210
   1.0658E+01   1.0917E+01   1.7801E-06  0.0208
   1.0917E+01   1.1183E+01   1.7732E-06  0.0206
   1.1183E+01   1.1455E+01   1.6782E-06  0.0209
   1.1455E+01   1.1733E+01   1.7585E-06  0.0202
   1.1733E+01   1.2019E+01   1.7195E-06  0.0202
   1.2019E+01   1.2311E+01   1.6770E-06  0.0202
   1.2311E+01   1.2611E+01   1.7253E-06  0.0197
   1.2611E+01   1.2918E+01   1.7345E-06  0.0194
   1.2918E+01   1.3232E+01   1.6395E-06  0.0197
   1.3232E+01   1.3554E+01   1.6934E-06  0.0192
   1.3554E+01   1.3884E+01   1.6738E-06  0.0190
   1.3884E+01   1.4222E+01   1.5953E-06  0.0193
   1.4222E+01   1.4568E+01   1.6135E-06  0.0189
   1.4568E+01   1.4922E+01   1.5780E-06  0.0189
   1.4922E+01   1.5285E+01   1.5364E-06  0.0189
   1.5285E+01   1.5657E+01   1.5628E-06  0.0186
   1.5657E+01   1.6038E+01   1.5614E-06  0.0183
   1.6038E+01   1.6428E+01   1.4887E-06  0.0186
   1.6428E+01   1.6828E+01   1.4958E-06  0.0183
   1.6828E+01   1.7237E+01   1.4222E-06  0.0185
   1.7237E+01   1.7657E+01   1.4189E-06  0.0183
   1.7657E+01   1.8086E+01   1.4118E-06  0.0182
   1.8086E+01   1.8526E+01   1.3051E-06  0.0187
   1.8526E+01   1.8977E+01   1.2614E-06  0.0188
   1.8977E+01   1.9439E+01   1.2421E-06  0.0187
   1.9439E+01   1.9912E+01   1.1743E-06  0.0190
   1.9912E+01   2.0396E+01   1.9564E-06  0.0145
   2.0396E+01   2.0893E+01   2.0663E-06  0.0140
   2.0893E+01   2.1401E+01   1.9672E-06  0.0141
   2.1401E+01   2.1922E+01   1.7753E-06  0.0147
   2.1922E+01   2.2455E+01   1.6660E-06  0.0150
   2.2455E+01   2.3001E+01   1.5349E-06  0.0154
   2.3001E+01   2.3561E+01   1.3945E-06  0.0160
   2.3561E+01   2.4134E+01   1.2985E-06  0.0164
   2.4134E+01   2.4721E+01   1.1679E-06  0.0171
   2.4721E+01   2.5323E+01   1.1192E-06  0.0172
   2.5323E+01   2.5939E+01   9.9590E-07  0.0181
   2.5939E+01   2.6570E+01   8.9238E-07  0.0188
   2.6570E+01   2.7217E+01   8.0282E-07  0.0196
   2.7217E+01   2.7879E+01   7.2123E-07  0.0205
   2.7879E+01   2.8557E+01   6.5191E-07  0.0213
   2.8557E+01   2.9252E+01   5.4863E-07  0.0229
   2.9252E+01   2.9964E+01   5.1143E-07  0.0234
   2.9964E+01   3.0693E+01   4.5649E-07  0.0245
   3.0693E+01   3.1440E+01   3.7628E-07  0.0267
   3.1440E+01   3.2205E+01   3.0956E-07  0.0291
   3.2205E+01   3.2988E+01   2.6009E-07  0.0313
   3.2988E+01   3.3791E+01   2.2053E-07  0.0336
   3.3791E+01   3.4613E+01   1.7466E-07  0.0373
   3.4613E+01   3.5455E+01   1.4059E-07  0.0411
   3.5455E+01   3.6318E+01   1.2079E-07  0.0438
   3.6318E+01   3.7201E+01   8.7140E-08  0.0510
   3.7201E+01   3.8106E+01   6.4963E-08  0.0583
   3.8106E+01   3.9034E+01   4.7457E-08  0.0674
   3.9034E+01   3.9983E+01   3.1167E-08  0.0822
   3.9983E+01   4.0956E+01   2.3848E-08  0.0928
   4.0956E+01   4.1953E+01   1.4250E-08  0.1187
   4.1953E+01   4.2973E+01   7.2496E-09  0.1644
   4.2973E+01   4.4019E+01   3.0605E-09  0.2500
   4.4019E+01   4.5090E+01   1.8674E-09  0.3162
   4.5090E+01   4.6187E+01   1.8230E-10  1.0000
   4.6187E+01   4.7311E+01   0.0000E+00  0.0000
   4.7311E+01   4.8462E+01   0.0000E+00  0.0000
   4.8462E+01   4.9641E+01   0.0000E+00  0.0000
   4.9641E+01   5.0849E+01   0.0000E+00  0.0000
   5.0849E+01   5.2086E+01   0.0000E+00  0.0000
   5.2086E+01   5.3353E+01   0.0000E+00  0.0000
   5.3353E+01   5.4651E+01   0.0000E+00  0.0000
   5.4651E+01   5.5981E+01   0.0000E+00  0.0000
   5.5981E+01   5.7343E+01   0.0000E+00  0.0000
   5.7343E+01   5.8738E+01   0.0000E+00  0.0000
   5.8738E+01   6.0168E+01   0.0000E+00  0.0000
   6.0168E+01   6.1632E+01   0.0000E+00  0.0000
   6.1632E+01   6.3131E+01   0.0000E+00  0.0000
   6.3131E+01   6.4667E+01   0.0000E+00  0.0000
   6.4667E+01   6.6240E+01   0.0000E+00  0.0000
   6.6240E+01   6.7852E+01   0.0000E+00  0.0000
   6.7852E+01   6.9503E+01   0.0000E+00  0.0000
   6.9503E+01   7.1194E+01   0.0000E+00  0.0000
   7.1194E+01   7.2926E+01   0.0000E+00  0.0000
   7.2926E+01   7.4701E+01   0.0000E+00  0.0000
   7.4701E+01   7.6518E+01   0.0000E+00  0.0000
   7.6518E+01   7.8380E+01   0.0000E+00  0.0000
   7.8380E+01   8.0287E+01   0.0000E+00  0.0000
   8.0287E+01   8.2240E+01   0.0000E+00  0.0000
   8.2240E+01   8.4241E+01   0.0000E+00  0.0000
   8.4241E+01   8.6291E+01   0.0000E+00  0.0000
   8.6291E+01   8.8391E+01   0.0000E+00  0.0000
   8.8391E+01   9.0541E+01   0.0000E+00  0.0000
   9.0541E+01   9.2744E+01   0.0000E+00  0.0000
   9.2744E+01   9.5001E+01   0.0000E+00  0.0000
   9.5001E+01   9.7312E+01   0.0000E+00  0.0000
   9.7312E+01   9.9680E+01   0.0000E+00  0.0000
   9.9680E+01   1.0211E+02   0.0000E+00  0.0000
   1.0211E+02   1.0459E+02   0.0000E+00  0.0000
   1.0459E+02   1.0713E+02   0.0000E+00  0.0000
   1.0713E+02   1.0974E+02   0.0000E+00  0.0000
   1.0974E+02   1.1241E+02   0.0000E+00  0.0000
   1.1241E+02   1.1515E+02   0.0000E+00  0.0000
   1.1515E+02   1.1795E+02   0.0000E+00  0.0000
   1.1795E+02   1.2082E+02   0.0000E+00  0.0000
   1.2082E+02   1.2376E+02   0.0000E+00  0.0000
   1.2376E+02   1.2677E+02   0.0000E+00  0.0000
   1.2677E+02   1.2985E+02   0.0000E+00  0.0000
   1.2985E+02   1.3301E+02   0.0000E+00  0.0000
   1.3301E+02   1.3625E+02   0.0000E+00  0.0000
   1.3625E+02   1.3956E+02   0.0000E+00  0.0000
   1.3956E+02   1.4296E+02   0.0000E+00  0.0000
   1.4296E+02   1.4644E+02   0.0000E+00  0.0000
   1.4644E+02   1.5000E+02   0.0000E+00  0.0000

#   sum over                 6.2855E-07
'no. =    1   reg = 113 - 213'
msuc: {\huge [t-cross] in region mesh}
msdr: {\it plotted by \ANGEL \version}
msdl: {\it calculated by \PHITS  3.26}
wt: s(0.7)
\vspace{-3}
  region surface crossing
  area  &=&   1.0000E+00 [cm^2]
e:
 
# Information for Restart Calculation
# This calculation was newly started
# istdev =  2 # 1:Batch variance, 2:History variance
# resc2  = 5.00000000000000000E+09 # Total source weight or Total source weight / maxcas
# resc3  = 5.00000000000000000E+09 # Total history number or Total batch number
# maxcas =   500000000 # History / Batch, only used for istdev=1
# bitrseed = 0110100000100010111000001110001111001110100100011111101000111001 # bit data of rseed
