[ T-Cross ]
    title = [t-cross] in region mesh
     mesh =  reg            # mesh type is region-wise
      reg =    1            # number of crossing regions
      non     r-from    r-to       area
      1       106       206        1.000000    
   e-type =    3            # e-mesh is log given by emin, emax and ne
     emin =  1.0000000E-02  # minimum value of e-mesh points
     emax =   150.0000      # maximum value of e-mesh points
#    edel =  2.4039514E-02  # mesh width of e-mesh points
       ne =    400          # number of e-mesh points
#    data = ( e(i), i = 1, ne + 1 )
#           1.00000E-02  1.02433E-02  1.04925E-02  1.07478E-02  1.10093E-02
#           1.12772E-02  1.15516E-02  1.18326E-02  1.21205E-02  1.24154E-02
#           1.27175E-02  1.30269E-02  1.33439E-02  1.36686E-02  1.40011E-02
#           1.43418E-02  1.46907E-02  1.50482E-02  1.54143E-02  1.57894E-02
#           1.61735E-02  1.65670E-02  1.69701E-02  1.73830E-02  1.78060E-02
#           1.82392E-02  1.86830E-02  1.91375E-02  1.96032E-02  2.00801E-02
#           2.05687E-02  2.10692E-02  2.15818E-02  2.21069E-02  2.26448E-02
#           2.31957E-02  2.37601E-02  2.43382E-02  2.49304E-02  2.55369E-02
#           2.61583E-02  2.67947E-02  2.74467E-02  2.81145E-02  2.87985E-02
#           2.94992E-02  3.02169E-02  3.09521E-02  3.17052E-02  3.24766E-02
#           3.32668E-02  3.40762E-02  3.49053E-02  3.57546E-02  3.66246E-02
#           3.75157E-02  3.84284E-02  3.93634E-02  4.03212E-02  4.13022E-02
#           4.23071E-02  4.33365E-02  4.43909E-02  4.54710E-02  4.65773E-02
#           4.77106E-02  4.88714E-02  5.00605E-02  5.12785E-02  5.25262E-02
#           5.38042E-02  5.51133E-02  5.64542E-02  5.78278E-02  5.92348E-02
#           6.06760E-02  6.21523E-02  6.36645E-02  6.52135E-02  6.68002E-02
#           6.84255E-02  7.00904E-02  7.17957E-02  7.35426E-02  7.53319E-02
#           7.71648E-02  7.90423E-02  8.09655E-02  8.29354E-02  8.49533E-02
#           8.70203E-02  8.91376E-02  9.13064E-02  9.35279E-02  9.58035E-02
#           9.81345E-02  1.00522E-01  1.02968E-01  1.05473E-01  1.08040E-01
#           1.10668E-01  1.13361E-01  1.16119E-01  1.18944E-01  1.21838E-01
#           1.24803E-01  1.27839E-01  1.30950E-01  1.34136E-01  1.37399E-01
#           1.40742E-01  1.44167E-01  1.47675E-01  1.51268E-01  1.54948E-01
#           1.58718E-01  1.62580E-01  1.66535E-01  1.70587E-01  1.74738E-01
#           1.78989E-01  1.83344E-01  1.87805E-01  1.92375E-01  1.97055E-01
#           2.01850E-01  2.06761E-01  2.11792E-01  2.16945E-01  2.22223E-01
#           2.27630E-01  2.33169E-01  2.38842E-01  2.44653E-01  2.50605E-01
#           2.56703E-01  2.62949E-01  2.69346E-01  2.75900E-01  2.82613E-01
#           2.89489E-01  2.96532E-01  3.03747E-01  3.11138E-01  3.18708E-01
#           3.26462E-01  3.34405E-01  3.42542E-01  3.50876E-01  3.59413E-01
#           3.68158E-01  3.77116E-01  3.86291E-01  3.95690E-01  4.05317E-01
#           4.15179E-01  4.25281E-01  4.35628E-01  4.46227E-01  4.57084E-01
#           4.68205E-01  4.79597E-01  4.91266E-01  5.03219E-01  5.15463E-01
#           5.28005E-01  5.40851E-01  5.54011E-01  5.67490E-01  5.81298E-01
#           5.95441E-01  6.09929E-01  6.24769E-01  6.39970E-01  6.55541E-01
#           6.71491E-01  6.87828E-01  7.04564E-01  7.21706E-01  7.39266E-01
#           7.57253E-01  7.75678E-01  7.94551E-01  8.13883E-01  8.33685E-01
#           8.53969E-01  8.74747E-01  8.96030E-01  9.17831E-01  9.40163E-01
#           9.63038E-01  9.86469E-01  1.01047E+00  1.03506E+00  1.06024E+00
#           1.08604E+00  1.11246E+00  1.13953E+00  1.16725E+00  1.19565E+00
#           1.22474E+00  1.25454E+00  1.28507E+00  1.31633E+00  1.34836E+00
#           1.38117E+00  1.41477E+00  1.44920E+00  1.48446E+00  1.52057E+00
#           1.55757E+00  1.59547E+00  1.63429E+00  1.67405E+00  1.71478E+00
#           1.75650E+00  1.79924E+00  1.84302E+00  1.88786E+00  1.93379E+00
#           1.98084E+00  2.02904E+00  2.07841E+00  2.12898E+00  2.18078E+00
#           2.23384E+00  2.28819E+00  2.34386E+00  2.40089E+00  2.45930E+00
#           2.51914E+00  2.58043E+00  2.64322E+00  2.70753E+00  2.77341E+00
#           2.84088E+00  2.91001E+00  2.98081E+00  3.05333E+00  3.12762E+00
#           3.20372E+00  3.28167E+00  3.36152E+00  3.44330E+00  3.52708E+00
#           3.61290E+00  3.70080E+00  3.79085E+00  3.88308E+00  3.97756E+00
#           4.07434E+00  4.17347E+00  4.27501E+00  4.37903E+00  4.48557E+00
#           4.59471E+00  4.70650E+00  4.82102E+00  4.93832E+00  5.05847E+00
#           5.18155E+00  5.30762E+00  5.43676E+00  5.56904E+00  5.70453E+00
#           5.84333E+00  5.98550E+00  6.13114E+00  6.28031E+00  6.43312E+00
#           6.58964E+00  6.74997E+00  6.91420E+00  7.08243E+00  7.25475E+00
#           7.43126E+00  7.61207E+00  7.79728E+00  7.98700E+00  8.18133E+00
#           8.38038E+00  8.58428E+00  8.79315E+00  9.00709E+00  9.22624E+00
#           9.45072E+00  9.68067E+00  9.91620E+00  1.01575E+01  1.04046E+01
#           1.06578E+01  1.09171E+01  1.11827E+01  1.14548E+01  1.17335E+01
#           1.20190E+01  1.23114E+01  1.26109E+01  1.29178E+01  1.32321E+01
#           1.35540E+01  1.38838E+01  1.42216E+01  1.45676E+01  1.49221E+01
#           1.52851E+01  1.56570E+01  1.60380E+01  1.64282E+01  1.68279E+01
#           1.72374E+01  1.76568E+01  1.80864E+01  1.85264E+01  1.89772E+01
#           1.94389E+01  1.99119E+01  2.03963E+01  2.08926E+01  2.14009E+01
#           2.19216E+01  2.24550E+01  2.30014E+01  2.35610E+01  2.41343E+01
#           2.47215E+01  2.53230E+01  2.59391E+01  2.65702E+01  2.72167E+01
#           2.78789E+01  2.85572E+01  2.92520E+01  2.99637E+01  3.06928E+01
#           3.14396E+01  3.22045E+01  3.29881E+01  3.37907E+01  3.46128E+01
#           3.54550E+01  3.63177E+01  3.72013E+01  3.81064E+01  3.90336E+01
#           3.99833E+01  4.09561E+01  4.19526E+01  4.29734E+01  4.40189E+01
#           4.50900E+01  4.61870E+01  4.73108E+01  4.84619E+01  4.96410E+01
#           5.08488E+01  5.20860E+01  5.33533E+01  5.46514E+01  5.59812E+01
#           5.73432E+01  5.87384E+01  6.01676E+01  6.16315E+01  6.31311E+01
#           6.46671E+01  6.62405E+01  6.78522E+01  6.95031E+01  7.11941E+01
#           7.29263E+01  7.47007E+01  7.65182E+01  7.83800E+01  8.02870E+01
#           8.22405E+01  8.42414E+01  8.62911E+01  8.83906E+01  9.05412E+01
#           9.27442E+01  9.50007E+01  9.73122E+01  9.96799E+01  1.02105E+02
#           1.04589E+02  1.07134E+02  1.09741E+02  1.12411E+02  1.15146E+02
#           1.17948E+02  1.20817E+02  1.23757E+02  1.26768E+02  1.29852E+02
#           1.33012E+02  1.36248E+02  1.39563E+02  1.42959E+02  1.46437E+02
#           1.50000E+02
     unit =    2            # unit is [1/cm^2/(MeV/n)/source]
     axis =  eng            # axis of output
     file = detector-07.out  # file name of output for the above axis
   output = f-curr          # surface crossing forward current spectrum
     part =  neutron  
# kf/name :  2112     
#    used :        main (  %)        temp (  %)       total (  %)
#  memory :         414 (  0)           0 (  0)         414 (  0)

#------------------------------------------------------------------------------
#newpage:
#   no. =    1   reg = 106 - 206

x: Energy [MeV/n]
y:  F-Curr [1/cm^2/(MeV/n)/source]         
p: xlog ylog afac(0.8) form(0.9)
h: n            x            y(neutron ),hh0l   n 
#  e-lower      e-upper      neutron     r.err 
   1.0000E-02   1.0243E-02   1.2248E-03  0.0819
   1.0243E-02   1.0493E-02   1.1636E-03  0.0830
   1.0493E-02   1.0748E-02   1.1046E-03  0.0842
   1.0748E-02   1.1009E-02   1.1702E-03  0.0808
   1.1009E-02   1.1277E-02   1.2096E-03  0.0786
   1.1277E-02   1.1552E-02   1.1371E-03  0.0801
   1.1552E-02   1.1833E-02   1.2168E-03  0.0765
   1.1833E-02   1.2121E-02   1.1046E-03  0.0793
   1.2121E-02   1.2415E-02   1.2547E-03  0.0735
   1.2415E-02   1.2718E-02   1.2580E-03  0.0725
   1.2718E-02   1.3027E-02   1.1828E-03  0.0739
   1.3027E-02   1.3344E-02   1.3756E-03  0.0677
   1.3344E-02   1.3669E-02   1.1889E-03  0.0720
   1.3669E-02   1.4001E-02   1.3411E-03  0.0670
   1.4001E-02   1.4342E-02   1.1683E-03  0.0709
   1.4342E-02   1.4691E-02   1.1979E-03  0.0692
   1.4691E-02   1.5048E-02   1.3037E-03  0.0655
   1.5048E-02   1.5414E-02   1.2400E-03  0.0664
   1.5414E-02   1.5789E-02   1.3012E-03  0.0640
   1.5789E-02   1.6174E-02   1.2755E-03  0.0639
   1.6174E-02   1.6567E-02   1.1588E-03  0.0662
   1.6567E-02   1.6970E-02   1.2107E-03  0.0640
   1.6970E-02   1.7383E-02   1.4047E-03  0.0587
   1.7383E-02   1.7806E-02   1.0734E-03  0.0664
   1.7806E-02   1.8239E-02   1.2187E-03  0.0615
   1.8239E-02   1.8683E-02   1.2349E-03  0.0604
   1.8683E-02   1.9138E-02   1.1439E-03  0.0620
   1.9138E-02   1.9603E-02   1.3186E-03  0.0571
   1.9603E-02   2.0080E-02   1.2957E-03  0.0569
   2.0080E-02   2.0569E-02   1.2199E-03  0.0579
   2.0569E-02   2.1069E-02   1.1989E-03  0.0577
   2.1069E-02   2.1582E-02   1.2797E-03  0.0552
   2.1582E-02   2.2107E-02   1.2721E-03  0.0547
   2.2107E-02   2.2645E-02   1.2177E-03  0.0552
   2.2645E-02   2.3196E-02   1.1543E-03  0.0561
   2.3196E-02   2.3760E-02   1.3077E-03  0.0521
   2.3760E-02   2.4338E-02   1.2662E-03  0.0523
   2.4338E-02   2.4930E-02   1.2024E-03  0.0530
   2.4930E-02   2.5537E-02   1.2661E-03  0.0510
   2.5537E-02   2.6158E-02   1.3165E-03  0.0494
   2.6158E-02   2.6795E-02   1.3544E-03  0.0482
   2.6795E-02   2.7447E-02   1.3468E-03  0.0477
   2.7447E-02   2.8114E-02   1.1560E-03  0.0509
   2.8114E-02   2.8799E-02   1.3332E-03  0.0468
   2.8799E-02   2.9499E-02   1.3230E-03  0.0464
   2.9499E-02   3.0217E-02   1.2512E-03  0.0472
   3.0217E-02   3.0952E-02   1.3003E-03  0.0457
   3.0952E-02   3.1705E-02   1.3279E-03  0.0447
   3.1705E-02   3.2477E-02   1.4026E-03  0.0430
   3.2477E-02   3.3267E-02   1.2415E-03  0.0451
   3.3267E-02   3.4076E-02   1.1688E-03  0.0460
   3.4076E-02   3.4905E-02   1.3026E-03  0.0430
   3.4905E-02   3.5755E-02   1.2505E-03  0.0434
   3.5755E-02   3.6625E-02   1.2645E-03  0.0426
   3.6625E-02   3.7516E-02   1.4050E-03  0.0400
   3.7516E-02   3.8428E-02   1.3322E-03  0.0406
   3.8428E-02   3.9363E-02   1.2642E-03  0.0411
   3.9363E-02   4.0321E-02   1.2926E-03  0.0402
   4.0321E-02   4.1302E-02   1.4209E-03  0.0379
   4.1302E-02   4.2307E-02   1.3056E-03  0.0390
   4.2307E-02   4.3337E-02   1.3445E-03  0.0380
   4.3337E-02   4.4391E-02   1.2917E-03  0.0383
   4.4391E-02   4.5471E-02   1.3518E-03  0.0370
   4.5471E-02   4.6577E-02   1.3630E-03  0.0364
   4.6577E-02   4.7711E-02   1.3819E-03  0.0357
   4.7711E-02   4.8871E-02   1.4093E-03  0.0350
   4.8871E-02   5.0061E-02   1.3456E-03  0.0354
   5.0061E-02   5.1279E-02   1.4417E-03  0.0337
   5.1279E-02   5.2526E-02   1.4684E-03  0.0330
   5.2526E-02   5.3804E-02   1.3521E-03  0.0340
   5.3804E-02   5.5113E-02   1.4040E-03  0.0330
   5.5113E-02   5.6454E-02   1.3602E-03  0.0331
   5.6454E-02   5.7828E-02   1.3549E-03  0.0328
   5.7828E-02   5.9235E-02   1.3120E-03  0.0329
   5.9235E-02   6.0676E-02   1.3447E-03  0.0321
   6.0676E-02   6.2152E-02   1.3046E-03  0.0322
   6.2152E-02   6.3665E-02   1.3331E-03  0.0315
   6.3665E-02   6.5214E-02   1.3854E-03  0.0305
   6.5214E-02   6.6800E-02   1.4029E-03  0.0300
   6.6800E-02   6.8426E-02   1.4766E-03  0.0289
   6.8426E-02   7.0090E-02   1.3911E-03  0.0294
   7.0090E-02   7.1796E-02   1.4296E-03  0.0286
   7.1796E-02   7.3543E-02   1.4008E-03  0.0286
   7.3543E-02   7.5332E-02   1.3826E-03  0.0284
   7.5332E-02   7.7165E-02   1.4431E-03  0.0275
   7.7165E-02   7.9042E-02   1.4221E-03  0.0274
   7.9042E-02   8.0965E-02   1.4435E-03  0.0268
   8.0965E-02   8.2935E-02   1.4528E-03  0.0264
   8.2935E-02   8.4953E-02   1.4689E-03  0.0260
   8.4953E-02   8.7020E-02   1.4640E-03  0.0257
   8.7020E-02   8.9138E-02   1.4651E-03  0.0254
   8.9138E-02   9.1306E-02   1.4118E-03  0.0256
   9.1306E-02   9.3528E-02   1.4899E-03  0.0246
   9.3528E-02   9.5804E-02   1.4915E-03  0.0243
   9.5804E-02   9.8134E-02   1.4320E-03  0.0245
   9.8134E-02   1.0052E-01   1.4952E-03  0.0237
   1.0052E-01   1.0297E-01   1.5144E-03  0.0232
   1.0297E-01   1.0547E-01   1.4737E-03  0.0233
   1.0547E-01   1.0804E-01   1.5447E-03  0.0225
   1.0804E-01   1.1067E-01   1.4996E-03  0.0225
   1.1067E-01   1.1336E-01   1.4944E-03  0.0223
   1.1336E-01   1.1612E-01   1.5496E-03  0.0216
   1.1612E-01   1.1894E-01   1.5482E-03  0.0214
   1.1894E-01   1.2184E-01   1.4817E-03  0.0216
   1.2184E-01   1.2480E-01   1.5032E-03  0.0212
   1.2480E-01   1.2784E-01   1.5169E-03  0.0208
   1.2784E-01   1.3095E-01   1.5554E-03  0.0203
   1.3095E-01   1.3414E-01   1.5586E-03  0.0201
   1.3414E-01   1.3740E-01   1.5994E-03  0.0196
   1.3740E-01   1.4074E-01   1.5585E-03  0.0196
   1.4074E-01   1.4417E-01   1.5308E-03  0.0195
   1.4417E-01   1.4767E-01   1.6221E-03  0.0187
   1.4767E-01   1.5127E-01   1.5883E-03  0.0187
   1.5127E-01   1.5495E-01   1.6014E-03  0.0184
   1.5495E-01   1.5872E-01   1.5878E-03  0.0183
   1.5872E-01   1.6258E-01   1.5661E-03  0.0182
   1.6258E-01   1.6654E-01   1.5605E-03  0.0180
   1.6654E-01   1.7059E-01   1.6254E-03  0.0174
   1.7059E-01   1.7474E-01   1.6215E-03  0.0172
   1.7474E-01   1.7899E-01   1.6150E-03  0.0171
   1.7899E-01   1.8334E-01   1.6294E-03  0.0168
   1.8334E-01   1.8781E-01   1.6580E-03  0.0164
   1.8781E-01   1.9237E-01   1.6510E-03  0.0163
   1.9237E-01   1.9706E-01   1.6327E-03  0.0162
   1.9706E-01   2.0185E-01   1.6625E-03  0.0158
   2.0185E-01   2.0676E-01   1.6432E-03  0.0157
   2.0676E-01   2.1179E-01   1.6582E-03  0.0155
   2.1179E-01   2.1694E-01   1.6499E-03  0.0153
   2.1694E-01   2.2222E-01   1.6452E-03  0.0152
   2.2222E-01   2.2763E-01   1.6614E-03  0.0149
   2.2763E-01   2.3317E-01   1.7337E-03  0.0144
   2.3317E-01   2.3884E-01   1.6749E-03  0.0145
   2.3884E-01   2.4465E-01   1.7246E-03  0.0141
   2.4465E-01   2.5061E-01   1.6695E-03  0.0142
   2.5061E-01   2.5670E-01   1.6886E-03  0.0139
   2.5670E-01   2.6295E-01   1.7003E-03  0.0137
   2.6295E-01   2.6935E-01   1.7297E-03  0.0134
   2.6935E-01   2.7590E-01   1.7066E-03  0.0134
   2.7590E-01   2.8261E-01   1.7119E-03  0.0132
   2.8261E-01   2.8949E-01   1.6817E-03  0.0132
   2.8949E-01   2.9653E-01   1.7009E-03  0.0129
   2.9653E-01   3.0375E-01   1.6943E-03  0.0128
   3.0375E-01   3.1114E-01   1.6889E-03  0.0127
   3.1114E-01   3.1871E-01   1.7046E-03  0.0124
   3.1871E-01   3.2646E-01   1.6919E-03  0.0123
   3.2646E-01   3.3441E-01   1.7303E-03  0.0121
   3.3441E-01   3.4254E-01   1.7059E-03  0.0120
   3.4254E-01   3.5088E-01   1.7009E-03  0.0119
   3.5088E-01   3.5941E-01   1.7253E-03  0.0117
   3.5941E-01   3.6816E-01   1.7011E-03  0.0116
   3.6816E-01   3.7712E-01   1.6876E-03  0.0115
   3.7712E-01   3.8629E-01   1.6845E-03  0.0114
   3.8629E-01   3.9569E-01   1.7013E-03  0.0112
   3.9569E-01   4.0532E-01   1.6785E-03  0.0111
   4.0532E-01   4.1518E-01   1.7104E-03  0.0109
   4.1518E-01   4.2528E-01   1.6911E-03  0.0108
   4.2528E-01   4.3563E-01   1.6936E-03  0.0107
   4.3563E-01   4.4623E-01   1.6714E-03  0.0106
   4.4623E-01   4.5708E-01   1.6758E-03  0.0105
   4.5708E-01   4.6821E-01   1.6872E-03  0.0103
   4.6821E-01   4.7960E-01   1.6893E-03  0.0102
   4.7960E-01   4.9127E-01   1.6522E-03  0.0102
   4.9127E-01   5.0322E-01   1.6543E-03  0.0101
   5.0322E-01   5.1546E-01   1.6576E-03  0.0099
   5.1546E-01   5.2800E-01   1.6337E-03  0.0099
   5.2800E-01   5.4085E-01   1.6208E-03  0.0098
   5.4085E-01   5.5401E-01   1.6121E-03  0.0097
   5.5401E-01   5.6749E-01   1.5935E-03  0.0097
   5.6749E-01   5.8130E-01   1.5754E-03  0.0096
   5.8130E-01   5.9544E-01   1.5620E-03  0.0095
   5.9544E-01   6.0993E-01   1.5441E-03  0.0095
   6.0993E-01   6.2477E-01   1.5400E-03  0.0094
   6.2477E-01   6.3997E-01   1.5350E-03  0.0093
   6.3997E-01   6.5554E-01   1.4880E-03  0.0093
   6.5554E-01   6.7149E-01   1.4623E-03  0.0093
   6.7149E-01   6.8783E-01   1.4409E-03  0.0092
   6.8783E-01   7.0456E-01   1.4242E-03  0.0092
   7.0456E-01   7.2171E-01   1.4173E-03  0.0091
   7.2171E-01   7.3927E-01   1.3882E-03  0.0091
   7.3927E-01   7.5725E-01   1.3637E-03  0.0090
   7.5725E-01   7.7568E-01   1.3293E-03  0.0090
   7.7568E-01   7.9455E-01   1.3029E-03  0.0090
   7.9455E-01   8.1388E-01   1.2749E-03  0.0090
   8.1388E-01   8.3368E-01   1.2322E-03  0.0091
   8.3368E-01   8.5397E-01   1.2081E-03  0.0090
   8.5397E-01   8.7475E-01   1.1707E-03  0.0091
   8.7475E-01   8.9603E-01   1.1484E-03  0.0090
   8.9603E-01   9.1783E-01   1.0923E-03  0.0092
   9.1783E-01   9.4016E-01   1.0541E-03  0.0092
   9.4016E-01   9.6304E-01   1.0195E-03  0.0093
   9.6304E-01   9.8647E-01   9.7322E-04  0.0094
   9.8647E-01   1.0105E+00   9.4735E-04  0.0094
   1.0105E+00   1.0351E+00   9.3998E-04  0.0093
   1.0351E+00   1.0602E+00   9.4843E-04  0.0092
   1.0602E+00   1.0860E+00   9.4323E-04  0.0091
   1.0860E+00   1.1125E+00   9.4660E-04  0.0089
   1.1125E+00   1.1395E+00   9.4735E-04  0.0088
   1.1395E+00   1.1673E+00   9.7834E-04  0.0086
   1.1673E+00   1.1957E+00   9.9119E-04  0.0084
   1.1957E+00   1.2247E+00   1.0048E-03  0.0083
   1.2247E+00   1.2545E+00   9.8872E-04  0.0082
   1.2545E+00   1.2851E+00   9.9030E-04  0.0081
   1.2851E+00   1.3163E+00   9.7800E-04  0.0081
   1.3163E+00   1.3484E+00   9.9430E-04  0.0079
   1.3484E+00   1.3812E+00   9.9419E-04  0.0078
   1.3812E+00   1.4148E+00   1.0049E-03  0.0077
   1.4148E+00   1.4492E+00   9.9586E-04  0.0076
   1.4492E+00   1.4845E+00   9.8049E-04  0.0076
   1.4845E+00   1.5206E+00   9.6514E-04  0.0076
   1.5206E+00   1.5576E+00   9.5916E-04  0.0075
   1.5576E+00   1.5955E+00   9.6528E-04  0.0074
   1.5955E+00   1.6343E+00   9.5567E-04  0.0073
   1.6343E+00   1.6741E+00   9.5600E-04  0.0073
   1.6741E+00   1.7148E+00   9.4275E-04  0.0072
   1.7148E+00   1.7565E+00   9.3787E-04  0.0072
   1.7565E+00   1.7992E+00   9.3544E-04  0.0071
   1.7992E+00   1.8430E+00   9.1009E-04  0.0071
   1.8430E+00   1.8879E+00   8.8410E-04  0.0071
   1.8879E+00   1.9338E+00   8.8309E-04  0.0070
   1.9338E+00   1.9808E+00   8.6796E-04  0.0070
   1.9808E+00   2.0290E+00   8.5774E-04  0.0070
   2.0290E+00   2.0784E+00   8.4348E-04  0.0069
   2.0784E+00   2.1290E+00   8.3638E-04  0.0069
   2.1290E+00   2.1808E+00   8.1736E-04  0.0069
   2.1808E+00   2.2338E+00   7.8705E-04  0.0069
   2.2338E+00   2.2882E+00   7.7189E-04  0.0069
   2.2882E+00   2.3439E+00   7.5420E-04  0.0069
   2.3439E+00   2.4009E+00   7.4961E-04  0.0068
   2.4009E+00   2.4593E+00   7.3905E-04  0.0068
   2.4593E+00   2.5191E+00   7.1302E-04  0.0069
   2.5191E+00   2.5804E+00   6.9547E-04  0.0069
   2.5804E+00   2.6432E+00   6.7020E-04  0.0069
   2.6432E+00   2.7075E+00   6.6094E-04  0.0069
   2.7075E+00   2.7734E+00   6.4170E-04  0.0069
   2.7734E+00   2.8409E+00   6.1567E-04  0.0069
   2.8409E+00   2.9100E+00   6.0092E-04  0.0069
   2.9100E+00   2.9808E+00   5.8890E-04  0.0069
   2.9808E+00   3.0533E+00   5.6660E-04  0.0070
   3.0533E+00   3.1276E+00   5.6108E-04  0.0069
   3.1276E+00   3.2037E+00   5.3944E-04  0.0070
   3.2037E+00   3.2817E+00   5.1706E-04  0.0070
   3.2817E+00   3.3615E+00   5.0614E-04  0.0070
   3.3615E+00   3.4433E+00   4.8204E-04  0.0071
   3.4433E+00   3.5271E+00   4.7387E-04  0.0071
   3.5271E+00   3.6129E+00   4.5119E-04  0.0072
   3.6129E+00   3.7008E+00   4.4638E-04  0.0071
   3.7008E+00   3.7908E+00   4.3139E-04  0.0072
   3.7908E+00   3.8831E+00   4.1675E-04  0.0072
   3.8831E+00   3.9776E+00   4.0711E-04  0.0072
   3.9776E+00   4.0743E+00   3.9392E-04  0.0072
   4.0743E+00   4.1735E+00   3.8505E-04  0.0072
   4.1735E+00   4.2750E+00   3.7124E-04  0.0073
   4.2750E+00   4.3790E+00   3.6630E-04  0.0072
   4.3790E+00   4.4856E+00   3.4986E-04  0.0073
   4.4856E+00   4.5947E+00   3.3798E-04  0.0074
   4.5947E+00   4.7065E+00   3.3727E-04  0.0073
   4.7065E+00   4.8210E+00   3.1655E-04  0.0074
   4.8210E+00   4.9383E+00   3.1386E-04  0.0074
   4.9383E+00   5.0585E+00   3.0789E-04  0.0074
   5.0585E+00   5.1815E+00   3.0099E-04  0.0073
   5.1815E+00   5.3076E+00   2.9398E-04  0.0073
   5.3076E+00   5.4368E+00   2.8735E-04  0.0073
   5.4368E+00   5.5690E+00   2.8030E-04  0.0073
   5.5690E+00   5.7045E+00   2.7634E-04  0.0073
   5.7045E+00   5.8433E+00   2.6619E-04  0.0074
   5.8433E+00   5.9855E+00   2.6091E-04  0.0073
   5.9855E+00   6.1311E+00   2.6070E-04  0.0073
   6.1311E+00   6.2803E+00   2.5276E-04  0.0073
   6.2803E+00   6.4331E+00   2.4974E-04  0.0072
   6.4331E+00   6.5896E+00   2.4578E-04  0.0072
   6.5896E+00   6.7500E+00   2.4258E-04  0.0072
   6.7500E+00   6.9142E+00   2.3828E-04  0.0071
   6.9142E+00   7.0824E+00   2.3572E-04  0.0071
   7.0824E+00   7.2548E+00   2.3284E-04  0.0071
   7.2548E+00   7.4313E+00   2.3213E-04  0.0070
   7.4313E+00   7.6121E+00   2.2873E-04  0.0070
   7.6121E+00   7.7973E+00   2.2785E-04  0.0069
   7.7973E+00   7.9870E+00   2.2719E-04  0.0068
   7.9870E+00   8.1813E+00   2.2342E-04  0.0068
   8.1813E+00   8.3804E+00   2.2156E-04  0.0067
   8.3804E+00   8.5843E+00   2.2301E-04  0.0066
   8.5843E+00   8.7931E+00   2.2339E-04  0.0065
   8.7931E+00   9.0071E+00   2.2183E-04  0.0065
   9.0071E+00   9.2262E+00   2.2471E-04  0.0064
   9.2262E+00   9.4507E+00   2.1994E-04  0.0064
   9.4507E+00   9.6807E+00   2.2100E-04  0.0063
   9.6807E+00   9.9162E+00   2.1965E-04  0.0062
   9.9162E+00   1.0157E+01   2.2319E-04  0.0061
   1.0157E+01   1.0405E+01   2.2465E-04  0.0060
   1.0405E+01   1.0658E+01   2.2230E-04  0.0060
   1.0658E+01   1.0917E+01   2.2551E-04  0.0058
   1.0917E+01   1.1183E+01   2.2420E-04  0.0058
   1.1183E+01   1.1455E+01   2.2571E-04  0.0057
   1.1455E+01   1.1733E+01   2.2913E-04  0.0056
   1.1733E+01   1.2019E+01   2.2943E-04  0.0055
   1.2019E+01   1.2311E+01   2.3085E-04  0.0054
   1.2311E+01   1.2611E+01   2.2899E-04  0.0054
   1.2611E+01   1.2918E+01   2.3217E-04  0.0053
   1.2918E+01   1.3232E+01   2.3172E-04  0.0052
   1.3232E+01   1.3554E+01   2.3288E-04  0.0052
   1.3554E+01   1.3884E+01   2.3242E-04  0.0051
   1.3884E+01   1.4222E+01   2.3425E-04  0.0050
   1.4222E+01   1.4568E+01   2.3584E-04  0.0050
   1.4568E+01   1.4922E+01   2.3619E-04  0.0049
   1.4922E+01   1.5285E+01   2.3688E-04  0.0048
   1.5285E+01   1.5657E+01   2.3758E-04  0.0048
   1.5657E+01   1.6038E+01   2.3740E-04  0.0047
   1.6038E+01   1.6428E+01   2.3643E-04  0.0047
   1.6428E+01   1.6828E+01   2.3727E-04  0.0046
   1.6828E+01   1.7237E+01   2.3755E-04  0.0045
   1.7237E+01   1.7657E+01   2.3704E-04  0.0045
   1.7657E+01   1.8086E+01   2.3677E-04  0.0044
   1.8086E+01   1.8526E+01   2.3682E-04  0.0044
   1.8526E+01   1.8977E+01   2.3495E-04  0.0043
   1.8977E+01   1.9439E+01   2.3406E-04  0.0043
   1.9439E+01   1.9912E+01   2.3004E-04  0.0043
   1.9912E+01   2.0396E+01   2.2897E-04  0.0042
   2.0396E+01   2.0893E+01   2.2664E-04  0.0042
   2.0893E+01   2.1401E+01   2.2363E-04  0.0042
   2.1401E+01   2.1922E+01   2.2356E-04  0.0041
   2.1922E+01   2.2455E+01   2.1944E-04  0.0041
   2.2455E+01   2.3001E+01   2.1551E-04  0.0041
   2.3001E+01   2.3561E+01   2.1266E-04  0.0041
   2.3561E+01   2.4134E+01   2.0860E-04  0.0041
   2.4134E+01   2.4721E+01   2.0349E-04  0.0041
   2.4721E+01   2.5323E+01   2.0061E-04  0.0041
   2.5323E+01   2.5939E+01   1.9534E-04  0.0041
   2.5939E+01   2.6570E+01   1.9066E-04  0.0041
   2.6570E+01   2.7217E+01   1.8521E-04  0.0041
   2.7217E+01   2.7879E+01   1.8041E-04  0.0041
   2.7879E+01   2.8557E+01   1.7561E-04  0.0041
   2.8557E+01   2.9252E+01   1.6897E-04  0.0041
   2.9252E+01   2.9964E+01   1.6298E-04  0.0042
   2.9964E+01   3.0693E+01   1.5786E-04  0.0042
   3.0693E+01   3.1440E+01   1.5138E-04  0.0042
   3.1440E+01   3.2205E+01   1.4505E-04  0.0042
   3.2205E+01   3.2988E+01   1.3911E-04  0.0043
   3.2988E+01   3.3791E+01   1.3321E-04  0.0043
   3.3791E+01   3.4613E+01   1.2603E-04  0.0044
   3.4613E+01   3.5455E+01   1.2059E-04  0.0044
   3.5455E+01   3.6318E+01   1.1409E-04  0.0045
   3.6318E+01   3.7201E+01   1.0901E-04  0.0046
   3.7201E+01   3.8106E+01   1.0242E-04  0.0046
   3.8106E+01   3.9034E+01   9.6568E-05  0.0047
   3.9034E+01   3.9983E+01   9.0126E-05  0.0048
   3.9983E+01   4.0956E+01   8.3900E-05  0.0049
   4.0956E+01   4.1953E+01   7.8383E-05  0.0051
   4.1953E+01   4.2973E+01   7.2332E-05  0.0052
   4.2973E+01   4.4019E+01   6.7404E-05  0.0053
   4.4019E+01   4.5090E+01   6.2367E-05  0.0055
   4.5090E+01   4.6187E+01   5.7591E-05  0.0056
   4.6187E+01   4.7311E+01   5.3506E-05  0.0058
   4.7311E+01   4.8462E+01   4.8583E-05  0.0060
   4.8462E+01   4.9641E+01   4.4562E-05  0.0062
   4.9641E+01   5.0849E+01   4.0631E-05  0.0064
   5.0849E+01   5.2086E+01   3.7438E-05  0.0066
   5.2086E+01   5.3353E+01   3.3509E-05  0.0069
   5.3353E+01   5.4651E+01   3.0467E-05  0.0071
   5.4651E+01   5.5981E+01   2.7534E-05  0.0074
   5.5981E+01   5.7343E+01   2.4972E-05  0.0077
   5.7343E+01   5.8738E+01   2.1858E-05  0.0081
   5.8738E+01   6.0168E+01   2.0125E-05  0.0083
   6.0168E+01   6.1632E+01   1.8135E-05  0.0087
   6.1632E+01   6.3131E+01   1.6054E-05  0.0091
   6.3131E+01   6.4667E+01   1.4294E-05  0.0095
   6.4667E+01   6.6240E+01   1.2317E-05  0.0102
   6.6240E+01   6.7852E+01   1.0873E-05  0.0107
   6.7852E+01   6.9503E+01   9.1853E-06  0.0115
   6.9503E+01   7.1194E+01   7.6496E-06  0.0124
   7.1194E+01   7.2926E+01   6.2949E-06  0.0135
   7.2926E+01   7.4701E+01   4.9280E-06  0.0151
   7.4701E+01   7.6518E+01   3.9185E-06  0.0168
   7.6518E+01   7.8380E+01   2.4955E-06  0.0207
   7.8380E+01   8.0287E+01   1.2889E-06  0.0285
   8.0287E+01   8.2240E+01   2.2831E-07  0.0670
   8.2240E+01   8.4241E+01   0.0000E+00  0.0000
   8.4241E+01   8.6291E+01   0.0000E+00  0.0000
   8.6291E+01   8.8391E+01   0.0000E+00  0.0000
   8.8391E+01   9.0541E+01   0.0000E+00  0.0000
   9.0541E+01   9.2744E+01   0.0000E+00  0.0000
   9.2744E+01   9.5001E+01   0.0000E+00  0.0000
   9.5001E+01   9.7312E+01   0.0000E+00  0.0000
   9.7312E+01   9.9680E+01   0.0000E+00  0.0000
   9.9680E+01   1.0211E+02   0.0000E+00  0.0000
   1.0211E+02   1.0459E+02   0.0000E+00  0.0000
   1.0459E+02   1.0713E+02   0.0000E+00  0.0000
   1.0713E+02   1.0974E+02   0.0000E+00  0.0000
   1.0974E+02   1.1241E+02   0.0000E+00  0.0000
   1.1241E+02   1.1515E+02   0.0000E+00  0.0000
   1.1515E+02   1.1795E+02   0.0000E+00  0.0000
   1.1795E+02   1.2082E+02   0.0000E+00  0.0000
   1.2082E+02   1.2376E+02   0.0000E+00  0.0000
   1.2376E+02   1.2677E+02   0.0000E+00  0.0000
   1.2677E+02   1.2985E+02   0.0000E+00  0.0000
   1.2985E+02   1.3301E+02   0.0000E+00  0.0000
   1.3301E+02   1.3625E+02   0.0000E+00  0.0000
   1.3625E+02   1.3956E+02   0.0000E+00  0.0000
   1.3956E+02   1.4296E+02   0.0000E+00  0.0000
   1.4296E+02   1.4644E+02   0.0000E+00  0.0000
   1.4644E+02   1.5000E+02   0.0000E+00  0.0000

#   sum over                 7.8362E-05
'no. =    1   reg = 106 - 206'
msuc: {\huge [t-cross] in region mesh}
msdr: {\it plotted by \ANGEL \version}
msdl: {\it calculated by \PHITS  3.26}
wt: s(0.7)
\vspace{-3}
  region surface crossing
  area  &=&   1.0000E+00 [cm^2]
e:
 
# Information for Restart Calculation
# This calculation was newly started
# istdev =  2 # 1:Batch variance, 2:History variance
# resc2  = 5.00000000000000000E+08 # Total source weight or Total source weight / maxcas
# resc3  = 5.00000000000000000E+08 # Total history number or Total batch number
# maxcas =   500000000 # History / Batch, only used for istdev=1
# bitrseed = 1101101111010011011000101101110001100110110010110001010100010001 # bit data of rseed
