[ T-Cross ]
    title = [t-cross] in region mesh
     mesh =  reg            # mesh type is region-wise
      reg =    1            # number of crossing regions
      non     r-from    r-to       area
      1       115       215        1.000000    
   e-type =    3            # e-mesh is log given by emin, emax and ne
     emin =  1.0000000E-02  # minimum value of e-mesh points
     emax =   150.0000      # maximum value of e-mesh points
#    edel =  2.4039514E-02  # mesh width of e-mesh points
       ne =    400          # number of e-mesh points
#    data = ( e(i), i = 1, ne + 1 )
#           1.00000E-02  1.02433E-02  1.04925E-02  1.07478E-02  1.10093E-02
#           1.12772E-02  1.15516E-02  1.18326E-02  1.21205E-02  1.24154E-02
#           1.27175E-02  1.30269E-02  1.33439E-02  1.36686E-02  1.40011E-02
#           1.43418E-02  1.46907E-02  1.50482E-02  1.54143E-02  1.57894E-02
#           1.61735E-02  1.65670E-02  1.69701E-02  1.73830E-02  1.78060E-02
#           1.82392E-02  1.86830E-02  1.91375E-02  1.96032E-02  2.00801E-02
#           2.05687E-02  2.10692E-02  2.15818E-02  2.21069E-02  2.26448E-02
#           2.31957E-02  2.37601E-02  2.43382E-02  2.49304E-02  2.55369E-02
#           2.61583E-02  2.67947E-02  2.74467E-02  2.81145E-02  2.87985E-02
#           2.94992E-02  3.02169E-02  3.09521E-02  3.17052E-02  3.24766E-02
#           3.32668E-02  3.40762E-02  3.49053E-02  3.57546E-02  3.66246E-02
#           3.75157E-02  3.84284E-02  3.93634E-02  4.03212E-02  4.13022E-02
#           4.23071E-02  4.33365E-02  4.43909E-02  4.54710E-02  4.65773E-02
#           4.77106E-02  4.88714E-02  5.00605E-02  5.12785E-02  5.25262E-02
#           5.38042E-02  5.51133E-02  5.64542E-02  5.78278E-02  5.92348E-02
#           6.06760E-02  6.21523E-02  6.36645E-02  6.52135E-02  6.68002E-02
#           6.84255E-02  7.00904E-02  7.17957E-02  7.35426E-02  7.53319E-02
#           7.71648E-02  7.90423E-02  8.09655E-02  8.29354E-02  8.49533E-02
#           8.70203E-02  8.91376E-02  9.13064E-02  9.35279E-02  9.58035E-02
#           9.81345E-02  1.00522E-01  1.02968E-01  1.05473E-01  1.08040E-01
#           1.10668E-01  1.13361E-01  1.16119E-01  1.18944E-01  1.21838E-01
#           1.24803E-01  1.27839E-01  1.30950E-01  1.34136E-01  1.37399E-01
#           1.40742E-01  1.44167E-01  1.47675E-01  1.51268E-01  1.54948E-01
#           1.58718E-01  1.62580E-01  1.66535E-01  1.70587E-01  1.74738E-01
#           1.78989E-01  1.83344E-01  1.87805E-01  1.92375E-01  1.97055E-01
#           2.01850E-01  2.06761E-01  2.11792E-01  2.16945E-01  2.22223E-01
#           2.27630E-01  2.33169E-01  2.38842E-01  2.44653E-01  2.50605E-01
#           2.56703E-01  2.62949E-01  2.69346E-01  2.75900E-01  2.82613E-01
#           2.89489E-01  2.96532E-01  3.03747E-01  3.11138E-01  3.18708E-01
#           3.26462E-01  3.34405E-01  3.42542E-01  3.50876E-01  3.59413E-01
#           3.68158E-01  3.77116E-01  3.86291E-01  3.95690E-01  4.05317E-01
#           4.15179E-01  4.25281E-01  4.35628E-01  4.46227E-01  4.57084E-01
#           4.68205E-01  4.79597E-01  4.91266E-01  5.03219E-01  5.15463E-01
#           5.28005E-01  5.40851E-01  5.54011E-01  5.67490E-01  5.81298E-01
#           5.95441E-01  6.09929E-01  6.24769E-01  6.39970E-01  6.55541E-01
#           6.71491E-01  6.87828E-01  7.04564E-01  7.21706E-01  7.39266E-01
#           7.57253E-01  7.75678E-01  7.94551E-01  8.13883E-01  8.33685E-01
#           8.53969E-01  8.74747E-01  8.96030E-01  9.17831E-01  9.40163E-01
#           9.63038E-01  9.86469E-01  1.01047E+00  1.03506E+00  1.06024E+00
#           1.08604E+00  1.11246E+00  1.13953E+00  1.16725E+00  1.19565E+00
#           1.22474E+00  1.25454E+00  1.28507E+00  1.31633E+00  1.34836E+00
#           1.38117E+00  1.41477E+00  1.44920E+00  1.48446E+00  1.52057E+00
#           1.55757E+00  1.59547E+00  1.63429E+00  1.67405E+00  1.71478E+00
#           1.75650E+00  1.79924E+00  1.84302E+00  1.88786E+00  1.93379E+00
#           1.98084E+00  2.02904E+00  2.07841E+00  2.12898E+00  2.18078E+00
#           2.23384E+00  2.28819E+00  2.34386E+00  2.40089E+00  2.45930E+00
#           2.51914E+00  2.58043E+00  2.64322E+00  2.70753E+00  2.77341E+00
#           2.84088E+00  2.91001E+00  2.98081E+00  3.05333E+00  3.12762E+00
#           3.20372E+00  3.28167E+00  3.36152E+00  3.44330E+00  3.52708E+00
#           3.61290E+00  3.70080E+00  3.79085E+00  3.88308E+00  3.97756E+00
#           4.07434E+00  4.17347E+00  4.27501E+00  4.37903E+00  4.48557E+00
#           4.59471E+00  4.70650E+00  4.82102E+00  4.93832E+00  5.05847E+00
#           5.18155E+00  5.30762E+00  5.43676E+00  5.56904E+00  5.70453E+00
#           5.84333E+00  5.98550E+00  6.13114E+00  6.28031E+00  6.43312E+00
#           6.58964E+00  6.74997E+00  6.91420E+00  7.08243E+00  7.25475E+00
#           7.43126E+00  7.61207E+00  7.79728E+00  7.98700E+00  8.18133E+00
#           8.38038E+00  8.58428E+00  8.79315E+00  9.00709E+00  9.22624E+00
#           9.45072E+00  9.68067E+00  9.91620E+00  1.01575E+01  1.04046E+01
#           1.06578E+01  1.09171E+01  1.11827E+01  1.14548E+01  1.17335E+01
#           1.20190E+01  1.23114E+01  1.26109E+01  1.29178E+01  1.32321E+01
#           1.35540E+01  1.38838E+01  1.42216E+01  1.45676E+01  1.49221E+01
#           1.52851E+01  1.56570E+01  1.60380E+01  1.64282E+01  1.68279E+01
#           1.72374E+01  1.76568E+01  1.80864E+01  1.85264E+01  1.89772E+01
#           1.94389E+01  1.99119E+01  2.03963E+01  2.08926E+01  2.14009E+01
#           2.19216E+01  2.24550E+01  2.30014E+01  2.35610E+01  2.41343E+01
#           2.47215E+01  2.53230E+01  2.59391E+01  2.65702E+01  2.72167E+01
#           2.78789E+01  2.85572E+01  2.92520E+01  2.99637E+01  3.06928E+01
#           3.14396E+01  3.22045E+01  3.29881E+01  3.37907E+01  3.46128E+01
#           3.54550E+01  3.63177E+01  3.72013E+01  3.81064E+01  3.90336E+01
#           3.99833E+01  4.09561E+01  4.19526E+01  4.29734E+01  4.40189E+01
#           4.50900E+01  4.61870E+01  4.73108E+01  4.84619E+01  4.96410E+01
#           5.08488E+01  5.20860E+01  5.33533E+01  5.46514E+01  5.59812E+01
#           5.73432E+01  5.87384E+01  6.01676E+01  6.16315E+01  6.31311E+01
#           6.46671E+01  6.62405E+01  6.78522E+01  6.95031E+01  7.11941E+01
#           7.29263E+01  7.47007E+01  7.65182E+01  7.83800E+01  8.02870E+01
#           8.22405E+01  8.42414E+01  8.62911E+01  8.83906E+01  9.05412E+01
#           9.27442E+01  9.50007E+01  9.73122E+01  9.96799E+01  1.02105E+02
#           1.04589E+02  1.07134E+02  1.09741E+02  1.12411E+02  1.15146E+02
#           1.17948E+02  1.20817E+02  1.23757E+02  1.26768E+02  1.29852E+02
#           1.33012E+02  1.36248E+02  1.39563E+02  1.42959E+02  1.46437E+02
#           1.50000E+02
     unit =    2            # unit is [1/cm^2/(MeV/n)/source]
     axis =  eng            # axis of output
     file = detector-16.out  # file name of output for the above axis
   output = f-curr          # surface crossing forward current spectrum
     part =  neutron  
# kf/name :  2112     
#    used :        main (  %)        temp (  %)       total (  %)
#  memory :         414 (  0)           0 (  0)         414 (  0)

#------------------------------------------------------------------------------
#newpage:
#   no. =    1   reg = 115 - 215

x: Energy [MeV/n]
y:  F-Curr [1/cm^2/(MeV/n)/source]         
p: xlog ylog afac(0.8) form(0.9)
h: n            x            y(neutron ),hh0l   n 
#  e-lower      e-upper      neutron     r.err 
   1.0000E-02   1.0243E-02   5.9184E-04  0.1179
   1.0243E-02   1.0493E-02   6.5803E-04  0.1104
   1.0493E-02   1.0748E-02   4.7788E-04  0.1280
   1.0748E-02   1.1009E-02   7.1127E-04  0.1037
   1.1009E-02   1.1277E-02   6.6451E-04  0.1060
   1.1277E-02   1.1552E-02   6.2686E-04  0.1078
   1.1552E-02   1.1833E-02   6.6890E-04  0.1031
   1.1833E-02   1.2121E-02   5.9049E-04  0.1085
   1.2121E-02   1.2415E-02   6.7819E-04  0.1000
   1.2415E-02   1.2718E-02   6.1574E-04  0.1037
   1.2718E-02   1.3027E-02   5.8172E-04  0.1054
   1.3027E-02   1.3344E-02   5.6790E-04  0.1054
   1.3344E-02   1.3669E-02   7.1458E-04  0.0928
   1.3669E-02   1.4001E-02   6.1942E-04  0.0985
   1.4001E-02   1.4342E-02   6.6342E-04  0.0941
   1.4342E-02   1.4691E-02   6.8205E-04  0.0917
   1.4691E-02   1.5048E-02   5.9871E-04  0.0967
   1.5048E-02   1.5414E-02   6.1180E-04  0.0945
   1.5414E-02   1.5789E-02   7.1992E-04  0.0861
   1.5789E-02   1.6174E-02   7.3405E-04  0.0842
   1.6174E-02   1.6567E-02   5.9972E-04  0.0921
   1.6567E-02   1.6970E-02   6.1029E-04  0.0902
   1.6970E-02   1.7383E-02   6.7329E-04  0.0848
   1.7383E-02   1.7806E-02   7.0932E-04  0.0816
   1.7806E-02   1.8239E-02   6.5092E-04  0.0842
   1.8239E-02   1.8683E-02   6.8954E-04  0.0808
   1.8683E-02   1.9138E-02   6.5116E-04  0.0822
   1.9138E-02   1.9603E-02   6.3140E-04  0.0825
   1.9603E-02   2.0080E-02   6.4576E-04  0.0806
   2.0080E-02   2.0569E-02   6.8773E-04  0.0772
   2.0569E-02   2.1069E-02   6.8738E-04  0.0762
   2.1069E-02   2.1582E-02   6.8275E-04  0.0756
   2.1582E-02   2.2107E-02   6.1702E-04  0.0786
   2.2107E-02   2.2645E-02   6.8417E-04  0.0737
   2.2645E-02   2.3196E-02   7.1511E-04  0.0712
   2.3196E-02   2.3760E-02   7.1939E-04  0.0702
   2.3760E-02   2.4338E-02   6.7116E-04  0.0718
   2.4338E-02   2.4930E-02   6.8224E-04  0.0704
   2.4930E-02   2.5537E-02   6.5944E-04  0.0707
   2.5537E-02   2.6158E-02   7.2103E-04  0.0668
   2.6158E-02   2.6795E-02   6.3477E-04  0.0704
   2.6795E-02   2.7447E-02   6.8105E-04  0.0671
   2.7447E-02   2.8114E-02   6.9182E-04  0.0658
   2.8114E-02   2.8799E-02   7.1925E-04  0.0638
   2.8799E-02   2.9499E-02   7.0502E-04  0.0636
   2.9499E-02   3.0217E-02   6.7155E-04  0.0644
   3.0217E-02   3.0952E-02   7.5625E-04  0.0600
   3.0952E-02   3.1705E-02   7.9141E-04  0.0579
   3.1705E-02   3.2477E-02   7.3890E-04  0.0592
   3.2477E-02   3.3267E-02   7.0617E-04  0.0599
   3.3267E-02   3.4076E-02   7.1657E-04  0.0587
   3.4076E-02   3.4905E-02   6.8025E-04  0.0595
   3.4905E-02   3.5755E-02   7.7007E-04  0.0553
   3.5755E-02   3.6625E-02   6.6212E-04  0.0589
   3.6625E-02   3.7516E-02   7.5636E-04  0.0545
   3.7516E-02   3.8428E-02   7.5483E-04  0.0539
   3.8428E-02   3.9363E-02   7.3156E-04  0.0541
   3.9363E-02   4.0321E-02   7.6638E-04  0.0522
   4.0321E-02   4.1302E-02   7.8284E-04  0.0510
   4.1302E-02   4.2307E-02   7.6424E-04  0.0510
   4.2307E-02   4.3337E-02   7.1306E-04  0.0522
   4.3337E-02   4.4391E-02   8.1562E-04  0.0482
   4.4391E-02   4.5471E-02   7.7032E-04  0.0490
   4.5471E-02   4.6577E-02   7.1949E-04  0.0501
   4.6577E-02   4.7711E-02   7.7652E-04  0.0477
   4.7711E-02   4.8871E-02   7.2362E-04  0.0488
   4.8871E-02   5.0061E-02   7.7203E-04  0.0467
   5.0061E-02   5.1279E-02   7.8653E-04  0.0457
   5.1279E-02   5.2526E-02   8.0952E-04  0.0445
   5.2526E-02   5.3804E-02   7.3396E-04  0.0462
   5.3804E-02   5.5113E-02   7.1500E-04  0.0462
   5.5113E-02   5.6454E-02   8.5611E-04  0.0417
   5.6454E-02   5.7828E-02   7.4113E-04  0.0443
   5.7828E-02   5.9235E-02   7.8607E-04  0.0425
   5.9235E-02   6.0676E-02   8.0071E-04  0.0416
   6.0676E-02   6.2152E-02   7.9659E-04  0.0412
   6.2152E-02   6.3665E-02   7.9486E-04  0.0408
   6.3665E-02   6.5214E-02   7.8502E-04  0.0406
   6.5214E-02   6.6800E-02   7.4746E-04  0.0411
   6.6800E-02   6.8426E-02   7.9247E-04  0.0394
   6.8426E-02   7.0090E-02   7.8085E-04  0.0392
   7.0090E-02   7.1796E-02   7.6113E-04  0.0393
   7.1796E-02   7.3543E-02   8.5869E-04  0.0365
   7.3543E-02   7.5332E-02   8.4835E-04  0.0363
   7.5332E-02   7.7165E-02   8.3038E-04  0.0362
   7.7165E-02   7.9042E-02   8.0746E-04  0.0363
   7.9042E-02   8.0965E-02   8.7044E-04  0.0346
   8.0965E-02   8.2935E-02   8.0103E-04  0.0356
   8.2935E-02   8.4953E-02   7.9588E-04  0.0353
   8.4953E-02   8.7020E-02   8.4955E-04  0.0337
   8.7020E-02   8.9138E-02   8.3693E-04  0.0336
   8.9138E-02   9.1306E-02   9.0004E-04  0.0320
   9.1306E-02   9.3528E-02   8.7866E-04  0.0320
   9.3528E-02   9.5804E-02   8.4373E-04  0.0323
   9.5804E-02   9.8134E-02   8.4171E-04  0.0319
   9.8134E-02   1.0052E-01   8.6862E-04  0.0311
   1.0052E-01   1.0297E-01   8.6721E-04  0.0307
   1.0297E-01   1.0547E-01   8.6896E-04  0.0303
   1.0547E-01   1.0804E-01   8.4637E-04  0.0303
   1.0804E-01   1.1067E-01   9.0311E-04  0.0290
   1.1067E-01   1.1336E-01   8.6012E-04  0.0294
   1.1336E-01   1.1612E-01   9.0133E-04  0.0284
   1.1612E-01   1.1894E-01   8.7850E-04  0.0284
   1.1894E-01   1.2184E-01   8.8804E-04  0.0279
   1.2184E-01   1.2480E-01   8.7774E-04  0.0277
   1.2480E-01   1.2784E-01   9.3000E-04  0.0266
   1.2784E-01   1.3095E-01   8.7705E-04  0.0271
   1.3095E-01   1.3414E-01   8.8007E-04  0.0267
   1.3414E-01   1.3740E-01   8.9103E-04  0.0262
   1.3740E-01   1.4074E-01   8.9858E-04  0.0258
   1.4074E-01   1.4417E-01   9.1754E-04  0.0252
   1.4417E-01   1.4767E-01   9.2140E-04  0.0249
   1.4767E-01   1.5127E-01   8.8226E-04  0.0251
   1.5127E-01   1.5495E-01   9.1891E-04  0.0243
   1.5495E-01   1.5872E-01   9.2626E-04  0.0239
   1.5872E-01   1.6258E-01   9.6640E-04  0.0231
   1.6258E-01   1.6654E-01   9.4497E-04  0.0231
   1.6654E-01   1.7059E-01   9.3832E-04  0.0229
   1.7059E-01   1.7474E-01   9.2952E-04  0.0228
   1.7474E-01   1.7899E-01   9.3237E-04  0.0225
   1.7899E-01   1.8334E-01   9.2309E-04  0.0223
   1.8334E-01   1.8781E-01   9.5093E-04  0.0217
   1.8781E-01   1.9237E-01   9.1959E-04  0.0218
   1.9237E-01   1.9706E-01   9.6184E-04  0.0211
   1.9706E-01   2.0185E-01   9.7111E-04  0.0207
   2.0185E-01   2.0676E-01   9.5456E-04  0.0207
   2.0676E-01   2.1179E-01   9.4501E-04  0.0205
   2.1179E-01   2.1694E-01   9.8505E-04  0.0198
   2.1694E-01   2.2222E-01   9.9575E-04  0.0195
   2.2222E-01   2.2763E-01   9.8948E-04  0.0193
   2.2763E-01   2.3317E-01   1.0064E-03  0.0189
   2.3317E-01   2.3884E-01   9.4550E-04  0.0193
   2.3884E-01   2.4465E-01   9.7536E-04  0.0188
   2.4465E-01   2.5061E-01   9.9284E-04  0.0184
   2.5061E-01   2.5670E-01   9.8730E-04  0.0182
   2.5670E-01   2.6295E-01   1.0088E-03  0.0178
   2.6295E-01   2.6935E-01   1.0172E-03  0.0175
   2.6935E-01   2.7590E-01   1.0001E-03  0.0175
   2.7590E-01   2.8261E-01   9.7336E-04  0.0175
   2.8261E-01   2.8949E-01   9.9575E-04  0.0171
   2.8949E-01   2.9653E-01   1.0036E-03  0.0168
   2.9653E-01   3.0375E-01   1.0273E-03  0.0164
   3.0375E-01   3.1114E-01   1.0354E-03  0.0162
   3.1114E-01   3.1871E-01   1.0071E-03  0.0162
   3.1871E-01   3.2646E-01   1.0176E-03  0.0159
   3.2646E-01   3.3441E-01   1.0011E-03  0.0159
   3.3441E-01   3.4254E-01   1.0204E-03  0.0155
   3.4254E-01   3.5088E-01   1.0206E-03  0.0153
   3.5088E-01   3.5941E-01   1.0169E-03  0.0152
   3.5941E-01   3.6816E-01   1.0258E-03  0.0149
   3.6816E-01   3.7712E-01   9.9491E-04  0.0150
   3.7712E-01   3.8629E-01   1.0081E-03  0.0147
   3.8629E-01   3.9569E-01   9.9885E-04  0.0146
   3.9569E-01   4.0532E-01   1.0148E-03  0.0143
   4.0532E-01   4.1518E-01   1.0276E-03  0.0140
   4.1518E-01   4.2528E-01   9.9717E-04  0.0141
   4.2528E-01   4.3563E-01   1.0037E-03  0.0139
   4.3563E-01   4.4623E-01   1.0046E-03  0.0137
   4.4623E-01   4.5708E-01   1.0145E-03  0.0135
   4.5708E-01   4.6821E-01   9.9908E-04  0.0134
   4.6821E-01   4.7960E-01   9.9203E-04  0.0133
   4.7960E-01   4.9127E-01   9.6495E-04  0.0133
   4.9127E-01   5.0322E-01   9.6562E-04  0.0132
   5.0322E-01   5.1546E-01   9.5788E-04  0.0131
   5.1546E-01   5.2800E-01   9.7196E-04  0.0128
   5.2800E-01   5.4085E-01   9.6211E-04  0.0127
   5.4085E-01   5.5401E-01   9.5795E-04  0.0126
   5.5401E-01   5.6749E-01   9.5701E-04  0.0125
   5.6749E-01   5.8130E-01   9.2334E-04  0.0125
   5.8130E-01   5.9544E-01   9.0289E-04  0.0125
   5.9544E-01   6.0993E-01   9.0119E-04  0.0124
   6.0993E-01   6.2477E-01   9.0768E-04  0.0122
   6.2477E-01   6.3997E-01   8.8770E-04  0.0122
   6.3997E-01   6.5554E-01   8.9256E-04  0.0120
   6.5554E-01   6.7149E-01   8.8214E-04  0.0119
   6.7149E-01   6.8783E-01   8.5782E-04  0.0119
   6.8783E-01   7.0456E-01   8.4928E-04  0.0119
   7.0456E-01   7.2171E-01   8.3500E-04  0.0118
   7.2171E-01   7.3927E-01   8.2302E-04  0.0118
   7.3927E-01   7.5725E-01   7.8518E-04  0.0119
   7.5725E-01   7.7568E-01   7.7527E-04  0.0118
   7.7568E-01   7.9455E-01   7.7884E-04  0.0117
   7.9455E-01   8.1388E-01   7.5264E-04  0.0117
   8.1388E-01   8.3368E-01   7.3597E-04  0.0117
   8.3368E-01   8.5397E-01   7.2076E-04  0.0117
   8.5397E-01   8.7475E-01   6.8737E-04  0.0118
   8.7475E-01   8.9603E-01   6.6977E-04  0.0118
   8.9603E-01   9.1783E-01   6.4354E-04  0.0119
   9.1783E-01   9.4016E-01   6.2683E-04  0.0120
   9.4016E-01   9.6304E-01   5.9506E-04  0.0121
   9.6304E-01   9.8647E-01   5.7290E-04  0.0122
   9.8647E-01   1.0105E+00   5.5725E-04  0.0122
   1.0105E+00   1.0351E+00   5.5390E-04  0.0121
   1.0351E+00   1.0602E+00   5.4511E-04  0.0121
   1.0602E+00   1.0860E+00   5.6178E-04  0.0117
   1.0860E+00   1.1125E+00   5.5593E-04  0.0117
   1.1125E+00   1.1395E+00   5.6681E-04  0.0114
   1.1395E+00   1.1673E+00   5.7012E-04  0.0112
   1.1673E+00   1.1957E+00   5.9345E-04  0.0109
   1.1957E+00   1.2247E+00   6.0468E-04  0.0107
   1.2247E+00   1.2545E+00   6.0281E-04  0.0106
   1.2545E+00   1.2851E+00   6.0516E-04  0.0104
   1.2851E+00   1.3163E+00   6.0467E-04  0.0103
   1.3163E+00   1.3484E+00   6.1491E-04  0.0101
   1.3484E+00   1.3812E+00   6.1698E-04  0.0099
   1.3812E+00   1.4148E+00   6.4023E-04  0.0096
   1.4148E+00   1.4492E+00   6.3711E-04  0.0096
   1.4492E+00   1.4845E+00   6.2246E-04  0.0095
   1.4845E+00   1.5206E+00   6.2974E-04  0.0094
   1.5206E+00   1.5576E+00   6.2173E-04  0.0093
   1.5576E+00   1.5955E+00   6.2707E-04  0.0092
   1.5955E+00   1.6343E+00   6.2938E-04  0.0090
   1.6343E+00   1.6741E+00   6.2824E-04  0.0089
   1.6741E+00   1.7148E+00   6.5798E-04  0.0086
   1.7148E+00   1.7565E+00   6.3468E-04  0.0087
   1.7565E+00   1.7992E+00   6.3916E-04  0.0086
   1.7992E+00   1.8430E+00   6.1681E-04  0.0086
   1.8430E+00   1.8879E+00   6.2245E-04  0.0085
   1.8879E+00   1.9338E+00   6.1707E-04  0.0084
   1.9338E+00   1.9808E+00   6.3400E-04  0.0082
   1.9808E+00   2.0290E+00   6.3327E-04  0.0081
   2.0290E+00   2.0784E+00   6.1684E-04  0.0081
   2.0784E+00   2.1290E+00   6.1452E-04  0.0080
   2.1290E+00   2.1808E+00   6.1064E-04  0.0080
   2.1808E+00   2.2338E+00   6.0499E-04  0.0079
   2.2338E+00   2.2882E+00   5.9852E-04  0.0078
   2.2882E+00   2.3439E+00   5.9386E-04  0.0078
   2.3439E+00   2.4009E+00   5.9993E-04  0.0076
   2.4009E+00   2.4593E+00   5.9731E-04  0.0076
   2.4593E+00   2.5191E+00   5.8608E-04  0.0076
   2.5191E+00   2.5804E+00   5.7945E-04  0.0075
   2.5804E+00   2.6432E+00   5.7978E-04  0.0074
   2.6432E+00   2.7075E+00   5.6660E-04  0.0074
   2.7075E+00   2.7734E+00   5.5323E-04  0.0074
   2.7734E+00   2.8409E+00   5.5136E-04  0.0073
   2.8409E+00   2.9100E+00   5.4869E-04  0.0073
   2.9100E+00   2.9808E+00   5.4416E-04  0.0072
   2.9808E+00   3.0533E+00   5.3198E-04  0.0072
   3.0533E+00   3.1276E+00   5.2563E-04  0.0072
   3.1276E+00   3.2037E+00   5.1095E-04  0.0072
   3.2037E+00   3.2817E+00   4.9979E-04  0.0072
   3.2817E+00   3.3615E+00   4.9048E-04  0.0071
   3.3615E+00   3.4433E+00   4.7745E-04  0.0072
   3.4433E+00   3.5271E+00   4.6925E-04  0.0071
   3.5271E+00   3.6129E+00   4.6524E-04  0.0071
   3.6129E+00   3.7008E+00   4.4992E-04  0.0071
   3.7008E+00   3.7908E+00   4.3546E-04  0.0071
   3.7908E+00   3.8831E+00   4.2692E-04  0.0071
   3.8831E+00   3.9776E+00   4.1807E-04  0.0071
   3.9776E+00   4.0743E+00   4.0945E-04  0.0071
   4.0743E+00   4.1735E+00   3.9436E-04  0.0072
   4.1735E+00   4.2750E+00   3.7746E-04  0.0072
   4.2750E+00   4.3790E+00   3.6887E-04  0.0072
   4.3790E+00   4.4856E+00   3.5345E-04  0.0073
   4.4856E+00   4.5947E+00   3.3746E-04  0.0074
   4.5947E+00   4.7065E+00   3.2890E-04  0.0074
   4.7065E+00   4.8210E+00   3.1602E-04  0.0074
   4.8210E+00   4.9383E+00   3.0174E-04  0.0075
   4.9383E+00   5.0585E+00   2.9412E-04  0.0075
   5.0585E+00   5.1815E+00   2.8302E-04  0.0076
   5.1815E+00   5.3076E+00   2.6663E-04  0.0077
   5.3076E+00   5.4368E+00   2.5882E-04  0.0077
   5.4368E+00   5.5690E+00   2.4988E-04  0.0078
   5.5690E+00   5.7045E+00   2.3459E-04  0.0079
   5.7045E+00   5.8433E+00   2.2196E-04  0.0081
   5.8433E+00   5.9855E+00   2.1273E-04  0.0081
   5.9855E+00   6.1311E+00   2.0226E-04  0.0082
   6.1311E+00   6.2803E+00   1.9303E-04  0.0083
   6.2803E+00   6.4331E+00   1.8249E-04  0.0085
   6.4331E+00   6.5896E+00   1.7312E-04  0.0086
   6.5896E+00   6.7500E+00   1.6327E-04  0.0087
   6.7500E+00   6.9142E+00   1.5312E-04  0.0089
   6.9142E+00   7.0824E+00   1.4336E-04  0.0091
   7.0824E+00   7.2548E+00   1.3814E-04  0.0092
   7.2548E+00   7.4313E+00   1.2894E-04  0.0094
   7.4313E+00   7.6121E+00   1.2093E-04  0.0096
   7.6121E+00   7.7973E+00   1.1385E-04  0.0097
   7.7973E+00   7.9870E+00   1.0697E-04  0.0099
   7.9870E+00   8.1813E+00   1.0034E-04  0.0101
   8.1813E+00   8.3804E+00   9.6293E-05  0.0102
   8.3804E+00   8.5843E+00   8.9391E-05  0.0105
   8.5843E+00   8.7931E+00   8.4132E-05  0.0107
   8.7931E+00   9.0071E+00   8.0470E-05  0.0108
   9.0071E+00   9.2262E+00   7.4853E-05  0.0110
   9.2262E+00   9.4507E+00   7.0269E-05  0.0113
   9.4507E+00   9.6807E+00   6.6434E-05  0.0114
   9.6807E+00   9.9162E+00   6.1608E-05  0.0117
   9.9162E+00   1.0157E+01   5.7442E-05  0.0120
   1.0157E+01   1.0405E+01   5.4297E-05  0.0122
   1.0405E+01   1.0658E+01   5.1732E-05  0.0124
   1.0658E+01   1.0917E+01   4.8154E-05  0.0126
   1.0917E+01   1.1183E+01   4.6973E-05  0.0127
   1.1183E+01   1.1455E+01   4.3049E-05  0.0131
   1.1455E+01   1.1733E+01   4.1442E-05  0.0132
   1.1733E+01   1.2019E+01   3.8902E-05  0.0134
   1.2019E+01   1.2311E+01   3.6904E-05  0.0136
   1.2311E+01   1.2611E+01   3.4552E-05  0.0139
   1.2611E+01   1.2918E+01   3.2242E-05  0.0142
   1.2918E+01   1.3232E+01   3.0646E-05  0.0144
   1.3232E+01   1.3554E+01   2.9775E-05  0.0144
   1.3554E+01   1.3884E+01   2.7491E-05  0.0149
   1.3884E+01   1.4222E+01   2.6347E-05  0.0150
   1.4222E+01   1.4568E+01   2.4429E-05  0.0154
   1.4568E+01   1.4922E+01   2.3347E-05  0.0155
   1.4922E+01   1.5285E+01   2.1699E-05  0.0159
   1.5285E+01   1.5657E+01   2.1156E-05  0.0159
   1.5657E+01   1.6038E+01   2.0024E-05  0.0162
   1.6038E+01   1.6428E+01   1.8928E-05  0.0165
   1.6428E+01   1.6828E+01   1.7763E-05  0.0168
   1.6828E+01   1.7237E+01   1.6437E-05  0.0172
   1.7237E+01   1.7657E+01   1.6221E-05  0.0171
   1.7657E+01   1.8086E+01   1.5368E-05  0.0174
   1.8086E+01   1.8526E+01   1.4339E-05  0.0178
   1.8526E+01   1.8977E+01   1.3568E-05  0.0181
   1.8977E+01   1.9439E+01   1.2652E-05  0.0185
   1.9439E+01   1.9912E+01   1.2233E-05  0.0186
   1.9912E+01   2.0396E+01   1.0985E-05  0.0194
   2.0396E+01   2.0893E+01   1.0204E-05  0.0199
   2.0893E+01   2.1401E+01   9.3757E-06  0.0205
   2.1401E+01   2.1922E+01   9.0340E-06  0.0206
   2.1922E+01   2.2455E+01   8.7219E-06  0.0207
   2.2455E+01   2.3001E+01   8.2804E-06  0.0210
   2.3001E+01   2.3561E+01   7.8729E-06  0.0213
   2.3561E+01   2.4134E+01   7.0788E-06  0.0222
   2.4134E+01   2.4721E+01   6.7506E-06  0.0225
   2.4721E+01   2.5323E+01   5.9884E-06  0.0236
   2.5323E+01   2.5939E+01   5.7618E-06  0.0237
   2.5939E+01   2.6570E+01   5.6281E-06  0.0237
   2.6570E+01   2.7217E+01   4.9561E-06  0.0250
   2.7217E+01   2.7879E+01   4.4729E-06  0.0260
   2.7879E+01   2.8557E+01   4.0954E-06  0.0268
   2.8557E+01   2.9252E+01   3.7794E-06  0.0276
   2.9252E+01   2.9964E+01   3.6194E-06  0.0279
   2.9964E+01   3.0693E+01   3.0945E-06  0.0298
   3.0693E+01   3.1440E+01   2.9674E-06  0.0300
   3.1440E+01   3.2205E+01   2.8054E-06  0.0305
   3.2205E+01   3.2988E+01   2.3610E-06  0.0329
   3.2988E+01   3.3791E+01   2.0184E-06  0.0351
   3.3791E+01   3.4613E+01   2.1237E-06  0.0338
   3.4613E+01   3.5455E+01   1.7621E-06  0.0367
   3.5455E+01   3.6318E+01   1.4490E-06  0.0400
   3.6318E+01   3.7201E+01   1.3852E-06  0.0404
   3.7201E+01   3.8106E+01   1.3368E-06  0.0407
   3.8106E+01   3.9034E+01   1.1066E-06  0.0442
   3.9034E+01   3.9983E+01   8.9079E-07  0.0486
   3.9983E+01   4.0956E+01   8.4907E-07  0.0492
   4.0956E+01   4.1953E+01   7.7070E-07  0.0510
   4.1953E+01   4.2973E+01   6.7206E-07  0.0540
   4.2973E+01   4.4019E+01   5.9489E-07  0.0567
   4.4019E+01   4.5090E+01   5.1727E-07  0.0601
   4.5090E+01   4.6187E+01   4.3570E-07  0.0647
   4.6187E+01   4.7311E+01   4.0044E-07  0.0667
   4.7311E+01   4.8462E+01   3.3880E-07  0.0716
   4.8462E+01   4.9641E+01   2.6969E-07  0.0793
   4.9641E+01   5.0849E+01   2.3183E-07  0.0845
   5.0849E+01   5.2086E+01   2.0854E-07  0.0880
   5.2086E+01   5.3353E+01   1.5939E-07  0.0995
   5.3353E+01   5.4651E+01   1.2788E-07  0.1098
   5.4651E+01   5.5981E+01   1.2333E-07  0.1104
   5.5981E+01   5.7343E+01   1.1894E-07  0.1111
   5.7343E+01   5.8738E+01   9.3176E-08  0.1240
   5.8738E+01   6.0168E+01   7.6969E-08  0.1348
   6.0168E+01   6.1632E+01   6.2845E-08  0.1474
   6.1632E+01   6.3131E+01   4.6681E-08  0.1690
   6.3131E+01   6.4667E+01   3.6458E-08  0.1890
   6.4667E+01   6.6240E+01   3.0507E-08  0.2041
   6.6240E+01   6.7852E+01   1.8614E-08  0.2582
   6.7852E+01   6.9503E+01   1.2115E-08  0.3162
   6.9503E+01   7.1194E+01   5.9134E-09  0.4472
   7.1194E+01   7.2926E+01   2.3092E-09  0.7071
   7.2926E+01   7.4701E+01   0.0000E+00  0.0000
   7.4701E+01   7.6518E+01   0.0000E+00  0.0000
   7.6518E+01   7.8380E+01   0.0000E+00  0.0000
   7.8380E+01   8.0287E+01   0.0000E+00  0.0000
   8.0287E+01   8.2240E+01   0.0000E+00  0.0000
   8.2240E+01   8.4241E+01   0.0000E+00  0.0000
   8.4241E+01   8.6291E+01   0.0000E+00  0.0000
   8.6291E+01   8.8391E+01   0.0000E+00  0.0000
   8.8391E+01   9.0541E+01   0.0000E+00  0.0000
   9.0541E+01   9.2744E+01   0.0000E+00  0.0000
   9.2744E+01   9.5001E+01   0.0000E+00  0.0000
   9.5001E+01   9.7312E+01   0.0000E+00  0.0000
   9.7312E+01   9.9680E+01   0.0000E+00  0.0000
   9.9680E+01   1.0211E+02   0.0000E+00  0.0000
   1.0211E+02   1.0459E+02   0.0000E+00  0.0000
   1.0459E+02   1.0713E+02   0.0000E+00  0.0000
   1.0713E+02   1.0974E+02   0.0000E+00  0.0000
   1.0974E+02   1.1241E+02   0.0000E+00  0.0000
   1.1241E+02   1.1515E+02   0.0000E+00  0.0000
   1.1515E+02   1.1795E+02   0.0000E+00  0.0000
   1.1795E+02   1.2082E+02   0.0000E+00  0.0000
   1.2082E+02   1.2376E+02   0.0000E+00  0.0000
   1.2376E+02   1.2677E+02   0.0000E+00  0.0000
   1.2677E+02   1.2985E+02   0.0000E+00  0.0000
   1.2985E+02   1.3301E+02   0.0000E+00  0.0000
   1.3301E+02   1.3625E+02   0.0000E+00  0.0000
   1.3625E+02   1.3956E+02   0.0000E+00  0.0000
   1.3956E+02   1.4296E+02   0.0000E+00  0.0000
   1.4296E+02   1.4644E+02   0.0000E+00  0.0000
   1.4644E+02   1.5000E+02   0.0000E+00  0.0000

#   sum over                 2.6147E-05
'no. =    1   reg = 115 - 215'
msuc: {\huge [t-cross] in region mesh}
msdr: {\it plotted by \ANGEL \version}
msdl: {\it calculated by \PHITS  3.26}
wt: s(0.7)
\vspace{-3}
  region surface crossing
  area  &=&   1.0000E+00 [cm^2]
e:
 
# Information for Restart Calculation
# This calculation was newly started
# istdev =  2 # 1:Batch variance, 2:History variance
# resc2  = 5.00000000000000000E+08 # Total source weight or Total source weight / maxcas
# resc3  = 5.00000000000000000E+08 # Total history number or Total batch number
# maxcas =   500000000 # History / Batch, only used for istdev=1
# bitrseed = 1101101111010011011000101101110001100110110010110001010100010001 # bit data of rseed
